{
    "@class": "com.kony.gen.viz.model.component.KVizButton",
    "DNDConfig": null,
    "__parentReadjusting__": false,
    "_height_": {
        "type": "string",
        "value": "22dp"
    },
    "_margin_": [
        6,
        6,
        6,
        6
    ],
    "_padding_": [
        0,
        0,
        0,
        0
    ],
    "_right_": {
        "type": "string",
        "value": "25dp"
    },
    "_skin_": "s2afb441e94e423899e847209a051d31",
    "_text_": "Add New",
    "_top_": {
        "type": "string",
        "value": "22dp"
    },
    "_width_": {
        "type": "string",
        "value": "100dp"
    },
    "canUpdateUI": true,
    "containerweight": 100,
    "contentalignment": 5,
    "disabledSkins": {
        "focusSkin": "s152a8ebff2840e2b2942e5ec1abbdb5"
    },
    "displaytext": true,
    "id": "btnAddNew",
    "info": null,
    "iscustomlayout": false,
    "isvisible": true,
    "kuid": "j759df3d63ea4f55926f2469141669d0",
    "name": "kony.ui.Button",
    "parent": "flxAddNewButton",
    "pf": "frmPolicies",
    "retaincontentalignment": false,
    "retainflexpositionproperties": false,
    "texti18n": "i18n.policies.addnew",
    "wType": "Button",
    "zindex": 1
}