{
    "@class": "com.kony.gen.viz.model.component.KVizUserWidget",
    "DNDConfig": null,
    "__parentReadjusting__": false,
    "_android_": {},
    "_androidwearos_": {},
    "_children_": [],
    "_desktopweb_": {},
    "_height_": {
        "type": "ref",
        "value": "preferred"
    },
    "_ipad_": {},
    "_iphone_": {},
    "_kiosk_": {},
    "_left_": {
        "type": "string",
        "value": "0dp"
    },
    "_margin_": [
        0,
        0,
        0,
        0
    ],
    "_orientation_": 1,
    "_padding_": [
        0,
        0,
        0,
        0
    ],
    "_percent_": true,
    "_responsiveData_": {},
    "_skin_": "s8ff24328417401b877c3ceb2a5fa27c",
    "_spa_": {},
    "_spaan_": {},
    "_spaandroidtablet_": {},
    "_spabb_": {},
    "_spaip_": {},
    "_spaipad_": {},
    "_spamobile_": {},
    "_spatablet_": {},
    "_spawindowstablet_": {},
    "_spawinphone8_": {},
    "_tabrcandroid_": {},
    "_top_": {
        "type": "string",
        "value": "14dp"
    },
    "_vizProps_": {
        "hidewidgethierarchy": false
    },
    "_width_": {
        "type": "string",
        "value": "181dp"
    },
    "_windows10_": {},
    "_windows8_": {},
    "_winphone10_": {},
    "_winphone8_": {},
    "areflexpropsreferenced": false,
    "autogrowmode": 1,
    "canUpdateUI": true,
    "clipbounds": true,
    "containerweight": 0,
    "dataDiffs": {
        "CharactersplusMinus": {
            "__events__": {},
            "__info__": {
                "isRoot": true,
                "kuid": "f704632ea5a6484e8e986f4f4429abe0",
                "srcKUID": "g429b81af5bd4419a7829e969da85faa",
                "wType": "FlexContainer"
            },
            "top": {
                "Default": {
                    "type": "string",
                    "value": "14dp"
                }
            }
        },
        "flxMinus": {
            "__events__": {},
            "__info__": {
                "kuid": "h33e999f41ff4adcafa78f1bae2b5335",
                "srcKUID": "b8c7089faa35480bbfcd88f6717bf75f",
                "wType": "FlexContainer"
            },
            "bottom": {
                "Default": {
                    "type": "string",
                    "value": "2dp"
                }
            },
            "right": {
                "Default": {
                    "type": "string",
                    "value": "2dp"
                }
            },
            "top": {
                "Default": {
                    "type": "string",
                    "value": "2dp"
                }
            },
            "width": {
                "Default": {
                    "type": "string",
                    "value": "51dp"
                }
            }
        },
        "flxMinusDisable": {
            "__events__": {},
            "__info__": {
                "kuid": "e8b03ee5d744482f978af8b37481537d",
                "srcKUID": "bebe2684c1744ca9950d1daf3a87374a",
                "wType": "FlexContainer"
            }
        },
        "flxPlus": {
            "__events__": {},
            "__info__": {
                "kuid": "a574bb56dbb1415a89e0396bfde55ab3",
                "srcKUID": "c67e6598929546bea9370a435ee1f20a",
                "wType": "FlexContainer"
            },
            "bottom": {
                "Default": {
                    "type": "string",
                    "value": "2dp"
                }
            },
            "left": {
                "Default": {
                    "type": "string",
                    "value": "2dp"
                }
            },
            "top": {
                "Default": {
                    "type": "string",
                    "value": "2dp"
                }
            },
            "width": {
                "Default": {
                    "type": "string",
                    "value": "51dp"
                }
            }
        },
        "flxPlusDisable": {
            "__events__": {},
            "__info__": {
                "kuid": "h8fbb28121334b51ba0867c94e5c7f59",
                "srcKUID": "b403c71fb79d422987c65e4f603ec213",
                "wType": "FlexContainer"
            }
        },
        "flxSeperator1": {
            "__events__": {},
            "__info__": {
                "kuid": "g2760520fec04f4388218fac079aa4e4",
                "srcKUID": "b4eb9e4f29c2409cad33f4a7b3ac5cc6",
                "wType": "FlexContainer"
            }
        },
        "flxSeperator2": {
            "__events__": {},
            "__info__": {
                "kuid": "j40dda751b7c41c0b1114312cfdacfe4",
                "srcKUID": "af255dfccdf345a2aff2fdac01fd02e3",
                "wType": "FlexContainer"
            }
        },
        "lblMinus": {
            "__events__": {},
            "__info__": {
                "kuid": "e54514c81b7d41a1be49b5b459b2e37d",
                "srcKUID": "d70524255c1f41d8b13ef62de3b64b46",
                "wType": "Label"
            }
        },
        "lblMinusDisable": {
            "__events__": {},
            "__info__": {
                "kuid": "a3e5b685af354955ac9ce20a5cf8262c",
                "srcKUID": "e2c29255fb4d42b1878d7a66ce0337dd",
                "wType": "Label"
            }
        },
        "lblPlus": {
            "__events__": {},
            "__info__": {
                "kuid": "ab09876864254e0cb25a41f23305957c",
                "srcKUID": "c341cd8bed594aa490ab17c621ddc58a",
                "wType": "Label"
            }
        },
        "lblPlusDisable": {
            "__events__": {},
            "__info__": {
                "kuid": "ed4f943ca9e045b2b3d875ef9e2c8c5f",
                "srcKUID": "aebd58973700457d9edd4affca90a36c",
                "wType": "Label"
            }
        },
        "tbxcharcterSize": {
            "__events__": {},
            "__info__": {
                "kuid": "a7816375966b4c8b8b6a18ddf02d8d25",
                "srcKUID": "fcc5819c135a4bdb8a2a034c8e34bdfe",
                "wType": "TextField"
            },
            "text": "8"
        }
    },
    "enablescrolling": true,
    "id": "MinCharacters",
    "info": null,
    "iscustomlayout": false,
    "isdatareferenced": false,
    "issegmentchild": false,
    "isvisible": true,
    "kuid": "f704632ea5a6484e8e986f4f4429abe0",
    "layouttype": 2,
    "masterType": 0,
    "name": "kony.ui.UserWidgetInstance",
    "parent": "flxMinCharacters",
    "pf": "frmPolicies",
    "retaincontentalignment": false,
    "retainflexpositionproperties": false,
    "snapgridsize": 10,
    "snaptogrid": true,
    "sourceUserWidget": "g429b81af5bd4419a7829e969da85faa",
    "wType": "UserWidgetInstance"
}