{
    "DNDConfig": null,
    "__parentReadjusting__": false,
    "_height_": {
        "type": "ref",
        "value": "preferred"
    },
    "_left_": {
        "type": "string",
        "value": "35px"
    },
    "_margin_": [
        0,
        0,
        0,
        0
    ],
    "_orientation_": 6,
    "_padding_": [
        0,
        0,
        0,
        0
    ],
    "_percent_": true,
    "_right_": {
        "type": "string",
        "value": "35px"
    },
    "_skin_": "s89d9f5cebff45219abf70b3ec055a0c",
    "_top_": {
        "type": "string",
        "value": "0px"
    },
    "allboxes": [],
    "autogrowmode": 1,
    "canUpdateUI": true,
    "children": [
        "flxTemplateAddInner"
    ],
    "clipbounds": true,
    "containerweight": 100,
    "enablescrolling": true,
    "id": "flxCreateTempplate",
    "info": null,
    "iscustomlayout": false,
    "isvisible": true,
    "kuid": "a534179a2a5b4841a34d72e34ed34385",
    "layouttype": 2,
    "name": "kony.ui.FlexContainer",
    "parent": "flxAddTemplates",
    "pf": "frmAdManagement",
    "retaincontentalignment": false,
    "retainflexpositionproperties": false,
    "snapgridsize": 10,
    "snaptogrid": true,
    "wType": "FlexContainer",
    "widgetalignment": 1,
    "zindex": 1
}