{
    "DNDConfig": null,
    "__parentReadjusting__": false,
    "_height_": {
        "type": "string",
        "value": "20px"
    },
    "_margin_": [
        0,
        0,
        0,
        0
    ],
    "_orientation_": 6,
    "_padding_": [
        0,
        0,
        0,
        0
    ],
    "_percent_": true,
    "_right_": {
        "type": "string",
        "value": "20px"
    },
    "_skin_": "s92647bd71cf4b738c91a3dbae621a2a",
    "_top_": {
        "type": "string",
        "value": "10px"
    },
    "_width_": {
        "type": "string",
        "value": "20px"
    },
    "allboxes": [],
    "autogrowmode": 0,
    "canUpdateUI": true,
    "children": [
        "lblClose"
    ],
    "clipbounds": true,
    "containerweight": 100,
    "enablescrolling": true,
    "id": "flxClose",
    "info": null,
    "iscustomlayout": false,
    "isvisible": true,
    "kuid": "g0815e4353b040fd9d22502f49779072",
    "layouttype": 2,
    "name": "kony.ui.FlexContainer",
    "parent": "flxChannelInfo",
    "pf": "frmAdManagement",
    "retaincontentalignment": false,
    "retainflexpositionproperties": false,
    "retainflowhorizontalalignment": false,
    "snapgridsize": 10,
    "snaptogrid": true,
    "wType": "FlexContainer",
    "widgetalignment": 1,
    "zindex": 1
}