{
    "DNDConfig": null,
    "__parentReadjusting__": false,
    "_bottom_": {
        "type": "string",
        "value": "0dp"
    },
    "_left_": {
        "type": "string",
        "value": "35dp"
    },
    "_margin_": [
        0,
        0,
        0,
        0
    ],
    "_orientation_": 6,
    "_padding_": [
        0,
        0,
        0,
        0
    ],
    "_percent_": true,
    "_right_": {
        "type": "string",
        "value": "35dp"
    },
    "_skin_": "s729a60017964d77b80dca3200668eff",
    "_top_": {
        "type": "string",
        "value": "63dp"
    },
    "allboxes": [],
    "autogrowmode": 0,
    "canUpdateUI": true,
    "children": [
        "flxCampaignsInfo",
        "flxCampaignsHeader",
        "flxSegCampaigns",
        "flxNoResultFound",
        "flxCampaignStatusFilter"
    ],
    "clipbounds": true,
    "containerweight": 100,
    "enablescrolling": true,
    "id": "flxListingMainContainer",
    "info": null,
    "iscustomlayout": false,
    "isvisible": true,
    "kuid": "i950bf557bb14291a3af721737e9fc92",
    "layouttype": 2,
    "name": "kony.ui.FlexContainer",
    "parent": "flxListing",
    "pf": "frmAdManagement",
    "retaincontentalignment": false,
    "retainflexpositionproperties": false,
    "retainflowhorizontalalignment": false,
    "snapgridsize": 10,
    "snaptogrid": true,
    "wType": "FlexContainer",
    "widgetalignment": 1,
    "zindex": 100
}