{
    "DNDConfig": null,
    "__parentReadjusting__": false,
    "_height_": {
        "type": "string",
        "value": "80%"
    },
    "_left_": {
        "type": "string",
        "value": "0px"
    },
    "_margin_": [
        0,
        0,
        0,
        0
    ],
    "_orientation_": 6,
    "_padding_": [
        0,
        0,
        0,
        0
    ],
    "_percent_": true,
    "_right_": {
        "type": "string",
        "value": "0px"
    },
    "_skin_": "s8ff24328417401b877c3ceb2a5fa27c",
    "_top_": {
        "type": "string",
        "value": "125px"
    },
    "allboxes": [],
    "canUpdateUI": true,
    "children": [
        "flxNoTemplate",
        "flxTemplateView",
        "flxAddTemplates",
        "flxTemplatesDetails"
    ],
    "clipbounds": true,
    "containerweight": 100,
    "enablescrolling": true,
    "id": "flxTemplates",
    "info": null,
    "iscustomlayout": false,
    "isvisible": true,
    "kuid": "da5834d8719145329785b5b31a283dde",
    "layouttype": 2,
    "name": "kony.ui.FlexContainer",
    "parent": "flxRightPannel",
    "pf": "frmAdManagement",
    "retaincontentalignment": false,
    "retainflexpositionproperties": false,
    "snapgridsize": 10,
    "snaptogrid": true,
    "vizProps": {},
    "wType": "FlexContainer",
    "widgetalignment": 1,
    "zindex": 1
}