{
    "DNDConfig": null,
    "__parentReadjusting__": false,
    "_height_": {
        "type": "ref",
        "value": "preferred"
    },
    "_left_": {
        "type": "string",
        "value": "20px"
    },
    "_margin_": [
        0,
        0,
        0,
        0
    ],
    "_orientation_": 6,
    "_padding_": [
        0,
        0,
        0,
        0
    ],
    "_percent_": true,
    "_right_": {
        "type": "string",
        "value": "12px"
    },
    "_skin_": "s49501905d224f91aaf2c776220dcc2a",
    "_top_": {
        "type": "string",
        "value": "20px"
    },
    "allboxes": [],
    "autogrowmode": 1,
    "canUpdateUI": true,
    "children": [
        "lblWebAppTab",
        "flxAccDashboardWebAppParent",
        "flxApplyForNewAccDashWebAppParent"
    ],
    "clipbounds": true,
    "containerweight": 100,
    "enablescrolling": true,
    "id": "flxWebApp",
    "info": null,
    "iscustomlayout": false,
    "isvisible": true,
    "kuid": "c69b7ed1bc0d48c1b61f27455a663492",
    "layouttype": 4,
    "name": "kony.ui.FlexContainer",
    "parent": "flxWebAppChannelFreeForm",
    "pf": "frmAdManagement",
    "retaincontentalignment": false,
    "retainflexpositionproperties": false,
    "retainflowhorizontalalignment": false,
    "snapgridsize": 10,
    "snaptogrid": true,
    "wType": "FlexContainer",
    "widgetalignment": 1,
    "zindex": 1
}