{
    "@class": "com.kony.gen.viz.model.component.KVizLabel",
    "DNDConfig": null,
    "__parentReadjusting__": false,
    "_height_": {
        "type": "string",
        "value": "15px"
    },
    "_margin_": [
        1,
        1,
        1,
        1
    ],
    "_padding_": [
        0,
        0,
        0,
        0
    ],
    "_right_": {
        "type": "string",
        "value": "0px"
    },
    "_skin_": "s93ec6c09fe846b39947f9da8e8e5dea",
    "_text_": "0/500",
    "_width_": {
        "type": "string",
        "value": "70px"
    },
    "_wrapping_": 2,
    "android": {
        "textStyle": {
            "letterSpacing": 0,
            "strikeThrough": false
        }
    },
    "canUpdateUI": true,
    "centery": {
        "type": "string",
        "value": "50%"
    },
    "containerweight": 100,
    "contentalignment": 6,
    "id": "lblCharCount2",
    "info": null,
    "ipad": {
        "psp": {
            "wrapping": 2
        }
    },
    "iphone": {
        "psp": {
            "wrapping": 2
        }
    },
    "isvisible": true,
    "kuid": "eba9b3c9e9c54317a4459d39c72a6054",
    "name": "kony.ui.Label",
    "parent": "flxNotes",
    "pf": "frmAdManagement",
    "texti18n": "i18n.frmCSR.lblCharCount2",
    "tooltip": "",
    "wType": "Label",
    "zindex": 1
}