{
    "@class": "com.kony.gen.viz.model.component.KVizLabel",
    "DNDConfig": null,
    "__parentReadjusting__": false,
    "_height_": {
        "type": "string",
        "value": "13px"
    },
    "_left_": {
        "type": "string",
        "value": "78px"
    },
    "_margin_": [
        1,
        1,
        1,
        1
    ],
    "_padding_": [
        0,
        0,
        0,
        0
    ],
    "_skin_": "s2ebda93be0741889225052999c3fc51",
    "_text_": "",
    "_top_": {
        "type": "string",
        "value": "0px"
    },
    "_width_": {
        "type": "string",
        "value": "13px"
    },
    "_wrapping_": 2,
    "android": {
        "textStyle": {
            "letterSpacing": 0,
            "strikeThrough": false
        }
    },
    "canUpdateUI": true,
    "containerweight": 100,
    "contentalignment": 4,
    "desktopweb": {
        "psp": {
            "hoverSkin": "s627b7bea1d84dddb5182c3820378b56"
        }
    },
    "disabledSkins": {},
    "id": "lblIconDownArrow",
    "info": null,
    "ipad": {
        "psp": {
            "wrapping": 2
        }
    },
    "iphone": {
        "psp": {
            "wrapping": 2
        }
    },
    "iscustomlayout": false,
    "isvisible": false,
    "kuid": "a09e05d9ae6a40fea8ee48aa1379929b",
    "name": "kony.ui.Label",
    "parent": "flxDescriptionTag",
    "pf": "frmAdManagement",
    "retaincontentalignment": false,
    "retainflexpositionproperties": false,
    "texti18n": "i18n.userwidgetmodel.fontIconBreadcrumbsDown",
    "tooltip": "",
    "wType": "Label",
    "zindex": 1
}