{
    "@class": "com.kony.gen.viz.model.component.KVizUserWidget",
    "DNDConfig": null,
    "__parentReadjusting__": false,
    "_android_": {},
    "_androidwearos_": {},
    "_children_": [],
    "_desktopweb_": {},
    "_height_": {
        "type": "string",
        "value": "84px"
    },
    "_ipad_": {},
    "_iphone_": {},
    "_kiosk_": {},
    "_left_": {
        "type": "string",
        "value": "0px"
    },
    "_margin_": [
        0,
        0,
        0,
        0
    ],
    "_orientation_": 1,
    "_padding_": [
        0,
        0,
        0,
        0
    ],
    "_percent_": true,
    "_responsiveData_": {},
    "_skin_": "s8ff24328417401b877c3ceb2a5fa27c",
    "_spa_": {},
    "_spaan_": {},
    "_spaandroidtablet_": {},
    "_spabb_": {},
    "_spaip_": {},
    "_spaipad_": {},
    "_spamobile_": {},
    "_spatablet_": {},
    "_spawindowstablet_": {},
    "_spawinphone8_": {},
    "_tabrcandroid_": {},
    "_top_": {
        "type": "string",
        "value": "0px"
    },
    "_vizProps_": {
        "hidewidgethierarchy": false
    },
    "_width_": {
        "type": "string",
        "value": "100%"
    },
    "_windows10_": {},
    "_windows8_": {},
    "_winphone10_": {},
    "_winphone8_": {},
    "areflexpropsreferenced": false,
    "autogrowmode": 0,
    "canUpdateUI": true,
    "clipbounds": true,
    "containerweight": 0,
    "dataDiffs": {
        "channelScreen": {
            "__events__": {},
            "__info__": {
                "isRoot": true,
                "kuid": "jcff10a195c64ad8a506491bd948a76c",
                "srcKUID": "e40a59ba3dd24864853e695d72e623f5",
                "wType": "FlexContainer"
            },
            "autogrowMode": {
                "Default": 0
            },
            "height": {
                "Default": {
                    "type": "string",
                    "value": "84px"
                }
            },
            "left": {
                "Default": {
                    "type": "string",
                    "value": "0px"
                }
            },
            "top": {
                "Default": {
                    "type": "string",
                    "value": "0px"
                }
            }
        },
        "flxScreenNameText": {
            "__events__": {},
            "__info__": {
                "kuid": "ha33246b4568460c9f9b92458439d297",
                "srcKUID": "e9d685816b7a428993158f6add9f3e13",
                "wType": "FlexContainer"
            }
        },
        "flxSeparator1Screen": {
            "__events__": {},
            "__info__": {
                "kuid": "b36e914e54bc45418e4ebb92f95697aa",
                "srcKUID": "h00e625d5ff0434c8e566c754976a490",
                "wType": "FlexContainer"
            }
        },
        "flxSeparator2Screen": {
            "__events__": {},
            "__info__": {
                "kuid": "b6c820a290904c28872ec49be7efc7d4",
                "srcKUID": "eeb8120720704cdeac9a30ebc3d096cb",
                "wType": "FlexContainer"
            }
        },
        "flxULRLabels": {
            "__events__": {},
            "__info__": {
                "kuid": "ddbaf5def5464a578310eaba34af1d13",
                "srcKUID": "h011cbf6d1b24ca684b74833aef5d2d1",
                "wType": "FlexContainer"
            }
        },
        "lblImgSourceURLTag": {
            "__events__": {},
            "__info__": {
                "kuid": "if8ff87bdaa945dbaf74f78576f12e6d",
                "srcKUID": "bb4e6900b8c5456da53b4ec3d3a2c305",
                "wType": "Label"
            }
        },
        "lblResolution": {
            "__events__": {},
            "__info__": {
                "kuid": "dafe8e0b77a843b6a0fb3e6c20aea89b",
                "srcKUID": "a654fab15c4f4d84ae933fa638872691",
                "wType": "Label"
            }
        },
        "lblScreenName": {
            "__events__": {},
            "__info__": {
                "kuid": "b2bb5e0beb1d4dd3a1831d610b93831f",
                "srcKUID": "d76d07463f4d41c3983571d20facc517",
                "wType": "Label"
            },
            "i18n_text": "i18n.frmAdManagement.PostLoginFullScreenInterstitialAd",
            "text": "Post Login Full Screen Interstitial Ad"
        },
        "lblTargetURLTag": {
            "__events__": {},
            "__info__": {
                "kuid": "ea537c09398c497b8a181cec4e53880c",
                "srcKUID": "de6c1362ba8a45f0a7ae36278c336630",
                "wType": "Label"
            }
        }
    },
    "enablescrolling": true,
    "id": "NativeMobileChannelScreen3",
    "info": null,
    "iscustomlayout": false,
    "isdatareferenced": false,
    "isvisible": true,
    "kuid": "jcff10a195c64ad8a506491bd948a76c",
    "layouttype": 2,
    "masterType": 0,
    "name": "kony.ui.UserWidgetInstance",
    "parent": "flxPostLoginMobile",
    "pf": "frmAdManagement",
    "retaincontentalignment": false,
    "retainflexpositionproperties": false,
    "retainflowhorizontalalignment": false,
    "snapgridsize": 10,
    "snaptogrid": true,
    "sourceUserWidget": "e40a59ba3dd24864853e695d72e623f5",
    "wType": "UserWidgetInstance"
}