{
    "@class": "com.kony.gen.viz.model.component.KVizUserWidget",
    "DNDConfig": null,
    "__parentReadjusting__": false,
    "_android_": {},
    "_androidwearos_": {},
    "_children_": [],
    "_desktopweb_": {},
    "_height_": {
        "type": "string",
        "value": "84px"
    },
    "_ipad_": {},
    "_iphone_": {},
    "_kiosk_": {},
    "_left_": {
        "type": "string",
        "value": "0px"
    },
    "_margin_": [
        0,
        0,
        0,
        0
    ],
    "_orientation_": 1,
    "_padding_": [
        0,
        0,
        0,
        0
    ],
    "_percent_": true,
    "_responsiveData_": {},
    "_skin_": "s8ff24328417401b877c3ceb2a5fa27c",
    "_spa_": {},
    "_spaan_": {},
    "_spaandroidtablet_": {},
    "_spabb_": {},
    "_spaip_": {},
    "_spaipad_": {},
    "_spamobile_": {},
    "_spatablet_": {},
    "_spawindowstablet_": {},
    "_spawinphone8_": {},
    "_tabrcandroid_": {},
    "_top_": {
        "type": "string",
        "value": "0px"
    },
    "_vizProps_": {
        "hidewidgethierarchy": false
    },
    "_width_": {
        "type": "string",
        "value": "100%"
    },
    "_windows10_": {},
    "_windows8_": {},
    "_winphone10_": {},
    "_winphone8_": {},
    "areflexpropsreferenced": false,
    "canUpdateUI": true,
    "clipbounds": true,
    "containerweight": 0,
    "dataDiffs": {
        "channelDefaultScreen": {
            "__events__": {},
            "__info__": {
                "isRoot": true,
                "kuid": "h6d5b57f9f61412e8867dc072a2f3591",
                "srcKUID": "c3fa373208c148eaad66796be609a2a7",
                "wType": "FlexContainer"
            },
            "isVisible": false,
            "left": {
                "Default": {
                    "type": "string",
                    "value": "0px"
                }
            },
            "top": {
                "Default": {
                    "type": "string",
                    "value": "0px"
                }
            }
        },
        "flxScreenNameText": {
            "__events__": {},
            "__info__": {
                "kuid": "a4cde0fe0c4a43a4b03b963c5fb1b6bd",
                "srcKUID": "g165d6e68ba24ca2a908f1acbb8cd567",
                "wType": "FlexContainer"
            }
        },
        "flxSeparator1Screen": {
            "__events__": {},
            "__info__": {
                "kuid": "e04459ce74b248e48b01699d3f7d3419",
                "srcKUID": "j5fe98560794468fa9ec8ebbb145754f",
                "wType": "FlexContainer"
            }
        },
        "flxSeparator2Screen": {
            "__events__": {},
            "__info__": {
                "kuid": "i53cc9745eea456598b391d36acf9dd2",
                "srcKUID": "g3eb658551674012adcdf37d62f56edc",
                "wType": "FlexContainer"
            }
        },
        "flxULRLabels": {
            "__events__": {},
            "__info__": {
                "kuid": "jbcf4c3e189540dbac0c05026a090c67",
                "srcKUID": "e3c6e0dc9b3a4772a626f7af6afa26b3",
                "wType": "FlexContainer"
            }
        },
        "lblImageContainerNameScale": {
            "__events__": {},
            "__info__": {
                "kuid": "ea13d6cc57164377926b92688615a596",
                "srcKUID": "cb084f7e17bf46fd8d679a11515b381b",
                "wType": "Label"
            },
            "i18n_text": "i18n.frmAdManagement.Breakpoint",
            "text": "BREAKPOINT"
        },
        "lblImgSourceURLTag": {
            "__events__": {},
            "__info__": {
                "kuid": "i7ed2f562b034d12b3f60ee5c5278598",
                "srcKUID": "e7da7bcdcb8e4f7fa1704c525c582a25",
                "wType": "Label"
            }
        },
        "lblResolution": {
            "__events__": {},
            "__info__": {
                "kuid": "ba34f317fdbc4448be8e5516c626c669",
                "srcKUID": "g537b20b970e4b08a423b01be0b2e4db",
                "wType": "Label"
            }
        },
        "lblScreenName": {
            "__events__": {},
            "__info__": {
                "kuid": "c5344bce3f9f4df685efdf6f21ee0a07",
                "srcKUID": "ffc8fe1f918341b3823eb5a7e14cd483",
                "wType": "Label"
            },
            "i18n_text": "i18n.frmAdManagement.ApplyforNewAccMod",
            "text": "Apply for New Account Module"
        },
        "lblTargetURLTag": {
            "__events__": {},
            "__info__": {
                "kuid": "jbb37ade2c6346f78fe8e41b857ac58a",
                "srcKUID": "f3c715262977441f90d95b15c5db7fd1",
                "wType": "Label"
            }
        }
    },
    "enablescrolling": true,
    "id": "WebDefaultScreen2",
    "info": null,
    "iscustomlayout": false,
    "isdatareferenced": false,
    "issegmentchild": false,
    "isvisible": false,
    "kuid": "h6d5b57f9f61412e8867dc072a2f3591",
    "layouttype": 2,
    "masterType": 0,
    "name": "kony.ui.UserWidgetInstance",
    "parent": "flxApplyForNewAccDashWebApp",
    "pf": "frmAdManagement",
    "retaincontentalignment": false,
    "retainflexpositionproperties": false,
    "retainflowhorizontalalignment": false,
    "snapgridsize": 10,
    "snaptogrid": true,
    "sourceUserWidget": "c3fa373208c148eaad66796be609a2a7",
    "wType": "UserWidgetInstance"
}