{
    "@class": "com.kony.gen.viz.model.component.KVizButton",
    "DNDConfig": null,
    "__parentReadjusting__": false,
    "_bottom_": {
        "type": "string",
        "value": "15px"
    },
    "_height_": {
        "type": "string",
        "value": "28px"
    },
    "_left_": {
        "type": "string",
        "value": "660px"
    },
    "_margin_": [
        6,
        6,
        6,
        6
    ],
    "_padding_": [
        0,
        0,
        0,
        0
    ],
    "_right_": {
        "type": "string",
        "value": "0px"
    },
    "_skin_": "sf855fbbb0b64b99b049f0282a1e49ba",
    "_text_": "Apply",
    "_top_": {
        "type": "string",
        "value": "47px"
    },
    "_width_": {
        "type": "string",
        "value": "70px"
    },
    "canUpdateUI": true,
    "containerweight": 100,
    "contentalignment": 2,
    "desktopweb": {
        "psp": {
            "hoverSkin": "sbb6d769463643e8b84b0ddb613ea19d"
        }
    },
    "displaytext": true,
    "focusskin": "sf855fbbb0b64b99b049f0282a1e49ba",
    "id": "btnAdd",
    "info": null,
    "isvisible": true,
    "kuid": "d789aefccac9414d9bb56c1fc47d29a0",
    "name": "kony.ui.Button",
    "parent": "flxDateSelection",
    "pf": "userwidgetmodel",
    "wType": "Button",
    "zindex": 1,
    "texti18n": "i18n.frmCustomerManagement.btnApply"
}