{
    "@class": "com.kony.gen.viz.model.component.KVizImage2",
    "DNDConfig": null,
    "__parentReadjusting__": false,
    "_base64_": null,
    "_bottom_": {
        "type": "string",
        "value": "8px"
    },
    "_left_": {
        "type": "string",
        "value": "8px"
    },
    "_margin_": [
        0,
        0,
        0,
        0
    ],
    "_padding_": [
        0,
        0,
        0,
        0
    ],
    "_right_": {
        "type": "string",
        "value": "8px"
    },
    "_skin_": "s553d03f29cb43c9a26989454eea9499",
    "_src_": "closetags_2x.png",
    "_top_": {
        "type": "string",
        "value": "8px"
    },
    "canUpdateUI": true,
    "containerweight": 100,
    "context": {
        "channel": "desktop",
        "formID": "uwu9394ff898ad4759895d83fa57cf563e",
        "platform": "desktopweb",
        "templateType": "userwidgets",
        "topLevelBox": null
    },
    "id": "imgClose",
    "imagescalemode": 1,
    "info": null,
    "iscustomlayout": false,
    "isvisible": true,
    "kuid": "f3a4ef4a511f4508a350484a64ae03be",
    "name": "kony.ui.Image2",
    "parent": "flxSuggestionsClose",
    "pf": "userwidgetmodel",
    "retaincontentalignment": false,
    "retainflexpositionproperties": false,
    "srcType": 1,
    "wType": "Image",
    "widgetalignment": 5,
    "zindex": 1
}