{
    "@class": "com.kony.gen.viz.model.component.KVizButton",
    "DNDConfig": null,
    "__parentReadjusting__": false,
    "_height_": {
        "type": "string",
        "value": "40dp"
    },
    "_margin_": [
        6,
        6,
        6,
        6
    ],
    "_padding_": [
        0,
        0,
        0,
        0
    ],
    "_right_": {
        "type": "string",
        "value": "20px"
    },
    "_skin_": "s68f239b5bef4ddda93b35d84ab737ae",
    "_text_": "ADD",
    "_top_": {
        "type": "string",
        "value": "0%"
    },
    "_width_": {
        "type": "string",
        "value": "120dp"
    },
    "canUpdateUI": true,
    "centery": {
        "type": "string",
        "value": "50%"
    },
    "containerweight": 100,
    "contentalignment": 5,
    "desktopweb": {
        "psp": {
            "hoverSkin": "sa0a214e6979469ebf190bb69eae8def"
        }
    },
    "displaytext": true,
    "focusskin": "s68f239b5bef4ddda93b35d84ab737ae",
    "id": "btnsave",
    "ide_onClick": "AS_Button_c973a89c85624425bb033af39fa13bd2",
    "info": null,
    "isvisible": true,
    "kuid": "f1a33031fdf84c049df90b504038933b",
    "name": "kony.ui.Button",
    "parent": "flxEditButtons",
    "pf": "frmAlertsManagement",
    "texti18n": "i18n.DragBox.ADD",
    "wType": "Button",
    "zindex": 1
}