{
    "@class": "com.kony.gen.viz.model.component.KVizButton",
    "DNDConfig": null,
    "__parentReadjusting__": false,
    "_height_": {
        "type": "string",
        "value": "20px"
    },
    "_margin_": [
        6,
        6,
        6,
        6
    ],
    "_padding_": [
        0,
        0,
        0,
        0
    ],
    "_right_": {
        "type": "string",
        "value": "112px"
    },
    "_skin_": "sf855fbbb0b64b99b049f0282a1e49ba",
    "_text_": "Edit",
    "_top_": {
        "type": "string",
        "value": "20px"
    },
    "_width_": {
        "type": "string",
        "value": "50px"
    },
    "canUpdateUI": true,
    "centery": {
        "type": "string",
        "value": "50%"
    },
    "containerweight": 100,
    "contentalignment": 5,
    "disabledSkins": {
        "focusSkin": "s152a8ebff2840e2b2942e5ec1abbdb5"
    },
    "displaytext": true,
    "id": "btnViewAlertEdit",
    "info": null,
    "isvisible": true,
    "kuid": "a218b94a368f4f8085ee5beb6d10bb4c",
    "name": "kony.ui.Button",
    "parent": "flxViewAlertDataHeader",
    "pf": "frmAlertsManagement",
    "texti18n": "i18n.roles.Edit",
    "wType": "Button",
    "zindex": 1
}