{
    "@class": "com.kony.gen.viz.model.component.KVizUserWidget",
    "DNDConfig": null,
    "__parentReadjusting__": false,
    "_android_": {},
    "_androidwearos_": {},
    "_children_": [],
    "_desktopweb_": {},
    "_height_": {
        "type": "ref",
        "value": "preferred"
    },
    "_ipad_": {},
    "_iphone_": {},
    "_kiosk_": {},
    "_left_": {
        "type": "string",
        "value": "0dp"
    },
    "_margin_": [
        0,
        0,
        0,
        0
    ],
    "_orientation_": 1,
    "_padding_": [
        0,
        0,
        0,
        0
    ],
    "_percent_": true,
    "_responsiveData_": {},
    "_skin_": "s8ff24328417401b877c3ceb2a5fa27c",
    "_spa_": {},
    "_spaan_": {},
    "_spaandroidtablet_": {},
    "_spabb_": {},
    "_spaip_": {},
    "_spaipad_": {},
    "_spamobile_": {},
    "_spatablet_": {},
    "_spawindowstablet_": {},
    "_spawinphone8_": {},
    "_tabrcandroid_": {},
    "_top_": {
        "type": "string",
        "value": "25dp"
    },
    "_vizProps_": {
        "hidewidgethierarchy": false
    },
    "_width_": {
        "type": "string",
        "value": "100%"
    },
    "_windows10_": {},
    "_windows8_": {},
    "_winphone10_": {},
    "_winphone8_": {},
    "areflexpropsreferenced": false,
    "autogrowmode": 1,
    "canUpdateUI": true,
    "clipbounds": true,
    "containerweight": 0,
    "dataDiffs": {
        "btnOk": {
            "__events__": {},
            "__info__": {
                "kuid": "dabada03ea5044b6bb981e1fc31369eb",
                "srcKUID": "ed281b805b7449289b459012522f596d",
                "wType": "Button"
            }
        },
        "customListbox": {
            "__events__": {},
            "__info__": {
                "isRoot": true,
                "kuid": "jc86ce1a57474739b768bed7d432fd3f",
                "srcKUID": "a0d03f7297684284a4b6dc01befcf287",
                "wType": "FlexContainer"
            },
            "top": {
                "Default": {
                    "type": "string",
                    "value": "25dp"
                }
            },
            "zIndex": {
                "Default": 1
            }
        },
        "flxCheckBox": {
            "__events__": {},
            "__info__": {
                "kuid": "dba29c6c5ba444a68b73ba3c3c800629",
                "srcKUID": "i3a6ffce732348bbbacf8ad91962a97f",
                "wType": "FlexContainer"
            }
        },
        "flxDropdown": {
            "__events__": {},
            "__info__": {
                "kuid": "dc69c5e8852f47abb1e7d71c53dc1a5b",
                "srcKUID": "f85b0f605ebe4c2e98705aa34635a85c",
                "wType": "FlexContainer"
            }
        },
        "flxListboxError": {
            "__events__": {},
            "__info__": {
                "kuid": "jcf5cc75043f41ee86febd3cabd23ad4",
                "srcKUID": "j124d8c4cf8144e590de603096a49899",
                "wType": "FlexContainer"
            }
        },
        "flxSegmentList": {
            "__events__": {},
            "__info__": {
                "kuid": "d1816ce94c3a44abac97be696b76856e",
                "srcKUID": "f4459396b0bd46f2a3f88e56629645df",
                "wType": "FlexContainer"
            }
        },
        "flxSelectAll": {
            "__events__": {},
            "__info__": {
                "kuid": "cb53f43f093144f090f390d9e9321322",
                "srcKUID": "h125cc4ca69849339090bf982d88f514",
                "wType": "FlexContainer"
            }
        },
        "flxSelectedText": {
            "__events__": {},
            "__info__": {
                "kuid": "fcaf6c47383c4ceba00fcd42c124fbe5",
                "srcKUID": "a812f38b0b4e47c69cb7bf6508c941f0",
                "wType": "FlexContainer"
            }
        },
        "imgCheckBox": {
            "__events__": {},
            "__info__": {
                "kuid": "iec19126c8a64a9585184ac521ebc7b5",
                "srcKUID": "baf316df1d4c40af83715394a042411a",
                "wType": "Image"
            },
            "src": "checkboxnormal.png"
        },
        "lblDescription": {
            "__events__": {},
            "__info__": {
                "kuid": "bf9a11e92bc4437b9899a049415b7d94",
                "srcKUID": "ec9d7b94345b4aaba233c349f129a6d7",
                "wType": "Label"
            }
        },
        "lblErrorIcon": {
            "__events__": {},
            "__info__": {
                "kuid": "ce6a2571df9249dc8e0a34dde43e479f",
                "srcKUID": "aab32b39f5fa4b57a655ac1477106a9f",
                "wType": "Label"
            }
        },
        "lblErrorMsg": {
            "__events__": {},
            "__info__": {
                "kuid": "d033d063706d4056b514d4da5f303046",
                "srcKUID": "ba5803ef249a4423aa327e96333adcb0",
                "wType": "Label"
            },
            "width": {
                "Default": {
                    "type": "string",
                    "value": "90%"
                }
            }
        },
        "lblIconDropdown": {
            "__events__": {},
            "__info__": {
                "kuid": "id1013e981d94e2b8c9ef3da5418d1a6",
                "srcKUID": "he58ef6db0ab4fa6a16de8ac326c5040",
                "wType": "Label"
            }
        },
        "lblSelectedValue": {
            "__events__": {},
            "__info__": {
                "kuid": "f46bee195d344ac88cbd7790a4eb644e",
                "srcKUID": "i1dfa6f533554bfdb9ae13c2ad526fd0",
                "wType": "Label"
            }
        },
        "segList": {
            "__events__": {},
            "__info__": {
                "kuid": "b7e95a5c59e54e9699e8c3f9a7ad0a5f",
                "srcKUID": "e2b8ae70a4a74f2b9c6475f3a65ec737",
                "wType": "Segment"
            }
        }
    },
    "enablescrolling": true,
    "id": "customListboxUsertypes",
    "info": null,
    "iscustomlayout": false,
    "isdatareferenced": false,
    "issegmentchild": false,
    "isvisible": true,
    "kuid": "jc86ce1a57474739b768bed7d432fd3f",
    "layouttype": 2,
    "masterType": 0,
    "name": "kony.ui.UserWidgetInstance",
    "parent": "flxAddAlertTypeCol32",
    "pf": "frmAlertsManagement",
    "retaincontentalignment": false,
    "retainflexpositionproperties": false,
    "snapgridsize": 10,
    "snaptogrid": true,
    "sourceUserWidget": "a0d03f7297684284a4b6dc01befcf287",
    "wType": "UserWidgetInstance",
    "zindex": 1
}