{
    "DNDConfig": null,
    "__parentReadjusting__": false,
    "_height_": {
        "type": "string",
        "value": "100%"
    },
    "_left_": {
        "type": "string",
        "value": "0.00%"
    },
    "_margin_": [
        0,
        0,
        0,
        0
    ],
    "_orientation_": 6,
    "_padding_": [
        0,
        0,
        0,
        0
    ],
    "_percent_": true,
    "_skin_": "sf9bacbfaa444379a0002b31e0f5aa80",
    "_top_": {
        "type": "string",
        "value": "0.00%"
    },
    "_width_": {
        "type": "string",
        "value": "100%"
    },
    "allboxes": [],
    "autogrowmode": 0,
    "canUpdateUI": true,
    "children": [
        "flxLeftPannel",
        "flxRightPanel",
        "flxAlertPreview",
        "flxDeleteAlert",
        "flxPreviewPopup",
        "flxHeaderDropdown",
        "flxToastMessage",
        "flxLoading",
        "flxAddSubAlertPopUp",
        "flxSequencePopUp"
    ],
    "clipbounds": true,
    "containerweight": 100,
    "enablescrolling": true,
    "id": "flxAlertsManagement",
    "info": null,
    "iscustomlayout": false,
    "isvisible": true,
    "kuid": "b203eca1fa544508a6b9edfa27f4b408",
    "layouttype": 2,
    "name": "kony.ui.FlexContainer",
    "parent": "frmAlertsManagement",
    "pf": "frmAlertsManagement",
    "retaincontentalignment": false,
    "retainflexpositionproperties": false,
    "snapgridsize": 10,
    "snaptogrid": true,
    "wType": "FlexContainer",
    "widgetalignment": 1,
    "zindex": 1
}