{
    "DNDConfig": null,
    "__parentReadjusting__": false,
    "_height_": {
        "type": "ref",
        "value": "preferred"
    },
    "_left_": {
        "type": "string",
        "value": "0dp"
    },
    "_margin_": [
        0,
        0,
        0,
        0
    ],
    "_orientation_": 6,
    "_padding_": [
        0,
        0,
        0,
        0
    ],
    "_percent_": true,
    "_skin_": "s8ff24328417401b877c3ceb2a5fa27c",
    "_top_": {
        "type": "string",
        "value": "350dp"
    },
    "_width_": {
        "type": "string",
        "value": "100%"
    },
    "allboxes": [],
    "autogrowmode": 1,
    "canUpdateUI": true,
    "children": [
        "flxAddAlertTypeSelectAttribute",
        "flxAddAlertTypeAddAttribute",
        "flxAddAlertTypeLanguageHeader",
        "flxAddAlertTypeLanguageSegment",
        "flxAddAlertTypeButtons"
    ],
    "clipbounds": true,
    "containerweight": 100,
    "enablescrolling": true,
    "id": "flxAddAlertBottom",
    "info": null,
    "iscustomlayout": false,
    "isvisible": true,
    "kuid": "cc659bc02ae14d3ca8c1345c8a7ce499",
    "layouttype": 4,
    "name": "kony.ui.FlexContainer",
    "parent": "flxAddAlertTypeContainer",
    "pf": "frmAlertsManagement",
    "retaincontentalignment": false,
    "retainflexpositionproperties": false,
    "snapgridsize": 10,
    "snaptogrid": true,
    "wType": "FlexContainer",
    "widgetalignment": 1
}