{
    "DNDConfig": null,
    "__parentReadjusting__": false,
    "_height_": {
        "type": "ref",
        "value": "preferred"
    },
    "_left_": {
        "type": "string",
        "value": "35px"
    },
    "_margin_": [
        0,
        0,
        0,
        0
    ],
    "_orientation_": 6,
    "_padding_": [
        0,
        0,
        0,
        0
    ],
    "_percent_": true,
    "_right_": {
        "type": "string",
        "value": "35px"
    },
    "_skin_": "s8ff24328417401b877c3ceb2a5fa27c",
    "_top_": {
        "type": "string",
        "value": "0px"
    },
    "allboxes": [],
    "autogrowmode": 1,
    "canUpdateUI": true,
    "children": [
        "lblEditAlertMainName",
        "lblAlertTypeNameCount",
        "tbxEditAlertMainName",
        "flxNoEditAlertMainNameError",
        "flxEditAlertTypeStatusContainer",
        "lblEditAlertMainDescription",
        "lblAlertTypeDescriptionCount",
        "txtareaEditAlertMainDescription",
        "flxNoEditAlertMainDescriptionError",
        "lblAssociatedAlerts",
        "flxAssociatedAlerts"
    ],
    "clipbounds": true,
    "containerweight": 100,
    "enablescrolling": true,
    "id": "flxEditAlertMain",
    "info": null,
    "iscustomlayout": false,
    "isvisible": false,
    "kuid": "d23078189da5420e8cacf7d8682d2de1",
    "layouttype": 4,
    "name": "kony.ui.FlexContainer",
    "parent": "flxEditAlertContent",
    "pf": "frmAlertsManagement",
    "retaincontentalignment": false,
    "retainflexpositionproperties": false,
    "snapgridsize": 10,
    "snaptogrid": true,
    "vizProps": {},
    "wType": "FlexContainer",
    "widgetalignment": 1,
    "zindex": 1
}