{
    "DNDConfig": null,
    "__parentReadjusting__": false,
    "_height_": {
        "type": "string",
        "value": "40dp"
    },
    "_left_": {
        "type": "number",
        "value": "217"
    },
    "_margin_": [
        0,
        0,
        0,
        0
    ],
    "_orientation_": 6,
    "_padding_": [
        0,
        0,
        0,
        0
    ],
    "_percent_": true,
    "_skin_": "sed8aca2c1864df0a0fe7a3114ee88c8",
    "_top_": {
        "type": "string",
        "value": "25dp"
    },
    "_width_": {
        "type": "string",
        "value": "200dp"
    },
    "allboxes": [],
    "autogrowmode": 0,
    "canUpdateUI": true,
    "children": [],
    "clipbounds": true,
    "containerweight": 100,
    "desktopweb": {
        "psp": {
            "hoverSkin": "sf7c6aff21f8487f89e69932f9f210b4"
        }
    },
    "disabledSkins": {},
    "enablescrolling": true,
    "id": "flxSubAlertCodeGrey",
    "info": null,
    "iscustomlayout": false,
    "isvisible": false,
    "kuid": "f2ae1d548104467cadf68bb8ee8f4bfd",
    "layouttype": 2,
    "name": "kony.ui.FlexContainer",
    "parent": "flxAlertDetails",
    "pf": "frmAlertsManagement",
    "retaincontentalignment": false,
    "retainflexpositionproperties": false,
    "snapgridsize": 10,
    "snaptogrid": true,
    "wType": "FlexContainer",
    "widgetalignment": 1,
    "zindex": 1
}