{
    "DNDConfig": null,
    "__parentReadjusting__": false,
    "_height_": {
        "type": "ref",
        "value": "preferred"
    },
    "_left_": {
        "type": "string",
        "value": "27%"
    },
    "_margin_": [
        0,
        0,
        0,
        0
    ],
    "_orientation_": 6,
    "_padding_": [
        0,
        0,
        0,
        0
    ],
    "_percent_": true,
    "_skin_": "sc74bbd9c30247728d3dabf5547c0feb",
    "_top_": {
        "type": "string",
        "value": "80px"
    },
    "_width_": {
        "type": "string",
        "value": "380px"
    },
    "allboxes": [],
    "autogrowmode": 1,
    "canUpdateUI": true,
    "centerx": {
        "type": "string",
        "value": "50%"
    },
    "children": [
        "flxTopVerticalColor",
        "flxSequenceBody",
        "flxSequencePopUpButtons"
    ],
    "clipbounds": true,
    "containerweight": 100,
    "enablescrolling": true,
    "id": "flxSequenceContainer",
    "info": null,
    "isvisible": true,
    "kuid": "afbf1c0a707c49df8630c77fc5a1716e",
    "layouttype": 4,
    "name": "kony.ui.FlexContainer",
    "parent": "flxSequencePopUp",
    "pf": "frmAlertsManagement",
    "snapgridsize": 10,
    "snaptogrid": true,
    "wType": "FlexContainer",
    "widgetalignment": 1,
    "zindex": 1
}