{
    "DNDConfig": null,
    "__parentReadjusting__": false,
    "_height_": {
        "type": "string",
        "value": "80px"
    },
    "_left_": {
        "type": "number",
        "value": 0
    },
    "_margin_": [
        0,
        0,
        0,
        0
    ],
    "_orientation_": 6,
    "_padding_": [
        0,
        0,
        0,
        0
    ],
    "_percent_": true,
    "_skin_": "s95943ef7bd54dacb2c817f2e1c6f8f0",
    "_top_": {
        "type": "string",
        "value": "0px"
    },
    "_width_": {
        "type": "string",
        "value": "100%"
    },
    "allboxes": [],
    "autogrowmode": 0,
    "canUpdateUI": true,
    "children": [
        "flxSequencePopUpError",
        "btnCancelSequencePopup",
        "btnUpdateSequencePopup"
    ],
    "clipbounds": true,
    "containerweight": 100,
    "enablescrolling": true,
    "id": "flxSequencePopUpButtons",
    "info": null,
    "isvisible": true,
    "kuid": "e0ab84d04d534562b23d9a9f5a2104bd",
    "layouttype": 2,
    "name": "kony.ui.FlexContainer",
    "parent": "flxSequenceContainer",
    "pf": "frmAlertsManagement",
    "snapgridsize": 10,
    "snaptogrid": true,
    "wType": "FlexContainer",
    "widgetalignment": 1,
    "zindex": 1
}