{
    "DNDConfig": null,
    "__parentReadjusting__": false,
    "_height_": {
        "type": "string",
        "value": "180px"
    },
    "_left_": {
        "type": "string",
        "value": "-5px"
    },
    "_margin_": [
        0,
        0,
        0,
        0
    ],
    "_orientation_": 6,
    "_padding_": [
        0,
        0,
        0,
        0
    ],
    "_percent_": true,
    "_skin_": "s54896c51dbe481f9e3dbc06f8da4e9d",
    "_top_": {
        "type": "string",
        "value": "0px"
    },
    "_width_": {
        "type": "string",
        "value": "240px"
    },
    "allboxes": [],
    "autogrowmode": 0,
    "canUpdateUI": true,
    "children": [
        "flxVariableReferenceHeader",
        "flxVariableReferenceSeparator",
        "flxVariableReferenceContent"
    ],
    "clipbounds": true,
    "containerweight": 100,
    "enablescrolling": true,
    "id": "flxVariableReference",
    "info": null,
    "iscustomlayout": false,
    "isvisible": true,
    "kuid": "d3af69259701412b8fc0b76a24b05b66",
    "layouttype": 4,
    "name": "kony.ui.FlexContainer",
    "parent": "flxVariableReferenceContainer",
    "pf": "frmAlertsManagement",
    "retaincontentalignment": false,
    "retainflexpositionproperties": false,
    "snapgridsize": 10,
    "snaptogrid": true,
    "wType": "FlexContainer",
    "widgetalignment": 1,
    "zindex": 1
}