{
    "DNDConfig": null,
    "__parentReadjusting__": false,
    "_height_": {
        "type": "string",
        "value": "180px"
    },
    "_left_": {
        "type": "string",
        "value": "233dp"
    },
    "_margin_": [
        0,
        0,
        0,
        0
    ],
    "_orientation_": 6,
    "_padding_": [
        0,
        0,
        0,
        0
    ],
    "_percent_": true,
    "_skin_": "s8ff24328417401b877c3ceb2a5fa27c",
    "_top_": {
        "type": "string",
        "value": "316dp"
    },
    "_width_": {
        "type": "string",
        "value": "280px"
    },
    "allboxes": [],
    "autogrowmode": 0,
    "canUpdateUI": true,
    "children": [
        "imgVariableReferencePionter",
        "flxVariableReference"
    ],
    "clipbounds": true,
    "containerweight": 100,
    "enablescrolling": true,
    "id": "flxVariableReferenceContainer",
    "info": null,
    "iscustomlayout": false,
    "isvisible": false,
    "kuid": "af6ec48fb2bf4c258227f6ed72caf811",
    "layouttype": 3,
    "name": "kony.ui.FlexContainer",
    "parent": "flxSubAlerts",
    "pf": "frmAlertsManagement",
    "retaincontentalignment": false,
    "retainflexpositionproperties": false,
    "snapgridsize": 10,
    "snaptogrid": true,
    "wType": "FlexContainer",
    "widgetalignment": 1,
    "zindex": 2
}