{
    "DNDConfig": null,
    "__parentReadjusting__": false,
    "_height_": {
        "type": "string",
        "value": "40px"
    },
    "_left_": {
        "type": "string",
        "value": "0px"
    },
    "_margin_": [
        0,
        0,
        0,
        0
    ],
    "_orientation_": 6,
    "_padding_": [
        0,
        0,
        0,
        0
    ],
    "_percent_": true,
    "_right_": {
        "type": "string",
        "value": "0px"
    },
    "_skin_": "s8ff24328417401b877c3ceb2a5fa27c",
    "_top_": {
        "type": "string",
        "value": "0px"
    },
    "_width_": {
        "type": "string",
        "value": "100%"
    },
    "allboxes": [],
    "autogrowmode": 0,
    "canUpdateUI": true,
    "centerx": {
        "type": "string",
        "value": "50%"
    },
    "children": [
        "flxViewAlertTypeHeader",
        "flxViewAlertTypeContent",
        "flxViewAlertStatusHeader",
        "flxViewAlertStatusContent",
        "flxViewAlertSubscriptionHeader",
        "flxViewAlertSubscriptionContent",
        "flxViewAlertChannelHeader",
        "flxViewAlertChannelContent"
    ],
    "clipbounds": true,
    "containerweight": 100,
    "enablescrolling": true,
    "id": "flxViewAlertDataContent1",
    "info": null,
    "isvisible": true,
    "kuid": "a37fefb3c79248deb66db99171435548",
    "layouttype": 2,
    "name": "kony.ui.FlexContainer",
    "parent": "flxViewAlertDataContentInner",
    "pf": "frmAlertsManagement",
    "snapgridsize": 10,
    "snaptogrid": true,
    "wType": "FlexContainer",
    "widgetalignment": 1,
    "zindex": 1
}