{
    "@class": "com.kony.gen.viz.model.component.KVizLabel",
    "DNDConfig": null,
    "__parentReadjusting__": false,
    "_height_": {
        "type": "ref",
        "value": "preferred"
    },
    "_left_": {
        "type": "string",
        "value": "30px"
    },
    "_margin_": [
        1,
        1,
        1,
        1
    ],
    "_padding_": [
        0,
        0,
        0,
        0
    ],
    "_skin_": "s12c70e4eaad4e1ab47cf741222f3d3a",
    "_text_": "Alert Preview",
    "_top_": {
        "type": "string",
        "value": "35dp"
    },
    "_width_": {
        "type": "ref",
        "value": "preferred"
    },
    "_wrapping_": 2,
    "android": {
        "textStyle": {
            "letterSpacing": 0,
            "strikeThrough": false
        }
    },
    "canUpdateUI": true,
    "containerweight": 100,
    "contentalignment": 4,
    "id": "lblAlertPreviewHeader",
    "info": null,
    "ipad": {
        "psp": {
            "wrapping": 2
        }
    },
    "iphone": {
        "psp": {
            "wrapping": 2
        }
    },
    "isvisible": true,
    "kuid": "eb254a0fdce548dd9d579b21fd1eef23",
    "name": "kony.ui.Label",
    "parent": "flxAlertPreviewMain",
    "pf": "frmAlertsManagement",
    "texti18n": "i18n.frmAlertsManagement.lblAlertPreviewHeader",
    "tooltip": "",
    "wType": "Label",
    "zindex": 1
}