{
    "@class": "com.kony.gen.viz.model.component.KVizLabel",
    "DNDConfig": null,
    "__parentReadjusting__": false,
    "_height_": {
        "type": "string",
        "value": "100%"
    },
    "_left_": {
        "type": "string",
        "value": "0px"
    },
    "_margin_": [
        1,
        1,
        1,
        1
    ],
    "_padding_": [
        0,
        0,
        0,
        0
    ],
    "_skin_": "s601d7c6ae7e4384beba2a1e569950f5",
    "_text_": "SMS, Email, Push",
    "_top_": {
        "type": "string",
        "value": "0px"
    },
    "_width_": {
        "type": "string",
        "value": "100%"
    },
    "_wrapping_": 2,
    "android": {
        "textStyle": {
            "letterSpacing": 0,
            "strikeThrough": false
        }
    },
    "canUpdateUI": true,
    "containerweight": 100,
    "contentalignment": 4,
    "id": "lblAlertPreviewChannelContent",
    "info": null,
    "ipad": {
        "psp": {
            "wrapping": 2
        }
    },
    "iphone": {
        "psp": {
            "wrapping": 2
        }
    },
    "isvisible": true,
    "kuid": "fa139ac441bc410ab454ff01e98b48ed",
    "name": "kony.ui.Label",
    "parent": "flxAlertPreviewChannelContent",
    "pf": "frmAlertsManagement",
    "texti18n": "i18n.frmAlertsManagement.lblAlertPreviewChannelContent",
    "tooltip": "",
    "wType": "Label",
    "zindex": 1
}