{
    "@class": "com.kony.gen.viz.model.component.KVizLabel",
    "DNDConfig": null,
    "__parentReadjusting__": false,
    "_height_": {
        "type": "string",
        "value": "100%"
    },
    "_left_": {
        "type": "string",
        "value": "0px"
    },
    "_margin_": [
        1,
        1,
        1,
        1
    ],
    "_padding_": [
        0,
        0,
        0,
        0
    ],
    "_skin_": "s540c0d7ac404e1996728d09495ca89e",
    "_text_": "CATEGORY DESCRIPTION",
    "_top_": {
        "type": "string",
        "value": "0px"
    },
    "_width_": {
        "type": "string",
        "value": "100%"
    },
    "_wrapping_": 2,
    "android": {
        "textStyle": {
            "letterSpacing": 0,
            "strikeThrough": false
        }
    },
    "canUpdateUI": true,
    "containerweight": 100,
    "contentalignment": 4,
    "id": "lblCategoryDescHeader",
    "info": null,
    "ipad": {
        "psp": {
            "wrapping": 2
        }
    },
    "iphone": {
        "psp": {
            "wrapping": 2
        }
    },
    "isvisible": true,
    "kuid": "g1cd4d0f2a1b4f92b8e963d15ac9ff8e",
    "name": "kony.ui.Label",
    "parent": "flxCategoryDescHeader",
    "pf": "frmAlertsManagement",
    "texti18n": "i18n.frmAlertsManagement.CategoryDescriptionCaps",
    "tooltip": "",
    "wType": "Label",
    "zindex": 1
}