{
    "@class": "com.kony.gen.viz.model.component.KVizLabel",
    "DNDConfig": null,
    "__parentReadjusting__": false,
    "_height_": {
        "type": "string",
        "value": "20px"
    },
    "_left_": {
        "type": "string",
        "value": "30%"
    },
    "_margin_": [
        1,
        1,
        1,
        1
    ],
    "_padding_": [
        0,
        0,
        0,
        0
    ],
    "_skin_": "s7a0f6fa7a934cd2858da893c4d8206a",
    "_text_": "Channel",
    "_top_": {
        "type": "string",
        "value": "-20px"
    },
    "_width_": {
        "type": "string",
        "value": "150dp"
    },
    "_wrapping_": 2,
    "android": {
        "textStyle": {
            "letterSpacing": 0,
            "strikeThrough": false
        }
    },
    "canUpdateUI": true,
    "containerweight": 100,
    "contentalignment": 4,
    "id": "lblEditAlertChannel",
    "info": null,
    "ipad": {
        "psp": {
            "wrapping": 2
        }
    },
    "iphone": {
        "psp": {
            "wrapping": 2
        }
    },
    "isvisible": true,
    "kuid": "b8926388f95942daa89caa4d64c94258",
    "name": "kony.ui.Label",
    "parent": "flxEditAlertStatusChannelContainer",
    "pf": "frmAlertsManagement",
    "texti18n": "i18n.frmServiceManagementController.Channel",
    "tooltip": "",
    "wType": "Label",
    "zindex": 1
}