{
    "@class": "com.kony.gen.viz.model.component.KVizLabel",
    "DNDConfig": null,
    "__parentReadjusting__": false,
    "_height_": {
        "type": "string",
        "value": "20px"
    },
    "_margin_": [
        1,
        1,
        1,
        1
    ],
    "_padding_": [
        0,
        0,
        0,
        0
    ],
    "_right_": {
        "type": "string",
        "value": "0px"
    },
    "_skin_": "s7a0f6fa7a934cd2858da893c4d8206a",
    "_text_": "",
    "_top_": {
        "type": "string",
        "value": "-15px"
    },
    "_width_": {
        "type": "string",
        "value": "150dp"
    },
    "_wrapping_": 2,
    "android": {
        "textStyle": {
            "letterSpacing": 0,
            "strikeThrough": false
        }
    },
    "canUpdateUI": true,
    "containerweight": 100,
    "contentalignment": 6,
    "id": "lblEditAlertDescriptionCount",
    "info": null,
    "ipad": {
        "psp": {
            "wrapping": 2
        }
    },
    "iphone": {
        "psp": {
            "wrapping": 2
        }
    },
    "isvisible": true,
    "kuid": "a6888b0c26d1487facc2f4bc822a2ecb",
    "name": "kony.ui.Label",
    "parent": "flxEditAlertInner",
    "pf": "frmAlertsManagement",
    "texti18n": "i18n.frmAlertsManagement.lblAlertTypeDescriptionCount",
    "tooltip": "",
    "wType": "Label",
    "zindex": 2
}