{
    "@class": "com.kony.gen.viz.model.component.KVizLabel",
    "DNDConfig": null,
    "__parentReadjusting__": false,
    "_height_": {
        "type": "string",
        "value": "15px"
    },
    "_left_": {
        "type": "string",
        "value": "15px"
    },
    "_margin_": [
        1,
        1,
        1,
        1
    ],
    "_padding_": [
        0,
        0,
        0,
        0
    ],
    "_skin_": "sb293d61c1c74605b5b69f5c438784b1",
    "_text_": "Select Atleast one channel",
    "_top_": {
        "type": "string",
        "value": "0px"
    },
    "_width_": {
        "type": "ref",
        "value": "preferred"
    },
    "_wrapping_": 2,
    "android": {
        "textStyle": {
            "letterSpacing": 0,
            "strikeThrough": false
        }
    },
    "canUpdateUI": true,
    "containerweight": 100,
    "contentalignment": 4,
    "id": "lblNoCheckBoxSelected",
    "info": null,
    "ipad": {
        "psp": {
            "wrapping": 2
        }
    },
    "iphone": {
        "psp": {
            "wrapping": 2
        }
    },
    "isvisible": true,
    "kuid": "d4444839f6084cefa22433cf1005cf49",
    "name": "kony.ui.Label",
    "parent": "flxNoCheckBoxSelected",
    "pf": "frmAlertsManagement",
    "texti18n": "i18n.frmAlertsManagement.lblNoCheckBoxSelected",
    "tooltip": "",
    "wType": "Label",
    "zindex": 1
}