{
    "@class": "com.kony.gen.viz.model.component.KVizLabel",
    "DNDConfig": null,
    "__parentReadjusting__": false,
    "_height_": {
        "type": "ref",
        "value": "preferred"
    },
    "_left_": {
        "type": "string",
        "value": "0dp"
    },
    "_margin_": [
        1,
        1,
        1,
        1
    ],
    "_padding_": [
        0,
        0,
        0,
        0
    ],
    "_skin_": "s7a0f6fa7a934cd2858da893c4d8206a",
    "_text_": "Title:Get Credited with 2000 $  Summer Discount  on shop on Walmart above 10000$ by end of 25th March 2019.\n\nGet Credited with 2000 $  Summer Discount  on shop on Walmart above 10000$ by end of 25th March 2019.\n Get Credited with 2000 $  Summer Discount  on shop on Walmart above 10000$ by end of 25th March 2019.",
    "_top_": {
        "type": "string",
        "value": "30dp"
    },
    "_width_": {
        "type": "string",
        "value": "730dp"
    },
    "_wrapping_": 2,
    "android": {
        "textStyle": {
            "letterSpacing": 0,
            "strikeThrough": false
        }
    },
    "canUpdateUI": true,
    "containerweight": 100,
    "contentalignment": 4,
    "id": "lblPreviewTemplateBody",
    "info": null,
    "ipad": {
        "psp": {
            "wrapping": 2
        }
    },
    "iphone": {
        "psp": {
            "wrapping": 2
        }
    },
    "iscustomlayout": false,
    "isvisible": true,
    "kuid": "a09da059fdb141ee921cfa61865c862a",
    "name": "kony.ui.Label",
    "parent": "flxTemplatePreviewBody",
    "pf": "frmAlertsManagement",
    "retaincontentalignment": false,
    "retainflexpositionproperties": false,
    "texti18n": "i18n.frmAlertsManagement.TitleGetCredited",
    "tooltip": "",
    "wType": "Label",
    "zindex": 1
}