{
    "@class": "com.kony.gen.viz.model.component.KVizRichText",
    "DNDConfig": null,
    "__parentReadjusting__": false,
    "_bottom_": {
        "type": "number",
        "value": 35
    },
    "_height_": {
        "type": "ref",
        "value": "preferred"
    },
    "_left_": {
        "type": "string",
        "value": "0px"
    },
    "_margin_": [
        0,
        0,
        0,
        0
    ],
    "_padding_": [
        0,
        0,
        0,
        0
    ],
    "_right_": {
        "type": "string",
        "value": "65px"
    },
    "_skin_": "s3ffd2c66e5248c1aeb5430fa3380ad3",
    "_text_": "Lorem ipsum dolor sit amet, consectetur adipiscing elit. Proin scelerisque eleifend libero, a rhoncus sapien mattis ac. Donec dictum finibus sagittis. Vestibulum accumsan odio efficituDonec felis dolor, molestie. Curabitur est eros, volutpat in elit rutrum, tristique placerat nunc.<br><br>Lorem ipsum dolor sit amet, consectetur adipiscing elit. Proin \nscelerisque eleifend libero, a rhoncus sapien mattis ac. Donec dictum finibus sagittis. Vestibulum<br> accumsan odio efficitur est molestie viverra.",
    "_top_": {
        "type": "string",
        "value": "25px"
    },
    "_wrapping_": 2,
    "canUpdateUI": true,
    "containerweight": 100,
    "contentalignment": 4,
    "id": "rtxAlertDescription",
    "info": null,
    "isvisible": true,
    "kuid": "a85d93da6057466c87dc3f4015caedff",
    "name": "kony.ui.RichText",
    "parent": "flxViewAlertDesc",
    "pf": "frmAlertsManagement",
    "texti18n": "i18n.frmAlertsManagement.LoremIpsumB",
    "wType": "RichText",
    "watchos": {
        "render": false
    },
    "widgetalignment": 5,
    "windows10": {
        "render": false
    },
    "winphone10": {
        "render": false
    },
    "zindex": 1
}