{
    "@class": "com.kony.gen.viz.model.container.KVizSegment2",
    "DNDConfig": null,
    "__parentReadjusting__": false,
    "_data_": [
        {
            "fontIconStatusImg": {
                "@class": "com.viz.ide.model.segment.SimpleTextSegmentData",
                "text": ""
            },
            "lblAlertStatus": {
                "@class": "com.viz.ide.model.segment.SimpleTextSegmentData",
                "text": "Active"
            },
            "lblCode": {
                "@class": "com.viz.ide.model.segment.SimpleTextSegmentData",
                "text": "AL001AL001"
            },
            "lblDescription": {
                "@class": "com.viz.ide.model.segment.SimpleTextSegmentData",
                "text": "Alert when the customer primary address is changed/updated"
            },
            "lblDisplayName": {
                "@class": "com.viz.ide.model.segment.SimpleTextSegmentData",
                "text": "Admin Role"
            },
            "lblIconImgOptions": {
                "@class": "com.viz.ide.model.segment.SimpleTextSegmentData",
                "text": ""
            },
            "lblSeperator": {
                "@class": "com.viz.ide.model.segment.SimpleTextSegmentData",
                "text": ".-"
            }
        },
        {
            "fontIconStatusImg": {
                "@class": "com.viz.ide.model.segment.SimpleTextSegmentData",
                "text": ""
            },
            "lblAlertStatus": {
                "@class": "com.viz.ide.model.segment.SimpleTextSegmentData",
                "text": "Active"
            },
            "lblCode": {
                "@class": "com.viz.ide.model.segment.SimpleTextSegmentData",
                "text": "AL001AL001"
            },
            "lblDescription": {
                "@class": "com.viz.ide.model.segment.SimpleTextSegmentData",
                "text": "Alert when the customer primary phone number is changed/updated"
            },
            "lblDisplayName": {
                "@class": "com.viz.ide.model.segment.SimpleTextSegmentData",
                "text": " Phone Number Change"
            },
            "lblIconImgOptions": {
                "@class": "com.viz.ide.model.segment.SimpleTextSegmentData",
                "text": ""
            },
            "lblSeperator": {
                "@class": "com.viz.ide.model.segment.SimpleTextSegmentData",
                "text": "-"
            }
        }
    ],
    "_height_": {
        "type": "ref",
        "value": "preferred"
    },
    "_indicator_": "none",
    "_left_": {
        "type": "string",
        "value": "1dp"
    },
    "_margin_": [
        0,
        0,
        0,
        0
    ],
    "_orientation_": 2,
    "_padding_": [
        0,
        0,
        0,
        0
    ],
    "_right_": {
        "type": "number",
        "value": "0"
    },
    "_top_": {
        "type": "string",
        "value": "2dp"
    },
    "autogrowmode": 1,
    "canUpdateUI": true,
    "containerweight": 100,
    "counter": "01",
    "focusedindex": null,
    "focuseditem": null,
    "groupcells": false,
    "hasSections": false,
    "id": "segSubAlerts",
    "ide_onRowClick": "AS_Segment_d898d5eaf17548d398fc6a18e2acee55",
    "info": null,
    "ipad": {
        "psp": {
            "indicator": "rowselect"
        }
    },
    "iphone": {
        "psp": {
            "indicator": "rowselect"
        }
    },
    "isvisible": true,
    "kuid": "ebb72bb117804f8d85389b69283efd5d",
    "masterdata": {},
    "name": "kony.ui.SegmentedUI2",
    "needpageindicator": true,
    "pageoffdotimage": "pageoffdot.png",
    "pageondotimage": "pageondot.png",
    "paginationconfig": {
        "position": "bottom"
    },
    "parent": "flxSegRoles",
    "pf": "frmAlertsManagement",
    "retainselection": false,
    "rowTemplateId": "abe71f34fd584d838deafb8af497441f",
    "rowcounter": 1,
    "rowfocusskin": "se901dcdd2ae4a58a81f21c009edf99e",
    "rowskin": "s587c8a9e5804ec88f65e379570597f6",
    "rowtemplate": "flxSubAlerts",
    "screenlevelwidget": false,
    "seccounter": 0,
    "sectionHeaderTemplateId": null,
    "sectionheaderskin": "sffa0c1a0560403189088e98f7b4f498",
    "selectedRows": null,
    "selectedState": false,
    "selectedindex": null,
    "selectedindices": null,
    "selecteditems": null,
    "selectedsectionindex": 0,
    "selectionbehavior": "default",
    "separatorrequired": false,
    "showscrollbars": true,
    "viewtype": "tableview",
    "vizProps": {},
    "wType": "Segment",
    "widgetalignment": 5,
    "widgetdatamap": {
        "flxOptions": "flxOptions",
        "flxStatus": "flxStatus",
        "flxSubAlerts": "flxSubAlerts",
        "fontIconStatusImg": "fontIconStatusImg",
        "lblAlertStatus": "lblAlertStatus",
        "lblCode": "lblCode",
        "lblDescription": "lblDescription",
        "lblDisplayName": "lblDisplayName",
        "lblIconImgOptions": "lblIconImgOptions",
        "lblSeperator": "lblSeperator"
    },
    "zindex": 1
}