{
    "@class": "com.kony.gen.viz.model.component.KVizUserWidget",
    "DNDConfig": null,
    "__parentReadjusting__": false,
    "_android_": {},
    "_androidwearos_": {},
    "_children_": [],
    "_desktopweb_": {},
    "_height_": {
        "type": "string",
        "value": "58px"
    },
    "_ipad_": {},
    "_iphone_": {},
    "_kiosk_": {},
    "_left_": {
        "type": "string",
        "value": "30px"
    },
    "_margin_": [
        0,
        0,
        0,
        0
    ],
    "_orientation_": 1,
    "_padding_": [
        0,
        0,
        0,
        0
    ],
    "_percent_": true,
    "_render_": true,
    "_responsiveData_": {},
    "_right_": {
        "type": "string",
        "value": "35px"
    },
    "_skin_": "s236cef409fb42b8a9690344e37ac553",
    "_spa_": {},
    "_spaan_": {},
    "_spaandroidtablet_": {},
    "_spabb_": {},
    "_spaip_": {},
    "_spaipad_": {},
    "_spamobile_": {},
    "_spatablet_": {},
    "_spawindowstablet_": {},
    "_spawinphone8_": {},
    "_tabrcandroid_": {},
    "_top_": {
        "type": "string",
        "value": "1px"
    },
    "_vizProps_": {
        "hidewidgethierarchy": false
    },
    "_width_": {
        "type": "string",
        "value": ""
    },
    "_windows10_": {},
    "_windows8_": {},
    "_winphone10_": {},
    "_winphone8_": {},
    "areflexpropsreferenced": false,
    "autogrowmode": 0,
    "canUpdateUI": true,
    "clipbounds": true,
    "containerweight": 0,
    "dataDiffs": {
        "flxClearSearchImage": {
            "__events__": {},
            "__info__": {
                "kuid": "fcd423baa4e7455b93847072ed97f451",
                "srcKUID": "d5fa1fe0b8df4dc88da1fb9c1cc109d4",
                "wType": "FlexContainer"
            }
        },
        "flxMenu": {
            "__events__": {},
            "__info__": {
                "kuid": "j1f5c98e71984324b762249a661a2e3c",
                "srcKUID": "d69af681a5b043b59258497c8bf4de80",
                "wType": "FlexContainer"
            },
            "isVisible": false
        },
        "flxSearch": {
            "__events__": {},
            "__info__": {
                "kuid": "ca1f7b1f3319432897b81fea8b92a2c3",
                "srcKUID": "c8397c48f8fe4b758a72e50699c1383e",
                "wType": "FlexContainer"
            },
            "right": {
                "Default": 32
            }
        },
        "flxSearchContainer": {
            "__events__": {},
            "__info__": {
                "kuid": "bbd801c853d94f5c8fb1d7cdc65aab70",
                "srcKUID": "f2c45a126e844667bda14ad3d83009e4",
                "wType": "FlexContainer"
            }
        },
        "flxSubHeader": {
            "__events__": {},
            "__info__": {
                "kuid": "c73b89fecef14cfd8ee092d96f31a41e",
                "srcKUID": "h9164354ac8d4fdba73c54494c3ca15c",
                "wType": "FlexContainer"
            },
            "width": {
                "Default": {
                    "type": "string",
                    "value": "100%"
                }
            }
        },
        "fontIconCross": {
            "__events__": {},
            "__info__": {
                "kuid": "d1bfb8533c6b4769aa743e181d6d0583",
                "srcKUID": "c00fcb7c57884242a6b19f90da4fc926",
                "wType": "Label"
            }
        },
        "fontIconSearchImg": {
            "__events__": {},
            "__info__": {
                "kuid": "bfd59c9b60974fc4a02eb078b71d408e",
                "srcKUID": "e0cab33f475f4edc80682504e43f6456",
                "wType": "Label"
            }
        },
        "lblRecords": {
            "__events__": {},
            "__info__": {
                "kuid": "e7f529416b8b4bd7be27b12db3cbb3c7",
                "srcKUID": "b2c0b2ef982f466296ffcc5e6c27bdba",
                "wType": "Label"
            }
        },
        "lbxPageNumbers": {
            "__events__": {},
            "__info__": {
                "kuid": "af05311cc11d417c8fa620cc78e305ce",
                "srcKUID": "e740cc4c33bc4c159a021bebd5f76924",
                "wType": "ListBox"
            }
        },
        "subHeader": {
            "__events__": {},
            "__info__": {
                "isRoot": true,
                "kuid": "c593fb024f0446dcba16f33caf4cf7d5",
                "srcKUID": "d58a9887d7c34a8b81ed6f04b08810ea",
                "wType": "FlexContainer"
            },
            "autogrowMode": {
                "Default": 0
            },
            "height": {
                "Default": {
                    "type": "string",
                    "value": "58px"
                }
            },
            "left": {
                "Default": {
                    "type": "string",
                    "value": "30px"
                }
            },
            "right": {
                "Default": {
                    "type": "string",
                    "value": "35px"
                }
            },
            "top": {
                "Default": {
                    "type": "string",
                    "value": "1px"
                }
            },
            "width": {
                "Default": {
                    "type": "string",
                    "value": ""
                }
            }
        },
        "tbxSearchBox": {
            "__events__": {},
            "__info__": {
                "kuid": "ebafab1b6ee2400aadaff06a320d327a",
                "srcKUID": "ced686da45754d2e859a31b958148437",
                "wType": "TextField"
            }
        }
    },
    "id": "subHeader",
    "info": null,
    "iscustomlayout": false,
    "isdatareferenced": false,
    "isvisible": true,
    "kuid": "aef60d62a80045ffa3eb4abfc380fca8",
    "layouttype": 2,
    "masterType": 0,
    "name": "kony.ui.UserWidgetInstance",
    "parent": "flxSearchInner",
    "pf": "frmAlertsManagement",
    "retaincontentalignment": false,
    "retainflexpositionproperties": false,
    "snapgridsize": 10,
    "snaptogrid": true,
    "sourceUserWidget": "d58a9887d7c34a8b81ed6f04b08810ea",
    "wType": "UserWidgetInstance"
}