{
    "@class": "com.kony.gen.viz.model.component.KVizTextArea2",
    "DNDConfig": null,
    "__parentReadjusting__": false,
    "_height_": {
        "type": "string",
        "value": "85px"
    },
    "_left_": {
        "type": "string",
        "value": "0px"
    },
    "_margin_": [
        2,
        2,
        2,
        2
    ],
    "_padding_": [
        1,
        1,
        1,
        1
    ],
    "_placeholder_": "Display Description",
    "_skin_": "s536e40949e543d0977e62f811483aad",
    "_text_": "Your online banking password was reset at <timestamp>. Please contact the bank if this change was not made by you.",
    "_top_": {
        "type": "string",
        "value": "15px"
    },
    "_width_": {
        "type": "string",
        "value": "100%"
    },
    "autocapitalize": "none",
    "autocomplete": false,
    "autocorrect": false,
    "autofilter": false,
    "canUpdateUI": true,
    "closebuttontext": "",
    "containerheight": "",
    "containerheightmode": 1,
    "containerweight": 100,
    "contentalignment": 1,
    "focusskin": "s536e40949e543d0977e62f811483aad",
    "id": "txtareaEditAlertAlertContent",
    "info": null,
    "isvisible": true,
    "keyboardstyle": "A",
    "keyboardtype": "A",
    "kuid": "a488ebe3c69f4a29ad1a95512faf348b",
    "maxtextlength": 250,
    "mode": "A",
    "name": "kony.ui.TextArea2",
    "numberofvisiblelines": 3,
    "paddinginpixel": false,
    "parent": "flxEditAlertInner",
    "pf": "frmAlertsManagement",
    "securetextentry": false,
    "showoprogressindicator": false,
    "showprogressindicator": false,
    "texti18n": "i18n.frmAlertsManagement.YourOnlineBankingPassword",
    "textinputmode": "A",
    "viewtype": "default",
    "wType": "TextArea",
    "zindex": 1
}