{
    "@class": "com.kony.gen.viz.model.component.KVizTextBox2",
    "DNDConfig": null,
    "__parentReadjusting__": false,
    "_height_": {
        "type": "string",
        "value": "40px"
    },
    "_left_": {
        "type": "string",
        "value": "0dp"
    },
    "_margin_": [
        0,
        0,
        0,
        0
    ],
    "_padding_": [
        4,
        0,
        0,
        0
    ],
    "_placeholder_": "Sub Alert Name",
    "_skin_": "s6bada987e314c58b4c55aaea011ca0a",
    "_text_": "",
    "_top_": {
        "type": "string",
        "value": "25dp"
    },
    "_width_": {
        "type": "string",
        "value": "200dp"
    },
    "autocapitalize": "none",
    "autocomplete": false,
    "autocorrect": false,
    "autofilter": false,
    "canUpdateUI": true,
    "containerheight": "",
    "containerheightmode": 1,
    "containerweight": 100,
    "contentalignment": 4,
    "desktopweb": {
        "psp": {
            "hoverSkin": "sdd37a4822ab40a49ec4fc7d50d5db5f"
        }
    },
    "focusskin": "s9357d21bfa3405db1e4511ef5053cc0",
    "id": "txtbxSubAlertName",
    "info": null,
    "isvisible": true,
    "keyboardtype": "A",
    "kuid": "f90b135b7f474cffb40e703dff3b0e94",
    "maxtextlength": 50,
    "mode": "A",
    "name": "kony.ui.TextBox2",
    "paddingLocked": false,
    "paddinginpixel": false,
    "parent": "flxSubAlertName",
    "pf": "frmAlertsManagement",
    "securetextentry": false,
    "textinputmode": "A",
    "viewtype": "default",
    "wType": "TextField",
    "zindex": 1
}