{
    "@class": "com.kony.gen.viz.model.component.KVizTextArea2",
    "DNDConfig": null,
    "__parentReadjusting__": false,
    "_height_": {
        "type": "string",
        "value": "100dp"
    },
    "_left_": {
        "type": "string",
        "value": "0dp"
    },
    "_margin_": [
        2,
        2,
        2,
        2
    ],
    "_padding_": [
        1,
        1,
        1,
        1
    ],
    "_placeholder_": "Add content here...",
    "_right_": {
        "type": "string",
        "value": "0dp"
    },
    "_skin_": "s536e40949e543d0977e62f811483aad",
    "_text_": "",
    "_top_": {
        "type": "string",
        "value": "30dp"
    },
    "autocapitalize": "none",
    "autocomplete": false,
    "autocorrect": false,
    "autofilter": false,
    "canUpdateUI": true,
    "closebuttontext": "",
    "containerheight": "",
    "containerheightmode": 1,
    "containerweight": 100,
    "contentalignment": 1,
    "focusskin": "s8d158a5ddec42998e3eb9ba71b5a0fc",
    "id": "txtSMSMsg",
    "info": null,
    "isvisible": true,
    "keyboardstyle": "A",
    "keyboardtype": "A",
    "kuid": "f278ce6dbf5f4600b12b31c4bfb5aca8",
    "maxtextlength": 300,
    "mode": "A",
    "name": "kony.ui.TextArea2",
    "numberofvisiblelines": 3,
    "paddinginpixel": false,
    "parent": "flxAddSMSTemplate",
    "pf": "frmAlertsManagement",
    "placeholderi18n": "i18n.frmAlertsManagement.addContentHere",
    "securetextentry": false,
    "showoprogressindicator": false,
    "showprogressindicator": false,
    "textinputmode": "A",
    "viewtype": "default",
    "wType": "TextArea",
    "zindex": 1
}