{
    "@class": "com.kony.gen.viz.model.component.KVizUserWidget",
    "DNDConfig": null,
    "__parentReadjusting__": false,
    "_android_": {},
    "_androidwearos_": {},
    "_bottom_": {
        "type": "string",
        "value": ""
    },
    "_children_": [],
    "_desktopweb_": {},
    "_height_": {
        "type": "ref",
        "value": "preferred"
    },
    "_ipad_": {},
    "_iphone_": {},
    "_kiosk_": {},
    "_left_": {
        "type": "string",
        "value": "0dp"
    },
    "_margin_": [
        0,
        0,
        0,
        0
    ],
    "_orientation_": 1,
    "_padding_": [
        0,
        0,
        0,
        0
    ],
    "_percent_": true,
    "_responsiveData_": {},
    "_right_": {
        "type": "string",
        "value": "0dp"
    },
    "_skin_": "s094cf034ba74d778fe9c91095115ace",
    "_spa_": {},
    "_spaan_": {},
    "_spaandroidtablet_": {},
    "_spabb_": {},
    "_spaip_": {},
    "_spaipad_": {},
    "_spamobile_": {},
    "_spatablet_": {},
    "_spawindowstablet_": {},
    "_spawinphone8_": {},
    "_tabrcandroid_": {},
    "_top_": {
        "type": "string",
        "value": "0dp"
    },
    "_vizProps_": {
        "hidewidgethierarchy": false
    },
    "_windows10_": {},
    "_windows8_": {},
    "_winphone10_": {},
    "_winphone8_": {},
    "areflexpropsreferenced": false,
    "autogrowmode": 1,
    "canUpdateUI": true,
    "clipbounds": true,
    "containerweight": 0,
    "dataDiffs": {
        "ViewTemplate": {
            "__events__": {},
            "__info__": {
                "isRoot": true,
                "kuid": "f46a7a7aa6084f6aa0344a0a1334167d",
                "srcKUID": "fa300c5038b8494bbc0c4447b948a771",
                "wType": "FlexContainer"
            },
            "bottom": {
                "Default": {
                    "type": "string",
                    "value": ""
                }
            },
            "top": {
                "Default": {
                    "type": "string",
                    "value": "0dp"
                }
            }
        },
        "flxChannelText": {
            "__events__": {},
            "__info__": {
                "kuid": "a9e4e67c243a48bd8d12c5c55d9be661",
                "srcKUID": "d43d67b258d4427b926b19bd254e58ea",
                "wType": "FlexContainer"
            }
        },
        "flxTitle": {
            "__events__": {},
            "__info__": {
                "kuid": "f01708c36b6144b7a2ed795b1af7f2eb",
                "srcKUID": "f05917deddab4378af4c230047d80870",
                "wType": "FlexContainer"
            },
            "isVisible": true
        },
        "lblChannelMsg": {
            "__events__": {},
            "__info__": {
                "kuid": "h1dc09f215324da1a0ca296db04e8def",
                "srcKUID": "h9426ec6e12149bcb44dff9caf814ef9",
                "wType": "Label"
            },
            "i18n_text": "i18n.frmAlertsManagement.YouHaveSuccessfully",
            "text": "You have successfully changed your digital banking password. If you did not make this change, contact DBX bank immediately"
        },
        "lblChannelName": {
            "__events__": {},
            "__info__": {
                "kuid": "b876cf62a0e4403ab358b2d047fe5ca1",
                "srcKUID": "i6388c8fd3d34dab81b47a52108b63bd",
                "wType": "Label"
            },
            "i18n_text": "i18n.frmAlertsManagement.NotificationCenter",
            "text": "Notification Center"
        },
        "lblTitle": {
            "__events__": {},
            "__info__": {
                "kuid": "i1a4eb854b1f454fb47f22a15c173bfe",
                "srcKUID": "f6a2d712033f42c99c00c0066dd03162",
                "wType": "Label"
            },
            "i18n_text": "i18n.frmAlertsManagement.TitleColon"
        },
        "lblTitleValue": {
            "__events__": {},
            "__info__": {
                "kuid": "b955f4f67b124b899ee679d0ea70d649",
                "srcKUID": "ef9826216ec445d18cc4fa44e7f2db8a",
                "wType": "Label"
            },
            "i18n_text": "i18n.frmAlertsManagement.PasswordChange",
            "text": "Password changed"
        }
    },
    "enablescrolling": true,
    "id": "ViewTemplateCenter",
    "info": null,
    "iscustomlayout": false,
    "isdatareferenced": false,
    "issegmentchild": false,
    "isvisible": true,
    "kuid": "f46a7a7aa6084f6aa0344a0a1334167d",
    "layouttype": 2,
    "masterType": 0,
    "name": "kony.ui.UserWidgetInstance",
    "parent": "flxViewNotificationCenter",
    "pf": "frmAlertsManagement",
    "retaincontentalignment": false,
    "retainflexpositionproperties": false,
    "snapgridsize": 10,
    "snaptogrid": true,
    "sourceUserWidget": "fa300c5038b8494bbc0c4447b948a771",
    "wType": "UserWidgetInstance"
}