{
    "@class": "com.kony.gen.viz.model.component.KVizUserWidget",
    "DNDConfig": null,
    "__parentReadjusting__": false,
    "_android_": {},
    "_androidwearos_": {},
    "_children_": [],
    "_desktopweb_": {},
    "_height_": {
        "type": "ref",
        "value": "preferred"
    },
    "_ipad_": {},
    "_iphone_": {},
    "_kiosk_": {},
    "_left_": {
        "type": "string",
        "value": "0dp"
    },
    "_margin_": [
        0,
        0,
        0,
        0
    ],
    "_orientation_": 1,
    "_padding_": [
        0,
        0,
        0,
        0
    ],
    "_percent_": true,
    "_skin_": "s8ff24328417401b877c3ceb2a5fa27c",
    "_spa_": {},
    "_spaan_": {},
    "_spaandroidtablet_": {},
    "_spabb_": {},
    "_spaip_": {},
    "_spaipad_": {},
    "_spamobile_": {},
    "_spatablet_": {},
    "_spawindowstablet_": {},
    "_spawinphone8_": {},
    "_tabrcandroid_": {},
    "_top_": {
        "type": "string",
        "value": "40dp"
    },
    "_vizProps_": {
        "hidewidgethierarchy": false
    },
    "_width_": {
        "type": "string",
        "value": "100%"
    },
    "_windows10_": {},
    "_windows8_": {},
    "_winphone10_": {},
    "_winphone8_": {},
    "areflexpropsreferenced": false,
    "autogrowmode": 1,
    "canUpdateUI": true,
    "clipbounds": true,
    "containerweight": 0,
    "dataDiffs": {
        "flxEmpStatus": {
            "__events__": {},
            "__info__": {
                "kuid": "ae5f27bccb4941f1a4fefa6778b473b1",
                "srcKUID": "fea335d0b48348fc925e57bb4709bc48",
                "wType": "FlexContainer"
            }
        },
        "flxIncomeSource": {
            "__events__": {},
            "__info__": {
                "kuid": "g33ce20f55a74ee5b507ca5904439f6d",
                "srcKUID": "j7d6009fc70841488fe862a325ffd510",
                "wType": "FlexContainer"
            }
        },
        "lblEmpStatus": {
            "__events__": {},
            "__info__": {
                "kuid": "hc334c37a34d4c2f8a13648b21a98e1e",
                "srcKUID": "d388e455b32f4d28be86ca0e8c26ade6",
                "wType": "Label"
            }
        },
        "lblEmpStatusValue": {
            "__events__": {},
            "__info__": {
                "kuid": "hb683ce011f74990a1f6795cdb4b83f5",
                "srcKUID": "d220527ca2e9432793474d337bf1247c",
                "wType": "Label"
            }
        },
        "loansSectionHeader": {
            "__events__": {},
            "__info__": {
                "kuid": "c4840f862ea0485eaa024ca54db5cdc2",
                "srcKUID": "eebaa4cef06a4a01826c697569619aeb",
                "wType": "UserWidgetInstance"
            }
        },
        "loansSectionHeader.btnEdit": {
            "__events__": {},
            "__info__": {
                "kuid": "eb267eb51c124f568c011055f2530e8f",
                "srcKUID": "iafc9c84517043df9c78c79a35a1b0d0",
                "wType": "Button"
            }
        },
        "loansSectionHeader.flxSectionHeader": {
            "__events__": {},
            "__info__": {
                "kuid": "f489672960474000915ae5e465f59b3a",
                "srcKUID": "f46a7a38a7314b568967237aaccf84e3",
                "wType": "FlexContainer"
            }
        },
        "loansSectionHeader.lblSectionHeader": {
            "__events__": {},
            "__info__": {
                "kuid": "ha1c3ac8c00d4dc78e7af12aad762c37",
                "srcKUID": "a9d85264cb2a4c039c867c98d72b5e76",
                "wType": "Label"
            }
        },
        "loansSectionHeader.lblSeparator": {
            "__events__": {},
            "__info__": {
                "kuid": "d94305ae5ade46b2a7cc6afb90e42088",
                "srcKUID": "f0bdc3dafa054129852ed0558c10c942",
                "wType": "Label"
            }
        },
        "viewIncomeSource": {
            "__events__": {},
            "__info__": {
                "isRoot": true,
                "kuid": "c29e725d294142f0a07427e517e43ad4",
                "srcKUID": "h7474d0c099749b2a4e8e898b0fdbb36",
                "wType": "FlexContainer"
            }
        }
    },
    "enablescrolling": true,
    "id": "viewIncomeSource",
    "info": null,
    "iscustomlayout": false,
    "isdatareferenced": false,
    "isvisible": true,
    "kuid": "c29e725d294142f0a07427e517e43ad4",
    "layouttype": 2,
    "masterType": 0,
    "name": "kony.ui.UserWidgetInstance",
    "parent": "viewApplicantDetails",
    "pf": "userwidgetmodel",
    "retaincontentalignment": false,
    "retainflexpositionproperties": false,
    "snapgridsize": 10,
    "snaptogrid": true,
    "sourceUserWidget": "h7474d0c099749b2a4e8e898b0fdbb36",
    "wType": "UserWidgetInstance"
}