{
    "@class": "com.kony.gen.viz.model.component.KVizUserWidget",
    "DNDConfig": null,
    "__parentReadjusting__": false,
    "_android_": {},
    "_androidwearos_": {},
    "_children_": [],
    "_desktopweb_": {},
    "_height_": {
        "type": "ref",
        "value": "preferred"
    },
    "_ipad_": {},
    "_iphone_": {},
    "_kiosk_": {},
    "_left_": {
        "type": "string",
        "value": "0dp"
    },
    "_margin_": [
        0,
        0,
        0,
        0
    ],
    "_orientation_": 1,
    "_padding_": [
        0,
        0,
        0,
        0
    ],
    "_percent_": true,
    "_skin_": "s8ff24328417401b877c3ceb2a5fa27c",
    "_spa_": {},
    "_spaan_": {},
    "_spaandroidtablet_": {},
    "_spabb_": {},
    "_spaip_": {},
    "_spaipad_": {},
    "_spamobile_": {},
    "_spatablet_": {},
    "_spawindowstablet_": {},
    "_spawinphone8_": {},
    "_tabrcandroid_": {},
    "_top_": {
        "type": "string",
        "value": "40dp"
    },
    "_vizProps_": {
        "hidewidgethierarchy": false
    },
    "_width_": {
        "type": "string",
        "value": "100%"
    },
    "_windows10_": {},
    "_windows8_": {},
    "_winphone10_": {},
    "_winphone8_": {},
    "areflexpropsreferenced": false,
    "autogrowmode": 1,
    "canUpdateUI": true,
    "clipbounds": true,
    "containerweight": 0,
    "dataDiffs": {
        "flxIncome": {
            "__events__": {},
            "__info__": {
                "kuid": "f07670bf41c14d59b01185ff4ed96a83",
                "srcKUID": "d20523548d6945f680b0fe7acfa3def2",
                "wType": "FlexContainer"
            }
        },
        "flxIncomeInfoSource": {
            "__events__": {},
            "__info__": {
                "kuid": "ba3cb3552a4e47bc87c2d301b057bed9",
                "srcKUID": "ab742c10e04b49c1b5803141c4525201",
                "wType": "FlexContainer"
            }
        },
        "flxIncomeSource": {
            "__events__": {},
            "__info__": {
                "kuid": "a14b55c7388447b995ccd9c80453139c",
                "srcKUID": "b9ca901609b243a394b1d8f2ddb628df",
                "wType": "FlexContainer"
            }
        },
        "lblAdditionalIncome": {
            "__events__": {},
            "__info__": {
                "kuid": "f95b0d0bd0fe4cb18e2a139000416694",
                "srcKUID": "i2f722c7721e4e9685668a1419b59804",
                "wType": "Label"
            }
        },
        "lblAdditionalIncomeValue": {
            "__events__": {},
            "__info__": {
                "kuid": "f8c985c2e0fa4fd29725d87e9bf2a373",
                "srcKUID": "e3d8a213d8a340698842bb1dfdd26aa2",
                "wType": "Label"
            }
        },
        "loansSectionHeader": {
            "__events__": {},
            "__info__": {
                "kuid": "b26e24e8ddb04188a3efa131e356b200",
                "srcKUID": "f56f4a42533f4f9689dcd05d3d6755bf",
                "wType": "UserWidgetInstance"
            }
        },
        "loansSectionHeader.btnEdit": {
            "__events__": {},
            "__info__": {
                "kuid": "ef7993eb1e404e719c29e80b4eb055c9",
                "srcKUID": "cdad6253901f41e8b61b0db60ec7e00f",
                "wType": "Button"
            }
        },
        "loansSectionHeader.flxSectionHeader": {
            "__events__": {},
            "__info__": {
                "kuid": "h2c4aabda32441d3b6165283b67214ea",
                "srcKUID": "d1752ac76010494189f4fb67ed823582",
                "wType": "FlexContainer"
            }
        },
        "loansSectionHeader.lblSectionHeader": {
            "__events__": {},
            "__info__": {
                "kuid": "ec474a44b6384ac68a7e16cdc604d211",
                "srcKUID": "f5dea297d33d4dc68b11d1f98fb3822d",
                "wType": "Label"
            }
        },
        "loansSectionHeader.lblSeparator": {
            "__events__": {},
            "__info__": {
                "kuid": "h5ef50cc804349138d66400e4bc14fbe",
                "srcKUID": "dfff4503b42644b3bb88e8242f3fafdb",
                "wType": "Label"
            }
        },
        "viewAdditionalIncome": {
            "__events__": {},
            "__info__": {
                "isRoot": true,
                "kuid": "h1cf3d3ac10742b9af7aed0d743c531b",
                "srcKUID": "b2ed569196064547927deafa52ca9103",
                "wType": "FlexContainer"
            }
        }
    },
    "enablescrolling": true,
    "id": "viewAdditionalIncome",
    "info": null,
    "iscustomlayout": false,
    "isdatareferenced": false,
    "issegmentchild": false,
    "isvisible": true,
    "kuid": "h1cf3d3ac10742b9af7aed0d743c531b",
    "layouttype": 2,
    "masterType": 0,
    "name": "kony.ui.UserWidgetInstance",
    "parent": "viewApplicantDetails",
    "pf": "userwidgetmodel",
    "retaincontentalignment": false,
    "retainflexpositionproperties": false,
    "snapgridsize": 10,
    "snaptogrid": true,
    "sourceUserWidget": "b2ed569196064547927deafa52ca9103",
    "wType": "UserWidgetInstance"
}