{
    "@class": "com.kony.gen.viz.model.component.KVizUserWidget",
    "DNDConfig": null,
    "__parentReadjusting__": false,
    "_android_": {},
    "_androidwearos_": {},
    "_children_": [],
    "_desktopweb_": {},
    "_height_": {
        "type": "ref",
        "value": "preferred"
    },
    "_ipad_": {},
    "_iphone_": {},
    "_kiosk_": {},
    "_left_": {
        "type": "string",
        "value": "0dp"
    },
    "_margin_": [
        0,
        0,
        0,
        0
    ],
    "_orientation_": 1,
    "_padding_": [
        0,
        0,
        0,
        0
    ],
    "_percent_": true,
    "_skin_": "s8ff24328417401b877c3ceb2a5fa27c",
    "_spa_": {},
    "_spaan_": {},
    "_spaandroidtablet_": {},
    "_spabb_": {},
    "_spaip_": {},
    "_spaipad_": {},
    "_spamobile_": {},
    "_spatablet_": {},
    "_spawindowstablet_": {},
    "_spawinphone8_": {},
    "_tabrcandroid_": {},
    "_top_": {
        "type": "string",
        "value": "40dp"
    },
    "_vizProps_": {
        "hidewidgethierarchy": false
    },
    "_width_": {
        "type": "string",
        "value": "100%"
    },
    "_windows10_": {},
    "_windows8_": {},
    "_winphone10_": {},
    "_winphone8_": {},
    "areflexpropsreferenced": false,
    "autogrowmode": 1,
    "canUpdateUI": true,
    "clipbounds": true,
    "containerweight": 0,
    "dataDiffs": {
        "flxExpenditureInfo": {
            "__events__": {},
            "__info__": {
                "kuid": "j59bebce92ad4ef2ab9e37befbd60879",
                "srcKUID": "baaaa85cd9434f42970518b434edd2ed",
                "wType": "FlexContainer"
            }
        },
        "flxMortgage": {
            "__events__": {},
            "__info__": {
                "kuid": "ced605a3204c43a0a88326c5f0ab5144",
                "srcKUID": "dc5ecf52a9d74d6d8248626eb04f4210",
                "wType": "FlexContainer"
            }
        },
        "flxRent": {
            "__events__": {},
            "__info__": {
                "kuid": "b644d04e92a9453eabfe7f0f3f7a7257",
                "srcKUID": "f7a7f7a54e3444acbf1dea5ecd5d86f1",
                "wType": "FlexContainer"
            }
        },
        "flxSection": {
            "__events__": {},
            "__info__": {
                "kuid": "d090131120064b328829e456fe7db87e",
                "srcKUID": "c83d9835d4c04759ad3b59822473270d",
                "wType": "FlexContainer"
            }
        },
        "lblMortgage": {
            "__events__": {},
            "__info__": {
                "kuid": "ec7841be61594bc68a8b373238e86928",
                "srcKUID": "i3a1d1b8c25a4e2cb7c65ea059f9dc78",
                "wType": "Label"
            }
        },
        "lblMortgageValue": {
            "__events__": {},
            "__info__": {
                "kuid": "fb458a673a0c4e6b9b3e5ebca1d089ee",
                "srcKUID": "hd2ca43f61f64ec083961c1258256e32",
                "wType": "Label"
            }
        },
        "lblRent": {
            "__events__": {},
            "__info__": {
                "kuid": "i520f7613f594044b005072dde0a0d12",
                "srcKUID": "hb3b239071394fe6a834e59ff9dd54b7",
                "wType": "Label"
            }
        },
        "lblRentValue": {
            "__events__": {},
            "__info__": {
                "kuid": "e2bbd154566b49528dc8f86b0cd10526",
                "srcKUID": "b9fd9a1798e344e99752ba30606a5513",
                "wType": "Label"
            }
        },
        "loansSectionHeader": {
            "__events__": {},
            "__info__": {
                "kuid": "fb3808c5b10f448d904052d1e5d55ee1",
                "srcKUID": "if98d8ab4b2b4682a43c20a94f2e4bed",
                "wType": "UserWidgetInstance"
            }
        },
        "loansSectionHeader.btnEdit": {
            "__events__": {},
            "__info__": {
                "kuid": "b5d19449fae94d248dee0c66fc6b5d63",
                "srcKUID": "c2353cf42c564fa69d157a674e4de949",
                "wType": "Button"
            }
        },
        "loansSectionHeader.flxSectionHeader": {
            "__events__": {},
            "__info__": {
                "kuid": "e59e187d2dd646df8dfddb85ce24c7fa",
                "srcKUID": "fb08fca7456344b19412e6b9f30f4c6f",
                "wType": "FlexContainer"
            }
        },
        "loansSectionHeader.lblSectionHeader": {
            "__events__": {},
            "__info__": {
                "kuid": "hfa49c031bf64ef48e608d41e2a98da8",
                "srcKUID": "a1a65353c8c541a8b68a16aacaab9203",
                "wType": "Label"
            }
        },
        "loansSectionHeader.lblSeparator": {
            "__events__": {},
            "__info__": {
                "kuid": "ff97058796be44109140d58525a4a394",
                "srcKUID": "d1891685cc1440788ce229c315bbb8ab",
                "wType": "Label"
            }
        },
        "viewExpenditureInfo": {
            "__events__": {},
            "__info__": {
                "isRoot": true,
                "kuid": "e3e210ab8b7f4e548b2c0bb0c5177b80",
                "srcKUID": "e5cd38ccd7f64419a45b2208bb780d72",
                "wType": "FlexContainer"
            }
        }
    },
    "enablescrolling": true,
    "id": "viewExpenditureInfo",
    "info": null,
    "iscustomlayout": false,
    "isdatareferenced": false,
    "isvisible": true,
    "kuid": "e3e210ab8b7f4e548b2c0bb0c5177b80",
    "layouttype": 2,
    "masterType": 0,
    "name": "kony.ui.UserWidgetInstance",
    "parent": "viewApplicantDetails",
    "pf": "userwidgetmodel",
    "retaincontentalignment": false,
    "retainflexpositionproperties": false,
    "snapgridsize": 10,
    "snaptogrid": true,
    "sourceUserWidget": "e5cd38ccd7f64419a45b2208bb780d72",
    "wType": "UserWidgetInstance"
}