{
    "DNDConfig": null,
    "_height_": {
        "type": "ref",
        "value": "preferred"
    },
    "_margin_": [
        0,
        0,
        0,
        0
    ],
    "_orientation_": 6,
    "_padding_": [
        0,
        0,
        0,
        0
    ],
    "_percent_": true,
    "_skin_": "s094cf034ba74d778fe9c91095115ace",
    "allboxes": [],
    "autogrowmode": 1,
    "canUpdateUI": true,
    "children": [
        "lblServicesName",
        "lblServicesCode",
        "lblServicesType",
        "lblServicesCategory",
        "lblServicesSupportedChannels",
        "flxStatus",
        "flxOptions",
        "lblSeperator"
    ],
    "clipbounds": true,
    "containerId": true,
    "containerweight": 100,
    "controllerInfo": {
        "default": {
            "channel": "desktop",
            "name": "flxServices2Controller"
        }
    },
    "desktopweb": {
        "psp": {
            "hoverSkin": "s512ca636f844ef4aa81b2647c08ce24"
        }
    },
    "enablescrolling": true,
    "id": "flxServices2",
    "info": null,
    "isTemplate": true,
    "isvisible": true,
    "kuid": "b3416134b3814701b8d3f7046a614d5e",
    "layouttype": 2,
    "name": "kony.ui.FlexContainer",
    "parent": "segServices2",
    "pf": "segServices2",
    "snapgridsize": 10,
    "snaptogrid": true,
    "wType": "FlexContainer",
    "widgetalignment": 1
}