{
    "DNDConfig": null,
    "__parentReadjusting__": false,
    "_height_": {
        "type": "string",
        "value": "540px"
    },
    "_left_": {
        "type": "string",
        "value": "35px"
    },
    "_margin_": [
        0,
        0,
        0,
        0
    ],
    "_orientation_": 6,
    "_padding_": [
        0,
        0,
        0,
        0
    ],
    "_percent_": true,
    "_right_": {
        "type": "string",
        "value": "35px"
    },
    "_skin_": "s89d9f5cebff45219abf70b3ec055a0c",
    "_top_": {
        "type": "string",
        "value": "0px"
    },
    "allboxes": [],
    "canUpdateUI": true,
    "children": [
        "flxEditContainerScroll",
        "flxUpdateButtons"
    ],
    "clipbounds": true,
    "containerweight": 100,
    "enablescrolling": true,
    "id": "flxUpdateSettings",
    "info": null,
    "iscustomlayout": false,
    "isvisible": false,
    "kuid": "d7248b748b8448ff87e4a126f05c3044",
    "layouttype": 2,
    "name": "kony.ui.FlexContainer",
    "parent": "flxMainContent",
    "pf": "frmPasswordAgeAndLockoutSettings",
    "retaincontentalignment": false,
    "retainflexpositionproperties": false,
    "retainflowhorizontalalignment": false,
    "snapgridsize": 10,
    "snaptogrid": true,
    "vizProps": {},
    "wType": "FlexContainer",
    "widgetalignment": 1,
    "zindex": 1
}