{
    "DNDConfig": null,
    "__parentReadjusting__": false,
    "_height_": {
        "type": "string",
        "value": "100%"
    },
    "_left_": {
        "type": "string",
        "value": "80px"
    },
    "_margin_": [
        0,
        0,
        0,
        0
    ],
    "_orientation_": 6,
    "_padding_": [
        0,
        0,
        0,
        0
    ],
    "_percent_": true,
    "_skin_": "s375b8a12e784831b071cbca5dd728e4",
    "_top_": {
        "type": "string",
        "value": "0px"
    },
    "_width_": {
        "type": "string",
        "value": "160px"
    },
    "allboxes": [],
    "autogrowmode": 0,
    "canUpdateUI": true,
    "children": [
        "lblUpdatePasswordHistoryCountUnitVal"
    ],
    "clipbounds": true,
    "containerweight": 100,
    "enablescrolling": true,
    "id": "flxUpdatePasswordHistoryCountUnit",
    "info": null,
    "isvisible": true,
    "kuid": "f0f6e51ff1ad48138876d80f35a1f4e3",
    "layouttype": 2,
    "name": "kony.ui.FlexContainer",
    "parent": "flxUpdatePasswordHistoryCountVal",
    "pf": "frmPasswordAgeAndLockoutSettings",
    "snapgridsize": 10,
    "snaptogrid": true,
    "wType": "FlexContainer",
    "widgetalignment": 1,
    "zindex": 1
}