{
    "DNDConfig": null,
    "__parentReadjusting__": false,
    "_height_": {
        "type": "string",
        "value": "40px"
    },
    "_left_": {
        "type": "string",
        "value": "0px"
    },
    "_margin_": [
        0,
        0,
        0,
        0
    ],
    "_orientation_": 6,
    "_padding_": [
        0,
        0,
        0,
        0
    ],
    "_percent_": true,
    "_skin_": "s40ec32f43e74951947e95f4e3a6da04",
    "_top_": {
        "type": "string",
        "value": "9px"
    },
    "_width_": {
        "type": "string",
        "value": "140px"
    },
    "allboxes": [],
    "autogrowmode": 0,
    "canUpdateUI": true,
    "children": [
        "tbxUpdatePasswordValidityVal",
        "flxUpdatePasswordValidityUnit"
    ],
    "clipbounds": true,
    "containerweight": 100,
    "desktopweb": {
        "psp": {}
    },
    "disabledSkins": {
        "focusSkin": "s9787f19d32045418ffcc7e2ec3c0447",
        "hoverSkin": "sd39bba44bf04ef389a7badaca1cfc78"
    },
    "enablescrolling": true,
    "id": "flxUpdatePasswordValidityVal",
    "info": null,
    "iscustomlayout": false,
    "isvisible": true,
    "kuid": "de57b20cf86e484e8b550804de771a02",
    "layouttype": 2,
    "name": "kony.ui.FlexContainer",
    "parent": "flxUpdatePasswordValidity",
    "pf": "frmPasswordAgeAndLockoutSettings",
    "retaincontentalignment": false,
    "retainflexpositionproperties": false,
    "snapgridsize": 10,
    "snaptogrid": true,
    "wType": "FlexContainer",
    "widgetalignment": 1,
    "zindex": 1
}