{
    "@class": "com.kony.gen.viz.model.component.KVizLabel",
    "DNDConfig": null,
    "__parentReadjusting__": false,
    "_height_": {
        "type": "ref",
        "value": "preferred"
    },
    "_margin_": [
        1,
        1,
        1,
        1
    ],
    "_padding_": [
        0,
        0,
        0,
        0
    ],
    "_skin_": "s0ce9475ec794660a4fdb2f926a307af",
    "_text_": "4322",
    "_top_": {
        "type": "string",
        "value": "14px"
    },
    "_width_": {
        "type": "ref",
        "value": "preferred"
    },
    "_wrapping_": 2,
    "android": {
        "textStyle": {
            "letterSpacing": 0,
            "strikeThrough": false
        }
    },
    "canUpdateUI": true,
    "centerx": {
        "type": "string",
        "value": "50%"
    },
    "containerweight": 100,
    "contentalignment": 4,
    "id": "lblCount2",
    "info": null,
    "ipad": {
        "psp": {
            "wrapping": 2
        }
    },
    "iphone": {
        "psp": {
            "wrapping": 2
        }
    },
    "isvisible": true,
    "kuid": "e9926bb7d88c43be9b34697d3dd95d66",
    "name": "kony.ui.Label",
    "parent": "flxHeader2",
    "pf": "userwidgetmodel",
    "texti18n": "i18n.userwidgetmodel.lblCount2",
    "tooltip": "",
    "wType": "Label",
    "zindex": 1
}