{
    "@class": "com.kony.gen.viz.model.component.KVizLabel",
    "DNDConfig": null,
    "__parentReadjusting__": false,
    "_height_": {
        "type": "string",
        "value": "15px"
    },
    "_left_": {
        "type": "string",
        "value": "5px"
    },
    "_margin_": [
        1,
        1,
        1,
        1
    ],
    "_padding_": [
        0,
        0,
        0,
        0
    ],
    "_skin_": "s03c575e19824493844ebe37cecb2b88",
    "_text_": "",
    "_width_": {
        "type": "string",
        "value": "15px"
    },
    "_wrapping_": 2,
    "android": {
        "textStyle": {
            "letterSpacing": 0,
            "strikeThrough": false
        }
    },
    "canUpdateUI": true,
    "centery": {
        "type": "string",
        "value": "50%"
    },
    "containerweight": 100,
    "contentalignment": 4,
    "id": "lblFontIconStatus4",
    "info": null,
    "ipad": {
        "psp": {
            "wrapping": 2
        }
    },
    "iphone": {
        "psp": {
            "wrapping": 2
        }
    },
    "isvisible": true,
    "kuid": "f461da38b0bb4c58a404c710b760725a",
    "name": "kony.ui.Label",
    "parent": "flxDetials4",
    "pf": "userwidgetmodel",
    "texti18n": "i18n.userwidgetmodel.lblFontIconStatus1",
    "tooltip": "",
    "wType": "Label",
    "zindex": 1
}