{
    "@class": "com.kony.gen.viz.model.component.KVizLabel",
    "DNDConfig": null,
    "__parentReadjusting__": false,
    "_height_": {
        "type": "ref",
        "value": "preferred"
    },
    "_left_": {
        "type": "string",
        "value": "0px"
    },
    "_margin_": [
        1,
        1,
        1,
        1
    ],
    "_padding_": [
        0,
        0,
        0,
        0
    ],
    "_skin_": "s910af361f9d48e0859e7d2b4d08cdf7",
    "_text_": "NEW",
    "_width_": {
        "type": "string",
        "value": "40px"
    },
    "_wrapping_": 2,
    "android": {
        "textStyle": {
            "letterSpacing": 0,
            "strikeThrough": false
        }
    },
    "canUpdateUI": true,
    "centery": {
        "type": "string",
        "value": "50%"
    },
    "containerweight": 100,
    "contentalignment": 4,
    "id": "lblStatus1",
    "info": null,
    "ipad": {
        "psp": {
            "wrapping": 2
        }
    },
    "iphone": {
        "psp": {
            "wrapping": 2
        }
    },
    "isvisible": true,
    "kuid": "b17325402fa245c09283cabaf1469ad7",
    "name": "kony.ui.Label",
    "parent": "flxDetials1",
    "pf": "userwidgetmodel",
    "texti18n": "i18n.frmCSRController.NEW",
    "tooltip": "",
    "wType": "Label",
    "zindex": 1
}