{
    "DNDConfig": null,
    "_height_": {
        "type": "ref",
        "value": "preferred"
    },
    "_margin_": [
        0,
        0,
        0,
        0
    ],
    "_orientation_": 6,
    "_padding_": [
        0,
        0,
        0,
        0
    ],
    "_percent_": true,
    "_skin_": "s8ff24328417401b877c3ceb2a5fa27c",
    "allboxes": [],
    "autogrowmode": 1,
    "canUpdateUI": true,
    "children": [
        "flxCustMangRequestHeader",
        "flxCustMangRequestDesc",
        "flxSeperator"
    ],
    "clipbounds": true,
    "containerId": true,
    "containerweight": 100,
    "controllerInfo": {
        "default": {
            "channel": "desktop",
            "name": "flxCustMangRequestSelectedController"
        }
    },
    "desktopweb": {
        "psp": {
            "hoverSkin": "s512ca636f844ef4aa81b2647c08ce24"
        }
    },
    "disabledSkins": {},
    "enablescrolling": true,
    "id": "flxCustMangRequestSelected",
    "ide_onClick": "AS_FlexContainer_e553ee3b13fe4973aef70f31c7776c5d",
    "info": null,
    "isTemplate": true,
    "isvisible": true,
    "kuid": "iaf71d7a6e0041e89f2d495aed79d84c",
    "layouttype": 4,
    "name": "kony.ui.FlexContainer",
    "parent": "segCustMangRequestSelected",
    "pf": "segCustMangRequestSelected",
    "snapgridsize": 10,
    "snaptogrid": true,
    "wType": "FlexContainer",
    "widgetalignment": 1
}