{
    "DNDConfig": null,
    "__markedForDelete__": true,
    "__parentReadjusting__": false,
    "_height_": {
        "type": "string",
        "value": "25px"
    },
    "_left_": {
        "type": "string",
        "value": "0px"
    },
    "_margin_": [
        0,
        0,
        0,
        0
    ],
    "_orientation_": 6,
    "_padding_": [
        0,
        0,
        0,
        0
    ],
    "_percent_": true,
    "_skin_": "s8ff24328417401b877c3ceb2a5fa27c",
    "_width_": {
        "type": "string",
        "value": "27%"
    },
    "allboxes": [],
    "autogrowmode": 0,
    "canUpdateUI": true,
    "centery": {
        "type": "string",
        "value": "50%"
    },
    "children": [
        "flxArrow",
        "lblRequestNumber"
    ],
    "clipbounds": true,
    "containerId": true,
    "containerweight": 100,
    "enablescrolling": true,
    "id": "flxFirstColoum",
    "ide_onClick": "AS_FlexContainer_g1f37c06974d4c3998965f5648994b5e",
    "info": null,
    "isvisible": true,
    "kuid": "d3c28461358c41968686d6426de2383d",
    "layouttype": 3,
    "name": "kony.ui.FlexContainer",
    "parent": "flxCustMangRequestHeader",
    "pf": "segCustMangRequestSelected",
    "snapgridsize": 10,
    "snaptogrid": true,
    "wType": "FlexContainer",
    "widgetalignment": 1,
    "zindex": 2
}