{
    "@class": "com.kony.gen.viz.model.component.KVizButton",
    "DNDConfig": null,
    "__parentReadjusting__": false,
    "_bottom_": {
        "type": "string",
        "value": "0dp"
    },
    "_height_": {
        "type": "string",
        "value": "45dp"
    },
    "_left_": {
        "type": "string",
        "value": "10dp"
    },
    "_margin_": [
        6,
        6,
        6,
        6
    ],
    "_padding_": [
        2,
        0,
        2,
        0
    ],
    "_skin_": "s2c26b44e560427d834495a365bc2df5",
    "_text_": "TAB",
    "_width_": {
        "type": "ref",
        "value": "preferred"
    },
    "canUpdateUI": true,
    "containerweight": 100,
    "contentalignment": 5,
    "disabledSkins": {
        "focusSkin": "s5aa06a3b1364ab0afbadc12fdfdfd50"
    },
    "displaytext": true,
    "focusskin": null,
    "id": "btnTab2",
    "info": null,
    "iscustomlayout": false,
    "isvisible": true,
    "kuid": "h1be0fb22c02453c8b710730c210948c",
    "name": "kony.ui.Button",
    "parent": "flxTabsContainer",
    "pf": "userwidgetmodel",
    "retaincontentalignment": false,
    "retainflexpositionproperties": false,
    "wType": "Button",
    "zindex": 1
}