{
    "@class": "com.kony.gen.viz.model.component.KVizUserWidget",
    "DNDConfig": null,
    "__parentReadjusting__": false,
    "_children_": [],
    "_desktopweb_": {},
    "_height_": {
        "type": "string",
        "value": "80px"
    },
    "_left_": {
        "type": "string",
        "value": "0dp"
    },
    "_margin_": [
        0,
        0,
        0,
        0
    ],
    "_orientation_": 1,
    "_padding_": [
        0,
        0,
        0,
        0
    ],
    "_percent_": true,
    "_render_": true,
    "_responsiveData_": {},
    "_skin_": "s8ff24328417401b877c3ceb2a5fa27c",
    "_top_": {
        "type": "string",
        "value": "0dp"
    },
    "_vizProps_": {
        "hidewidgethierarchy": false
    },
    "_width_": {
        "type": "string",
        "value": "100%"
    },
    "areflexpropsreferenced": false,
    "canUpdateUI": true,
    "clipbounds": true,
    "containerweight": 0,
    "dataDiffs": {
        "btnCancel": {
            "__events__": {},
            "__info__": {
                "kuid": "ab93c09693f84a89beebf912943dcf8b",
                "srcKUID": "hb7e8e6dc73a4044aaa1636cb1f70704",
                "wType": "Button"
            }
        },
        "btnNext": {
            "__events__": {},
            "__info__": {
                "kuid": "db347e43a3b2404fa008ff8b315f3856",
                "srcKUID": "if89a3cc957141078b03996441e09d8c",
                "wType": "Button"
            }
        },
        "btnSave": {
            "__events__": {},
            "__info__": {
                "kuid": "c1aa383833584c66809e220e7133ace5",
                "srcKUID": "af70c434338f4068a24a87b45c58f9ee",
                "wType": "Button"
            }
        },
        "commonButtons": {
            "__events__": {},
            "__info__": {
                "isRoot": true,
                "kuid": "j0723d11f8aa4f9f92a5edfa7a112e46",
                "srcKUID": "cc441f293bdb4489aebfc9b06fe5513e",
                "wType": "FlexContainer"
            }
        },
        "flxRightButtons": {
            "__events__": {},
            "__info__": {
                "kuid": "cff95697cbfe4548845a7dc606c2802a",
                "srcKUID": "beae25c502d54e038c70de835ec18eca",
                "wType": "FlexContainer"
            }
        }
    },
    "id": "commonButtons",
    "info": null,
    "isdatareferenced": false,
    "isvisible": true,
    "kuid": "gefc73385f7c46baa55016b54c4e540c",
    "layouttype": 2,
    "masterType": 0,
    "name": "kony.ui.UserWidgetInstance",
    "parent": "flxCommonButtons",
    "pf": "frmServiceManagement",
    "snaptogrid": true,
    "sourceUserWidget": "cc441f293bdb4489aebfc9b06fe5513e",
    "wType": "UserWidgetInstance"
}