{
    "@class": "com.kony.gen.viz.model.component.KVizUserWidget",
    "DNDConfig": null,
    "__parentReadjusting__": false,
    "_children_": [],
    "_desktopweb_": {},
    "_height_": {
        "type": "ref",
        "value": "preferred"
    },
    "_left_": {
        "type": "string",
        "value": "0dp"
    },
    "_margin_": [
        0,
        0,
        0,
        0
    ],
    "_orientation_": 1,
    "_padding_": [
        0,
        0,
        0,
        0
    ],
    "_percent_": true,
    "_render_": true,
    "_responsiveData_": {},
    "_skin_": "s8ff24328417401b877c3ceb2a5fa27c",
    "_top_": {
        "type": "string",
        "value": "0dp"
    },
    "_vizProps_": {
        "hidewidgethierarchy": false
    },
    "_width_": {
        "type": "string",
        "value": "100%"
    },
    "areflexpropsreferenced": false,
    "autogrowmode": 1,
    "canUpdateUI": true,
    "clipbounds": true,
    "containerweight": 0,
    "dataDiffs": {
        "customSwitch": {
            "__events__": {},
            "__info__": {
                "isRoot": true,
                "kuid": "b9d9065dd4b04ad9a4d03d651ad3209a",
                "srcKUID": "c06545a20b254394bab1c49b581f7b29",
                "wType": "FlexContainer"
            }
        },
        "switchToggle": {
            "__events__": {},
            "__info__": {
                "kuid": "eb31e28ec2e94423a4a61fdd6827f3eb",
                "srcKUID": "ebe9e090077d420b8cdad81410720cb6",
                "wType": "Switch"
            },
            "right": {
                "Default": {
                    "type": "string",
                    "value": ""
                }
            }
        }
    },
    "id": "customSwitchOperations",
    "info": null,
    "isdatareferenced": false,
    "isvisible": true,
    "kuid": "g2646826523e4be080602bc6a6c02636",
    "layouttype": 2,
    "masterType": 0,
    "name": "kony.ui.UserWidgetInstance",
    "parent": "flxSwitchOperations",
    "pf": "frmServiceManagement",
    "snaptogrid": true,
    "sourceUserWidget": "c06545a20b254394bab1c49b581f7b29",
    "wType": "UserWidgetInstance"
}