{
    "DNDConfig": null,
    "__parentReadjusting__": false,
    "_height_": {
        "type": "string",
        "value": "50dp"
    },
    "_left_": {
        "type": "string",
        "value": "0dp"
    },
    "_margin_": [
        0,
        0,
        0,
        0
    ],
    "_orientation_": 6,
    "_padding_": [
        0,
        0,
        0,
        0
    ],
    "_percent_": true,
    "_skin_": "s8ff24328417401b877c3ceb2a5fa27c",
    "_top_": {
        "type": "string",
        "value": "50dp"
    },
    "_width_": {
        "type": "string",
        "value": "100%"
    },
    "allboxes": [],
    "autogrowmode": 0,
    "canUpdateUI": true,
    "children": [
        "flxDetailsServiceChannelHeader",
        "flxDetailsServiceChannelContent",
        "flxDetailsServiceSmsAlertHeader",
        "flxDetailsServiceSmsAlertContent",
        "flxDetailsServiceBeneficiarySmsAlertHeader",
        "flxDetailsServiceBeneficiarySmsAlertContent"
    ],
    "clipbounds": true,
    "containerweight": 100,
    "enablescrolling": true,
    "id": "flxDetailsContent2",
    "info": null,
    "isvisible": true,
    "kuid": "e614e793c9734e16b58d8a4627f4f33a",
    "layouttype": 2,
    "name": "kony.ui.FlexContainer",
    "parent": "flxDetailsContent",
    "pf": "frmServiceManagement",
    "snapgridsize": 10,
    "snaptogrid": true,
    "wType": "FlexContainer",
    "widgetalignment": 1,
    "zindex": 1
}