{
    "DNDConfig": null,
    "__parentReadjusting__": false,
    "_height_": {
        "type": "string",
        "value": "500dp"
    },
    "_left_": {
        "type": "number",
        "value": "0"
    },
    "_margin_": [
        0,
        0,
        0,
        0
    ],
    "_orientation_": 6,
    "_padding_": [
        0,
        0,
        0,
        0
    ],
    "_percent_": true,
    "_skin_": "s8072de1ea1f4bb1a95960e46cdcfdb6",
    "_top_": {
        "type": "number",
        "value": "0"
    },
    "_width_": {
        "type": "string",
        "value": "700dp"
    },
    "allboxes": [],
    "autogrowmode": 0,
    "canUpdateUI": true,
    "centerx": {
        "type": "string",
        "value": "50%"
    },
    "centery": {
        "type": "string",
        "value": "50%"
    },
    "children": [
        "flxServicesScheduleMasterTopColor",
        "lblServicesScheduleMasterHeader",
        "flxScheduleMasterClose",
        "flxServicesScheduleMasterContent",
        "flxServicesScheduleMasterButtons"
    ],
    "clipbounds": true,
    "containerweight": 100,
    "enablescrolling": true,
    "id": "flxServicesScheduleMaster",
    "info": null,
    "isvisible": true,
    "kuid": "b22e3a9e5033459292186753f4d56148",
    "layouttype": 2,
    "name": "kony.ui.FlexContainer",
    "parent": "flxScheduleMaster",
    "pf": "frmServiceManagement",
    "snapgridsize": 10,
    "snaptogrid": true,
    "wType": "FlexContainer",
    "widgetalignment": 1,
    "zindex": 10
}