{
    "DNDConfig": null,
    "__parentReadjusting__": false,
    "_height_": {
        "type": "string",
        "value": "80dp"
    },
    "_left_": {
        "type": "number",
        "value": "0"
    },
    "_margin_": [
        0,
        0,
        0,
        0
    ],
    "_orientation_": 6,
    "_padding_": [
        0,
        0,
        0,
        0
    ],
    "_percent_": true,
    "_skin_": "sb4c8b86f2eb4837aff278d8b020bbb3",
    "_top_": {
        "type": "string",
        "value": "420dp"
    },
    "_width_": {
        "type": "string",
        "value": "100%"
    },
    "allboxes": [],
    "autogrowmode": 0,
    "canUpdateUI": true,
    "children": [
        "btnScheduleMasterAdd",
        "btnScheduleMasterCancel"
    ],
    "clipbounds": true,
    "containerweight": 100,
    "enablescrolling": true,
    "id": "flxServicesScheduleMasterButtons",
    "info": null,
    "isvisible": true,
    "kuid": "f7b79cdd79674960a07af50ffbd392cd",
    "layouttype": 2,
    "name": "kony.ui.FlexContainer",
    "parent": "flxServicesScheduleMaster",
    "pf": "frmServiceManagement",
    "snapgridsize": 10,
    "snaptogrid": true,
    "wType": "FlexContainer",
    "widgetalignment": 1,
    "zindex": 10
}