{
    "DNDConfig": null,
    "__parentReadjusting__": false,
    "_height_": {
        "type": "string",
        "value": "260dp"
    },
    "_left_": {
        "type": "string",
        "value": "0dp"
    },
    "_margin_": [
        0,
        0,
        0,
        0
    ],
    "_orientation_": 6,
    "_padding_": [
        0,
        0,
        0,
        0
    ],
    "_percent_": true,
    "_skin_": "s8ff24328417401b877c3ceb2a5fa27c",
    "_top_": {
        "type": "string",
        "value": "30dp"
    },
    "_width_": {
        "type": "string",
        "value": "100%"
    },
    "allboxes": [],
    "autogrowmode": 0,
    "canUpdateUI": true,
    "children": [
        "lblCategory",
        "rbCategory",
        "flxNoCategoryError",
        "lblServiceStatus",
        "flxServiceStatusSwitch",
        "lblServiceChannel",
        "flxServiceChannel",
        "flxNoServiceChannelError",
        "lblSchedule",
        "flxScheduleClick"
    ],
    "clipbounds": true,
    "containerweight": 100,
    "enablescrolling": true,
    "id": "flxSettingsContent",
    "info": null,
    "isvisible": true,
    "kuid": "c044b2b88db948cfae1ed81dcf7a7b6d",
    "layouttype": 2,
    "name": "kony.ui.FlexContainer",
    "parent": "flxSettings",
    "pf": "frmServiceManagement",
    "snapgridsize": 10,
    "snaptogrid": true,
    "wType": "FlexContainer",
    "widgetalignment": 1,
    "zindex": 1
}