{
    "@class": "com.kony.gen.viz.model.component.KVizLabel",
    "DNDConfig": null,
    "__parentReadjusting__": false,
    "_height_": {
        "type": "string",
        "value": "100%"
    },
    "_left_": {
        "type": "string",
        "value": "0dp"
    },
    "_margin_": [
        1,
        1,
        1,
        1
    ],
    "_padding_": [
        0,
        0,
        0,
        0
    ],
    "_skin_": "sbe8844072184526a7df33e6ec5ad4b7",
    "_text_": "DISPLAY NAME",
    "_top_": {
        "type": "string",
        "value": "0dp"
    },
    "_width_": {
        "type": "string",
        "value": "100%"
    },
    "_wrapping_": 2,
    "android": {
        "textStyle": {
            "letterSpacing": 0,
            "strikeThrough": false
        }
    },
    "canUpdateUI": true,
    "containerweight": 100,
    "contentalignment": 4,
    "id": "lblDetailsServiceDisplayNameHeader",
    "info": null,
    "ipad": {
        "psp": {
            "wrapping": 2
        }
    },
    "iphone": {
        "psp": {
            "wrapping": 2
        }
    },
    "isvisible": true,
    "kuid": "ac1f359a3d3a4eb2bcdd43186ba196d0",
    "name": "kony.ui.Label",
    "parent": "flxDetailsServiceDisplayNameHeader",
    "pf": "frmServiceManagement",
    "texti18n": "i18n.View.DISPLAYNAME",
    "tooltip": "",
    "wType": "Label",
    "zindex": 1
}