{
    "@class": "com.kony.gen.viz.model.component.KVizLabel",
    "DNDConfig": null,
    "__parentReadjusting__": false,
    "_height_": {
        "type": "ref",
        "value": "preferred"
    },
    "_left_": {
        "type": "string",
        "value": "0dp"
    },
    "_margin_": [
        1,
        1,
        1,
        1
    ],
    "_padding_": [
        0,
        0,
        0,
        0
    ],
    "_skin_": "sb1e9e3bfa2d4ca9a7447ee5ac99c3fb",
    "_text_": "OPERATIONS",
    "_width_": {
        "type": "string",
        "value": "80dp"
    },
    "_wrapping_": 2,
    "android": {
        "textStyle": {
            "letterSpacing": 0,
            "strikeThrough": false
        }
    },
    "canUpdateUI": true,
    "centery": {
        "type": "string",
        "value": "50%"
    },
    "containerweight": 100,
    "contentalignment": 4,
    "id": "lblOperations",
    "info": null,
    "ipad": {
        "psp": {
            "wrapping": 2
        }
    },
    "iphone": {
        "psp": {
            "wrapping": 2
        }
    },
    "isvisible": true,
    "kuid": "caf7b3d46be74d84aeff0e27bebdfc11",
    "name": "kony.ui.Label",
    "parent": "flxHeadingOperation",
    "pf": "frmServiceManagement",
    "texti18n": "i18n.Group.OPERATIONS",
    "tooltip": "",
    "wType": "Label",
    "zindex": 1
}