{
    "@class": "com.kony.gen.viz.model.component.KVizUserWidget",
    "DNDConfig": null,
    "__parentReadjusting__": false,
    "_bottom_": {
        "type": "string",
        "value": ""
    },
    "_children_": [],
    "_desktopweb_": {},
    "_height_": {
        "type": "string",
        "value": "100%"
    },
    "_left_": {
        "type": "string",
        "value": "0dp"
    },
    "_margin_": [
        0,
        0,
        0,
        0
    ],
    "_orientation_": 1,
    "_padding_": [
        0,
        0,
        0,
        0
    ],
    "_percent_": true,
    "_render_": true,
    "_responsiveData_": {},
    "_right_": {
        "type": "string",
        "value": ""
    },
    "_skin_": "s39233a8d65f40d5b9120e116f6d9ef6",
    "_top_": {
        "type": "string",
        "value": "0dp"
    },
    "_vizProps_": {
        "hidewidgethierarchy": false
    },
    "_width_": {
        "type": "string",
        "value": "100%"
    },
    "areflexpropsreferenced": false,
    "autogrowmode": 0,
    "canUpdateUI": true,
    "centerx": {
        "type": "string",
        "value": ""
    },
    "centery": {
        "type": "string",
        "value": ""
    },
    "clipbounds": true,
    "containerweight": 0,
    "dataDiffs": {
        "btnPopUpCancel": {
            "__events__": {},
            "__info__": {
                "kuid": "c1aa67c071fd469589461ac43fc3d2f4",
                "srcKUID": "g552e00534a64c94b7e8432ae19e32be",
                "wType": "Button"
            },
            "i18n_text": "i8n.navigation.cancelButton"
        },
        "btnPopUpDelete": {
            "__events__": {},
            "__info__": {
                "kuid": "j6cf2306896d4097a8ffabd65019ef5a",
                "srcKUID": "j21d83290bfc4cc29a0b48797cce32dc",
                "wType": "Button"
            },
            "i18n_text": "i8n.navigation.okButton"
        },
        "flxPopUp": {
            "__events__": {},
            "__info__": {
                "kuid": "df23dec8e48b4c6c9b3fded520b1d805",
                "srcKUID": "b3b6c1b67bec40aeb9afec3da3aa0d8e",
                "wType": "FlexContainer"
            }
        },
        "flxPopUpButtons": {
            "__events__": {},
            "__info__": {
                "kuid": "a13867ca883244979068858b2b69a112",
                "srcKUID": "g2892d3bb666464291b179abd349e4f8",
                "wType": "FlexContainer"
            }
        },
        "flxPopUpClose": {
            "__events__": {},
            "__info__": {
                "kuid": "a68ca04e551341058db585f58b792ac4",
                "srcKUID": "cb66f68b3c0845eea5e6ef874da0a3a2",
                "wType": "FlexContainer"
            }
        },
        "flxPopUpTopColor": {
            "__events__": {},
            "__info__": {
                "kuid": "c6910f8456c5418da7b81cc9a9ffec84",
                "srcKUID": "b5d4c1101ef948938dccd5d65d4e9080",
                "wType": "FlexContainer"
            }
        },
        "flxPopupHeader": {
            "__events__": {},
            "__info__": {
                "kuid": "a05931144e3042c2a190f8d9dd5a4ecd",
                "srcKUID": "e0e28c5127b244c389162777b8d82974",
                "wType": "FlexContainer"
            }
        },
        "imgPopUpClose": {
            "__events__": {},
            "__info__": {
                "kuid": "bbebd15459bb4ce29788c0594e1b0a47",
                "srcKUID": "h3d585875d654994ae06962f33750f41",
                "wType": "Image"
            }
        },
        "lblPopUpMainMessage": {
            "__events__": {},
            "__info__": {
                "kuid": "c73c64b1933d4a868306b7e1fcbdd569",
                "srcKUID": "fd9f14b724e84619bddaf7f31975c1de",
                "wType": "Label"
            },
            "i18n_text": "i8n.navigation.cancelChanges"
        },
        "lblPopupClose": {
            "__events__": {},
            "__info__": {
                "kuid": "d74302a465294ffcaeaf6acca6a7aea4",
                "srcKUID": "i85a6cf8cb4b418a865a8fd2df968f9e",
                "wType": "Label"
            }
        },
        "popUpCancelEdits": {
            "__events__": {},
            "__info__": {
                "isRoot": true,
                "kuid": "hf6d3f4a625749e1998a6e84a630d424",
                "srcKUID": "a51dfb83d74844df8f40080c6b140c04",
                "wType": "FlexContainer"
            },
            "autogrowMode": {
                "Default": 0
            },
            "bottom": {
                "Default": {
                    "type": "string",
                    "value": ""
                }
            },
            "centerX": {
                "Default": {
                    "type": "string",
                    "value": ""
                }
            },
            "centerY": {
                "Default": {
                    "type": "string",
                    "value": ""
                }
            },
            "height": {
                "Default": {
                    "type": "string",
                    "value": "100%"
                }
            },
            "left": {
                "Default": {
                    "type": "string",
                    "value": "0dp"
                }
            },
            "maxHeight": {
                "Default": {
                    "type": "string",
                    "value": ""
                }
            },
            "maxWidth": {
                "Default": {
                    "type": "string",
                    "value": ""
                }
            },
            "minHeight": {
                "Default": {
                    "type": "string",
                    "value": ""
                }
            },
            "minWidth": {
                "Default": {
                    "type": "string",
                    "value": ""
                }
            },
            "right": {
                "Default": {
                    "type": "string",
                    "value": ""
                }
            },
            "top": {
                "Default": {
                    "type": "string",
                    "value": "0dp"
                }
            },
            "width": {
                "Default": {
                    "type": "string",
                    "value": "100%"
                }
            }
        },
        "rtxPopUpDisclaimer": {
            "__events__": {},
            "__info__": {
                "kuid": "e189e01b3b91414cb255c790a494522f",
                "srcKUID": "j6a3a55c67394eeabf87473139845f70",
                "wType": "RichText"
            },
            "i18n_text": "i8n.navigation.cancelChangesBody"
        }
    },
    "id": "popUpCancelEdits",
    "info": null,
    "iscustomlayout": false,
    "isdatareferenced": false,
    "isvisible": true,
    "kuid": "eff2dc664e1b43e5aa78e270ab3a2239",
    "layouttype": 2,
    "masterType": 0,
    "maxheight": {
        "type": "string",
        "value": ""
    },
    "maxwidth": {
        "type": "string",
        "value": ""
    },
    "minheight": {
        "type": "string",
        "value": ""
    },
    "minwidth": {
        "type": "string",
        "value": ""
    },
    "name": "kony.ui.UserWidgetInstance",
    "parent": "flxEditCancelConfirmation",
    "pf": "frmServiceManagement",
    "retaincontentalignment": false,
    "retainflexpositionproperties": false,
    "snaptogrid": true,
    "sourceUserWidget": "a51dfb83d74844df8f40080c6b140c04",
    "wType": "UserWidgetInstance",
    "zindex": 1
}