{
    "@class": "com.kony.gen.viz.model.component.KVizUserWidget",
    "DNDConfig": null,
    "__parentReadjusting__": false,
    "_children_": [],
    "_desktopweb_": {},
    "_height_": {
        "type": "ref",
        "value": "preferred"
    },
    "_left_": {
        "type": "string",
        "value": "0dp"
    },
    "_margin_": [
        0,
        0,
        0,
        0
    ],
    "_orientation_": 1,
    "_padding_": [
        0,
        0,
        0,
        0
    ],
    "_percent_": true,
    "_render_": true,
    "_responsiveData_": {},
    "_skin_": "s8ff24328417401b877c3ceb2a5fa27c",
    "_top_": {
        "type": "string",
        "value": "5dp"
    },
    "_vizProps_": {
        "hidewidgethierarchy": false
    },
    "_width_": {
        "type": "string",
        "value": "100%"
    },
    "areflexpropsreferenced": false,
    "autogrowmode": 1,
    "canUpdateUI": true,
    "clipbounds": true,
    "containerweight": 0,
    "dataDiffs": {
        "flxArrowImage": {
            "__events__": {},
            "__info__": {
                "kuid": "h1bb5431d59a4fb797f65c95d6ebcc4c",
                "srcKUID": "e7b826a9ded041789bb5730cdd1eb78d",
                "wType": "FlexContainer"
            }
        },
        "flxChechboxOuter": {
            "__events__": {},
            "__info__": {
                "kuid": "d143ca74461144629850d77e9d3285ca",
                "srcKUID": "b678997e4ce643379e29f831f9e86639",
                "wType": "FlexContainer"
            },
            "zIndex": {
                "Default": 1
            }
        },
        "imgUpArrow": {
            "__events__": {},
            "__info__": {
                "kuid": "aa188f3b24e44223a3953d4f03062b8e",
                "srcKUID": "f853b1ee32b74c379a8ff3fd820d5ce1",
                "wType": "Image"
            },
            "src": "uparrow_2x.png"
        },
        "segStatusFilterDropdown": {
            "__events__": {},
            "__info__": {
                "kuid": "jc4591df76f3494d80f2c67a033f5d4b",
                "srcKUID": "ida2f212b38b4e25bdb9fcb01c874379",
                "wType": "Segment"
            },
            "top": {
                "Default": {
                    "type": "string",
                    "value": "5dp"
                }
            },
            "zIndex": {
                "Default": 1
            }
        },
        "statusFilterMenu": {
            "__events__": {},
            "__info__": {
                "isRoot": true,
                "kuid": "e81c4defbc1c4eddacbefdf3f221784b",
                "srcKUID": "dd73ab57bfd74a4b8c7dc5be300ddec8",
                "wType": "FlexContainer"
            }
        }
    },
    "id": "statusFilterMenu",
    "info": null,
    "iscustomlayout": false,
    "isdatareferenced": false,
    "isvisible": true,
    "kuid": "i50f964e28074d75b561877abea2c624",
    "layouttype": 2,
    "masterType": 0,
    "name": "kony.ui.UserWidgetInstance",
    "parent": "flxServiceStatusFilter",
    "pf": "frmServiceManagement",
    "retaincontentalignment": false,
    "retainflexpositionproperties": false,
    "snaptogrid": true,
    "sourceUserWidget": "dd73ab57bfd74a4b8c7dc5be300ddec8",
    "wType": "UserWidgetInstance",
    "zindex": 5
}