{
    "@class": "com.kony.gen.viz.model.component.KVizSwitch",
    "DNDConfig": null,
    "__parentReadjusting__": false,
    "_height_": {
        "type": "string",
        "value": "25px"
    },
    "_left_": {
        "type": "string",
        "value": "150dp"
    },
    "_margin_": [
        0,
        0,
        0,
        0
    ],
    "_padding_": [
        0,
        0,
        0,
        0
    ],
    "_skin_": "s1e6736edf3545d59ef481cbb911bcbd",
    "_top_": {
        "type": "string",
        "value": "17dp"
    },
    "_width_": {
        "type": "string",
        "value": "38px"
    },
    "canUpdateUI": true,
    "containerweight": 100,
    "id": "switchFutureTransactionFlag",
    "info": null,
    "isvisible": true,
    "kiosk": {
        "render": false
    },
    "kuid": "e07117106f1d42e1a2b7fe6f33c1d9e7",
    "leftsidetext": "",
    "name": "kony.ui.Switch",
    "onslide": null,
    "osPlatform": "desktopweb",
    "osVersion": "iOS7",
    "parent": "flxOperationsContent",
    "pf": "frmServiceManagement",
    "rightsidetext": "",
    "selectedindex": 0,
    "wType": "Switch",
    "widgetalignment": 5,
    "zindex": 1
}