{
    "@class": "com.kony.gen.viz.model.component.KVizUserWidget",
    "DNDConfig": null,
    "__parentReadjusting__": false,
    "_bottom_": {
        "type": "string",
        "value": ""
    },
    "_children_": [],
    "_desktopweb_": {},
    "_height_": {
        "type": "string",
        "value": "100%"
    },
    "_left_": {
        "type": "string",
        "value": "0dp"
    },
    "_margin_": [
        0,
        0,
        0,
        0
    ],
    "_orientation_": 1,
    "_padding_": [
        0,
        0,
        0,
        0
    ],
    "_percent_": true,
    "_render_": true,
    "_responsiveData_": {},
    "_right_": {
        "type": "string",
        "value": ""
    },
    "_skin_": "sf9c55017e324e16b8d4a710f3a703ab",
    "_top_": {
        "type": "string",
        "value": "0dp"
    },
    "_vizProps_": {
        "hidewidgethierarchy": false
    },
    "_width_": {
        "type": "string",
        "value": "100%"
    },
    "areflexpropsreferenced": false,
    "autogrowmode": 0,
    "canUpdateUI": true,
    "centerx": {
        "type": "string",
        "value": ""
    },
    "centery": {
        "type": "string",
        "value": ""
    },
    "clipbounds": true,
    "containerweight": 0,
    "dataDiffs": {
        "btnOption1": {
            "__events__": {},
            "__info__": {
                "kuid": "i8e2a56ebdbf4ba694256dc6d9cc3d52",
                "srcKUID": "c2d257ab80ae4fc9ad9de81f29cce669",
                "wType": "Button"
            }
        },
        "btnOption2": {
            "__events__": {},
            "__info__": {
                "kuid": "i9d5e681545f4145bb0594b891575ea1",
                "srcKUID": "d83597898b114ff6ba9ad6468bfe0703",
                "wType": "Button"
            }
        },
        "btnOption3": {
            "__events__": {},
            "__info__": {
                "kuid": "ce83f39754c046718e3890b434dcabed",
                "srcKUID": "bf3a31bf3a97491fb5f7cefa8ee73867",
                "wType": "Button"
            }
        },
        "btnOption4": {
            "__events__": {},
            "__info__": {
                "kuid": "aa48c0c3973644798d13c5ae7f088230",
                "srcKUID": "ed26afa7f6a4411c8fc5b4a0ebceb866",
                "wType": "Button"
            }
        },
        "flxAddSeperator2": {
            "__events__": {},
            "__info__": {
                "kuid": "d3f573cdccfe4d088cb4fa223b8635d6",
                "srcKUID": "a43fd8d574ac4f798c0f3c3e3322deec",
                "wType": "FlexContainer"
            }
        },
        "flxAddSeperator3": {
            "__events__": {},
            "__info__": {
                "kuid": "ef5fd9bd62364c3792d5118f07881269",
                "srcKUID": "a832cb47fcee4853b9ee0ff4c76f6b95",
                "wType": "FlexContainer"
            }
        },
        "flxAddSeperator4": {
            "__events__": {},
            "__info__": {
                "kuid": "fa50afce224343668ae5ea2bd9658c81",
                "srcKUID": "ac65fbb623d14d2f83b6f5c16c794d75",
                "wType": "FlexContainer"
            }
        },
        "flxImgArrow1": {
            "__events__": {},
            "__info__": {
                "kuid": "c4ef25310fc54ab59e60d0722d6c3b92",
                "srcKUID": "e8ae8c43f0674359894256cd63d25c5d",
                "wType": "FlexContainer"
            }
        },
        "flxImgArrow2": {
            "__events__": {},
            "__info__": {
                "kuid": "i1108ae4ca09464080eaf350f5b43d05",
                "srcKUID": "i25a2be923e94d12bd0b5068118f49d6",
                "wType": "FlexContainer"
            }
        },
        "flxImgArrow3": {
            "__events__": {},
            "__info__": {
                "kuid": "d8f0e7b1d2064e3c9fc0a94e255d314d",
                "srcKUID": "g13150120aa9479180b94d0873a0f1f7",
                "wType": "FlexContainer"
            }
        },
        "flxImgArrow4": {
            "__events__": {},
            "__info__": {
                "kuid": "ic43ac15fc3b403a9fe578992b256a48",
                "srcKUID": "f95e86db33974f058e9b25cb6dc45968",
                "wType": "FlexContainer"
            }
        },
        "flxOption1": {
            "__events__": {},
            "__info__": {
                "kuid": "i8dbf105c27f41b3825be1deb37d99f3",
                "srcKUID": "c33d73c6103a40cba0228b50e2e69aa3",
                "wType": "FlexContainer"
            }
        },
        "flxOption2": {
            "__events__": {},
            "__info__": {
                "kuid": "f0e38b0d5eb4480dbd5af537a22d7f77",
                "srcKUID": "f21ca47907dd47c58c26b648b8f9caed",
                "wType": "FlexContainer"
            }
        },
        "flxOption3": {
            "__events__": {},
            "__info__": {
                "kuid": "e5bb0d8a1ca542da9afa83bc59597bc9",
                "srcKUID": "b91156dac9fb4535bb8728902ba1a40d",
                "wType": "FlexContainer"
            }
        },
        "flxOption4": {
            "__events__": {},
            "__info__": {
                "kuid": "j841bff5ed9047f79590b38abed8b212",
                "srcKUID": "j5e227538fd74aa1a10de913e775503a",
                "wType": "FlexContainer"
            }
        },
        "flxoptionSeperator1": {
            "__events__": {},
            "__info__": {
                "kuid": "d5e0c6d3ef6c4443825e092eb93ac30a",
                "srcKUID": "bd02b1a331f7449ebcdd63dfb10eb39f",
                "wType": "FlexContainer"
            }
        },
        "imgSelected1": {
            "__events__": {},
            "__info__": {
                "kuid": "e5b305040e174eee92fe30de3508f20d",
                "srcKUID": "h8d94be0e96c456889df45138e4b474d",
                "wType": "Image"
            },
            "src": "right_arrow2x.png"
        },
        "imgSelected2": {
            "__events__": {},
            "__info__": {
                "kuid": "dfa2324ec6f04aabae72b07fe8498355",
                "srcKUID": "d05ad30dfe3f4458b98fe505ec781feb",
                "wType": "Image"
            },
            "src": "right_arrow2x.png"
        },
        "imgSelected3": {
            "__events__": {},
            "__info__": {
                "kuid": "d8b7ff5fee2d486ca10500a0a59c4e29",
                "srcKUID": "idd953ebf1264d89becfab30f2eb4c60",
                "wType": "Image"
            },
            "src": "right_arrow2x.png"
        },
        "imgSelected4": {
            "__events__": {},
            "__info__": {
                "kuid": "b1930d1c1fe04c24b93a4ce30a6a660c",
                "srcKUID": "acd6c7a2a6404b8687f3674c9076c0fa",
                "wType": "Image"
            },
            "src": "right_arrow2x.png"
        },
        "lblOptional2": {
            "__events__": {},
            "__info__": {
                "kuid": "j244025b1ba74f77a66924b8c1419428",
                "srcKUID": "f66377c612464557b0f40accf4256b28",
                "wType": "Label"
            }
        },
        "lblOptional3": {
            "__events__": {},
            "__info__": {
                "kuid": "i1892cd51d4f43089600f54ec58d8f8c",
                "srcKUID": "g3a2a4820c284dbcb5da95d358be1e3c",
                "wType": "Label"
            }
        },
        "lblOptional4": {
            "__events__": {},
            "__info__": {
                "kuid": "f257c9fddaec4748862bba587d54f1b5",
                "srcKUID": "b44d249e2afb48b5afc92ec10b841e6a",
                "wType": "Label"
            }
        },
        "lblSelected1": {
            "__events__": {},
            "__info__": {
                "kuid": "c0e169da1c48403c981350a914878bb2",
                "srcKUID": "d043ec53e5a54be6abf204e013c22350",
                "wType": "Label"
            }
        },
        "lblSelected2": {
            "__events__": {},
            "__info__": {
                "kuid": "g000b7a892f04a28bd04f1b9ab14453b",
                "srcKUID": "i96b73fb954147e79488d00a72193403",
                "wType": "Label"
            }
        },
        "lblSelected3": {
            "__events__": {},
            "__info__": {
                "kuid": "dc55ad13f3c643b290aba1c86c12db81",
                "srcKUID": "beb063e1e4864f2d911534ce0c1119ed",
                "wType": "Label"
            }
        },
        "lblSelected4": {
            "__events__": {},
            "__info__": {
                "kuid": "jfb9e5ab5488480aaa7a4dbde882dcb4",
                "srcKUID": "i11c8a1098be41628e8f1ec6e52604a0",
                "wType": "Label"
            }
        },
        "verticalTabs1": {
            "__events__": {},
            "__info__": {
                "isRoot": true,
                "kuid": "f237e6651eb44ca2bd44c26b1f518fd2",
                "srcKUID": "b2dd89c660604ecf89526e48fed9adce",
                "wType": "FlexContainer"
            },
            "autogrowMode": {
                "Default": 0
            },
            "bottom": {
                "Default": {
                    "type": "string",
                    "value": ""
                }
            },
            "centerX": {
                "Default": {
                    "type": "string",
                    "value": ""
                }
            },
            "centerY": {
                "Default": {
                    "type": "string",
                    "value": ""
                }
            },
            "height": {
                "Default": {
                    "type": "string",
                    "value": "100%"
                }
            },
            "left": {
                "Default": {
                    "type": "string",
                    "value": "0dp"
                }
            },
            "maxHeight": {
                "Default": {
                    "type": "string",
                    "value": ""
                }
            },
            "maxWidth": {
                "Default": {
                    "type": "string",
                    "value": ""
                }
            },
            "minHeight": {
                "Default": {
                    "type": "string",
                    "value": ""
                }
            },
            "minWidth": {
                "Default": {
                    "type": "string",
                    "value": ""
                }
            },
            "right": {
                "Default": {
                    "type": "string",
                    "value": ""
                }
            },
            "top": {
                "Default": {
                    "type": "string",
                    "value": "0dp"
                }
            },
            "width": {
                "Default": {
                    "type": "string",
                    "value": "100%"
                }
            }
        }
    },
    "id": "verticalTabs",
    "info": null,
    "iscustomlayout": false,
    "isdatareferenced": false,
    "isvisible": true,
    "kuid": "f237e6651eb44ca2bd44c26b1f518fd2",
    "layouttype": 4,
    "masterType": 0,
    "maxheight": {
        "type": "string",
        "value": ""
    },
    "maxwidth": {
        "type": "string",
        "value": ""
    },
    "minheight": {
        "type": "string",
        "value": ""
    },
    "minwidth": {
        "type": "string",
        "value": ""
    },
    "name": "kony.ui.UserWidgetInstance",
    "parent": "flxVerticalTab",
    "pf": "frmServiceManagement",
    "retaincontentalignment": false,
    "retainflexpositionproperties": false,
    "snaptogrid": true,
    "sourceUserWidget": "b2dd89c660604ecf89526e48fed9adce",
    "wType": "UserWidgetInstance"
}