{
    "@class": "com.kony.gen.viz.model.component.KVizSwitch",
    "DNDConfig": null,
    "__parentReadjusting__": false,
    "_height_": {
        "type": "string",
        "value": "25dp"
    },
    "_left_": {
        "type": "string",
        "value": "88.48%"
    },
    "_margin_": [
        0,
        0,
        0,
        0
    ],
    "_padding_": [
        0,
        0,
        0,
        0
    ],
    "_skin_": "s1e6736edf3545d59ef481cbb911bcbd",
    "_width_": {
        "type": "string",
        "value": "38dp"
    },
    "canUpdateUI": true,
    "centery": {
        "type": "string",
        "value": "50%"
    },
    "containerId": true,
    "containerweight": 100,
    "id": "SwitchActiveStatus",
    "info": null,
    "isvisible": true,
    "kiosk": {
        "render": false
    },
    "kuid": "f0fcea0fa85b47b5b02a2380351c3515",
    "leftsidetext": "ON",
    "name": "kony.ui.Switch",
    "onslide": null,
    "osPlatform": "desktopweb",
    "osVersion": "iOS7",
    "parent": "flxCustomerInformation",
    "pf": "segCustomerInformation",
    "rightsidetext": "OFF",
    "selectedindex": 0,
    "wType": "Switch",
    "widgetalignment": 5,
    "windows10": {
        "render": false
    },
    "winphone10": {
        "render": false
    },
    "zindex": 1
}