{
    "@class": "com.kony.gen.viz.model.component.KVizButton",
    "DNDConfig": null,
    "__parentReadjusting__": false,
    "_height_": {
        "type": "ref",
        "value": "preferred"
    },
    "_margin_": [
        6,
        6,
        6,
        6
    ],
    "_padding_": [
        0,
        0,
        0,
        0
    ],
    "_right_": {
        "type": "string",
        "value": "25px"
    },
    "_skin_": "s935b93b88ef4eaba7ee5a8d13449363",
    "_text_": "Draft",
    "_top_": {
        "type": "string",
        "value": "0dp"
    },
    "_width_": {
        "type": "string",
        "value": "45px"
    },
    "canUpdateUI": true,
    "containerId": true,
    "containerweight": 100,
    "contentalignment": 5,
    "disabledSkins": {
        "focusSkin": "s152a8ebff2840e2b2942e5ec1abbdb5"
    },
    "displaytext": true,
    "id": "btnDraft",
    "info": null,
    "isvisible": true,
    "kuid": "f824ddca2ca04bef941ce451be5a673f",
    "name": "kony.ui.Button",
    "parent": "flxHeading",
    "pf": "segDraftEmail",
    "wType": "Button",
    "zindex": 1
}