{
    "@class": "com.kony.gen.viz.model.component.KVizButton",
    "DNDConfig": null,
    "__parentReadjusting__": false,
    "_height_": {
        "type": "ref",
        "value": "preferred"
    },
    "_left_": {
        "type": "string",
        "value": "25px"
    },
    "_margin_": [
        6,
        6,
        6,
        6
    ],
    "_padding_": [
        0,
        0,
        0,
        0
    ],
    "_skin_": "s08f7c8829ac4d47a409798cfb3d0ac9",
    "_text_": "CUSTOMER INFO",
    "_top_": {
        "type": "string",
        "value": "30dp"
    },
    "_width_": {
        "type": "ref",
        "value": "preferred"
    },
    "canUpdateUI": true,
    "containerweight": 100,
    "contentalignment": 5,
    "disabledSkins": {
        "focusSkin": "s152a8ebff2840e2b2942e5ec1abbdb5"
    },
    "displaytext": true,
    "id": "btnPersonalDetails",
    "info": null,
    "isvisible": true,
    "kuid": "hed6812c04684d70b2189bd9151e8b21",
    "name": "kony.ui.Button",
    "parent": "flxPersonalDetails",
    "pf": "frmAssistedOnboarding",
    "texti18n": "i18n.frmAssistedOnboarding.CustomerInfo",
    "wType": "Button",
    "zindex": 1
}