{
    "@class": "com.kony.gen.viz.model.component.KVizUserWidget",
    "DNDConfig": null,
    "__parentReadjusting__": false,
    "_android_": {},
    "_androidwearos_": {},
    "_children_": [],
    "_desktopweb_": {},
    "_height_": {
        "type": "string",
        "value": "90dp"
    },
    "_ipad_": {},
    "_iphone_": {},
    "_kiosk_": {},
    "_left_": {
        "type": "string",
        "value": "0dp"
    },
    "_margin_": [
        0,
        0,
        0,
        0
    ],
    "_orientation_": 1,
    "_padding_": [
        0,
        0,
        0,
        0
    ],
    "_percent_": true,
    "_responsiveData_": {},
    "_right_": {
        "type": "string",
        "value": "0dp"
    },
    "_skin_": "s8ff24328417401b877c3ceb2a5fa27c",
    "_spa_": {},
    "_spaan_": {},
    "_spaandroidtablet_": {},
    "_spabb_": {},
    "_spaip_": {},
    "_spaipad_": {},
    "_spamobile_": {},
    "_spatablet_": {},
    "_spawindowstablet_": {},
    "_spawinphone8_": {},
    "_tabrcandroid_": {},
    "_top_": {
        "type": "string",
        "value": "0dp"
    },
    "_vizProps_": {
        "hidewidgethierarchy": false
    },
    "_width_": {
        "type": "ref",
        "value": "preferred"
    },
    "_windows10_": {},
    "_windows8_": {},
    "_winphone10_": {},
    "_winphone8_": {},
    "areflexpropsreferenced": false,
    "canUpdateUI": true,
    "clipbounds": true,
    "containerweight": 0,
    "dataDiffs": {
        "dataEntry": {
            "__events__": {},
            "__info__": {
                "isRoot": true,
                "kuid": "d0ab3ca8d12242e8a89d4aa6af36d203",
                "srcKUID": "c1ca39590d5c440e8c855c01681c5fbc",
                "wType": "FlexContainer"
            },
            "autogrowMode": {
                "Default": 0
            },
            "height": {
                "Default": {
                    "type": "string",
                    "value": "90dp"
                }
            },
            "right": {
                "Default": {
                    "type": "string",
                    "value": "0dp"
                }
            },
            "top": {
                "Default": {
                    "type": "string",
                    "value": "0dp"
                }
            },
            "width": {
                "Default": {
                    "type": "ref",
                    "value": "preferred"
                }
            }
        },
        "flxDataEntry": {
            "__events__": {},
            "__info__": {
                "kuid": "ea847ab419e547e6b0bac9b698f973a7",
                "srcKUID": "d374214df9f54d0190745c0cc8066f55",
                "wType": "FlexContainer"
            }
        },
        "flxError": {
            "__events__": {},
            "__info__": {
                "kuid": "iea7b9a22cb14e89ad81f9367f2aea4d",
                "srcKUID": "h11b15e5100c49dfad8cd40df5b42df4",
                "wType": "FlexContainer"
            }
        },
        "lblData": {
            "__events__": {},
            "__info__": {
                "kuid": "bb2c6893f76b4fd392e2c0aff3d46c1c",
                "srcKUID": "ea3283b3415e4efe893df5fe26c0f778",
                "wType": "Label"
            }
        },
        "lblErrorIcon": {
            "__events__": {},
            "__info__": {
                "kuid": "af6b4ca4c2ae4ab397a6afd5464f48dd",
                "srcKUID": "dcac7dfcc1a1419b9a3cebb41b697143",
                "wType": "Label"
            }
        },
        "lblErrorMsg": {
            "__events__": {},
            "__info__": {
                "kuid": "d5f3609b56f544d68e0dbd284fc92e49",
                "srcKUID": "a2eb996913924c289f1e334f6d342eab",
                "wType": "Label"
            }
        },
        "lblTextCounter": {
            "__events__": {},
            "__info__": {
                "kuid": "d78d438098d14354836cd652f057e68d",
                "srcKUID": "h3300fcef4794d7bb8279011aca55d41",
                "wType": "Label"
            }
        },
        "tbxData": {
            "__events__": {},
            "__info__": {
                "kuid": "f45c7867804e403ca027a6df7221e49e",
                "srcKUID": "f8997f3ec882474b8db51ba710bc19f5",
                "wType": "TextField"
            }
        }
    },
    "enablescrolling": true,
    "id": "DriversIssuedByState",
    "info": null,
    "iscustomlayout": false,
    "isdatareferenced": false,
    "issegmentchild": false,
    "isvisible": true,
    "kuid": "d0ab3ca8d12242e8a89d4aa6af36d203",
    "layouttype": 2,
    "masterType": 0,
    "name": "kony.ui.UserWidgetInstance",
    "parent": "FlexGroup0i3aa37a56ae04f",
    "pf": "frmAssistedOnboarding",
    "retaincontentalignment": false,
    "retainflexpositionproperties": false,
    "snapgridsize": 10,
    "snaptogrid": true,
    "sourceUserWidget": "c1ca39590d5c440e8c855c01681c5fbc",
    "wType": "UserWidgetInstance",
    "zindex": 1
}