{
    "DNDConfig": null,
    "__parentReadjusting__": false,
    "_height_": {
        "type": "string",
        "value": "350dp"
    },
    "_left_": {
        "type": "string",
        "value": "0dp"
    },
    "_margin_": [
        0,
        0,
        0,
        0
    ],
    "_orientation_": 6,
    "_padding_": [
        0,
        0,
        0,
        0
    ],
    "_percent_": true,
    "_skin_": "sc6b367154de42aab70750b5a3d9e78c",
    "_top_": {
        "type": "string",
        "value": "515dp"
    },
    "_width_": {
        "type": "string",
        "value": "46.30%"
    },
    "allboxes": [],
    "autogrowmode": 0,
    "canUpdateUI": true,
    "children": [
        "tbxSearch",
        "segSearch",
        "map1"
    ],
    "clipbounds": true,
    "containerweight": 100,
    "enablescrolling": true,
    "id": "flxSearchContainer",
    "info": null,
    "iscustomlayout": false,
    "isvisible": true,
    "kuid": "h6486af14d9d49b78d72dd567728a328",
    "layouttype": 2,
    "name": "kony.ui.FlexContainer",
    "parent": "flxDetailContentContainer",
    "pf": "frmAssistedOnboarding",
    "retaincontentalignment": false,
    "retainflexpositionproperties": false,
    "snapgridsize": 10,
    "snaptogrid": true,
    "wType": "FlexContainer",
    "widgetalignment": 1,
    "zindex": 2
}