{
    "DNDConfig": null,
    "__parentReadjusting__": false,
    "_height_": {
        "type": "string",
        "value": "60dp"
    },
    "_left_": {
        "type": "string",
        "value": "0dp"
    },
    "_margin_": [
        0,
        0,
        0,
        0
    ],
    "_orientation_": 6,
    "_padding_": [
        0,
        0,
        0,
        0
    ],
    "_percent_": true,
    "_skin_": "sf7e1e35cd384cb493452b9a20f658d0",
    "_top_": {
        "type": "string",
        "value": "0dp"
    },
    "_width_": {
        "type": "string",
        "value": "100%"
    },
    "allboxes": [],
    "autogrowmode": 0,
    "canUpdateUI": true,
    "children": [
        "FlexContainer0e922ecfc0a6e44"
    ],
    "clipbounds": true,
    "containerweight": 100,
    "desktopweb": {
        "psp": {}
    },
    "disabledSkins": {
        "hoverSkin": "sf06d8dc7fbb4cd6abf3f995dfa4dcda"
    },
    "enablescrolling": true,
    "id": "flxTextListBox",
    "info": null,
    "iscustomlayout": false,
    "isvisible": true,
    "kuid": "iff0e15bf4544654b606a1bd531e22ee",
    "layouttype": 2,
    "name": "kony.ui.FlexContainer",
    "parent": "flxIDSelect",
    "pf": "frmAssistedOnboarding",
    "retaincontentalignment": false,
    "retainflexpositionproperties": false,
    "snapgridsize": 10,
    "snaptogrid": true,
    "wType": "FlexContainer",
    "widgetalignment": 1,
    "zindex": 1
}