{
    "@class": "com.kony.gen.viz.model.component.KVizLabel",
    "DNDConfig": null,
    "__parentReadjusting__": false,
    "_height_": {
        "type": "ref",
        "value": "preferred"
    },
    "_left_": {
        "type": "string",
        "value": "20px"
    },
    "_margin_": [
        1,
        1,
        1,
        1
    ],
    "_padding_": [
        0,
        0,
        0,
        0
    ],
    "_skin_": "s7a0f6fa7a934cd2858da893c4d8206a",
    "_text_": "Martin luther",
    "_top_": {
        "type": "number",
        "value": "46"
    },
    "_width_": {
        "type": "string",
        "value": "15%"
    },
    "_wrapping_": 2,
    "android": {
        "textStyle": {
            "letterSpacing": 0,
            "strikeThrough": false
        }
    },
    "canUpdateUI": true,
    "containerweight": 100,
    "contentalignment": 4,
    "id": "lblSSNNameValue",
    "info": null,
    "ipad": {
        "psp": {
            "wrapping": 2
        }
    },
    "iphone": {
        "psp": {
            "wrapping": 2
        }
    },
    "isvisible": true,
    "kuid": "jeb4640da67a4e799bc1608deead4aa4",
    "name": "kony.ui.Label",
    "parent": "flxSSNValue",
    "pf": "frmAssistedOnboarding",
    "tooltip": "",
    "wType": "Label",
    "zindex": 1
}