{
    "@class": "com.kony.gen.viz.model.component.KVizRichText",
    "DNDConfig": null,
    "__parentReadjusting__": false,
    "_bottom_": {
        "type": "string",
        "value": "10dp"
    },
    "_height_": {
        "type": "ref",
        "value": "preferred"
    },
    "_left_": {
        "type": "string",
        "value": "0dp"
    },
    "_margin_": [
        0,
        0,
        0,
        0
    ],
    "_padding_": [
        0,
        0,
        0,
        0
    ],
    "_right_": {
        "type": "string",
        "value": "10px"
    },
    "_skin_": "sc53ceb8862140f0a7a9a1c3d1b17d62",
    "_text_": "You authorize, XYZ Bank, to:\\n\n\n1. Pull a credit report on you and co-applicant (if any) in order to make a credit decision.\\n\n\n2. Use the information on this application and any other information we or our affiliates have about you to determine your ability to pay, as required by federal law.\\n\n\n3. Verify, at our option and for your benefit, your application information.\\n\n\n4. Contact you or receive a detailed message or messages at the telephone, email or direct mail contact data you provided above for purposes of fulfilling this inquiry about automobile loan financing even if you have previously registered on a Do No Call registry or requested XYZ Bank not to send marketing information to you by email and/or direct mail.\\n",
    "_top_": {
        "type": "string",
        "value": "35dp"
    },
    "_width_": {
        "type": "string",
        "value": "99%"
    },
    "_wrapping_": 2,
    "canUpdateUI": true,
    "containerweight": 100,
    "contentalignment": 4,
    "id": "rtxTermsAndCond",
    "info": null,
    "iscustomlayout": false,
    "isvisible": true,
    "kuid": "e5013379142241f998570f150c95f2e4",
    "linkskin": "s67b40eec9524df3a22e43e6c88b00f1",
    "name": "kony.ui.RichText",
    "parent": "flxTermsAndCoditions",
    "pf": "frmAssistedOnboarding",
    "retaincontentalignment": false,
    "retainflexpositionproperties": false,
    "wType": "RichText",
    "watchos": {
        "render": false
    },
    "widgetalignment": 5,
    "windows10": {
        "render": false
    },
    "winphone10": {
        "render": false
    },
    "zindex": 1
}