{
    "@class": "com.kony.gen.viz.model.component.KVizUserWidget",
    "DNDConfig": null,
    "__parentReadjusting__": false,
    "_android_": {},
    "_androidwearos_": {},
    "_children_": [],
    "_desktopweb_": {},
    "_height_": {
        "type": "string",
        "value": "170dp"
    },
    "_ipad_": {},
    "_iphone_": {},
    "_kiosk_": {},
    "_left_": {
        "type": "string",
        "value": "0dp"
    },
    "_margin_": [
        0,
        0,
        0,
        0
    ],
    "_orientation_": 1,
    "_padding_": [
        0,
        0,
        0,
        0
    ],
    "_percent_": true,
    "_responsiveData_": {},
    "_skin_": "s8ff24328417401b877c3ceb2a5fa27c",
    "_spa_": {},
    "_spaan_": {},
    "_spaandroidtablet_": {},
    "_spabb_": {},
    "_spaip_": {},
    "_spaipad_": {},
    "_spamobile_": {},
    "_spatablet_": {},
    "_spawindowstablet_": {},
    "_spawinphone8_": {},
    "_tabrcandroid_": {},
    "_top_": {
        "type": "string",
        "value": "0dp"
    },
    "_vizProps_": {
        "hidewidgethierarchy": false
    },
    "_width_": {
        "type": "string",
        "value": "100%"
    },
    "_windows10_": {},
    "_windows8_": {},
    "_winphone10_": {},
    "_winphone8_": {},
    "areflexpropsreferenced": false,
    "canUpdateUI": true,
    "clipbounds": true,
    "containerweight": 0,
    "dataDiffs": {
        "flxNoResultFound": {
            "__events__": {},
            "__info__": {
                "kuid": "g23e190384fd442fa72bf207908f5f78",
                "srcKUID": "baebd8fd576c4460b41496457db586fa",
                "wType": "FlexContainer"
            }
        },
        "lblNoResultFound": {
            "__events__": {},
            "__info__": {
                "kuid": "fabf13f152c84a398a8fee55b3f1368e",
                "srcKUID": "a3ba6c92228f4cd58d3132c08968c548",
                "wType": "Label"
            }
        },
        "segSearchResult": {
            "__events__": {},
            "__info__": {
                "kuid": "c7ee92d2226249e1bac8338911419faf",
                "srcKUID": "a65f0e798f084d15a42ed8041c67549f",
                "wType": "Segment"
            },
            "isVisible": false
        },
        "tbxSearchKey": {
            "__events__": {},
            "__info__": {
                "kuid": "ebc49570b81a444ab7cb3b161c9c7465",
                "srcKUID": "h96215b7e9c44004baa3db82b06cefbc",
                "wType": "TextField"
            },
            "i18n_placeholder": "i18n.frmCreateNewUser.lblCountryUser",
            "placeholder": "",
            "text": ""
        },
        "typeHead": {
            "__events__": {},
            "__info__": {
                "isRoot": true,
                "kuid": "db028c630d0a462798d4ee307c977fd7",
                "srcKUID": "ea5bdcd02045417faad25b2c67648730",
                "wType": "FlexContainer"
            },
            "autogrowMode": {
                "Default": 0
            },
            "height": {
                "Default": {
                    "type": "string",
                    "value": "170dp"
                }
            },
            "isVisible": true
        }
    },
    "enablescrolling": true,
    "id": "typeHeadCountry",
    "info": null,
    "iscustomlayout": false,
    "isdatareferenced": false,
    "issegmentchild": false,
    "isvisible": true,
    "kuid": "db028c630d0a462798d4ee307c977fd7",
    "layouttype": 2,
    "masterType": 0,
    "name": "kony.ui.UserWidgetInstance",
    "parent": "flxCountryTypeHead",
    "pf": "frmAssistedOnboarding",
    "retaincontentalignment": false,
    "retainflexpositionproperties": false,
    "snapgridsize": 10,
    "snaptogrid": true,
    "sourceUserWidget": "ea5bdcd02045417faad25b2c67648730",
    "wType": "UserWidgetInstance"
}