{
    "@class": "com.kony.gen.viz.model.component.KVizImage2",
    "DNDConfig": null,
    "__parentReadjusting__": false,
    "_base64_": null,
    "_height_": {
        "type": "string",
        "value": "15dp"
    },
    "_left_": {
        "type": "string",
        "value": "15px"
    },
    "_margin_": [
        0,
        0,
        0,
        0
    ],
    "_padding_": [
        0,
        0,
        0,
        0
    ],
    "_skin_": "s553d03f29cb43c9a26989454eea9499",
    "_src_": "configure2x.png",
    "_top_": {
        "type": "string",
        "value": "10px"
    },
    "_width_": {
        "type": "string",
        "value": "15dp"
    },
    "canUpdateUI": true,
    "containerId": true,
    "containerweight": 100,
    "context": {
        "channel": "desktop",
        "formID": "segViewCustomerRoles",
        "platform": "desktopweb",
        "templateType": "segments",
        "topLevelBox": null
    },
    "id": "imgConfigure",
    "imagescalemode": 1,
    "info": null,
    "invokedProperty": "src",
    "isvisible": true,
    "kuid": "b7edb8c856c2492da46187e43a5b55b2",
    "name": "kony.ui.Image2",
    "parent": "flxConfigure",
    "pf": "segViewCustomerRoles",
    "srcType": 1,
    "tooltip": "Configure",
    "wType": "Image",
    "widgetalignment": 5,
    "zindex": 1
}