{
    "@class": "com.kony.gen.viz.model.component.KVizUserWidget",
    "DNDConfig": null,
    "__parentReadjusting__": false,
    "_android_": {},
    "_androidwearos_": {},
    "_children_": [],
    "_desktopweb_": {},
    "_height_": {
        "type": "string",
        "value": "100%"
    },
    "_ipad_": {},
    "_iphone_": {},
    "_kiosk_": {},
    "_left_": {
        "type": "string",
        "value": "0px"
    },
    "_margin_": [
        0,
        0,
        0,
        0
    ],
    "_orientation_": 1,
    "_padding_": [
        0,
        0,
        0,
        0
    ],
    "_percent_": true,
    "_responsiveData_": {},
    "_skin_": "s8ff24328417401b877c3ceb2a5fa27c",
    "_spa_": {},
    "_spaan_": {},
    "_spaandroidtablet_": {},
    "_spabb_": {},
    "_spaip_": {},
    "_spaipad_": {},
    "_spamobile_": {},
    "_spatablet_": {},
    "_spawindowstablet_": {},
    "_spawinphone8_": {},
    "_tabrcandroid_": {},
    "_top_": {
        "type": "string",
        "value": "0px"
    },
    "_vizProps_": {
        "hidewidgethierarchy": false
    },
    "_width_": {
        "type": "string",
        "value": "100%"
    },
    "_windows10_": {},
    "_windows8_": {},
    "_winphone10_": {},
    "_winphone8_": {},
    "areflexpropsreferenced": false,
    "canUpdateUI": true,
    "clipbounds": true,
    "containerweight": 0,
    "dataDiffs": {
        "configurationData": {
            "__events__": {},
            "__info__": {
                "isRoot": true,
                "kuid": "hdc38412030340b4b98141a26213cb85",
                "srcKUID": "h8ff96e2a1644d97ad5677f2f4fd265b",
                "wType": "FlexContainer"
            },
            "autogrowMode": {
                "Default": 0
            },
            "height": {
                "Default": {
                    "type": "string",
                    "value": "100%"
                }
            },
            "isVisible": true
        },
        "flxConfigurationArrow": {
            "__events__": {},
            "__info__": {
                "kuid": "f7729ab626ca4152b9ecc7848e99a577",
                "srcKUID": "e5f12f2516844a3bb9ffeeaed6a3025f",
                "wType": "FlexContainer"
            }
        },
        "flxConfigurationContextualMenu": {
            "__events__": {},
            "__info__": {
                "kuid": "d76f7e2451a049fe9638e1e32994e616",
                "srcKUID": "gb509afdba244f4fa0a08627994b8943",
                "wType": "FlexContainer"
            }
        },
        "flxConfigurationKey": {
            "__events__": {},
            "__info__": {
                "kuid": "aaac8457c5214cf5bff77682ab171443",
                "srcKUID": "a9a3fffec5eb471381670f38ef0f147f",
                "wType": "FlexContainer"
            }
        },
        "flxConfigurationKeySort": {
            "__events__": {},
            "__info__": {
                "kuid": "a8ab26e9587740ad9235abb07105523e",
                "srcKUID": "b03862fa5a37483da671ff481a0d54d4",
                "wType": "FlexContainer"
            }
        },
        "flxConfigurationTarget": {
            "__events__": {},
            "__info__": {
                "kuid": "cd334deff3b44a07b64c9178bdb85de8",
                "srcKUID": "ff70a9079e3d449ca56aff344b26c008",
                "wType": "FlexContainer"
            }
        },
        "flxConfigurationTargetFilter": {
            "__events__": {},
            "__info__": {
                "kuid": "h56a33dbf2724166883e6da9f420d028",
                "srcKUID": "jf8810eb7725439a86f387b8c9d4a918",
                "wType": "FlexContainer"
            }
        },
        "flxConfigurationType": {
            "__events__": {},
            "__info__": {
                "kuid": "f0220c548816414fb807b6261c633b4c",
                "srcKUID": "f19a98b8c8174c15894c6c7faf85653d",
                "wType": "FlexContainer"
            }
        },
        "flxConfigurationTypeFilter": {
            "__events__": {},
            "__info__": {
                "kuid": "e50e9a8325804568832ae738e817f142",
                "srcKUID": "dbd544a9c39c44d9b425f290cff7daf6",
                "wType": "FlexContainer"
            }
        },
        "flxConfigurationValue": {
            "__events__": {},
            "__info__": {
                "kuid": "g0ccbd3c3bda437c93497593dcc2529a",
                "srcKUID": "c449965d5a6c40f1849f3118ac371e23",
                "wType": "FlexContainer"
            }
        },
        "flxConfigurationValueSort": {
            "__events__": {},
            "__info__": {
                "kuid": "fb8bb2530ebf49a4a2a6675ba588f4a2",
                "srcKUID": "eecefefd0c0e49f49b382729f69092af",
                "wType": "FlexContainer"
            }
        },
        "flxHeaders": {
            "__events__": {},
            "__info__": {
                "kuid": "c3de2f12bd45457491856ddd956d9270",
                "srcKUID": "i96917f7ec41484a93f40f2cb544e2ff",
                "wType": "FlexContainer"
            }
        },
        "flxNext": {
            "__events__": {},
            "__info__": {
                "kuid": "f2baf4fb9bfe4ea8853eefdd6cb95c13",
                "srcKUID": "c785783c130c4ca6856745f3819c240c",
                "wType": "FlexContainer"
            }
        },
        "flxPagination": {
            "__events__": {},
            "__info__": {
                "kuid": "e51f37efefcf4b0ba936e9c21f9b804f",
                "srcKUID": "c4abbf59a361430791dee656d0187ee0",
                "wType": "FlexContainer"
            }
        },
        "flxPaginationSeperator": {
            "__events__": {},
            "__info__": {
                "kuid": "a67e9e52e9e54c91964ec3e23d82d03d",
                "srcKUID": "e5868461fe4e4b4a8753d18929548207",
                "wType": "FlexContainer"
            }
        },
        "flxPrevious": {
            "__events__": {},
            "__info__": {
                "kuid": "e97562e9b0f44e6e8bfe28b96f281cf0",
                "srcKUID": "g00450ae1e5242e4b0cc004fcb53abcf",
                "wType": "FlexContainer"
            }
        },
        "flxTableView": {
            "__events__": {},
            "__info__": {
                "kuid": "a1a423fb74094f31b6267155bbb401f1",
                "srcKUID": "dcdbc48b79f64719b65a0410743bccf2",
                "wType": "FlexContainer"
            },
            "autogrowMode": {
                "Default": 0
            },
            "height": {
                "Default": {
                    "type": "string",
                    "value": "360px"
                }
            },
            "isVisible": true
        },
        "fontIconNext": {
            "__events__": {},
            "__info__": {
                "kuid": "a986bfce508645bf846b3c4492407939",
                "srcKUID": "i43db7ac370d4186966adbf43f05c014",
                "wType": "Label"
            }
        },
        "fontIconPrevious": {
            "__events__": {},
            "__info__": {
                "kuid": "i1de3b71b8bc41f1b15b004686ed87a8",
                "srcKUID": "d6076ec7d4754967ba0da5eff79291d4",
                "wType": "Label"
            }
        },
        "fonticonConfigurationKeySort": {
            "__events__": {},
            "__info__": {
                "kuid": "id57ec841837465e9ec5e481542db120",
                "srcKUID": "cd569106ec894ec6855115e2f936e74f",
                "wType": "Label"
            }
        },
        "fonticonConfigurationValueSort": {
            "__events__": {},
            "__info__": {
                "kuid": "f32af8330da7488ab04b77fa71c4d091",
                "srcKUID": "f1310206300342db958ab97212f9ec39",
                "wType": "Label"
            }
        },
        "imgNextArrow": {
            "__events__": {},
            "__info__": {
                "kuid": "bc2f366076044ce6810e2e375ccc7976",
                "srcKUID": "cf5f2693b33a41aeb730aadc9ebb8aa2",
                "wType": "Image"
            },
            "src": "left_cricle.png"
        },
        "imgPreviousArrow": {
            "__events__": {},
            "__info__": {
                "kuid": "bf46e1b89fff4127a87616093e5e5dc3",
                "srcKUID": "b94ea0910bf24cc19b429bda0895ad17",
                "wType": "Image"
            },
            "src": "rightarrow_circel2x.png"
        },
        "lblConfigurationKey": {
            "__events__": {},
            "__info__": {
                "kuid": "f05cac175da04d37866d8a8f0dd8ac21",
                "srcKUID": "fef55551e1ca425a8b5a0fb1a573cf93",
                "wType": "Label"
            }
        },
        "lblConfigurationTarget": {
            "__events__": {},
            "__info__": {
                "kuid": "d063dd102cf84574a24440718b4ba561",
                "srcKUID": "b2e6535c45c7475e860b979fd87de34d",
                "wType": "Label"
            }
        },
        "lblConfigurationTargetFilter": {
            "__events__": {},
            "__info__": {
                "kuid": "e2d6d6e9b604441db395ca9b41453aa3",
                "srcKUID": "ed66532b006e46f0b9611d1112e899ba",
                "wType": "Label"
            }
        },
        "lblConfigurationType": {
            "__events__": {},
            "__info__": {
                "kuid": "b9a0e3e79c5b4b29ab63716928074a4e",
                "srcKUID": "ab9b8f3e7c7041638cb9b47ea33580bb",
                "wType": "Label"
            }
        },
        "lblConfigurationTypeFilter": {
            "__events__": {},
            "__info__": {
                "kuid": "f1c09be878d54f38a6ef83a434cb54a6",
                "srcKUID": "j6bfdd9ce36c4eed9b3bce328ec9c81b",
                "wType": "Label"
            }
        },
        "lblConfigurationValue": {
            "__events__": {},
            "__info__": {
                "kuid": "c609660a51ed48bea83f0427dabc9302",
                "srcKUID": "ib63e1b1b3824b6c84a179df407cc41f",
                "wType": "Label"
            }
        },
        "lblHeaderSeparator": {
            "__events__": {},
            "__info__": {
                "kuid": "a4a1d394b4aa4629b9f22c8756f4c1c8",
                "srcKUID": "cc234e2389054e2e91033e57503431af",
                "wType": "Label"
            }
        },
        "lbxPagination": {
            "__events__": {},
            "__info__": {
                "kuid": "ccb152c970c04e34a611403eedf812a0",
                "srcKUID": "b7b6a65e56ec4ffb904d4a69a8893ec8",
                "wType": "ListBox"
            }
        },
        "segConfiguration": {
            "__events__": {},
            "__info__": {
                "kuid": "b3fc238aa04e4e988f160f4ee274f7d5",
                "srcKUID": "b5a0626136ae4e01a260de186a171998",
                "wType": "Segment"
            },
            "autogrowMode": {
                "Default": 0
            },
            "height": {
                "Default": {
                    "type": "string",
                    "value": "100%"
                }
            },
            "left": {
                "Default": {
                    "type": "string",
                    "value": "0dp"
                }
            },
            "top": {
                "Default": {
                    "type": "string",
                    "value": "0px"
                }
            }
        }
    },
    "enablescrolling": true,
    "id": "configurationData",
    "info": null,
    "iscustomlayout": false,
    "isdatareferenced": false,
    "issegmentchild": false,
    "isvisible": true,
    "kuid": "hdc38412030340b4b98141a26213cb85",
    "layouttype": 2,
    "masterType": 0,
    "name": "kony.ui.UserWidgetInstance",
    "parent": "flxConfigurationData",
    "pf": "frmConfigurationBundles",
    "retaincontentalignment": false,
    "retainflexpositionproperties": false,
    "snapgridsize": 10,
    "snaptogrid": true,
    "sourceUserWidget": "h8ff96e2a1644d97ad5677f2f4fd265b",
    "wType": "UserWidgetInstance"
}