{
    "@class": "com.kony.gen.viz.model.component.KVizUserWidget",
    "DNDConfig": null,
    "__parentReadjusting__": false,
    "_android_": {},
    "_androidwearos_": {},
    "_children_": [],
    "_desktopweb_": {},
    "_height_": {
        "type": "string",
        "value": "70px"
    },
    "_ipad_": {},
    "_iphone_": {},
    "_kiosk_": {},
    "_left_": {
        "type": "string",
        "value": ""
    },
    "_margin_": [
        0,
        0,
        0,
        0
    ],
    "_orientation_": 1,
    "_padding_": [
        0,
        0,
        0,
        0
    ],
    "_percent_": true,
    "_responsiveData_": {},
    "_right_": {
        "type": "string",
        "value": "10px"
    },
    "_skin_": "s88cc708170d4e3e8fed2490fd5e632e",
    "_spa_": {},
    "_spaan_": {},
    "_spaandroidtablet_": {},
    "_spabb_": {},
    "_spaip_": {},
    "_spaipad_": {},
    "_spamobile_": {},
    "_spatablet_": {},
    "_spawindowstablet_": {},
    "_spawinphone8_": {},
    "_tabrcandroid_": {},
    "_top_": {
        "type": "string",
        "value": "60px"
    },
    "_vizProps_": {
        "hidewidgethierarchy": false
    },
    "_width_": {
        "type": "string",
        "value": "150px"
    },
    "_windows10_": {},
    "_windows8_": {},
    "_winphone10_": {},
    "_winphone8_": {},
    "areflexpropsreferenced": false,
    "canUpdateUI": true,
    "clipbounds": true,
    "containerweight": 0,
    "dataDiffs": {
        "btnLink1": {
            "__events__": {},
            "__info__": {
                "kuid": "aed402a6a00e43b59b6ae7a8d3bca96d",
                "srcKUID": "c79a78ee48ff4e59ad87e4475decfb09",
                "wType": "Button"
            },
            "isVisible": false
        },
        "btnLink2": {
            "__events__": {},
            "__info__": {
                "kuid": "e0916cab48b048569a7a450894b1ca97",
                "srcKUID": "abcc48517eda4244911200cc947eac21",
                "wType": "Button"
            },
            "isVisible": false
        },
        "contextualMenu1": {
            "__events__": {},
            "__info__": {
                "isRoot": true,
                "kuid": "h0b7e852eb43444e80b4f78396829b4b",
                "srcKUID": "d2183cdc0d9e4e9aaa65a3dec22e02a9",
                "wType": "FlexContainer"
            },
            "autogrowMode": {
                "Default": 0
            },
            "height": {
                "Default": {
                    "type": "string",
                    "value": "70px"
                }
            },
            "isVisible": false,
            "left": {
                "Default": {
                    "type": "string",
                    "value": ""
                }
            },
            "right": {
                "Default": {
                    "type": "string",
                    "value": "10px"
                }
            },
            "top": {
                "Default": {
                    "type": "string",
                    "value": "60px"
                }
            },
            "width": {
                "Default": {
                    "type": "string",
                    "value": "150px"
                }
            }
        },
        "flxOption1": {
            "__events__": {},
            "__info__": {
                "kuid": "g9091a2a3380454c9d0c34ff09482294",
                "srcKUID": "db2058b30203423db41cb34c21a3c10e",
                "wType": "FlexContainer"
            },
            "isVisible": false
        },
        "flxOption2": {
            "__events__": {},
            "__info__": {
                "kuid": "b3dc85417302462db07a3e217fc2edc0",
                "srcKUID": "g37630f97cc649e69c4dc5ed5f717fc3",
                "wType": "FlexContainer"
            },
            "autogrowMode": {
                "Default": 0
            },
            "height": {
                "Default": {
                    "type": "string",
                    "value": "35px"
                }
            }
        },
        "flxOption3": {
            "__events__": {},
            "__info__": {
                "kuid": "c01eccfaf38c4e93a8a41a2ac04494bf",
                "srcKUID": "f83dc0ac37834569adfd6ea12cd29e16",
                "wType": "FlexContainer"
            },
            "isVisible": false
        },
        "flxOption4": {
            "__events__": {},
            "__info__": {
                "kuid": "ice0cab5108447959e44f20e775f1c9e",
                "srcKUID": "eb37120620ac4437817e47847695ac64",
                "wType": "FlexContainer"
            },
            "autogrowMode": {
                "Default": 0
            },
            "height": {
                "Default": {
                    "type": "string",
                    "value": "35px"
                }
            }
        },
        "flxOptionsSeperator": {
            "__events__": {},
            "__info__": {
                "kuid": "a1553c664e014334861fa9c3cb90d657",
                "srcKUID": "f118e6d56d4f41d1a253a6e250dfb20c",
                "wType": "FlexContainer"
            },
            "isVisible": false
        },
        "imgOption1": {
            "__events__": {},
            "__info__": {
                "kuid": "a3a5edf8ab6145d8bfff943e45944b8d",
                "srcKUID": "fcf7925bf2fb4fe188700242fa7d4809",
                "wType": "Image"
            },
            "src": "imagedrag.png"
        },
        "imgOption2": {
            "__events__": {},
            "__info__": {
                "kuid": "ed475ccef39c443487c2f67a742fa0c2",
                "srcKUID": "f34da36097e34c58bf358c57911259b5",
                "wType": "Image"
            },
            "src": "edit2x.png"
        },
        "imgOption3": {
            "__events__": {},
            "__info__": {
                "kuid": "je9b845cb3a84412893cde91642f1912",
                "srcKUID": "g55d22a2b94a42bca2bbe2062455ca59",
                "wType": "Image"
            },
            "src": "imagedrag.png"
        },
        "imgOption4": {
            "__events__": {},
            "__info__": {
                "kuid": "f2a4c630292d44c2b879d7e1fc8531b3",
                "srcKUID": "g19ba47069ed4de5b73cc9aee57e8f04",
                "wType": "Image"
            },
            "src": "deactive_2x.png"
        },
        "lblHeader": {
            "__events__": {},
            "__info__": {
                "kuid": "a7922c532697427a947277bde760e992",
                "srcKUID": "d5434f07b0bd46d2bf456542f8e2a4af",
                "wType": "Label"
            },
            "isVisible": false
        },
        "lblIconOption1": {
            "__events__": {},
            "__info__": {
                "kuid": "b6cdf80d1d9f4c47a79975f5b56ceca8",
                "srcKUID": "hf5f3c4981ee44e2844d761ce8c4dbdf",
                "wType": "Label"
            }
        },
        "lblIconOption2": {
            "__events__": {},
            "__info__": {
                "kuid": "baff3bcd9a7c49278ac76a9c7e4106b8",
                "srcKUID": "fffbee09231e47b8a32995e66d7a0d7c",
                "wType": "Label"
            },
            "i18n_text": "i18n.userwidgetmodel.lblIconOption1",
            "text": ""
        },
        "lblIconOption3": {
            "__events__": {},
            "__info__": {
                "kuid": "cffa5a696b0945c0b86b795c6adda733",
                "srcKUID": "f65a4a6fed4c4732a2b80e3d11d6e447",
                "wType": "Label"
            }
        },
        "lblIconOption4": {
            "__events__": {},
            "__info__": {
                "kuid": "cf029bcc429840309938146db7b3adae",
                "srcKUID": "e38088e0fd1b48ac933fcbca18d5ff77",
                "wType": "Label"
            },
            "i18n_text": "i18n.userwidgetmodel.lblIconOption2",
            "text": ""
        },
        "lblOption1": {
            "__events__": {},
            "__info__": {
                "kuid": "ac721118a1cc42d3a40c9f22a2d5c2b4",
                "srcKUID": "fbf420a898374bd4b6f90262313755df",
                "wType": "Label"
            }
        },
        "lblOption2": {
            "__events__": {},
            "__info__": {
                "kuid": "g99c29e370ed4fd18da1d0e9b8596935",
                "srcKUID": "b3f92f4b0c7b4bff91fd183b9b518db1",
                "wType": "Label"
            },
            "i18n_text": "i18n.ConfigurationBundles.edit"
        },
        "lblOption3": {
            "__events__": {},
            "__info__": {
                "kuid": "f9a8b116f0f84839bd4026a71e877e6b",
                "srcKUID": "e537cff024b346fe94cceb983f858289",
                "wType": "Label"
            }
        },
        "lblOption4": {
            "__events__": {},
            "__info__": {
                "kuid": "bc5c670c7aa7485084aba6d6a37ccdf9",
                "srcKUID": "bbdadb5c424245f1b173fcdcf506eed8",
                "wType": "Label"
            },
            "i18n_text": "i18n.ConfigurationBundles.delete",
            "text": "Delete"
        }
    },
    "enablescrolling": true,
    "id": "contextualMenu1",
    "info": null,
    "iscustomlayout": false,
    "isdatareferenced": false,
    "isvisible": false,
    "kuid": "h0b7e852eb43444e80b4f78396829b4b",
    "layouttype": 4,
    "masterType": 0,
    "name": "kony.ui.UserWidgetInstance",
    "parent": "flxConfigurationData",
    "pf": "frmConfigurationBundles",
    "retaincontentalignment": false,
    "retainflexpositionproperties": false,
    "snapgridsize": 10,
    "snaptogrid": true,
    "sourceUserWidget": "d2183cdc0d9e4e9aaa65a3dec22e02a9",
    "wType": "UserWidgetInstance"
}