{
    "@class": "com.kony.gen.viz.model.component.KVizLabel",
    "DNDConfig": null,
    "__parentReadjusting__": false,
    "_height_": {
        "type": "string",
        "value": "25px"
    },
    "_left_": {
        "type": "string",
        "value": "20px"
    },
    "_margin_": [
        1,
        1,
        1,
        1
    ],
    "_padding_": [
        0,
        0,
        0,
        0
    ],
    "_skin_": "s12c70e4eaad4e1ab47cf741222f3d3a",
    "_text_": "Add Configuration",
    "_top_": {
        "type": "string",
        "value": "35px"
    },
    "_width_": {
        "type": "ref",
        "value": "preferred"
    },
    "_wrapping_": 2,
    "android": {
        "textStyle": {
            "letterSpacing": 0,
            "strikeThrough": false
        }
    },
    "canUpdateUI": true,
    "containerweight": 100,
    "contentalignment": 4,
    "id": "flxAddConfigurationPopUpHeader",
    "info": null,
    "ipad": {
        "psp": {
            "wrapping": 2
        }
    },
    "iphone": {
        "psp": {
            "wrapping": 2
        }
    },
    "isvisible": true,
    "kuid": "cebc7c7aab014124a6666dcd129acc8e",
    "name": "kony.ui.Label",
    "parent": "flxAddConfigurationPopUpMain",
    "pf": "frmConfigurationBundles",
    "texti18n": "i18n.ConfigurationBundles.addConfiguration",
    "tooltip": "",
    "wType": "Label",
    "zindex": 1
}