{
    "DNDConfig": null,
    "__parentReadjusting__": false,
    "_height_": {
        "type": "string",
        "value": "105px"
    },
    "_left_": {
        "type": "string",
        "value": "0px"
    },
    "_margin_": [
        0,
        0,
        0,
        0
    ],
    "_orientation_": 6,
    "_padding_": [
        0,
        0,
        0,
        0
    ],
    "_percent_": true,
    "_skin_": "s8ff24328417401b877c3ceb2a5fa27c",
    "_top_": {
        "type": "string",
        "value": "0px"
    },
    "_width_": {
        "type": "string",
        "value": "50%"
    },
    "allboxes": [],
    "autogrowmode": 0,
    "canUpdateUI": true,
    "children": [
        "lblBundleNameHeader",
        "lblBundleName",
        "txtBundleName",
        "flxNoBundleNameError",
        "flxBundleNameCharCount"
    ],
    "clipbounds": true,
    "containerweight": 100,
    "enablescrolling": true,
    "id": "flxBundleName",
    "info": null,
    "iscustomlayout": false,
    "isvisible": true,
    "kuid": "g3495cf4857a462eb4f858dd26cd0cc3",
    "layouttype": 2,
    "name": "kony.ui.FlexContainer",
    "parent": "flxAddConfigurationBundlesWrapper",
    "pf": "frmConfigurationBundles",
    "retaincontentalignment": false,
    "retainflexpositionproperties": false,
    "snapgridsize": 10,
    "snaptogrid": true,
    "wType": "FlexContainer",
    "widgetalignment": 1,
    "zindex": 1
}