{
    "DNDConfig": null,
    "__parentReadjusting__": false,
    "_height_": {
        "type": "string",
        "value": "100%"
    },
    "_left_": {
        "type": "string",
        "value": "0px"
    },
    "_margin_": [
        0,
        0,
        0,
        0
    ],
    "_orientation_": 6,
    "_padding_": [
        0,
        0,
        0,
        0
    ],
    "_percent_": true,
    "_skin_": "s8ff24328417401b877c3ceb2a5fa27c",
    "_top_": {
        "type": "string",
        "value": "0px"
    },
    "_width_": {
        "type": "string",
        "value": "100%"
    },
    "allboxes": [],
    "canUpdateUI": true,
    "children": [
        "configurationData",
        "contextualMenu1",
        "flxConfigTypeFilter",
        "flxConfigTargetFilter",
        "rtxNoResultsFound"
    ],
    "clipbounds": true,
    "containerweight": 100,
    "enablescrolling": true,
    "id": "flxConfigurationData",
    "info": null,
    "iscustomlayout": false,
    "isvisible": true,
    "kuid": "c5237a1a2ac24976883a709cc82d7e9e",
    "layouttype": 2,
    "name": "kony.ui.FlexContainer",
    "parent": "flxAddConfiguration",
    "pf": "frmConfigurationBundles",
    "retaincontentalignment": false,
    "retainflexpositionproperties": false,
    "retainflowhorizontalalignment": false,
    "snapgridsize": 10,
    "snaptogrid": true,
    "vizProps": {},
    "wType": "FlexContainer",
    "widgetalignment": 1
}