{
    "@class": "com.kony.gen.viz.model.component.KVizListBox",
    "DNDConfig": null,
    "__parentReadjusting__": false,
    "_height_": {
        "type": "string",
        "value": "40px"
    },
    "_left_": {
        "type": "string",
        "value": "60px"
    },
    "_margin_": [
        0,
        0,
        0,
        0
    ],
    "_padding_": [
        3,
        0,
        0,
        0
    ],
    "_placeholder_": "Please Select",
    "_right_": {
        "type": "string",
        "value": "10px"
    },
    "_skin_": "s880a3fee6cd4c55b68023197a2f8a32",
    "_top_": {
        "type": "string",
        "value": "0px"
    },
    "_width_": {
        "type": "string",
        "value": "180px"
    },
    "canUpdateUI": true,
    "centery": {
        "type": "string",
        "value": "50%"
    },
    "containerweight": 100,
    "contentalignment": 4,
    "focusskin": "s8e2b9bc59214798999099f19e4148ae",
    "groupcells": false,
    "id": "lbxBundleSortByOptions",
    "info": null,
    "iscustomlayout": false,
    "isvisible": true,
    "kuid": "ccec1b63a82f40a085ef9aa39bc7517a",
    "masterdata": [
        [
            "bundleName",
            "Bundle Name"
        ],
        [
            "bundleAppId",
            "App ID"
        ]
    ],
    "name": "kony.ui.ListBox",
    "parent": "flxViewConfigurationBundlesTopBar",
    "pf": "frmConfigurationBundles",
    "retaincontentalignment": false,
    "retainflexpositionproperties": false,
    "selectedkeys": null,
    "selectedkeyvalue": null,
    "selectedkeyvalues": null,
    "size": 18,
    "viewconfig": {
        "toggleViewConfig": {
            "viewStyle": 0
        }
    },
    "viewtype": 0,
    "wType": "ListBox",
    "zindex": 1
}