{
    "@class": "com.kony.gen.viz.model.component.KVizTextBox2",
    "DNDConfig": null,
    "__parentReadjusting__": false,
    "_height_": {
        "type": "string",
        "value": "30px"
    },
    "_left_": {
        "type": "string",
        "value": "30px"
    },
    "_margin_": [
        0,
        0,
        0,
        0
    ],
    "_padding_": [
        2,
        0,
        0,
        0
    ],
    "_placeholder_": "Search by Key, Value",
    "_right_": {
        "type": "string",
        "value": "35px"
    },
    "_skin_": "s2f692b1f7684994855e6a991592a928",
    "_text_": "",
    "autocapitalize": "none",
    "autocomplete": false,
    "autocorrect": false,
    "autofilter": false,
    "canUpdateUI": true,
    "centery": {
        "type": "string",
        "value": "50%"
    },
    "containerheight": "",
    "containerheightmode": 1,
    "containerweight": 100,
    "contentalignment": 4,
    "desktopweb": {
        "psp": {}
    },
    "disabledSkins": {
        "focusSkin": "sd5d9f2f9f9a4eb4a885e2a0f597f79b",
        "hoverSkin": "se5abcf5912c4d6f91d091b897714d1f"
    },
    "focusskin": null,
    "id": "tbxConfigurationSearchBox",
    "ide_onTouchStart": "AS_TextField_cfab06859f0f43eca99495891ee290d5",
    "info": null,
    "isvisible": true,
    "keyboardtype": "A",
    "kuid": "cfeb5daf48a7472883240f1c014adea7",
    "mode": "A",
    "name": "kony.ui.TextBox2",
    "paddinginpixel": false,
    "parent": "flxConfigurationSearchContainer",
    "pf": "frmConfigurationBundles",
    "placeholderi18n": "i18n.ConfigurationBundles.searchConfigurationPlaceholder",
    "securetextentry": false,
    "textinputmode": "A",
    "viewtype": "default",
    "wType": "TextField",
    "zindex": 1
}