{
    "@class": "com.kony.gen.viz.model.component.KVizTextBox2",
    "DNDConfig": null,
    "__parentReadjusting__": false,
    "_height_": {
        "type": "string",
        "value": "40px"
    },
    "_left_": {
        "type": "string",
        "value": "20px"
    },
    "_margin_": [
        0,
        0,
        0,
        0
    ],
    "_padding_": [
        3,
        0,
        0,
        0
    ],
    "_placeholder_": "Value",
    "_right_": {
        "type": "string",
        "value": "20px"
    },
    "_skin_": "s7953653a3f64598bd54d03dcb8cf6ec",
    "_text_": "",
    "_top_": {
        "type": "string",
        "value": "40px"
    },
    "autocapitalize": "none",
    "autocomplete": false,
    "autocorrect": false,
    "autofilter": false,
    "canUpdateUI": true,
    "containerheight": "",
    "containerheightmode": 1,
    "containerweight": 100,
    "contentalignment": 4,
    "focusskin": "s1992c3cdd0c45afb007a0ceeed1111d",
    "id": "txtAddConfigurationValue",
    "info": null,
    "iscustomlayout": false,
    "isvisible": true,
    "keyboardtype": "A",
    "kuid": "ddd99a50342b42cf96b6357f660de6ea",
    "mode": "A",
    "name": "kony.ui.TextBox2",
    "parent": "flxAddConfigurationValue",
    "pf": "frmConfigurationBundles",
    "placeholderi18n": "i18n.ConfigurationBundles.value",
    "placeholderskin": "s1ad35988e124d51b6fc33c20681b05c",
    "retaincontentalignment": false,
    "retainflexpositionproperties": false,
    "securetextentry": false,
    "textinputmode": "A",
    "tooltip": "",
    "viewtype": "default",
    "wType": "TextField",
    "zindex": 1
}