{
    "@class": "com.kony.gen.viz.model.component.KVizUserWidget",
    "DNDConfig": null,
    "__parentReadjusting__": false,
    "_android_": {},
    "_androidwearos_": {},
    "_bottom_": {
        "type": "string",
        "value": ""
    },
    "_children_": [],
    "_desktopweb_": {},
    "_height_": {
        "type": "string",
        "value": "80px"
    },
    "_ipad_": {},
    "_iphone_": {},
    "_kiosk_": {},
    "_left_": {
        "type": "string",
        "value": "0dp"
    },
    "_margin_": [
        0,
        0,
        0,
        0
    ],
    "_orientation_": 1,
    "_padding_": [
        0,
        0,
        0,
        0
    ],
    "_percent_": true,
    "_responsiveData_": {},
    "_skin_": "s8ff24328417401b877c3ceb2a5fa27c",
    "_spa_": {},
    "_spaan_": {},
    "_spaandroidtablet_": {},
    "_spabb_": {},
    "_spaip_": {},
    "_spaipad_": {},
    "_spamobile_": {},
    "_spatablet_": {},
    "_spawindowstablet_": {},
    "_spawinphone8_": {},
    "_tabrcandroid_": {},
    "_top_": {
        "type": "string",
        "value": ""
    },
    "_vizProps_": {
        "hidewidgethierarchy": false
    },
    "_width_": {
        "type": "string",
        "value": "100%"
    },
    "_windows10_": {},
    "_windows8_": {},
    "_winphone10_": {},
    "_winphone8_": {},
    "areflexpropsreferenced": false,
    "autogrowmode": 0,
    "canUpdateUI": true,
    "centery": {
        "type": "string",
        "value": "50%"
    },
    "clipbounds": true,
    "containerweight": 0,
    "dataDiffs": {
        "btnCancel": {
            "__events__": {},
            "__info__": {
                "kuid": "bedf36f3c5be4646906e75867e0da501",
                "srcKUID": "hb7e8e6dc73a4044aaa1636cb1f70704",
                "wType": "Button"
            },
            "left": {
                "Default": {
                    "type": "string",
                    "value": "20dp"
                }
            }
        },
        "btnNext": {
            "__events__": {},
            "__info__": {
                "kuid": "c2fdf28f64d14c98acbb32b99b128bd3",
                "srcKUID": "if89a3cc957141078b03996441e09d8c",
                "wType": "Button"
            },
            "left": {
                "Default": {
                    "type": "string",
                    "value": ""
                }
            },
            "right": {
                "Default": {
                    "type": "string",
                    "value": "20dp"
                }
            },
            "width": {
                "Default": {
                    "type": "string",
                    "value": "100dp"
                }
            }
        },
        "btnSave": {
            "__events__": {},
            "__info__": {
                "kuid": "e12b6643fe7043a5b2da1dc740341415",
                "srcKUID": "af70c434338f4068a24a87b45c58f9ee",
                "wType": "Button"
            },
            "i18n_text": "i18n.CommonButtons.Save_AddNew",
            "isVisible": false,
            "right": {
                "Default": {
                    "type": "string",
                    "value": "35dp"
                }
            },
            "text": "SAVE"
        },
        "commonButtons": {
            "__events__": {},
            "__info__": {
                "isRoot": true,
                "kuid": "cd1dde9bad8846148cbb41c9dd1a72e4",
                "srcKUID": "cc441f293bdb4489aebfc9b06fe5513e",
                "wType": "FlexContainer"
            },
            "bottom": {
                "Default": {
                    "type": "string",
                    "value": ""
                }
            },
            "centerY": {
                "Default": {
                    "type": "string",
                    "value": "50%"
                }
            },
            "top": {
                "Default": {
                    "type": "string",
                    "value": ""
                }
            }
        },
        "flxRightButtons": {
            "__events__": {},
            "__info__": {
                "kuid": "a725a5c731a544a38dfa898e699bed2b",
                "srcKUID": "beae25c502d54e038c70de835ec18eca",
                "wType": "FlexContainer"
            }
        }
    },
    "enablescrolling": true,
    "id": "commonButtonsDetails",
    "info": null,
    "iscustomlayout": false,
    "isdatareferenced": false,
    "isvisible": true,
    "kuid": "cd1dde9bad8846148cbb41c9dd1a72e4",
    "layouttype": 2,
    "masterType": 0,
    "name": "kony.ui.UserWidgetInstance",
    "parent": "flxDetailsBottomButtons",
    "pf": "frmCompanies",
    "retaincontentalignment": false,
    "retainflexpositionproperties": false,
    "snapgridsize": 10,
    "snaptogrid": true,
    "sourceUserWidget": "cc441f293bdb4489aebfc9b06fe5513e",
    "wType": "UserWidgetInstance"
}