{
    "@class": "com.kony.gen.viz.model.component.KVizUserWidget",
    "DNDConfig": null,
    "__parentReadjusting__": false,
    "_android_": {},
    "_androidwearos_": {},
    "_children_": [],
    "_desktopweb_": {},
    "_height_": {
        "type": "string",
        "value": "80px"
    },
    "_ipad_": {},
    "_iphone_": {},
    "_kiosk_": {},
    "_left_": {
        "type": "string",
        "value": "0dp"
    },
    "_margin_": [
        0,
        0,
        0,
        0
    ],
    "_orientation_": 1,
    "_padding_": [
        0,
        0,
        0,
        0
    ],
    "_percent_": true,
    "_responsiveData_": {},
    "_skin_": "s8ff24328417401b877c3ceb2a5fa27c",
    "_spa_": {},
    "_spaan_": {},
    "_spaandroidtablet_": {},
    "_spabb_": {},
    "_spaip_": {},
    "_spaipad_": {},
    "_spamobile_": {},
    "_spatablet_": {},
    "_spawindowstablet_": {},
    "_spawinphone8_": {},
    "_tabrcandroid_": {},
    "_top_": {
        "type": "string",
        "value": "0dp"
    },
    "_vizProps_": {
        "hidewidgethierarchy": false
    },
    "_width_": {
        "type": "string",
        "value": "100%"
    },
    "_windows10_": {},
    "_windows8_": {},
    "_winphone10_": {},
    "_winphone8_": {},
    "areflexpropsreferenced": false,
    "autogrowmode": 0,
    "canUpdateUI": true,
    "clipbounds": true,
    "containerweight": 0,
    "dataDiffs": {
        "btnCancel": {
            "__events__": {},
            "__info__": {
                "kuid": "idc9068a34f341b0837de4992cee47d1",
                "srcKUID": "hb7e8e6dc73a4044aaa1636cb1f70704",
                "wType": "Button"
            },
            "left": {
                "Default": {
                    "type": "string",
                    "value": "35dp"
                }
            }
        },
        "btnNext": {
            "__events__": {},
            "__info__": {
                "kuid": "a6119408a0b2452596b6eda93b712522",
                "srcKUID": "if89a3cc957141078b03996441e09d8c",
                "wType": "Button"
            },
            "isVisible": true
        },
        "btnSave": {
            "__events__": {},
            "__info__": {
                "kuid": "ca237e130ed4454ca3fdd41117beabc5",
                "srcKUID": "af70c434338f4068a24a87b45c58f9ee",
                "wType": "Button"
            },
            "i18n_text": "i18n.frmPermissionsController.CREATE",
            "isVisible": false,
            "right": {
                "Default": {
                    "type": "string",
                    "value": "35dp"
                }
            }
        },
        "commonButtons": {
            "__events__": {},
            "__info__": {
                "isRoot": true,
                "kuid": "d4fc360abdde45058603a96986a8d156",
                "srcKUID": "cc441f293bdb4489aebfc9b06fe5513e",
                "wType": "FlexContainer"
            }
        },
        "flxRightButtons": {
            "__events__": {},
            "__info__": {
                "kuid": "j5af5c0d4d5d410cb25b8502aab93a63",
                "srcKUID": "beae25c502d54e038c70de835ec18eca",
                "wType": "FlexContainer"
            }
        }
    },
    "enablescrolling": true,
    "id": "commonButtonsAccounts",
    "info": null,
    "iscustomlayout": false,
    "isdatareferenced": false,
    "isvisible": true,
    "kuid": "d4fc360abdde45058603a96986a8d156",
    "layouttype": 2,
    "masterType": 0,
    "name": "kony.ui.UserWidgetInstance",
    "parent": "flxAccBottomButtons",
    "pf": "frmCompanies",
    "retaincontentalignment": false,
    "retainflexpositionproperties": false,
    "snapgridsize": 10,
    "snaptogrid": true,
    "sourceUserWidget": "cc441f293bdb4489aebfc9b06fe5513e",
    "wType": "UserWidgetInstance"
}