{
    "@class": "com.kony.gen.viz.model.component.KVizUserWidget",
    "DNDConfig": null,
    "__parentReadjusting__": false,
    "_android_": {},
    "_androidwearos_": {},
    "_children_": [],
    "_desktopweb_": {},
    "_height_": {
        "type": "string",
        "value": "100%"
    },
    "_ipad_": {},
    "_iphone_": {},
    "_kiosk_": {},
    "_left_": {
        "type": "string",
        "value": "0dp"
    },
    "_margin_": [
        0,
        0,
        0,
        0
    ],
    "_orientation_": 1,
    "_padding_": [
        0,
        0,
        0,
        0
    ],
    "_percent_": true,
    "_responsiveData_": {},
    "_skin_": "s8ff24328417401b877c3ceb2a5fa27c",
    "_spa_": {},
    "_spaan_": {},
    "_spaandroidtablet_": {},
    "_spabb_": {},
    "_spaip_": {},
    "_spaipad_": {},
    "_spamobile_": {},
    "_spatablet_": {},
    "_spawindowstablet_": {},
    "_spawinphone8_": {},
    "_tabrcandroid_": {},
    "_top_": {
        "type": "string",
        "value": "30dp"
    },
    "_vizProps_": {
        "hidewidgethierarchy": false
    },
    "_width_": {
        "type": "string",
        "value": "100%"
    },
    "_windows10_": {},
    "_windows8_": {},
    "_winphone10_": {},
    "_winphone8_": {},
    "areflexpropsreferenced": false,
    "canUpdateUI": true,
    "clipbounds": true,
    "containerweight": 0,
    "dataDiffs": {
        "contactNumber": {
            "__events__": {},
            "__info__": {
                "isRoot": true,
                "kuid": "d1782af422754852a4c1b84db8ab2f71",
                "srcKUID": "ibc3e5b3edb84d259fd2067931a782e9",
                "wType": "FlexContainer"
            },
            "top": {
                "Default": {
                    "type": "string",
                    "value": "30dp"
                }
            }
        },
        "flxContactNumberWrapper": {
            "__events__": {},
            "__info__": {
                "kuid": "e89bf88dbf744cd6b9605894f4875585",
                "srcKUID": "b758e1a12339403aa650221ca965e0a3",
                "wType": "FlexContainer"
            },
            "right": {
                "Default": {
                    "type": "string",
                    "value": ""
                }
            },
            "width": {
                "Default": {
                    "type": "string",
                    "value": "100%"
                }
            }
        },
        "flxError": {
            "__events__": {},
            "__info__": {
                "kuid": "ade9fb9395d047649966b104a7bd742a",
                "srcKUID": "d82fbddca9a54c57af6370deb63a1b7b",
                "wType": "FlexContainer"
            },
            "autogrowMode": {
                "Default": 1
            },
            "height": {
                "Default": {
                    "type": "ref",
                    "value": "preferred"
                }
            },
            "isVisible": false,
            "left": {
                "Default": {
                    "type": "string",
                    "value": ""
                }
            },
            "right": {
                "Default": {
                    "type": "string",
                    "value": "0dp"
                }
            },
            "top": {
                "Default": {
                    "type": "string",
                    "value": "40dp"
                }
            },
            "width": {
                "Default": {
                    "type": "string",
                    "value": "100%"
                }
            }
        },
        "lblDash": {
            "__events__": {},
            "__info__": {
                "kuid": "f8c990247bb74887a6eaa2be04ec858d",
                "srcKUID": "e219e548a8294d4ca5a93959705c8968",
                "wType": "Label"
            },
            "isVisible": true,
            "left": {
                "Default": {
                    "type": "string",
                    "value": "33%"
                }
            }
        },
        "lblErrorIcon": {
            "__events__": {},
            "__info__": {
                "kuid": "j30e22b007cd49e595fc031ee752e1de",
                "srcKUID": "ead8fe02893644c58598435384cbeebd",
                "wType": "Label"
            }
        },
        "lblErrorText": {
            "__events__": {},
            "__info__": {
                "kuid": "f8812685e9a54613ab55742ac5266919",
                "srcKUID": "ab774d00a69e4ee9985202f915601945",
                "wType": "Label"
            },
            "height": {
                "Default": {
                    "type": "ref",
                    "value": "preferred"
                }
            },
            "right": {
                "Default": {
                    "type": "string",
                    "value": "0dp"
                }
            },
            "width": {
                "Default": {
                    "type": "string",
                    "value": ""
                }
            }
        },
        "txtContactNumber": {
            "__events__": {},
            "__info__": {
                "kuid": "f82fec8c60b34b4e91b180bb13a94434",
                "srcKUID": "a248bc5d195649d9ba617e4df7f1da81",
                "wType": "TextField"
            },
            "i18n_placeholder": "i18n.frmCompanies.CompnayContact",
            "left": {
                "Default": {
                    "type": "string",
                    "value": ""
                }
            },
            "placeholder": "Company Contact Number",
            "right": {
                "Default": {
                    "type": "string",
                    "value": "0dp"
                }
            },
            "width": {
                "Default": {
                    "type": "string",
                    "value": "61%"
                }
            }
        },
        "txtISDCode": {
            "__events__": {},
            "__info__": {
                "kuid": "c7eccc5a22c0469c8c30006b006b29b5",
                "srcKUID": "b0b9033e30e247db83facee8c2040959",
                "wType": "TextField"
            },
            "isVisible": true,
            "width": {
                "Default": {
                    "type": "string",
                    "value": "30%"
                }
            }
        }
    },
    "enablescrolling": true,
    "id": "contactNumber",
    "info": null,
    "iscustomlayout": false,
    "isdatareferenced": false,
    "isvisible": true,
    "kuid": "d1782af422754852a4c1b84db8ab2f71",
    "layouttype": 2,
    "masterType": 0,
    "name": "kony.ui.UserWidgetInstance",
    "parent": "flxContactNumber",
    "pf": "frmCompanies",
    "retaincontentalignment": false,
    "retainflexpositionproperties": false,
    "snapgridsize": 10,
    "snaptogrid": true,
    "sourceUserWidget": "ibc3e5b3edb84d259fd2067931a782e9",
    "wType": "UserWidgetInstance"
}