{
    "DNDConfig": null,
    "__parentReadjusting__": false,
    "_height_": {
        "type": "ref",
        "value": "preferred"
    },
    "_left_": {
        "type": "string",
        "value": "0dp"
    },
    "_margin_": [
        0,
        0,
        0,
        0
    ],
    "_orientation_": 6,
    "_padding_": [
        0,
        0,
        0,
        0
    ],
    "_percent_": true,
    "_skin_": "s8ff24328417401b877c3ceb2a5fa27c",
    "_top_": {
        "type": "string",
        "value": "20px"
    },
    "_width_": {
        "type": "string",
        "value": "100%"
    },
    "allboxes": [],
    "autogrowmode": 1,
    "canUpdateUI": true,
    "children": [
        "ProductRow1",
        "ProductRow2",
        "ProductRow3",
        "ProductRow4",
        "ProductRow5",
        "flxSubscriptionsHeader",
        "flxSubscriptions"
    ],
    "clipbounds": true,
    "containerweight": 100,
    "enablescrolling": true,
    "id": "flxProductHeaderAndDetails",
    "ide_onClick": "AS_FlexContainer_c56ba97ff3f0490483af8b7728751669",
    "info": null,
    "isvisible": true,
    "kuid": "bec6542a26d64b26b8edae225e549019",
    "layouttype": 4,
    "name": "kony.ui.FlexContainer",
    "parent": "flxProductDetails",
    "pf": "frmCompanies",
    "snapgridsize": 10,
    "snaptogrid": true,
    "wType": "FlexContainer",
    "widgetalignment": 1,
    "zindex": 1
}