{
    "@class": "com.kony.gen.viz.model.component.KVizUserWidget",
    "DNDConfig": null,
    "__parentReadjusting__": false,
    "_android_": {},
    "_androidwearos_": {},
    "_children_": [],
    "_desktopweb_": {},
    "_height_": {
        "type": "string",
        "value": "100%"
    },
    "_ipad_": {},
    "_iphone_": {},
    "_kiosk_": {},
    "_left_": {
        "type": "string",
        "value": "0dp"
    },
    "_margin_": [
        0,
        0,
        0,
        0
    ],
    "_orientation_": 1,
    "_padding_": [
        0,
        0,
        0,
        0
    ],
    "_percent_": true,
    "_render_": true,
    "_responsiveData_": {},
    "_skin_": "s39233a8d65f40d5b9120e116f6d9ef6",
    "_spa_": {},
    "_spaan_": {},
    "_spaandroidtablet_": {},
    "_spabb_": {},
    "_spaip_": {},
    "_spaipad_": {},
    "_spamobile_": {},
    "_spatablet_": {},
    "_spawindowstablet_": {},
    "_spawinphone8_": {},
    "_tabrcandroid_": {},
    "_top_": {
        "type": "string",
        "value": "0dp"
    },
    "_vizProps_": {
        "hidewidgethierarchy": false
    },
    "_width_": {
        "type": "string",
        "value": "100%"
    },
    "_windows10_": {},
    "_windows8_": {},
    "_winphone10_": {},
    "_winphone8_": {},
    "areflexpropsreferenced": false,
    "canUpdateUI": true,
    "clipbounds": true,
    "containerweight": 0,
    "dataDiffs": {
        "btnPopUpCancel": {
            "__events__": {},
            "__info__": {
                "kuid": "ff03cf5b67ce4ab8a32c2439a08787e9",
                "srcKUID": "d4ffebacb2fc450f90f34ff2c512b36f",
                "wType": "Button"
            },
            "right": {
                "Default": {
                    "type": "string",
                    "value": "150px"
                }
            }
        },
        "btnPopUpDelete": {
            "__events__": {},
            "__info__": {
                "kuid": "db356fbae9f14f1aa0e02166381e6912",
                "srcKUID": "d74b32688d0448359e725db30e5db9ca",
                "wType": "Button"
            },
            "i18n_text": null,
            "text": "UNLINK"
        },
        "flxPopUp": {
            "__events__": {},
            "__info__": {
                "kuid": "f3b9b7562a844c96a03c1b122a3d9393",
                "srcKUID": "f1999a7df0404922bf7e8acfb6a3780a",
                "wType": "FlexContainer"
            }
        },
        "flxPopUpButtons": {
            "__events__": {},
            "__info__": {
                "kuid": "e7ae10eeee3d444899dae92dd2d9accc",
                "srcKUID": "f009cbfda01245849be265a8e58d3cf3",
                "wType": "FlexContainer"
            }
        },
        "flxPopUpClose": {
            "__events__": {},
            "__info__": {
                "kuid": "ifd0eee012c548b48d625279bcc0f919",
                "srcKUID": "f9727789f4894508b70f7d5ae8b7a9a2",
                "wType": "FlexContainer"
            }
        },
        "flxPopUpTopColor": {
            "__events__": {},
            "__info__": {
                "kuid": "b76e8b8e69c647529edc5e25ab0bf7cf",
                "srcKUID": "d5d6b9f19ae4477b8708d1b775160fb5",
                "wType": "FlexContainer"
            }
        },
        "flxPopupHeader": {
            "__events__": {},
            "__info__": {
                "kuid": "fa99aa568e5d4df882edf6bc78ce4d85",
                "srcKUID": "ad64beaac2734a82ad110cd93e7e9838",
                "wType": "FlexContainer"
            }
        },
        "fontIconImgCLose": {
            "__events__": {},
            "__info__": {
                "kuid": "ie04dbc1c544438b9e95158636af04eb",
                "srcKUID": "hb8853052adb4ceb98482f3b9abdb6b1",
                "wType": "Label"
            }
        },
        "lblPopUpClose": {
            "__events__": {},
            "__info__": {
                "kuid": "h499685c896e4553b2435119b43d72d1",
                "srcKUID": "j726c91d687f4bdea9b61ee15718ea91",
                "wType": "Label"
            }
        },
        "lblPopUpMainMessage": {
            "__events__": {},
            "__info__": {
                "kuid": "i1b89bef81b64188806a5699babb7bb6",
                "srcKUID": "cf94c2324e174d609ee2a12b7557d0a5",
                "wType": "Label"
            },
            "i18n_text": null,
            "text": "Unlink Account"
        },
        "popUp": {
            "__events__": {},
            "__info__": {
                "isRoot": true,
                "kuid": "c2d83eb3370d44cd88aba643c8b3813b",
                "srcKUID": "bf3aac0ddc8b47a0b463a18207905574",
                "wType": "FlexContainer"
            }
        },
        "rtxPopUpDisclaimer": {
            "__events__": {},
            "__info__": {
                "kuid": "hb4d2faabda94dd386f10077c2b213ca",
                "srcKUID": "j4d87455f6ec44dbacababd4bf714b40",
                "wType": "RichText"
            },
            "i18n_text": null,
            "text": "Do you want to unlink the account?<br><br>This account is associated with the company. Deleting this may result in losing the data permanently.\n",
            "width": {
                "Default": {
                    "type": "string",
                    "value": "90%"
                }
            }
        }
    },
    "id": "popUp",
    "info": null,
    "isdatareferenced": false,
    "isvisible": true,
    "kuid": "c2d83eb3370d44cd88aba643c8b3813b",
    "layouttype": 2,
    "masterType": 0,
    "name": "kony.ui.UserWidgetInstance",
    "parent": "flxUnlinkAccount",
    "pf": "frmCompanies",
    "sourceUserWidget": "bf3aac0ddc8b47a0b463a18207905574",
    "wType": "UserWidgetInstance",
    "zindex": 1
}