{
    "@class": "com.kony.gen.viz.model.component.KVizUserWidget",
    "DNDConfig": null,
    "__parentReadjusting__": false,
    "_android_": {},
    "_androidwearos_": {},
    "_children_": [],
    "_desktopweb_": {},
    "_height_": {
        "type": "string",
        "value": "60px"
    },
    "_ipad_": {},
    "_iphone_": {},
    "_kiosk_": {},
    "_left_": {
        "type": "string",
        "value": "0dp"
    },
    "_margin_": [
        0,
        0,
        0,
        0
    ],
    "_orientation_": 1,
    "_padding_": [
        0,
        0,
        0,
        0
    ],
    "_percent_": true,
    "_render_": true,
    "_responsiveData_": {},
    "_skin_": "s8ff24328417401b877c3ceb2a5fa27c",
    "_spa_": {},
    "_spaan_": {},
    "_spaandroidtablet_": {},
    "_spabb_": {},
    "_spaip_": {},
    "_spaipad_": {},
    "_spamobile_": {},
    "_spatablet_": {},
    "_spawindowstablet_": {},
    "_spawinphone8_": {},
    "_tabrcandroid_": {},
    "_top_": {
        "type": "string",
        "value": "0dp"
    },
    "_vizProps_": {
        "hidewidgethierarchy": false
    },
    "_width_": {
        "type": "string",
        "value": "100%"
    },
    "_windows10_": {},
    "_windows8_": {},
    "_winphone10_": {},
    "_winphone8_": {},
    "areflexpropsreferenced": false,
    "autogrowmode": 0,
    "canUpdateUI": true,
    "clipbounds": true,
    "containerweight": 0,
    "dataDiffs": {
        "btnLink1": {
            "__events__": {},
            "__info__": {
                "kuid": "iaf375c338914cc483f87f6564e90086",
                "srcKUID": "f9cd08e92d104573826b599112d2d40c",
                "wType": "Button"
            }
        },
        "btnLink2": {
            "__events__": {},
            "__info__": {
                "kuid": "e4186b47538c47f382bb5bb9b4308c54",
                "srcKUID": "h4696e15fc1b48be977fef2807df44da",
                "wType": "Button"
            }
        },
        "btnLink3": {
            "__events__": {},
            "__info__": {
                "kuid": "a5dbe9c944704e3db62f133b42464564",
                "srcKUID": "de0012d2ac32449b8dc7ce7b90ae6d59",
                "wType": "Button"
            }
        },
        "details": {
            "__events__": {},
            "__info__": {
                "isRoot": true,
                "kuid": "a34dd4a4bf5644ab8eeb700777a16a24",
                "srcKUID": "e2af4587476946cf966c194460006daa",
                "wType": "FlexContainer"
            },
            "autogrowMode": 0,
            "height": {
                "Default": {
                    "type": "string",
                    "value": "60px"
                }
            }
        },
        "flxColumn1": {
            "__events__": {},
            "__info__": {
                "kuid": "f1c67c81430542cfacb79cbd1b5b252c",
                "srcKUID": "ja59132c672b445f9e33d969226ce6bd",
                "wType": "FlexContainer"
            }
        },
        "flxColumn2": {
            "__events__": {},
            "__info__": {
                "kuid": "c8722db5570f44f9913ba8ca9aa749fe",
                "srcKUID": "d164bee50e3f4d74b99deadfbe5e8b12",
                "wType": "FlexContainer"
            }
        },
        "flxColumn3": {
            "__events__": {},
            "__info__": {
                "kuid": "e1236ae342974a459f31dd95268fd681",
                "srcKUID": "i1da355959d5439aa866b4b78da2756f",
                "wType": "FlexContainer"
            }
        },
        "flxDataAndImage1": {
            "__events__": {},
            "__info__": {
                "kuid": "d21260712825482b8fd71086ee57f8fd",
                "srcKUID": "aac06ded810443cfb30c9866dc0ed4fe",
                "wType": "FlexContainer"
            }
        },
        "flxDataAndImage2": {
            "__events__": {},
            "__info__": {
                "kuid": "ce63a3187f0f421eb03d95db259a4b7f",
                "srcKUID": "fcf513557ef549fe9ca8c899408b3c0f",
                "wType": "FlexContainer"
            }
        },
        "flxDataAndImage3": {
            "__events__": {},
            "__info__": {
                "kuid": "d737adfdb77b4534a730ecd175908f77",
                "srcKUID": "b6abeeb4f07448fc81ec7f0552670dfa",
                "wType": "FlexContainer"
            }
        },
        "imgData1": {
            "__events__": {},
            "__info__": {
                "kuid": "f5cd61128a2c4d099626b1837db538e9",
                "srcKUID": "a69ba1fc69924e3688ed9b47431a5817",
                "wType": "Image"
            },
            "src": "active_circle2x.png"
        },
        "imgData2": {
            "__events__": {},
            "__info__": {
                "kuid": "gc386dc9ceff417a928ba554167d013d",
                "srcKUID": "ea862f1df4034d5f857d4139759b8879",
                "wType": "Image"
            },
            "src": "active_circle2x.png"
        },
        "imgData3": {
            "__events__": {},
            "__info__": {
                "kuid": "gf51eb7223a643a9a612dd146ecfa3ce",
                "srcKUID": "e67672b9251543849f250b4c4f12b11f",
                "wType": "Image"
            },
            "src": "active_circle2x.png"
        },
        "lblData1": {
            "__events__": {},
            "__info__": {
                "kuid": "f3d94b7c136043cabb68e43498b311a2",
                "srcKUID": "fdcfca94d329437093879c8c50b46d5a",
                "wType": "Label"
            },
            "i18n_text": null,
            "text": "22.10.2014"
        },
        "lblData2": {
            "__events__": {},
            "__info__": {
                "kuid": "fd291602f0ad49799caba3c26f1a66df",
                "srcKUID": "jd1bc4d8d2b24bf9bb745b6d9ab62385",
                "wType": "Label"
            },
            "i18n_text": null,
            "text": " $100,000.00"
        },
        "lblData3": {
            "__events__": {},
            "__info__": {
                "kuid": "ce313d94f63c45e38cc4addf251c6052",
                "srcKUID": "f4de4c0070c143e49d125d3507f23ebf",
                "wType": "Label"
            },
            "i18n_text": null,
            "text": "$2.00"
        },
        "lblHeading1": {
            "__events__": {},
            "__info__": {
                "kuid": "c552b899bfcd456a9d0d0f10d92bd455",
                "srcKUID": "j114728de2a740adbf052042003e381e",
                "wType": "Label"
            },
            "i18n_text": null,
            "text": "CREATED ON"
        },
        "lblHeading2": {
            "__events__": {},
            "__info__": {
                "kuid": "a870f26264bd43e191fd9a4f8e1384b1",
                "srcKUID": "gb5813e8c1504894a57cf7c8a39d934a",
                "wType": "Label"
            },
            "i18n_text": null,
            "text": "CURRENT BALANCE"
        },
        "lblHeading3": {
            "__events__": {},
            "__info__": {
                "kuid": "bbc26e7330d84ad5b18be4e1dd601698",
                "srcKUID": "ia0a6fc98deb45d9861fdb728dd1ae55",
                "wType": "Label"
            },
            "i18n_text": null,
            "text": "DIVIDEND RATE"
        },
        "lblIconData2": {
            "__events__": {},
            "__info__": {
                "kuid": "aa484df2112d41aeb81416d73036d837",
                "srcKUID": "d78bd98d099d4ad59ae85d485b532723",
                "wType": "Label"
            }
        },
        "lblSignData2": {
            "__events__": {},
            "__info__": {
                "kuid": "d6b398e42dcb4c9aaac398c3cbaab929",
                "srcKUID": "b9be6c2e94c848a68507ebb34c191c12",
                "wType": "Label"
            }
        }
    },
    "id": "ProductRow1",
    "info": null,
    "isdatareferenced": false,
    "isvisible": true,
    "kuid": "a34dd4a4bf5644ab8eeb700777a16a24",
    "layouttype": 2,
    "masterType": 0,
    "name": "kony.ui.UserWidgetInstance",
    "parent": "flxProductHeaderAndDetails",
    "pf": "frmCompanies",
    "snaptogrid": true,
    "sourceUserWidget": "e2af4587476946cf966c194460006daa",
    "vizprops": {
        "hidewidgethierarchy": false
    },
    "wType": "UserWidgetInstance"
}