{
    "@class": "com.kony.gen.viz.model.container.KVizSegment2",
    "DNDConfig": null,
    "__parentReadjusting__": false,
    "_data_": [
        {
            "lblCustomerStatus": {
                "@class": "com.viz.ide.model.segment.SimpleTextSegmentData",
                "text": "122-4628761298"
            },
            "lblEmail": {
                "@class": "com.viz.ide.model.segment.SimpleTextSegmentData",
                "text": "bryanvictornash@gmail.com"
            },
            "lblFontIconOptions": {
                "@class": "com.viz.ide.model.segment.SimpleTextSegmentData",
                "text": ""
            },
            "lblIconStatus": {
                "@class": "com.viz.ide.model.segment.SimpleTextSegmentData",
                "text": "Label"
            },
            "lblName": {
                "@class": "com.viz.ide.model.segment.SimpleTextSegmentData",
                "text": "Bryan Victor Nash"
            },
            "lblRole": {
                "@class": "com.viz.ide.model.segment.SimpleTextSegmentData",
                "text": "bryanvnash123"
            },
            "lblSepartor": {
                "@class": "com.viz.ide.model.segment.SimpleTextSegmentData",
                "text": "Label"
            },
            "lblUsername": {
                "@class": "com.viz.ide.model.segment.SimpleTextSegmentData",
                "text": "TD123456BVN"
            }
        },
        {
            "lblCustomerStatus": {
                "@class": "com.viz.ide.model.segment.SimpleTextSegmentData",
                "text": "34-1256721209"
            },
            "lblEmail": {
                "@class": "com.viz.ide.model.segment.SimpleTextSegmentData",
                "text": "Lukebryan@gmail.com"
            },
            "lblFontIconOptions": {
                "@class": "com.viz.ide.model.segment.SimpleTextSegmentData",
                "text": ""
            },
            "lblIconStatus": {
                "@class": "com.viz.ide.model.segment.SimpleTextSegmentData",
                "text": "Label"
            },
            "lblName": {
                "@class": "com.viz.ide.model.segment.SimpleTextSegmentData",
                "text": "Luke Bryan"
            },
            "lblRole": {
                "@class": "com.viz.ide.model.segment.SimpleTextSegmentData",
                "text": "lukebryan12"
            },
            "lblSepartor": {
                "@class": "com.viz.ide.model.segment.SimpleTextSegmentData",
                "text": "Label"
            },
            "lblUsername": {
                "@class": "com.viz.ide.model.segment.SimpleTextSegmentData",
                "text": "TDLB12345"
            }
        },
        {
            "lblCustomerStatus": {
                "@class": "com.viz.ide.model.segment.SimpleTextSegmentData",
                "text": "345-1286745321"
            },
            "lblEmail": {
                "@class": "com.viz.ide.model.segment.SimpleTextSegmentData",
                "text": "thomasbronson@gmail.com"
            },
            "lblFontIconOptions": {
                "@class": "com.viz.ide.model.segment.SimpleTextSegmentData",
                "text": ""
            },
            "lblIconStatus": {
                "@class": "com.viz.ide.model.segment.SimpleTextSegmentData",
                "text": "Label"
            },
            "lblName": {
                "@class": "com.viz.ide.model.segment.SimpleTextSegmentData",
                "text": "Bronson Thomas"
            },
            "lblRole": {
                "@class": "com.viz.ide.model.segment.SimpleTextSegmentData",
                "text": "thomasbronson345"
            },
            "lblSepartor": {
                "@class": "com.viz.ide.model.segment.SimpleTextSegmentData",
                "text": "Label"
            },
            "lblUsername": {
                "@class": "com.viz.ide.model.segment.SimpleTextSegmentData",
                "text": "TD9861BT"
            }
        }
    ],
    "_height_": {
        "type": "string",
        "value": "70%"
    },
    "_indicator_": "none",
    "_left_": {
        "type": "string",
        "value": "35dp"
    },
    "_margin_": [
        0,
        0,
        0,
        0
    ],
    "_orientation_": 2,
    "_padding_": [
        0,
        0,
        0,
        0
    ],
    "_right_": {
        "type": "string",
        "value": "35dp"
    },
    "_top_": {
        "type": "string",
        "value": "115dp"
    },
    "autogrowmode": 0,
    "canUpdateUI": true,
    "containerweight": 100,
    "counter": "02",
    "focusedindex": null,
    "focuseditem": null,
    "groupcells": false,
    "hasSections": false,
    "id": "segCompanyDetailCustomer",
    "info": null,
    "ipad": {
        "psp": {
            "indicator": "rowselect"
        }
    },
    "iphone": {
        "psp": {
            "indicator": "rowselect"
        }
    },
    "iscustomlayout": false,
    "isvisible": false,
    "kuid": "i0d2ad9c19524940bbb453377b5c2089",
    "masterdata": {},
    "name": "kony.ui.SegmentedUI2",
    "needpageindicator": true,
    "pageoffdotimage": "pageoffdot.png",
    "pageondotimage": "pageondot.png",
    "paginationconfig": {
        "position": "bottom"
    },
    "parent": "flxCompanyDetailaCustomerContainer",
    "pf": "frmCompanies",
    "retaincontentalignment": false,
    "retainflexpositionproperties": false,
    "retainselection": false,
    "rowTemplateId": "c057befa235b4658a7ba5071f3631665",
    "rowcounter": 2,
    "rowfocusskin": "se901dcdd2ae4a58a81f21c009edf99e",
    "rowskin": "s54014e0d4204ce9acd27107655ded87",
    "rowtemplate": "flxCompanyCustomer",
    "screenlevelwidget": false,
    "seccounter": 0,
    "sectionheaderskin": "sffa0c1a0560403189088e98f7b4f498",
    "selectedRows": null,
    "selectedState": false,
    "selectedindex": null,
    "selectedindices": null,
    "selecteditems": null,
    "selectedsectionindex": 0,
    "selectionbehavior": "default",
    "separatorrequired": false,
    "showscrollbars": false,
    "viewtype": "tableview",
    "vizProps": {},
    "wType": "Segment",
    "widgetalignment": 5,
    "widgetdatamap": {
        "flxCompanyCustomer": "flxCompanyCustomer",
        "flxContainer": "flxContainer",
        "flxCustomerStatus": "flxCustomerStatus",
        "flxOptions": "flxOptions",
        "lblCustomerStatus": "lblCustomerStatus",
        "lblEmail": "lblEmail",
        "lblFontIconOptions": "lblFontIconOptions",
        "lblIconStatus": "lblIconStatus",
        "lblName": "lblName",
        "lblRole": "lblRole",
        "lblSepartor": "lblSepartor",
        "lblUsername": "lblUsername"
    },
    "zindex": 1
}