{
    "@class": "com.kony.gen.viz.model.container.KVizSegment2",
    "DNDConfig": null,
    "__parentReadjusting__": false,
    "_data_": [
        {
            "lblAddress": {
                "@class": "com.viz.ide.model.segment.SimpleTextSegmentData",
                "text": "Granville Street, Vancover, BC, Canada"
            },
            "lblPinIcon": {
                "@class": "com.viz.ide.model.segment.SimpleTextSegmentData",
                "text": ""
            }
        },
        {
            "lblAddress": {
                "@class": "com.viz.ide.model.segment.SimpleTextSegmentData",
                "text": "Granville Street, Vancover, BC, Canada"
            },
            "lblPinIcon": {
                "@class": "com.viz.ide.model.segment.SimpleTextSegmentData",
                "text": ""
            }
        },
        {
            "lblAddress": {
                "@class": "com.viz.ide.model.segment.SimpleTextSegmentData",
                "text": "Granville Street, Vancover, BC, Canada"
            },
            "lblPinIcon": {
                "@class": "com.viz.ide.model.segment.SimpleTextSegmentData",
                "text": ""
            }
        },
        {
            "lblAddress": {
                "@class": "com.viz.ide.model.segment.SimpleTextSegmentData",
                "text": "Granville Street, Vancover, BC, Canada"
            },
            "lblPinIcon": {
                "@class": "com.viz.ide.model.segment.SimpleTextSegmentData",
                "text": ""
            }
        },
        {
            "lblAddress": {
                "@class": "com.viz.ide.model.segment.SimpleTextSegmentData",
                "text": "Granville Street, Vancover, BC, Canada"
            },
            "lblPinIcon": {
                "@class": "com.viz.ide.model.segment.SimpleTextSegmentData",
                "text": ""
            }
        },
        {
            "lblAddress": {
                "@class": "com.viz.ide.model.segment.SimpleTextSegmentData",
                "text": "Granville Street, Vancover, BC, Canada"
            },
            "lblPinIcon": {
                "@class": "com.viz.ide.model.segment.SimpleTextSegmentData",
                "text": ""
            }
        },
        {
            "lblAddress": {
                "@class": "com.viz.ide.model.segment.SimpleTextSegmentData",
                "text": "Granville Street, Vancover, BC, Canada"
            },
            "lblPinIcon": {
                "@class": "com.viz.ide.model.segment.SimpleTextSegmentData",
                "text": ""
            }
        },
        {
            "lblAddress": {
                "@class": "com.viz.ide.model.segment.SimpleTextSegmentData",
                "text": "Granville Street, Vancover, BC, Canada"
            },
            "lblPinIcon": {
                "@class": "com.viz.ide.model.segment.SimpleTextSegmentData",
                "text": ""
            }
        },
        {
            "lblAddress": {
                "@class": "com.viz.ide.model.segment.SimpleTextSegmentData",
                "text": "Granville Street, Vancover, BC, Canada"
            },
            "lblPinIcon": {
                "@class": "com.viz.ide.model.segment.SimpleTextSegmentData",
                "text": ""
            }
        },
        {
            "lblAddress": {
                "@class": "com.viz.ide.model.segment.SimpleTextSegmentData",
                "text": "Granville Street, Vancover, BC, Canada"
            },
            "lblPinIcon": {
                "@class": "com.viz.ide.model.segment.SimpleTextSegmentData",
                "text": ""
            }
        }
    ],
    "_height_": {
        "type": "string",
        "value": "75%"
    },
    "_indicator_": "none",
    "_left_": {
        "type": "string",
        "value": "0dp"
    },
    "_margin_": [
        0,
        0,
        0,
        0
    ],
    "_orientation_": 2,
    "_padding_": [
        0,
        0,
        0,
        0
    ],
    "_top_": {
        "type": "string",
        "value": "40dp"
    },
    "_width_": {
        "type": "string",
        "value": "100%"
    },
    "autogrowmode": 0,
    "canUpdateUI": true,
    "containerweight": 100,
    "counter": "09",
    "focusedindex": null,
    "focuseditem": null,
    "groupcells": false,
    "hasSections": false,
    "id": "segSearch",
    "info": null,
    "ipad": {
        "psp": {
            "indicator": "rowselect"
        }
    },
    "iphone": {
        "psp": {
            "indicator": "rowselect"
        }
    },
    "iscustomlayout": false,
    "isvisible": false,
    "kuid": "d17e5bf1923c4d94aca047c593bd0fc3",
    "masterdata": {},
    "name": "kony.ui.SegmentedUI2",
    "needpageindicator": true,
    "pageoffdotimage": "pageoffdot.png",
    "pageondotimage": "pageondot.png",
    "paginationconfig": {
        "position": "bottom"
    },
    "parent": "flxSearchContainer",
    "pf": "frmCompanies",
    "retaincontentalignment": false,
    "retainflexpositionproperties": false,
    "retainselection": false,
    "rowTemplateId": "d3a0c9f9dcdd44ce8cd1dcb06666dbf1",
    "rowcounter": 9,
    "rowfocusskin": "se901dcdd2ae4a58a81f21c009edf99e",
    "rowskin": "sbf7671ba50146749b0e910de558172b",
    "rowtemplate": "flxSearchCompanyMap",
    "screenlevelwidget": false,
    "seccounter": 0,
    "sectionheaderskin": "sffa0c1a0560403189088e98f7b4f498",
    "selectedRows": null,
    "selectedState": false,
    "selectedindex": null,
    "selectedindices": null,
    "selecteditems": null,
    "selectedsectionindex": 0,
    "selectionbehavior": "default",
    "separatorrequired": false,
    "showscrollbars": false,
    "viewtype": "tableview",
    "vizProps": {},
    "wType": "Segment",
    "widgetalignment": 5,
    "widgetdatamap": {
        "flxSearchCompanyMap": "flxSearchCompanyMap",
        "lblAddress": "lblAddress",
        "lblPinIcon": "lblPinIcon"
    },
    "zindex": 2
}