{
    "@class": "com.kony.gen.viz.model.component.KVizButton",
    "DNDConfig": null,
    "__parentReadjusting__": false,
    "_height_": {
        "type": "string",
        "value": "37px"
    },
    "_left_": {
        "type": "string",
        "value": "20px"
    },
    "_margin_": [
        6,
        6,
        6,
        6
    ],
    "_padding_": [
        0,
        0,
        0,
        0
    ],
    "_skin_": "sf805aaf8b94461f9e37d3533ce5675a",
    "_text_": "SMS",
    "_top_": {
        "type": "string",
        "value": "13px"
    },
    "_width_": {
        "type": "string",
        "value": "60dp"
    },
    "canUpdateUI": true,
    "containerweight": 100,
    "contentalignment": 5,
    "disabledSkins": {
        "focusSkin": "s152a8ebff2840e2b2942e5ec1abbdb5"
    },
    "displaytext": true,
    "id": "btnSMS",
    "info": null,
    "isvisible": true,
    "kuid": "i688f05af984446e9b874b501bda3c19",
    "name": "kony.ui.Button",
    "parent": "flxAlertProductsTabsWrapper",
    "pf": "frmCustomerProfileDeviceInfo",
    "wType": "Button",
    "zindex": 2
}