{
    "DNDConfig": null,
    "__parentReadjusting__": false,
    "_height_": {
        "type": "string",
        "value": "50px"
    },
    "_left_": {
        "type": "string",
        "value": "0px"
    },
    "_margin_": [
        0,
        0,
        0,
        0
    ],
    "_orientation_": 6,
    "_padding_": [
        0,
        0,
        0,
        0
    ],
    "_percent_": true,
    "_right_": {
        "type": "string",
        "value": "0px"
    },
    "_skin_": "s84095f339fa48b391eb503e8a8f8076",
    "_top_": {
        "type": "string",
        "value": "0dp"
    },
    "allboxes": [],
    "autogrowmode": 0,
    "canUpdateUI": true,
    "children": [
        "btnSMS",
        "btnPushNoti",
        "btnEmail",
        "btnNotifCenter"
    ],
    "clipbounds": true,
    "containerweight": 100,
    "enablescrolling": true,
    "id": "flxAlertProductsTabsWrapper",
    "info": null,
    "isvisible": true,
    "kuid": "b7af4019ee4c4d62ade51a7fb7e1d000",
    "layouttype": 3,
    "name": "kony.ui.FlexContainer",
    "parent": "flxAlertProductsTabs",
    "pf": "frmCustomerProfileDeviceInfo",
    "snapgridsize": 10,
    "snaptogrid": true,
    "wType": "FlexContainer",
    "widgetalignment": 1,
    "zindex": 1
}