{
    "DNDConfig": null,
    "__parentReadjusting__": false,
    "_height_": {
        "type": "string",
        "value": "100%"
    },
    "_left_": {
        "type": "string",
        "value": "0dp"
    },
    "_margin_": [
        0,
        0,
        0,
        0
    ],
    "_orientation_": 6,
    "_padding_": [
        0,
        0,
        0,
        0
    ],
    "_percent_": true,
    "_skin_": "sf9bacbfaa444379a0002b31e0f5aa80",
    "_top_": {
        "type": "string",
        "value": "0dp"
    },
    "_width_": {
        "type": "string",
        "value": "100%"
    },
    "allboxes": [],
    "canUpdateUI": true,
    "children": [
        "flxLeftPannel",
        "flxRightPanel",
        "flxToastMessage",
        "flxPopUpConfirmation",
        "flxPopUpError",
        "flxPopupSelectEnrolEmail",
        "flxEnableEstatement",
        "flxPreviewPopup"
    ],
    "clipbounds": true,
    "containerweight": 100,
    "enablescrolling": true,
    "id": "flxMain",
    "info": null,
    "isvisible": true,
    "kuid": "db6a5aa53a4749119036f5f679154222",
    "layouttype": 2,
    "name": "kony.ui.FlexContainer",
    "parent": "frmCustomerProfileDeviceInfo",
    "pf": "frmCustomerProfileDeviceInfo",
    "snapgridsize": 10,
    "snaptogrid": true,
    "vizProps": {},
    "wType": "FlexContainer",
    "widgetalignment": 1,
    "zindex": 1
}