{
    "@class": "com.kony.gen.viz.model.component.KVizRichText",
    "DNDConfig": null,
    "__parentReadjusting__": false,
    "_bottom_": {
        "type": "string",
        "value": "200px"
    },
    "_height_": {
        "type": "ref",
        "value": "preferred"
    },
    "_margin_": [
        0,
        0,
        0,
        0
    ],
    "_padding_": [
        0,
        0,
        0,
        0
    ],
    "_skin_": "s3ffd2c66e5248c1aeb5430fa3380ad3",
    "_text_": "NO RECORDS FOUND",
    "_top_": {
        "type": "string",
        "value": "250px"
    },
    "_width_": {
        "type": "ref",
        "value": "preferred"
    },
    "_wrapping_": 2,
    "canUpdateUI": true,
    "centerx": {
        "type": "string",
        "value": "50%"
    },
    "containerweight": 100,
    "contentalignment": 4,
    "id": "rtxMsgDeviceInfo",
    "info": null,
    "isvisible": false,
    "kuid": "b3b35e475996476190dcfc3c105e18c8",
    "name": "kony.ui.RichText",
    "parent": "flxDeviceInfoWrapper",
    "pf": "frmCustomerProfileDeviceInfo",
    "wType": "RichText",
    "widgetalignment": 5,
    "zindex": 1
}