{
    "@class": "com.kony.gen.viz.model.component.KVizUserWidget",
    "DNDConfig": null,
    "__parentReadjusting__": false,
    "_children_": [],
    "_desktopweb_": {},
    "_height_": {
        "type": "string",
        "value": "70px"
    },
    "_left_": {
        "type": "string",
        "value": "0dp"
    },
    "_margin_": [
        0,
        0,
        0,
        0
    ],
    "_orientation_": 1,
    "_padding_": [
        0,
        0,
        0,
        0
    ],
    "_percent_": true,
    "_render_": true,
    "_responsiveData_": {},
    "_skin_": "s8ff24328417401b877c3ceb2a5fa27c",
    "_top_": {
        "type": "string",
        "value": "0dp"
    },
    "_vizProps_": {
        "hidewidgethierarchy": false
    },
    "_width_": {
        "type": "string",
        "value": "100%"
    },
    "areflexpropsreferenced": false,
    "autogrowmode": 0,
    "canUpdateUI": true,
    "clipbounds": true,
    "containerweight": 0,
    "dataDiffs": {
        "flxRightImage": {
            "__events__": {},
            "__info__": {
                "kuid": "a0847e9e60864b13b1d0c21209707571",
                "srcKUID": "aa381edce9594097a08f270e53aafd61",
                "wType": "FlexContainer"
            }
        },
        "flxToastContainer": {
            "__events__": {},
            "__info__": {
                "kuid": "da6d08730b274d1997dd1c358e37b73f",
                "srcKUID": "ace26cdabbed423ca9732ff24d147536",
                "wType": "FlexContainer"
            }
        },
        "fontIconImgLeft": {
            "__events__": {},
            "__info__": {
                "kuid": "g77e4f4b968448bf91094d2e009170b7",
                "srcKUID": "faf74347eeca40f9ac54474b326619bb",
                "wType": "Label"
            }
        },
        "lblIconRight": {
            "__events__": {},
            "__info__": {
                "kuid": "a6de6eff89384c3ca5eb008042af9c38",
                "srcKUID": "dd846396bb83462482492090b97fcbf2",
                "wType": "Label"
            }
        },
        "lbltoastMessage": {
            "__events__": {},
            "__info__": {
                "kuid": "jf3ff90c7db6433d909dd8f44e0e4900",
                "srcKUID": "fee535920ef34249a172f881337ae55d",
                "wType": "Label"
            }
        },
        "toastMessage": {
            "__events__": {},
            "__info__": {
                "isRoot": true,
                "kuid": "af9cbc4a55f64c32b439f17a535b3f64",
                "srcKUID": "iffa234d2a7f4452a688a49d5dd8cdb2",
                "wType": "FlexContainer"
            },
            "zIndex": {
                "Default": 20
            }
        }
    },
    "id": "toastMessage",
    "info": null,
    "isdatareferenced": false,
    "isvisible": true,
    "kuid": "af9cbc4a55f64c32b439f17a535b3f64",
    "layouttype": 2,
    "masterType": 0,
    "name": "kony.ui.UserWidgetInstance",
    "parent": "flxToastMessage",
    "pf": "frmCustomerProfileDeviceInfo",
    "snaptogrid": true,
    "sourceUserWidget": "iffa234d2a7f4452a688a49d5dd8cdb2",
    "vizprops": {
        "hidewidgethierarchy": false
    },
    "wType": "UserWidgetInstance",
    "zindex": 20
}