{
    "DNDConfig": null,
    "__parentReadjusting__": false,
    "_height_": {
        "type": "string",
        "value": "60px"
    },
    "_left_": {
        "type": "string",
        "value": "0px"
    },
    "_margin_": [
        0,
        0,
        0,
        0
    ],
    "_orientation_": 6,
    "_padding_": [
        0,
        0,
        0,
        0
    ],
    "_percent_": true,
    "_right_": {
        "type": "string",
        "value": "0px"
    },
    "_skin_": "s8ff24328417401b877c3ceb2a5fa27c",
    "_top_": {
        "type": "string",
        "value": "0"
    },
    "allboxes": [],
    "autogrowmode": 0,
    "canUpdateUI": true,
    "children": [
        "flxFileName",
        "flxVersion",
        "flxCreatedOn",
        "flxCreatedBy",
        "flxFileStatus",
        "flxComments",
        "lblHeaderSeperator"
    ],
    "clipbounds": true,
    "containerweight": 100,
    "enablescrolling": true,
    "id": "flxFilesHeader",
    "info": null,
    "isTemplate": true,
    "isvisible": true,
    "kuid": "abe62fbe8b5a4abdb8901a28db4aa919",
    "layouttype": 2,
    "name": "kony.ui.FlexContainer",
    "parent": "flxRecordsFound",
    "pf": "frmDecisionManagement",
    "snapgridsize": 10,
    "snaptogrid": true,
    "wType": "FlexContainer",
    "widgetalignment": 1
}