{
    "@class": "com.kony.gen.viz.model.component.KVizRichText",
    "DNDConfig": null,
    "__parentReadjusting__": false,
    "_height_": {
        "type": "ref",
        "value": "preferred"
    },
    "_margin_": [
        0,
        0,
        0,
        0
    ],
    "_padding_": [
        0,
        0,
        0,
        0
    ],
    "_skin_": "s53dc044bbca444d9db68eee3dc9c9eb",
    "_text_": "No results found ",
    "_width_": {
        "type": "string",
        "value": "100%"
    },
    "_wrapping_": 2,
    "canUpdateUI": true,
    "centerx": {
        "type": "string",
        "value": "50%"
    },
    "centery": {
        "type": "string",
        "value": "50%"
    },
    "containerweight": 100,
    "contentalignment": 5,
    "id": "rtxNoResultsFound",
    "info": null,
    "isvisible": true,
    "kuid": "df8c034d9abd43b58e58463a849f32e6",
    "name": "kony.ui.RichText",
    "parent": "flxNorecordsFound",
    "pf": "frmDecisionManagement",
    "texti18n": "i18n.frmLogs.rtxNoResultsFound",
    "wType": "RichText",
    "widgetalignment": 5,
    "zindex": 1
}