{
    "@class": "com.kony.gen.viz.model.component.KVizUserWidget",
    "DNDConfig": null,
    "__parentReadjusting__": false,
    "_android_": {},
    "_androidwearos_": {},
    "_children_": [],
    "_desktopweb_": {},
    "_height_": {
        "type": "string",
        "value": "70px"
    },
    "_ipad_": {},
    "_iphone_": {},
    "_kiosk_": {},
    "_left_": {
        "type": "string",
        "value": "0dp"
    },
    "_margin_": [
        0,
        0,
        0,
        0
    ],
    "_orientation_": 1,
    "_padding_": [
        0,
        0,
        0,
        0
    ],
    "_percent_": true,
    "_render_": true,
    "_responsiveData_": {},
    "_skin_": "s8ff24328417401b877c3ceb2a5fa27c",
    "_spa_": {},
    "_spaan_": {},
    "_spaandroidtablet_": {},
    "_spabb_": {},
    "_spaip_": {},
    "_spaipad_": {},
    "_spamobile_": {},
    "_spatablet_": {},
    "_spawindowstablet_": {},
    "_spawinphone8_": {},
    "_tabrcandroid_": {},
    "_top_": {
        "type": "string",
        "value": "0dp"
    },
    "_vizProps_": {
        "hidewidgethierarchy": false
    },
    "_width_": {
        "type": "string",
        "value": "100%"
    },
    "_windows10_": {},
    "_windows8_": {},
    "_winphone10_": {},
    "_winphone8_": {},
    "areflexpropsreferenced": false,
    "autogrowmode": 0,
    "canUpdateUI": true,
    "clipbounds": true,
    "containerweight": 0,
    "dataDiffs": {
        "flxRightImage": {
            "__events__": {},
            "__info__": {
                "kuid": "g4339cbb10e04745a6f0d00694d53f74",
                "srcKUID": "aa381edce9594097a08f270e53aafd61",
                "wType": "FlexContainer"
            }
        },
        "flxToastContainer": {
            "__events__": {},
            "__info__": {
                "kuid": "eaa7060e58c241ec9b7d53645f28668d",
                "srcKUID": "ace26cdabbed423ca9732ff24d147536",
                "wType": "FlexContainer"
            }
        },
        "fontIconImgLeft": {
            "__events__": {},
            "__info__": {
                "kuid": "be14b2c7da684cf393bd4f60869c3e6e",
                "srcKUID": "faf74347eeca40f9ac54474b326619bb",
                "wType": "Label"
            }
        },
        "lblIconRight": {
            "__events__": {},
            "__info__": {
                "kuid": "a98e8e8932654e30b645ff4f092b7c43",
                "srcKUID": "dd846396bb83462482492090b97fcbf2",
                "wType": "Label"
            }
        },
        "lbltoastMessage": {
            "__events__": {},
            "__info__": {
                "kuid": "b6e64722536a475fb28785f6c6b283a0",
                "srcKUID": "fee535920ef34249a172f881337ae55d",
                "wType": "Label"
            }
        },
        "toastMessage": {
            "__events__": {},
            "__info__": {
                "isRoot": true,
                "kuid": "gaba6536c2314f7683b3d21dae722183",
                "srcKUID": "iffa234d2a7f4452a688a49d5dd8cdb2",
                "wType": "FlexContainer"
            }
        }
    },
    "id": "toastMessage",
    "info": null,
    "isdatareferenced": false,
    "isvisible": true,
    "kuid": "gaba6536c2314f7683b3d21dae722183",
    "layouttype": 2,
    "masterType": 0,
    "name": "kony.ui.UserWidgetInstance",
    "parent": "flxToastMessage",
    "pf": "frmDecisionManagement",
    "snaptogrid": true,
    "sourceUserWidget": "iffa234d2a7f4452a688a49d5dd8cdb2",
    "wType": "UserWidgetInstance"
}