{
    "@class": "com.kony.gen.viz.model.component.KVizRichText",
    "DNDConfig": null,
    "__parentReadjusting__": false,
    "_height_": {
        "type": "ref",
        "value": "preferred"
    },
    "_margin_": [
        0,
        0,
        0,
        0
    ],
    "_padding_": [
        0,
        0,
        0,
        0
    ],
    "_skin_": "s60c12bf41c343e7b102a9f454424969",
    "_text_": "RichText",
    "_top_": {
        "type": "string",
        "value": "20dp"
    },
    "_width_": {
        "type": "ref",
        "value": "preferred"
    },
    "_wrapping_": 2,
    "canUpdateUI": true,
    "containerweight": 100,
    "contentalignment": 4,
    "id": "rtxdefaultCampaignCustomerMsg",
    "info": null,
    "iscustomlayout": false,
    "isvisible": false,
    "kuid": "gf1dc03faafd4b29aa78076a698146ac",
    "linkskin": "s67b40eec9524df3a22e43e6c88b00f1",
    "name": "kony.ui.RichText",
    "parent": "flxTargetCustomers",
    "pf": "frmAdDetails",
    "retaincontentalignment": false,
    "retainflexpositionproperties": false,
    "texti18n": "i18n.frmAdManagement.DefaultCampaignCustomersRolesMsg",
    "wType": "RichText",
    "widgetalignment": 5,
    "zindex": 10
}