{
    "@class": "com.kony.gen.viz.model.component.KVizButton",
    "DNDConfig": null,
    "__parentReadjusting__": false,
    "_height_": {
        "type": "string",
        "value": "20px"
    },
    "_left_": {
        "type": "string",
        "value": "0"
    },
    "_margin_": [
        6,
        6,
        6,
        6
    ],
    "_padding_": [
        0,
        0,
        0,
        0
    ],
    "_skin_": "seeb490046284502acebc5abf0188cb3",
    "_text_": "SECURITY QUESTIONS",
    "_width_": {
        "type": "ref",
        "value": "preferred"
    },
    "canUpdateUI": true,
    "centery": {
        "type": "string",
        "value": "50%"
    },
    "containerweight": 100,
    "contentalignment": 4,
    "disabledSkins": {
        "focusSkin": "s7f2f74a970f479292ca6f87d281f8c3"
    },
    "displaytext": true,
    "id": "btnPreviousPage",
    "info": null,
    "isvisible": false,
    "kuid": "af279671d2c141c5a9edd5c33203b19f",
    "name": "kony.ui.Button",
    "parent": "breadcrumbs",
    "pf": "frmLogs",
    "texti18n": "i18n.SecurityQuestions.SECURITYQUESTIONS",
    "wType": "Button",
    "zindex": 1
}