{
    "DNDConfig": null,
    "__parentReadjusting__": false,
    "_height_": {
        "type": "string",
        "value": "60dp"
    },
    "_left_": {
        "type": "string",
        "value": "35px"
    },
    "_margin_": [
        0,
        0,
        0,
        0
    ],
    "_orientation_": 6,
    "_padding_": [
        0,
        0,
        0,
        0
    ],
    "_percent_": true,
    "_right_": {
        "type": "string",
        "value": "35px"
    },
    "_skin_": "s8ff24328417401b877c3ceb2a5fa27c",
    "_top_": {
        "type": "string",
        "value": "0px"
    },
    "_width_": {
        "type": "string",
        "value": "2525dp"
    },
    "allboxes": [],
    "autogrowmode": 0,
    "canUpdateUI": true,
    "children": [
        "flxModuleNameAccount",
        "flxLogTypeAccount",
        "flxActivityTypeAccount",
        "flxDescriptionAccount",
        "flxDateAndTimeAccount",
        "flxStatusAccount",
        "flxChanelAccount",
        "flxIPAddressAccount",
        "flxDeviceAccount",
        "flxOSAccount",
        "flxReferenceIdAccount",
        "flxErrorCodeAccount",
        "flxMFATypeAccount",
        "flxBankNameAccount",
        "flxMaskedAccountNumberAccount"
    ],
    "clipbounds": false,
    "containerweight": 100,
    "enablescrolling": true,
    "id": "flxHeaderAccount",
    "info": null,
    "isvisible": true,
    "kuid": "e8dcce0a3f624e809845ef3a947e858c",
    "layouttype": 3,
    "name": "kony.ui.FlexContainer",
    "parent": "flxDetailedResultHeaderAccount",
    "pf": "frmLogs",
    "snapgridsize": 10,
    "snaptogrid": true,
    "wType": "FlexContainer",
    "widgetalignment": 1,
    "zindex": 1
}