{
    "DNDConfig": null,
    "__parentReadjusting__": false,
    "_height_": {
        "type": "string",
        "value": "15px"
    },
    "_margin_": [
        0,
        0,
        0,
        0
    ],
    "_orientation_": 6,
    "_padding_": [
        0,
        0,
        0,
        0
    ],
    "_percent_": true,
    "_right_": {
        "type": "string",
        "value": "10dp"
    },
    "_skin_": "s31dbad2a9a645f78f1a403430076b7c",
    "_top_": {
        "type": "string",
        "value": "2px"
    },
    "_width_": {
        "type": "string",
        "value": "15px"
    },
    "allboxes": [],
    "autogrowmode": 0,
    "canUpdateUI": true,
    "children": [
        "imgStatus2",
        "lblIconStatus2"
    ],
    "clipbounds": true,
    "containerweight": 100,
    "enablescrolling": true,
    "id": "flxImage2",
    "info": null,
    "iscustomlayout": false,
    "isvisible": true,
    "kuid": "h1ed78fc3cd147618d746d8bac48cdfe",
    "layouttype": 2,
    "name": "kony.ui.FlexContainer",
    "parent": "flxHeader2",
    "pf": "frmLogs",
    "retaincontentalignment": false,
    "retainflexpositionproperties": false,
    "snapgridsize": 10,
    "snaptogrid": true,
    "wType": "FlexContainer",
    "widgetalignment": 1
}