{
    "DNDConfig": null,
    "__parentReadjusting__": false,
    "_height_": {
        "type": "string",
        "value": "100%"
    },
    "_left_": {
        "type": "string",
        "value": "20dp"
    },
    "_margin_": [
        0,
        0,
        0,
        0
    ],
    "_orientation_": 6,
    "_padding_": [
        0,
        0,
        0,
        0
    ],
    "_percent_": true,
    "_right_": {
        "type": "string",
        "value": "20dp"
    },
    "_skin_": "s8ff24328417401b877c3ceb2a5fa27c",
    "_top_": {
        "type": "string",
        "value": "0dp"
    },
    "_width_": {
        "type": "string",
        "value": "100%"
    },
    "allboxes": [],
    "autogrowmode": 0,
    "canUpdateUI": true,
    "children": [
        "flxcusEvent",
        "flxCusEventSubType",
        "flxAdminsName",
        "flxAdminsRole",
        "flxDate",
        "flxFromAccountNum",
        "flxToAccountNum",
        "flxAmt",
        "flxCustCurrency",
        "flxRefNumber",
        "flxMaskedCardNo",
        "flxPayeesName",
        "flxPayeesId",
        "flxPersonsId",
        "flxAccount",
        "flxLogStatus",
        "flxLogMFAType",
        "flxLogMFAKey",
        "flxMFAState",
        "flxLogChannel",
        "flxDeviceBrowser",
        "flxLogOS",
        "flxDeviceID",
        "flxLogIPAddress",
        "flxOtherInfo"
    ],
    "clipbounds": true,
    "containerweight": 100,
    "enablescrolling": true,
    "id": "flxLogs",
    "info": null,
    "iscustomlayout": false,
    "isvisible": true,
    "kuid": "h784caa0c7aa4411989b47257db6f6f6",
    "layouttype": 3,
    "name": "kony.ui.FlexContainer",
    "parent": "flxCustomerLogsHeader",
    "pf": "frmLogs",
    "retaincontentalignment": false,
    "retainflexpositionproperties": false,
    "retainflowhorizontalalignment": false,
    "snapgridsize": 10,
    "snaptogrid": true,
    "wType": "FlexContainer",
    "widgetalignment": 1,
    "zindex": 1
}