{
    "@class": "com.kony.gen.viz.model.component.KVizLabel",
    "DNDConfig": null,
    "__parentReadjusting__": false,
    "_height_": {
        "type": "ref",
        "value": "preferred"
    },
    "_margin_": [
        1,
        1,
        1,
        1
    ],
    "_padding_": [
        0,
        0,
        0,
        0
    ],
    "_right_": {
        "type": "string",
        "value": "12dp"
    },
    "_skin_": "s162d1368fd24fa0b20bc45efd3dc97e",
    "_text_": "",
    "_top_": {
        "type": "string",
        "value": "0dp"
    },
    "_width_": {
        "type": "ref",
        "value": "preferred"
    },
    "_wrapping_": 2,
    "android": {
        "textStyle": {
            "letterSpacing": 0,
            "strikeThrough": false
        }
    },
    "canUpdateUI": true,
    "centery": {
        "type": "string",
        "value": "50%"
    },
    "containerweight": 100,
    "contentalignment": 4,
    "id": "fontIconTransactionSearch",
    "info": null,
    "ipad": {
        "psp": {
            "wrapping": 2
        }
    },
    "iphone": {
        "psp": {
            "wrapping": 2
        }
    },
    "iscustomlayout": false,
    "isvisible": true,
    "kuid": "ce95ec9d7b9d4b50af5f8d302e1a087b",
    "name": "kony.ui.Label",
    "parent": "flxTransactionSearchContainer",
    "pf": "frmLogs",
    "retaincontentalignment": false,
    "retainflexpositionproperties": false,
    "texti18n": "i18n.userwidgetmodel.lblSearchIcon",
    "tooltip": "",
    "wType": "Label",
    "zindex": 1
}