{
    "@class": "com.kony.gen.viz.model.component.KVizLabel",
    "DNDConfig": null,
    "__parentReadjusting__": false,
    "_height_": {
        "type": "ref",
        "value": "preferred"
    },
    "_left_": {
        "type": "string",
        "value": "0px"
    },
    "_margin_": [
        1,
        1,
        1,
        1
    ],
    "_padding_": [
        0,
        0,
        0,
        0
    ],
    "_skin_": "sf5bb36dac174e338d12aee50690f7f0",
    "_text_": "View Activity By : ",
    "_top_": {
        "type": "string",
        "value": "13px"
    },
    "_width_": {
        "type": "ref",
        "value": "preferred"
    },
    "_wrapping_": 2,
    "android": {
        "textStyle": {
            "letterSpacing": 0,
            "strikeThrough": false
        }
    },
    "canUpdateUI": true,
    "containerweight": 100,
    "contentalignment": 4,
    "id": "lblCustomerType",
    "info": null,
    "ipad": {
        "psp": {
            "wrapping": 2
        }
    },
    "iphone": {
        "psp": {
            "wrapping": 2
        }
    },
    "isvisible": true,
    "kuid": "j7fe955953d74c7f98130dc965745032",
    "name": "kony.ui.Label",
    "parent": "flxViewActivity",
    "pf": "frmLogs",
    "texti18n": "i18n.frmLogs.lblCustomerType",
    "tooltip": "",
    "wType": "Label",
    "zindex": 1
}