{
    "@class": "com.kony.gen.viz.model.component.KVizLabel",
    "DNDConfig": null,
    "__parentReadjusting__": false,
    "_bottom_": {
        "type": "number",
        "value": "0"
    },
    "_height_": {
        "type": "string",
        "value": "1px"
    },
    "_left_": {
        "type": "string",
        "value": "35px"
    },
    "_margin_": [
        1,
        1,
        1,
        1
    ],
    "_padding_": [
        0,
        0,
        0,
        0
    ],
    "_right_": {
        "type": "number",
        "value": "0"
    },
    "_skin_": "s93c3ab1ae11490e9997c21a29d67afb",
    "_text_": ".",
    "_width_": {
        "type": "string",
        "value": "1568dp"
    },
    "_wrapping_": 2,
    "android": {
        "textStyle": {
            "letterSpacing": 0,
            "strikeThrough": false
        }
    },
    "canUpdateUI": true,
    "containerweight": 100,
    "contentalignment": 4,
    "id": "lblUsersHeaderSeperator1",
    "info": null,
    "ipad": {
        "psp": {
            "wrapping": 2
        }
    },
    "iphone": {
        "psp": {
            "wrapping": 2
        }
    },
    "isvisible": true,
    "kuid": "ab590f970c52449ea1c6f46a148b4537",
    "name": "kony.ui.Label",
    "parent": "flxDetailedResultHeader",
    "pf": "frmLogs",
    "texti18n": "i18n.frmCSR.lblSeperator",
    "tooltip": "",
    "wType": "Label",
    "zindex": 1
}