{
    "@class": "com.kony.gen.viz.model.component.KVizUserWidget",
    "DNDConfig": null,
    "__parentReadjusting__": false,
    "_android_": {},
    "_androidwearos_": {},
    "_bottom_": {
        "type": "string",
        "value": ""
    },
    "_children_": [],
    "_desktopweb_": {
        "psp": {
            "hoverSkin": "sbe9ea4190d849bf940a516b9b0565de"
        }
    },
    "_height_": {
        "type": "string",
        "value": "100%"
    },
    "_ipad_": {},
    "_iphone_": {},
    "_kiosk_": {},
    "_left_": {
        "type": "string",
        "value": "0%"
    },
    "_margin_": [
        0,
        0,
        0,
        0
    ],
    "_orientation_": 1,
    "_padding_": [
        0,
        0,
        0,
        0
    ],
    "_percent_": true,
    "_render_": true,
    "_responsiveData_": {},
    "_right_": {
        "type": "string",
        "value": ""
    },
    "_skin_": "s88cc708170d4e3e8fed2490fd5e632e",
    "_spa_": {},
    "_spaan_": {},
    "_spaandroidtablet_": {},
    "_spabb_": {},
    "_spaip_": {},
    "_spaipad_": {},
    "_spamobile_": {},
    "_spatablet_": {},
    "_spawindowstablet_": {},
    "_spawinphone8_": {},
    "_tabrcandroid_": {},
    "_top_": {
        "type": "string",
        "value": "0"
    },
    "_vizProps_": {
        "hidewidgethierarchy": false
    },
    "_width_": {
        "type": "string",
        "value": "100%"
    },
    "_windows10_": {},
    "_windows8_": {},
    "_winphone10_": {},
    "_winphone8_": {},
    "areflexpropsreferenced": false,
    "autogrowmode": 0,
    "canUpdateUI": true,
    "centerx": {
        "type": "string",
        "value": ""
    },
    "centery": {
        "type": "string",
        "value": ""
    },
    "clipbounds": true,
    "containerweight": 0,
    "dataDiffs": {
        "LogDefaultTabs": {
            "__events__": {},
            "__info__": {
                "isRoot": true,
                "kuid": "jdc229cd22b9440da5d7affbd468b97f",
                "srcKUID": "j21ffc24f4504403b5ff21ed05aadadf",
                "wType": "FlexContainer"
            },
            "autogrowMode": {
                "Default": 0
            },
            "bottom": {
                "Default": {
                    "type": "string",
                    "value": ""
                }
            },
            "centerX": {
                "Default": {
                    "type": "string",
                    "value": ""
                }
            },
            "centerY": {
                "Default": {
                    "type": "string",
                    "value": ""
                }
            },
            "height": {
                "Default": {
                    "type": "string",
                    "value": "100%"
                }
            },
            "left": {
                "Default": {
                    "type": "string",
                    "value": "0%"
                }
            },
            "maxHeight": {
                "Default": {
                    "type": "string",
                    "value": ""
                }
            },
            "maxWidth": {
                "Default": {
                    "type": "string",
                    "value": ""
                }
            },
            "minHeight": {
                "Default": {
                    "type": "string",
                    "value": ""
                }
            },
            "minWidth": {
                "Default": {
                    "type": "string",
                    "value": ""
                }
            },
            "right": {
                "Default": {
                    "type": "string",
                    "value": ""
                }
            },
            "top": {
                "Default": {
                    "type": "string",
                    "value": "0"
                }
            },
            "width": {
                "Default": {
                    "type": "string",
                    "value": "100%"
                }
            }
        },
        "imgLog": {
            "__events__": {},
            "__info__": {
                "kuid": "ca1d64ba61d64f29a0c2ee39f4a3cdf7",
                "srcKUID": "f12348d825c440309db4b3218b743d5e",
                "wType": "Image"
            },
            "src": "iconcustomeractivity_2x.png"
        },
        "lblLog": {
            "__events__": {},
            "__info__": {
                "kuid": "c866d8038dbc49309957d9d19aad2842",
                "srcKUID": "b8164bc08269458b96195a877048040d",
                "wType": "Label"
            },
            "height": {
                "Default": {
                    "type": "string",
                    "value": "60dp"
                }
            },
            "left": {
                "Default": {
                    "type": "string",
                    "value": "30dp"
                }
            },
            "width": {
                "Default": {
                    "type": "string",
                    "value": "70dp"
                }
            }
        },
        "lblLogDesc": {
            "__events__": {},
            "__info__": {
                "kuid": "e8584741113e433092f285a210badde9",
                "srcKUID": "j43fd55a811f4bbe875a63adec59d59c",
                "wType": "Label"
            },
            "i18n_text": "i18n.frmLogsController.CustomerActivityTabDesc",
            "text": "Customer's activity history and admin actions on customer's profile"
        },
        "lblLogHeading": {
            "__events__": {},
            "__info__": {
                "kuid": "d15c83bc726548a4bbd737ccf3b2ac6e",
                "srcKUID": "j7824208443b4834a42380adb6ca3d21",
                "wType": "Label"
            },
            "i18n_text": "i18n.frmLogs.lblCustomerSpecificLogs",
            "text": "Customer activity"
        }
    },
    "focusskin": null,
    "id": "LogDefaultTabs3",
    "info": null,
    "iscustomlayout": false,
    "isdatareferenced": false,
    "isvisible": true,
    "kuid": "c790999c5a2443dca677b1b219ce7dd0",
    "layouttype": 2,
    "masterType": 0,
    "maxheight": {
        "type": "string",
        "value": ""
    },
    "maxwidth": {
        "type": "string",
        "value": ""
    },
    "minheight": {
        "type": "string",
        "value": ""
    },
    "minwidth": {
        "type": "string",
        "value": ""
    },
    "name": "kony.ui.UserWidgetInstance",
    "parent": "flxLogDefaultTabs3",
    "pf": "frmLogs",
    "retaincontentalignment": false,
    "retainflexpositionproperties": false,
    "snaptogrid": true,
    "sourceUserWidget": "j21ffc24f4504403b5ff21ed05aadadf",
    "wType": "UserWidgetInstance"
}