{
    "@class": "com.kony.gen.viz.model.component.KVizUserWidget",
    "DNDConfig": null,
    "__parentReadjusting__": false,
    "_android_": {},
    "_androidwearos_": {},
    "_bottom_": {
        "type": "string",
        "value": ""
    },
    "_children_": [],
    "_desktopweb_": {},
    "_height_": {
        "type": "string",
        "value": "100%"
    },
    "_ipad_": {},
    "_iphone_": {},
    "_kiosk_": {},
    "_left_": {
        "type": "string",
        "value": "0dp"
    },
    "_margin_": [
        0,
        0,
        0,
        0
    ],
    "_orientation_": 1,
    "_padding_": [
        0,
        0,
        0,
        0
    ],
    "_percent_": true,
    "_render_": true,
    "_responsiveData_": {},
    "_right_": {
        "type": "string",
        "value": ""
    },
    "_skin_": "s39233a8d65f40d5b9120e116f6d9ef6",
    "_spa_": {},
    "_spaan_": {},
    "_spaandroidtablet_": {},
    "_spabb_": {},
    "_spaip_": {},
    "_spaipad_": {},
    "_spamobile_": {},
    "_spatablet_": {},
    "_spawindowstablet_": {},
    "_spawinphone8_": {},
    "_tabrcandroid_": {},
    "_top_": {
        "type": "string",
        "value": "0dp"
    },
    "_vizProps_": {
        "hidewidgethierarchy": false
    },
    "_width_": {
        "type": "string",
        "value": "100%"
    },
    "_windows10_": {},
    "_windows8_": {},
    "_winphone10_": {},
    "_winphone8_": {},
    "areflexpropsreferenced": false,
    "autogrowmode": 0,
    "canUpdateUI": true,
    "centerx": {
        "type": "string",
        "value": ""
    },
    "centery": {
        "type": "string",
        "value": ""
    },
    "clipbounds": true,
    "containerweight": 0,
    "dataDiffs": {
        "btnPopUpCancel": {
            "__events__": {},
            "__info__": {
                "kuid": "b823e7dd46e34fd49214815ec9b3537c",
                "srcKUID": "g552e00534a64c94b7e8432ae19e32be",
                "wType": "Button"
            },
            "i18n_text": "i8n.navigation.cancelButton"
        },
        "btnPopUpDelete": {
            "__events__": {},
            "__info__": {
                "kuid": "d6d9468a705442fa9aa29c33bd65ea4d",
                "srcKUID": "j21d83290bfc4cc29a0b48797cce32dc",
                "wType": "Button"
            },
            "i18n_text": "i8n.navigation.okButton"
        },
        "flxPopUp": {
            "__events__": {},
            "__info__": {
                "kuid": "f8c3d44889e94ed4bf96aa04f9e2cba1",
                "srcKUID": "b3b6c1b67bec40aeb9afec3da3aa0d8e",
                "wType": "FlexContainer"
            }
        },
        "flxPopUpButtons": {
            "__events__": {},
            "__info__": {
                "kuid": "eeddf1b90c9d48f4815310c0a247ac17",
                "srcKUID": "g2892d3bb666464291b179abd349e4f8",
                "wType": "FlexContainer"
            }
        },
        "flxPopUpClose": {
            "__events__": {},
            "__info__": {
                "kuid": "dd09ccc63e0e4d0db16e8dbc3333e1be",
                "srcKUID": "cb66f68b3c0845eea5e6ef874da0a3a2",
                "wType": "FlexContainer"
            }
        },
        "flxPopUpTopColor": {
            "__events__": {},
            "__info__": {
                "kuid": "d168276ee6c349359aaa5d321b8c9868",
                "srcKUID": "b5d4c1101ef948938dccd5d65d4e9080",
                "wType": "FlexContainer"
            }
        },
        "flxPopupHeader": {
            "__events__": {},
            "__info__": {
                "kuid": "ede231ec10ee4bfdbf0c7acae74cc374",
                "srcKUID": "e0e28c5127b244c389162777b8d82974",
                "wType": "FlexContainer"
            }
        },
        "imgPopUpClose": {
            "__events__": {},
            "__info__": {
                "kuid": "ge8b5ab265d943f38cf2872d7421b279",
                "srcKUID": "h3d585875d654994ae06962f33750f41",
                "wType": "Image"
            }
        },
        "lblPopUpMainMessage": {
            "__events__": {},
            "__info__": {
                "kuid": "h87eea244b4e48cda9570455b3514f98",
                "srcKUID": "fd9f14b724e84619bddaf7f31975c1de",
                "wType": "Label"
            },
            "i18n_text": "i8n.navigation.cancelChanges"
        },
        "lblPopupClose": {
            "__events__": {},
            "__info__": {
                "kuid": "ibdd0316320f47e0a8118aa1966ede8d",
                "srcKUID": "i85a6cf8cb4b418a865a8fd2df968f9e",
                "wType": "Label"
            }
        },
        "popUpCancelEdits": {
            "__events__": {},
            "__info__": {
                "isRoot": true,
                "kuid": "c74259b000204c63a3cf751b0be8dcd6",
                "srcKUID": "a51dfb83d74844df8f40080c6b140c04",
                "wType": "FlexContainer"
            },
            "autogrowMode": {
                "Default": 0
            },
            "bottom": {
                "Default": {
                    "type": "string",
                    "value": ""
                }
            },
            "centerX": {
                "Default": {
                    "type": "string",
                    "value": ""
                }
            },
            "centerY": {
                "Default": {
                    "type": "string",
                    "value": ""
                }
            },
            "height": {
                "Default": {
                    "type": "string",
                    "value": "100%"
                }
            },
            "left": {
                "Default": {
                    "type": "string",
                    "value": "0dp"
                }
            },
            "maxHeight": {
                "Default": {
                    "type": "string",
                    "value": ""
                }
            },
            "maxWidth": {
                "Default": {
                    "type": "string",
                    "value": ""
                }
            },
            "minHeight": {
                "Default": {
                    "type": "string",
                    "value": ""
                }
            },
            "minWidth": {
                "Default": {
                    "type": "string",
                    "value": ""
                }
            },
            "right": {
                "Default": {
                    "type": "string",
                    "value": ""
                }
            },
            "top": {
                "Default": {
                    "type": "string",
                    "value": "0dp"
                }
            },
            "width": {
                "Default": {
                    "type": "string",
                    "value": "100%"
                }
            }
        },
        "rtxPopUpDisclaimer": {
            "__events__": {},
            "__info__": {
                "kuid": "g520d0e6e3c14581b037f8f0c4aaddee",
                "srcKUID": "j6a3a55c67394eeabf87473139845f70",
                "wType": "RichText"
            },
            "i18n_text": "i8n.navigation.cancelChangesBody"
        }
    },
    "id": "popUpCancelEdits",
    "info": null,
    "iscustomlayout": false,
    "isdatareferenced": false,
    "isvisible": true,
    "kuid": "e7e16a60391f4a81a15ac607cda222bd",
    "layouttype": 2,
    "masterType": 0,
    "maxheight": {
        "type": "string",
        "value": ""
    },
    "maxwidth": {
        "type": "string",
        "value": ""
    },
    "minheight": {
        "type": "string",
        "value": ""
    },
    "minwidth": {
        "type": "string",
        "value": ""
    },
    "name": "kony.ui.UserWidgetInstance",
    "parent": "flxEditCancelConfirmation",
    "pf": "frmLogs",
    "retaincontentalignment": false,
    "retainflexpositionproperties": false,
    "snaptogrid": true,
    "sourceUserWidget": "a51dfb83d74844df8f40080c6b140c04",
    "wType": "UserWidgetInstance",
    "zindex": 1
}