{
    "@class": "com.kony.gen.viz.model.component.KVizUserWidget",
    "DNDConfig": null,
    "__parentReadjusting__": false,
    "_android_": {},
    "_androidwearos_": {},
    "_children_": [],
    "_desktopweb_": {},
    "_height_": {
        "type": "string",
        "value": "100%"
    },
    "_ipad_": {},
    "_iphone_": {},
    "_kiosk_": {},
    "_left_": {
        "type": "string",
        "value": "0dp"
    },
    "_margin_": [
        0,
        0,
        0,
        0
    ],
    "_orientation_": 1,
    "_padding_": [
        0,
        0,
        0,
        0
    ],
    "_percent_": true,
    "_render_": true,
    "_responsiveData_": {},
    "_skin_": "s39233a8d65f40d5b9120e116f6d9ef6",
    "_spa_": {},
    "_spaan_": {},
    "_spaandroidtablet_": {},
    "_spabb_": {},
    "_spaip_": {},
    "_spaipad_": {},
    "_spamobile_": {},
    "_spatablet_": {},
    "_spawindowstablet_": {},
    "_spawinphone8_": {},
    "_tabrcandroid_": {},
    "_top_": {
        "type": "string",
        "value": "0dp"
    },
    "_vizProps_": {
        "hidewidgethierarchy": false
    },
    "_width_": {
        "type": "string",
        "value": "100%"
    },
    "_windows10_": {},
    "_windows8_": {},
    "_winphone10_": {},
    "_winphone8_": {},
    "areflexpropsreferenced": false,
    "canUpdateUI": true,
    "clipbounds": true,
    "containerweight": 0,
    "dataDiffs": {
        "btnPopUpCancel": {
            "__events__": {},
            "__info__": {
                "kuid": "c0d84af849ea47d2a0a8c9d822ae0cba",
                "srcKUID": "d4ffebacb2fc450f90f34ff2c512b36f",
                "wType": "Button"
            },
            "right": {
                "Default": {
                    "type": "string",
                    "value": "150px"
                }
            },
            "text": "NO, LEAVE AS IS"
        },
        "btnPopUpDelete": {
            "__events__": {},
            "__info__": {
                "kuid": "d866e413898c423a96211189ce3567a6",
                "srcKUID": "d74b32688d0448359e725db30e5db9ca",
                "wType": "Button"
            },
            "i18n_text": null,
            "text": "YES, DELETE"
        },
        "flxPopUp": {
            "__events__": {},
            "__info__": {
                "kuid": "f113aa7306874728b9d1ac20eefec9e2",
                "srcKUID": "f1999a7df0404922bf7e8acfb6a3780a",
                "wType": "FlexContainer"
            }
        },
        "flxPopUpButtons": {
            "__events__": {},
            "__info__": {
                "kuid": "ead5069adcce4e59a3b2905eb413d1b7",
                "srcKUID": "f009cbfda01245849be265a8e58d3cf3",
                "wType": "FlexContainer"
            },
            "isVisible": true
        },
        "flxPopUpClose": {
            "__events__": {},
            "__info__": {
                "kuid": "j2e746dbda65456794bdaea3773d3523",
                "srcKUID": "f9727789f4894508b70f7d5ae8b7a9a2",
                "wType": "FlexContainer"
            }
        },
        "flxPopUpTopColor": {
            "__events__": {},
            "__info__": {
                "kuid": "f3cb9d0218684e3d95e7b923f0c80f73",
                "srcKUID": "d5d6b9f19ae4477b8708d1b775160fb5",
                "wType": "FlexContainer"
            }
        },
        "flxPopupHeader": {
            "__events__": {},
            "__info__": {
                "kuid": "ga5dc8e80a2e4c99a6ec3a4c0c36ab9c",
                "srcKUID": "ad64beaac2734a82ad110cd93e7e9838",
                "wType": "FlexContainer"
            }
        },
        "fontIconImgCLose": {
            "__events__": {},
            "__info__": {
                "kuid": "a2592e4c44b2457fa43905f42a9567bd",
                "srcKUID": "hb8853052adb4ceb98482f3b9abdb6b1",
                "wType": "Label"
            }
        },
        "lblPopUpClose": {
            "__events__": {},
            "__info__": {
                "kuid": "j8c33d4a180b460b9c7d9a81ed2c7338",
                "srcKUID": "j726c91d687f4bdea9b61ee15718ea91",
                "wType": "Label"
            }
        },
        "lblPopUpMainMessage": {
            "__events__": {},
            "__info__": {
                "kuid": "bbe53bb818784dbc8cd15a1d664891c9",
                "srcKUID": "cf94c2324e174d609ee2a12b7557d0a5",
                "wType": "Label"
            },
            "text": "Delete Saved log"
        },
        "popUp": {
            "__events__": {},
            "__info__": {
                "isRoot": true,
                "kuid": "c7cd42a66a924d52b6dd3fd996bbf8aa",
                "srcKUID": "bf3aac0ddc8b47a0b463a18207905574",
                "wType": "FlexContainer"
            }
        },
        "rtxPopUpDisclaimer": {
            "__events__": {},
            "__info__": {
                "kuid": "d9c5ef0d750240b6869655f1a5b99560",
                "srcKUID": "j4d87455f6ec44dbacababd4bf714b40",
                "wType": "RichText"
            },
            "text": "Are you sure you want to delete this filtered log?"
        }
    },
    "id": "popUp",
    "info": null,
    "iscustomlayout": false,
    "isdatareferenced": false,
    "isvisible": true,
    "kuid": "c7cd42a66a924d52b6dd3fd996bbf8aa",
    "layouttype": 2,
    "masterType": 0,
    "name": "kony.ui.UserWidgetInstance",
    "parent": "flxPopUp",
    "pf": "frmLogs",
    "retaincontentalignment": false,
    "retainflexpositionproperties": false,
    "snaptogrid": true,
    "sourceUserWidget": "bf3aac0ddc8b47a0b463a18207905574",
    "wType": "UserWidgetInstance",
    "zindex": 1
}