{
    "@class": "com.kony.gen.viz.model.component.KVizUserWidget",
    "DNDConfig": null,
    "__parentReadjusting__": false,
    "_android_": {},
    "_androidwearos_": {},
    "_children_": [],
    "_desktopweb_": {},
    "_height_": {
        "type": "string",
        "value": "48dp"
    },
    "_ipad_": {},
    "_iphone_": {},
    "_kiosk_": {},
    "_left_": {
        "type": "string",
        "value": "0dp"
    },
    "_margin_": [
        0,
        0,
        0,
        0
    ],
    "_orientation_": 1,
    "_padding_": [
        0,
        0,
        0,
        0
    ],
    "_percent_": true,
    "_render_": true,
    "_responsiveData_": {},
    "_skin_": "s236cef409fb42b8a9690344e37ac553",
    "_spa_": {},
    "_spaan_": {},
    "_spaandroidtablet_": {},
    "_spabb_": {},
    "_spaip_": {},
    "_spaipad_": {},
    "_spamobile_": {},
    "_spatablet_": {},
    "_spawindowstablet_": {},
    "_spawinphone8_": {},
    "_tabrcandroid_": {},
    "_top_": {
        "type": "string",
        "value": "18px"
    },
    "_vizProps_": {
        "hidewidgethierarchy": false
    },
    "_width_": {
        "type": "string",
        "value": "99%"
    },
    "_windows10_": {},
    "_windows8_": {},
    "_winphone10_": {},
    "_winphone8_": {},
    "areflexpropsreferenced": false,
    "canUpdateUI": true,
    "clipbounds": true,
    "containerweight": 0,
    "dataDiffs": {
        "flxSearch": {
            "__events__": {},
            "__info__": {
                "kuid": "bcea8cd2a46d4ba2acb963bbdd34c3d9",
                "srcKUID": "ef7e05a8d3d644518fed735b1b0e347e",
                "wType": "FlexContainer"
            }
        },
        "flxSearchCancel": {
            "__events__": {},
            "__info__": {
                "kuid": "h205c4cb6a1f4010914023e183d0545a",
                "srcKUID": "a976ba08e72e4c1bba675bbf2dd795ec",
                "wType": "FlexContainer"
            }
        },
        "flxSearchContainer": {
            "__events__": {},
            "__info__": {
                "kuid": "cf39d0f99487480a81872adaf632b1bd",
                "srcKUID": "aa826877ba5349b499a6ff655b6d7cf1",
                "wType": "FlexContainer"
            },
            "top": {
                "Default": {
                    "type": "string",
                    "value": "0dp"
                }
            }
        },
        "flxSubHeader": {
            "__events__": {},
            "__info__": {
                "kuid": "dbd2a0ca81da4ae883b2841c9733741a",
                "srcKUID": "00d857b02f814b2989d657a1b248178f",
                "wType": "FlexContainer"
            }
        },
        "fonticonClose": {
            "__events__": {},
            "__info__": {
                "kuid": "j1682696898e466ea7fb08b4f7eccbff",
                "srcKUID": "bc061314faeb41e59cfbc122570e1f85",
                "wType": "Label"
            }
        },
        "fonticonSearch": {
            "__events__": {},
            "__info__": {
                "kuid": "ade2423db7b54d8296b4587f292300cf",
                "srcKUID": "ec1a5073f9ca447c9cd7a4c9abaa26c6",
                "wType": "Label"
            }
        },
        "imgSearchCancel": {
            "__events__": {},
            "__info__": {
                "kuid": "e7e9ddcc263549dd8aaecb61ee6cbd6f",
                "srcKUID": "eb3ee9246e81436b93286c1cab5a337e",
                "wType": "Image"
            },
            "src": "close_blue.png"
        },
        "imgSearchIcon": {
            "__events__": {},
            "__info__": {
                "kuid": "g1b92bffa27b41619b967b640cfd7ac3",
                "srcKUID": "5fc67e4f858a468e96e80319a48bf893",
                "wType": "Image"
            },
            "src": "search_1x.png"
        },
        "lblShowing": {
            "__events__": {},
            "__info__": {
                "kuid": "ga4c59974fb14e3bb87f52c34ce76d90",
                "srcKUID": "i85fd299b2d14a9ba0c2d5cf499fea53",
                "wType": "Label"
            }
        },
        "search": {
            "__events__": {},
            "__info__": {
                "isRoot": true,
                "kuid": "aabde9a160b343b085b9a17ccc6372b1",
                "srcKUID": "9ac1259a099e4592a3ed3c67582c73d1",
                "wType": "FlexContainer"
            },
            "top": {
                "Default": {
                    "type": "string",
                    "value": "18px"
                }
            },
            "width": {
                "Default": {
                    "type": "string",
                    "value": "99%"
                }
            }
        },
        "tbxSearchBox": {
            "__events__": {},
            "__info__": {
                "kuid": "c214552d7dac4801942940f3f942cf58",
                "srcKUID": "391a7d7ab1034616b2a6f48a613c316e",
                "wType": "TextField"
            },
            "placeholder": "Search by Log name"
        }
    },
    "id": "search",
    "info": null,
    "iscustomlayout": false,
    "isdatareferenced": false,
    "isvisible": true,
    "kuid": "c09d5cbc8734419a901c85c4de6e1afc",
    "layouttype": 2,
    "masterType": 0,
    "name": "kony.ui.UserWidgetInstance",
    "parent": "flxCustomLogsList",
    "pf": "frmLogs",
    "retaincontentalignment": false,
    "retainflexpositionproperties": false,
    "snaptogrid": true,
    "sourceUserWidget": "9ac1259a099e4592a3ed3c67582c73d1",
    "wType": "UserWidgetInstance"
}