{
    "@class": "com.kony.gen.viz.model.component.KVizUserWidget",
    "DNDConfig": null,
    "__parentReadjusting__": false,
    "_android_": {},
    "_androidwearos_": {},
    "_children_": [],
    "_desktopweb_": {},
    "_height_": {
        "type": "string",
        "value": "99%"
    },
    "_ipad_": {},
    "_iphone_": {},
    "_kiosk_": {},
    "_left_": {
        "type": "string",
        "value": "0dp"
    },
    "_margin_": [
        0,
        0,
        0,
        0
    ],
    "_orientation_": 1,
    "_padding_": [
        0,
        0,
        0,
        0
    ],
    "_percent_": true,
    "_render_": true,
    "_responsiveData_": {},
    "_skin_": "s8ff24328417401b877c3ceb2a5fa27c",
    "_spa_": {},
    "_spaan_": {},
    "_spaandroidtablet_": {},
    "_spabb_": {},
    "_spaip_": {},
    "_spaipad_": {},
    "_spamobile_": {},
    "_spatablet_": {},
    "_spawindowstablet_": {},
    "_spawinphone8_": {},
    "_tabrcandroid_": {},
    "_top_": {
        "type": "string",
        "value": "0dp"
    },
    "_vizProps_": {
        "hidewidgethierarchy": false
    },
    "_width_": {
        "type": "string",
        "value": "100%"
    },
    "_windows10_": {},
    "_windows8_": {},
    "_winphone10_": {},
    "_winphone8_": {},
    "areflexpropsreferenced": false,
    "autogrowmode": 0,
    "canUpdateUI": true,
    "clipbounds": true,
    "containerweight": 0,
    "dataDiffs": {
        "flxAmount": {
            "__events__": {},
            "__info__": {
                "kuid": "jc72f2e579764ae396ca041021bf4e76",
                "srcKUID": "i9a5a20a88e34b5ab063567c8b8ee1c3",
                "wType": "FlexContainer"
            },
            "width": {
                "Default": {
                    "type": "ref",
                    "value": "preferred"
                }
            }
        },
        "flxAmountList": {
            "__events__": {},
            "__info__": {
                "kuid": "f852c7aba6244fbc89a8cd4054aacb56",
                "srcKUID": "f6e5e45405d5450582ab26396726b95a",
                "wType": "FlexContainer"
            }
        },
        "flxAmountpicker": {
            "__events__": {},
            "__info__": {
                "kuid": "j9c2431cb1fb4078aa37787a58d924e5",
                "srcKUID": "f9be5000072042eba2de67cf926eff05",
                "wType": "FlexContainer"
            },
            "autogrowMode": {
                "Default": 0
            },
            "height": {
                "Default": {
                    "type": "string",
                    "value": "210px"
                }
            }
        },
        "flxList1": {
            "__events__": {},
            "__info__": {
                "kuid": "ecf72c74af304df29c2bb671c6082583",
                "srcKUID": "h9af0fe93c5e4dfab47842e9ce92de60",
                "wType": "FlexContainer"
            }
        },
        "flxList2": {
            "__events__": {},
            "__info__": {
                "kuid": "j9cd3245015440b18c54b02ec4a853c9",
                "srcKUID": "bafbf21b54b04c1dba2e151186be9a26",
                "wType": "FlexContainer"
            }
        },
        "flxList3": {
            "__events__": {},
            "__info__": {
                "kuid": "ge2cc3c9a0d049ccb66e869003254784",
                "srcKUID": "e00bbda9100d4729802c20380301768a",
                "wType": "FlexContainer"
            }
        },
        "flxList4": {
            "__events__": {},
            "__info__": {
                "kuid": "d9b8da840375405b983eb9729ebd330b",
                "srcKUID": "ac9ffee77ad94c2784e53ae93e306f5a",
                "wType": "FlexContainer"
            }
        },
        "flxList5": {
            "__events__": {},
            "__info__": {
                "kuid": "j07b224907464e67a200b85b3a5e3fb4",
                "srcKUID": "fc1b716ebe0e45578c2c499ed5bd4f5b",
                "wType": "FlexContainer"
            }
        },
        "flxSelect": {
            "__events__": {},
            "__info__": {
                "kuid": "ff39e9ed05ef4947af2154cdbcd07132",
                "srcKUID": "b627ac00742b49919f47bf51025f405a",
                "wType": "FlexContainer"
            }
        },
        "lbl1000To5000": {
            "__events__": {},
            "__info__": {
                "kuid": "f5c2b370ff9348c689321e15763c5216",
                "srcKUID": "i657859ec9144627bda89bee88b515ef",
                "wType": "Label"
            }
        },
        "lbl100To500": {
            "__events__": {},
            "__info__": {
                "kuid": "a0794082cb614d33b46eb58b4363c112",
                "srcKUID": "c06dd484c2084bd1b59c73a8f27fb4a1",
                "wType": "Label"
            }
        },
        "lbl5000To10000": {
            "__events__": {},
            "__info__": {
                "kuid": "iae7a979ac684a73b684562713520c70",
                "srcKUID": "dc43f1bc36834b2894c744b7690841df",
                "wType": "Label"
            }
        },
        "lbl500To1000": {
            "__events__": {},
            "__info__": {
                "kuid": "e83ecaecea9a428e9b7784dfbd465286",
                "srcKUID": "j4afb0069b324fa8a5d0da1538fc9a52",
                "wType": "Label"
            }
        },
        "lblApply": {
            "__events__": {},
            "__info__": {
                "kuid": "aebf0a8509e24e8581b3bff07397fdef",
                "srcKUID": "bc81c0505c94455a9aed8fa171f0a4e5",
                "wType": "Label"
            }
        },
        "lblCustomRange": {
            "__events__": {},
            "__info__": {
                "kuid": "abb21346ba064114b6d0db0f8fe39e98",
                "srcKUID": "d2dd1a28851b4b41809db57b42d0e2c7",
                "wType": "Label"
            }
        },
        "lblFrom": {
            "__events__": {},
            "__info__": {
                "kuid": "e7da67fd51c34e13b701696f6280e063",
                "srcKUID": "bde7d542ac75492d9c5925d1000b69b2",
                "wType": "Label"
            }
        },
        "lblSeperator": {
            "__events__": {},
            "__info__": {
                "kuid": "d297dc623a804dc890af8ebc0089a446",
                "srcKUID": "e28b41fdcd1f4efba957d9d0b1bd0d17",
                "wType": "Label"
            }
        },
        "lblTo": {
            "__events__": {},
            "__info__": {
                "kuid": "d1067cac2ca64103b720686a412965ee",
                "srcKUID": "b93baa02e9ec4d5e93191af63c6751e3",
                "wType": "Label"
            }
        },
        "lbll0To100": {
            "__events__": {},
            "__info__": {
                "kuid": "c83da15278f0431e9d1b131a73dea9ab",
                "srcKUID": "ccbc9b4dc964413c8d1d080166a0e9da",
                "wType": "Label"
            }
        },
        "selectAmount": {
            "__events__": {},
            "__info__": {
                "isRoot": true,
                "kuid": "e3e5872120124aa3ab53ba7e34a4f6b1",
                "srcKUID": "b6466a53ca8f4af1a869e54085549744",
                "wType": "FlexContainer"
            },
            "autogrowMode": {
                "Default": 0
            },
            "height": {
                "Default": {
                    "type": "string",
                    "value": "99%"
                }
            },
            "width": {
                "Default": {
                    "type": "string",
                    "value": "100%"
                }
            }
        },
        "txtbxFromAmount": {
            "__events__": {},
            "__info__": {
                "kuid": "fffd646642de454f9a02e27c57aeab40",
                "srcKUID": "eebb529881264d49b1c05debd2ad7768",
                "wType": "TextField"
            }
        },
        "txtbxToAmount": {
            "__events__": {},
            "__info__": {
                "kuid": "f1c3e2196d754d64970dbd07c95469b7",
                "srcKUID": "g748b7872ce34a32a299f7b2552a16ee",
                "wType": "TextField"
            }
        }
    },
    "id": "selectAmount",
    "info": null,
    "iscustomlayout": false,
    "isdatareferenced": false,
    "isvisible": true,
    "kuid": "e3e5872120124aa3ab53ba7e34a4f6b1",
    "layouttype": 2,
    "masterType": 0,
    "name": "kony.ui.UserWidgetInstance",
    "parent": "flxAmountDropDown",
    "pf": "frmLogs",
    "retaincontentalignment": false,
    "retainflexpositionproperties": false,
    "snaptogrid": true,
    "sourceUserWidget": "b6466a53ca8f4af1a869e54085549744",
    "wType": "UserWidgetInstance"
}