{
    "DNDConfig": null,
    "__parentReadjusting__": false,
    "_height_": {
        "type": "string",
        "value": "60px"
    },
    "_left_": {
        "type": "string",
        "value": "70px"
    },
    "_margin_": [
        0,
        0,
        0,
        0
    ],
    "_orientation_": 6,
    "_padding_": [
        0,
        0,
        0,
        0
    ],
    "_percent_": true,
    "_right_": {
        "type": "string",
        "value": "60px"
    },
    "_skin_": "s8ff24328417401b877c3ceb2a5fa27c",
    "_top_": {
        "type": "string",
        "value": "0px"
    },
    "allboxes": [],
    "autogrowmode": 0,
    "canUpdateUI": true,
    "children": [
        "flxLeadName",
        "flxLeadPhone",
        "flxLeadEmail",
        "flxLeadProduct",
        "flxLeadAssignedTo",
        "flxLeadModifiedOn"
    ],
    "clipbounds": true,
    "containerweight": 100,
    "enablescrolling": true,
    "id": "flxHeaderLeadMain",
    "info": null,
    "iscustomlayout": false,
    "isvisible": true,
    "kuid": "fea9bdc46754466b8ee6dadf00ce533e",
    "layouttype": 3,
    "name": "kony.ui.FlexContainer",
    "parent": "flxHeaders",
    "pf": "userwidgetmodel",
    "retaincontentalignment": false,
    "retainflexpositionproperties": false,
    "retainflowhorizontalalignment": false,
    "snapgridsize": 10,
    "snaptogrid": true,
    "wType": "FlexContainer",
    "widgetalignment": 1,
    "zindex": 1
}