{
    "@class": "com.kony.gen.viz.model.component.KVizLabel",
    "DNDConfig": null,
    "__parentReadjusting__": false,
    "_height_": {
        "type": "string",
        "value": "15px"
    },
    "_left_": {
        "type": "string",
        "value": "0px"
    },
    "_margin_": [
        1,
        1,
        1,
        1
    ],
    "_padding_": [
        0,
        0,
        0,
        0
    ],
    "_skin_": "se800a297bc643a2bcbe37e5cdaae1f5",
    "_text_": "PRODUCT",
    "_top_": {
        "type": "string",
        "value": "22px"
    },
    "_width_": {
        "type": "ref",
        "value": "preferred"
    },
    "_wrapping_": 2,
    "android": {
        "textStyle": {
            "letterSpacing": 0,
            "strikeThrough": false
        }
    },
    "canUpdateUI": true,
    "containerweight": 100,
    "contentalignment": 4,
    "id": "lblLeadProduct",
    "info": null,
    "ipad": {
        "psp": {
            "wrapping": 2
        }
    },
    "iphone": {
        "psp": {
            "wrapping": 2
        }
    },
    "isvisible": true,
    "kuid": "gafc2506399142568322b0b57a90925a",
    "name": "kony.ui.Label",
    "parent": "flxLeadProduct",
    "pf": "userwidgetmodel",
    "texti18n": "i18n.LeadManagement.segmentheaderProduct",
    "tooltip": "",
    "wType": "Label",
    "zindex": 1
}