{
    "@class": "com.kony.gen.viz.model.container.KVizSegment2",
    "DNDConfig": null,
    "__parentReadjusting__": false,
    "_data_": [
        {},
        {},
        {},
        {},
        {},
        {},
        {},
        {},
        {},
        {}
    ],
    "_height_": {
        "type": "ref",
        "value": "preferred"
    },
    "_indicator_": "none",
    "_left_": {
        "type": "string",
        "value": "0px"
    },
    "_margin_": [
        0,
        0,
        0,
        0
    ],
    "_orientation_": 2,
    "_padding_": [
        0,
        0,
        0,
        0
    ],
    "_top_": {
        "type": "string",
        "value": "0px"
    },
    "_width_": {
        "type": "string",
        "value": "100%"
    },
    "autogrowmode": 1,
    "canUpdateUI": true,
    "containerweight": 100,
    "counter": "09",
    "desktop": {
        "_data_": [
            {
                "fonticonLeadType": {
                    "@class": "com.viz.ide.model.segment.SimpleTextSegmentData",
                    "i18nkey": "i18n.userwidgetmodel.fonticonCustomer",
                    "text": ""
                },
                "imgCheckBox": {
                    "@class": "com.viz.ide.model.segment.ImageSegmentData",
                    "src": "checkbox.png"
                },
                "lblIconOptions": {
                    "@class": "com.viz.ide.model.segment.SimpleTextSegmentData",
                    "text": ""
                },
                "lblLeadAssignedTo": {
                    "@class": "com.viz.ide.model.segment.SimpleTextSegmentData",
                    "text": "C360 Adminstrator k kony"
                },
                "lblLeadEmail": {
                    "@class": "com.viz.ide.model.segment.SimpleTextSegmentData",
                    "text": "jasneetpal.kaur@kony.com"
                },
                "lblLeadModifiedOn": {
                    "@class": "com.viz.ide.model.segment.SimpleTextSegmentData",
                    "text": "Modified on"
                },
                "lblLeadName": {
                    "@class": "com.viz.ide.model.segment.SimpleTextSegmentData",
                    "text": "Jasneet Pal Kaur"
                },
                "lblLeadPhone": {
                    "@class": "com.viz.ide.model.segment.SimpleTextSegmentData",
                    "text": "+123-1234567890-123"
                },
                "lblLeadProduct": {
                    "@class": "com.viz.ide.model.segment.SimpleTextSegmentData",
                    "text": "Freedom credit card"
                },
                "lblSeparator": {
                    "@class": "com.viz.ide.model.segment.SimpleTextSegmentData",
                    "text": "Label"
                }
            },
            {
                "fonticonLeadType": {
                    "@class": "com.viz.ide.model.segment.SimpleTextSegmentData",
                    "i18nkey": "i18n.userwidgetmodel.fonticonCustomer",
                    "text": ""
                },
                "imgCheckBox": {
                    "@class": "com.viz.ide.model.segment.ImageSegmentData",
                    "src": "checkbox.png"
                },
                "lblIconOptions": {
                    "@class": "com.viz.ide.model.segment.SimpleTextSegmentData",
                    "text": ""
                },
                "lblLeadAssignedTo": {
                    "@class": "com.viz.ide.model.segment.SimpleTextSegmentData",
                    "text": "C360 Adminstrator k kony"
                },
                "lblLeadEmail": {
                    "@class": "com.viz.ide.model.segment.SimpleTextSegmentData",
                    "text": "jasneetpal.kaur@kony.com"
                },
                "lblLeadModifiedOn": {
                    "@class": "com.viz.ide.model.segment.SimpleTextSegmentData",
                    "text": "Modified on"
                },
                "lblLeadName": {
                    "@class": "com.viz.ide.model.segment.SimpleTextSegmentData",
                    "text": "Jasneet Pal Kaur"
                },
                "lblLeadPhone": {
                    "@class": "com.viz.ide.model.segment.SimpleTextSegmentData",
                    "text": "+123-1234567890-123"
                },
                "lblLeadProduct": {
                    "@class": "com.viz.ide.model.segment.SimpleTextSegmentData",
                    "text": "Freedom credit card"
                },
                "lblSeparator": {
                    "@class": "com.viz.ide.model.segment.SimpleTextSegmentData",
                    "text": "Label"
                }
            },
            {
                "fonticonLeadType": {
                    "@class": "com.viz.ide.model.segment.SimpleTextSegmentData",
                    "i18nkey": "i18n.userwidgetmodel.fonticonCustomer",
                    "text": ""
                },
                "imgCheckBox": {
                    "@class": "com.viz.ide.model.segment.ImageSegmentData",
                    "src": "checkbox.png"
                },
                "lblIconOptions": {
                    "@class": "com.viz.ide.model.segment.SimpleTextSegmentData",
                    "text": ""
                },
                "lblLeadAssignedTo": {
                    "@class": "com.viz.ide.model.segment.SimpleTextSegmentData",
                    "text": "C360 Adminstrator k kony"
                },
                "lblLeadEmail": {
                    "@class": "com.viz.ide.model.segment.SimpleTextSegmentData",
                    "text": "jasneetpal.kaur@kony.com"
                },
                "lblLeadModifiedOn": {
                    "@class": "com.viz.ide.model.segment.SimpleTextSegmentData",
                    "text": "Modified on"
                },
                "lblLeadName": {
                    "@class": "com.viz.ide.model.segment.SimpleTextSegmentData",
                    "text": "Jasneet Pal Kaur"
                },
                "lblLeadPhone": {
                    "@class": "com.viz.ide.model.segment.SimpleTextSegmentData",
                    "text": "+123-1234567890-123"
                },
                "lblLeadProduct": {
                    "@class": "com.viz.ide.model.segment.SimpleTextSegmentData",
                    "text": "Freedom credit card"
                },
                "lblSeparator": {
                    "@class": "com.viz.ide.model.segment.SimpleTextSegmentData",
                    "text": "Label"
                }
            },
            {
                "fonticonLeadType": {
                    "@class": "com.viz.ide.model.segment.SimpleTextSegmentData",
                    "i18nkey": "i18n.userwidgetmodel.fonticonCustomer",
                    "text": ""
                },
                "imgCheckBox": {
                    "@class": "com.viz.ide.model.segment.ImageSegmentData",
                    "src": "checkbox.png"
                },
                "lblIconOptions": {
                    "@class": "com.viz.ide.model.segment.SimpleTextSegmentData",
                    "text": ""
                },
                "lblLeadAssignedTo": {
                    "@class": "com.viz.ide.model.segment.SimpleTextSegmentData",
                    "text": "C360 Adminstrator k kony"
                },
                "lblLeadEmail": {
                    "@class": "com.viz.ide.model.segment.SimpleTextSegmentData",
                    "text": "jasneetpal.kaur@kony.com"
                },
                "lblLeadModifiedOn": {
                    "@class": "com.viz.ide.model.segment.SimpleTextSegmentData",
                    "text": "Modified on"
                },
                "lblLeadName": {
                    "@class": "com.viz.ide.model.segment.SimpleTextSegmentData",
                    "text": "Jasneet Pal Kaur"
                },
                "lblLeadPhone": {
                    "@class": "com.viz.ide.model.segment.SimpleTextSegmentData",
                    "text": "+123-1234567890-123"
                },
                "lblLeadProduct": {
                    "@class": "com.viz.ide.model.segment.SimpleTextSegmentData",
                    "text": "Freedom credit card"
                },
                "lblSeparator": {
                    "@class": "com.viz.ide.model.segment.SimpleTextSegmentData",
                    "text": "Label"
                }
            },
            {
                "fonticonLeadType": {
                    "@class": "com.viz.ide.model.segment.SimpleTextSegmentData",
                    "i18nkey": "i18n.userwidgetmodel.fonticonCustomer",
                    "text": ""
                },
                "imgCheckBox": {
                    "@class": "com.viz.ide.model.segment.ImageSegmentData",
                    "src": "checkbox.png"
                },
                "lblIconOptions": {
                    "@class": "com.viz.ide.model.segment.SimpleTextSegmentData",
                    "text": ""
                },
                "lblLeadAssignedTo": {
                    "@class": "com.viz.ide.model.segment.SimpleTextSegmentData",
                    "text": "C360 Adminstrator k kony"
                },
                "lblLeadEmail": {
                    "@class": "com.viz.ide.model.segment.SimpleTextSegmentData",
                    "text": "jasneetpal.kaur@kony.com"
                },
                "lblLeadModifiedOn": {
                    "@class": "com.viz.ide.model.segment.SimpleTextSegmentData",
                    "text": "Modified on"
                },
                "lblLeadName": {
                    "@class": "com.viz.ide.model.segment.SimpleTextSegmentData",
                    "text": "Jasneet Pal Kaur"
                },
                "lblLeadPhone": {
                    "@class": "com.viz.ide.model.segment.SimpleTextSegmentData",
                    "text": "+123-1234567890-123"
                },
                "lblLeadProduct": {
                    "@class": "com.viz.ide.model.segment.SimpleTextSegmentData",
                    "text": "Freedom credit card"
                },
                "lblSeparator": {
                    "@class": "com.viz.ide.model.segment.SimpleTextSegmentData",
                    "text": "Label"
                }
            },
            {
                "fonticonLeadType": {
                    "@class": "com.viz.ide.model.segment.SimpleTextSegmentData",
                    "i18nkey": "i18n.userwidgetmodel.fonticonCustomer",
                    "text": ""
                },
                "imgCheckBox": {
                    "@class": "com.viz.ide.model.segment.ImageSegmentData",
                    "src": "checkbox.png"
                },
                "lblIconOptions": {
                    "@class": "com.viz.ide.model.segment.SimpleTextSegmentData",
                    "text": ""
                },
                "lblLeadAssignedTo": {
                    "@class": "com.viz.ide.model.segment.SimpleTextSegmentData",
                    "text": "C360 Adminstrator k kony"
                },
                "lblLeadEmail": {
                    "@class": "com.viz.ide.model.segment.SimpleTextSegmentData",
                    "text": "jasneetpal.kaur@kony.com"
                },
                "lblLeadModifiedOn": {
                    "@class": "com.viz.ide.model.segment.SimpleTextSegmentData",
                    "text": "Modified on"
                },
                "lblLeadName": {
                    "@class": "com.viz.ide.model.segment.SimpleTextSegmentData",
                    "text": "Jasneet Pal Kaur"
                },
                "lblLeadPhone": {
                    "@class": "com.viz.ide.model.segment.SimpleTextSegmentData",
                    "text": "+123-1234567890-123"
                },
                "lblLeadProduct": {
                    "@class": "com.viz.ide.model.segment.SimpleTextSegmentData",
                    "text": "Freedom credit card"
                },
                "lblSeparator": {
                    "@class": "com.viz.ide.model.segment.SimpleTextSegmentData",
                    "text": "Label"
                }
            },
            {
                "fonticonLeadType": {
                    "@class": "com.viz.ide.model.segment.SimpleTextSegmentData",
                    "i18nkey": "i18n.userwidgetmodel.fonticonCustomer",
                    "text": ""
                },
                "imgCheckBox": {
                    "@class": "com.viz.ide.model.segment.ImageSegmentData",
                    "src": "checkbox.png"
                },
                "lblIconOptions": {
                    "@class": "com.viz.ide.model.segment.SimpleTextSegmentData",
                    "text": ""
                },
                "lblLeadAssignedTo": {
                    "@class": "com.viz.ide.model.segment.SimpleTextSegmentData",
                    "text": "C360 Adminstrator k kony"
                },
                "lblLeadEmail": {
                    "@class": "com.viz.ide.model.segment.SimpleTextSegmentData",
                    "text": "jasneetpal.kaur@kony.com"
                },
                "lblLeadModifiedOn": {
                    "@class": "com.viz.ide.model.segment.SimpleTextSegmentData",
                    "text": "Modified on"
                },
                "lblLeadName": {
                    "@class": "com.viz.ide.model.segment.SimpleTextSegmentData",
                    "text": "Jasneet Pal Kaur"
                },
                "lblLeadPhone": {
                    "@class": "com.viz.ide.model.segment.SimpleTextSegmentData",
                    "text": "+123-1234567890-123"
                },
                "lblLeadProduct": {
                    "@class": "com.viz.ide.model.segment.SimpleTextSegmentData",
                    "text": "Freedom credit card"
                },
                "lblSeparator": {
                    "@class": "com.viz.ide.model.segment.SimpleTextSegmentData",
                    "text": "Label"
                }
            },
            {
                "fonticonLeadType": {
                    "@class": "com.viz.ide.model.segment.SimpleTextSegmentData",
                    "i18nkey": "i18n.userwidgetmodel.fonticonCustomer",
                    "text": ""
                },
                "imgCheckBox": {
                    "@class": "com.viz.ide.model.segment.ImageSegmentData",
                    "src": "checkbox.png"
                },
                "lblIconOptions": {
                    "@class": "com.viz.ide.model.segment.SimpleTextSegmentData",
                    "text": ""
                },
                "lblLeadAssignedTo": {
                    "@class": "com.viz.ide.model.segment.SimpleTextSegmentData",
                    "text": "C360 Adminstrator k kony"
                },
                "lblLeadEmail": {
                    "@class": "com.viz.ide.model.segment.SimpleTextSegmentData",
                    "text": "jasneetpal.kaur@kony.com"
                },
                "lblLeadModifiedOn": {
                    "@class": "com.viz.ide.model.segment.SimpleTextSegmentData",
                    "text": "Modified on"
                },
                "lblLeadName": {
                    "@class": "com.viz.ide.model.segment.SimpleTextSegmentData",
                    "text": "Jasneet Pal Kaur"
                },
                "lblLeadPhone": {
                    "@class": "com.viz.ide.model.segment.SimpleTextSegmentData",
                    "text": "+123-1234567890-123"
                },
                "lblLeadProduct": {
                    "@class": "com.viz.ide.model.segment.SimpleTextSegmentData",
                    "text": "Freedom credit card"
                },
                "lblSeparator": {
                    "@class": "com.viz.ide.model.segment.SimpleTextSegmentData",
                    "text": "Label"
                }
            },
            {
                "fonticonLeadType": {
                    "@class": "com.viz.ide.model.segment.SimpleTextSegmentData",
                    "i18nkey": "i18n.userwidgetmodel.fonticonCustomer",
                    "text": ""
                },
                "imgCheckBox": {
                    "@class": "com.viz.ide.model.segment.ImageSegmentData",
                    "src": "checkbox.png"
                },
                "lblIconOptions": {
                    "@class": "com.viz.ide.model.segment.SimpleTextSegmentData",
                    "text": ""
                },
                "lblLeadAssignedTo": {
                    "@class": "com.viz.ide.model.segment.SimpleTextSegmentData",
                    "text": "C360 Adminstrator k kony"
                },
                "lblLeadEmail": {
                    "@class": "com.viz.ide.model.segment.SimpleTextSegmentData",
                    "text": "jasneetpal.kaur@kony.com"
                },
                "lblLeadModifiedOn": {
                    "@class": "com.viz.ide.model.segment.SimpleTextSegmentData",
                    "text": "Modified on"
                },
                "lblLeadName": {
                    "@class": "com.viz.ide.model.segment.SimpleTextSegmentData",
                    "text": "Jasneet Pal Kaur"
                },
                "lblLeadPhone": {
                    "@class": "com.viz.ide.model.segment.SimpleTextSegmentData",
                    "text": "+123-1234567890-123"
                },
                "lblLeadProduct": {
                    "@class": "com.viz.ide.model.segment.SimpleTextSegmentData",
                    "text": "Freedom credit card"
                },
                "lblSeparator": {
                    "@class": "com.viz.ide.model.segment.SimpleTextSegmentData",
                    "text": "Label"
                }
            },
            {
                "fonticonLeadType": {
                    "@class": "com.viz.ide.model.segment.SimpleTextSegmentData",
                    "i18nkey": "i18n.userwidgetmodel.fonticonCustomer",
                    "text": ""
                },
                "imgCheckBox": {
                    "@class": "com.viz.ide.model.segment.ImageSegmentData",
                    "src": "checkbox.png"
                },
                "lblIconOptions": {
                    "@class": "com.viz.ide.model.segment.SimpleTextSegmentData",
                    "text": ""
                },
                "lblLeadAssignedTo": {
                    "@class": "com.viz.ide.model.segment.SimpleTextSegmentData",
                    "text": "C360 Adminstrator k kony"
                },
                "lblLeadEmail": {
                    "@class": "com.viz.ide.model.segment.SimpleTextSegmentData",
                    "text": "jasneetpal.kaur@kony.com"
                },
                "lblLeadModifiedOn": {
                    "@class": "com.viz.ide.model.segment.SimpleTextSegmentData",
                    "text": "Modified on"
                },
                "lblLeadName": {
                    "@class": "com.viz.ide.model.segment.SimpleTextSegmentData",
                    "text": "Jasneet Pal Kaur"
                },
                "lblLeadPhone": {
                    "@class": "com.viz.ide.model.segment.SimpleTextSegmentData",
                    "text": "+123-1234567890-123"
                },
                "lblLeadProduct": {
                    "@class": "com.viz.ide.model.segment.SimpleTextSegmentData",
                    "text": "Freedom credit card"
                },
                "lblSeparator": {
                    "@class": "com.viz.ide.model.segment.SimpleTextSegmentData",
                    "text": "Label"
                }
            }
        ],
        "rowTemplateId": "id32087796944d5986b7ce73c74fda80",
        "rowtemplate": "flxLeads",
        "widgetdatamap": {
            "flxLeadAssignedTo": "flxLeadAssignedTo",
            "flxLeadCheckbox": "flxLeadCheckbox",
            "flxLeadEmail": "flxLeadEmail",
            "flxLeadMain": "flxLeadMain",
            "flxLeadModifiedOn": "flxLeadModifiedOn",
            "flxLeadName": "flxLeadName",
            "flxLeadOptions": "flxLeadOptions",
            "flxLeadPhone": "flxLeadPhone",
            "flxLeadProduct": "flxLeadProduct",
            "flxLeadType": "flxLeadType",
            "flxLeads": "flxLeads",
            "flxOptions": "flxOptions",
            "fonticonLeadType": "fonticonLeadType",
            "imgCheckBox": "imgCheckBox",
            "lblIconOptions": "lblIconOptions",
            "lblLeadAssignedTo": "lblLeadAssignedTo",
            "lblLeadEmail": "lblLeadEmail",
            "lblLeadModifiedOn": "lblLeadModifiedOn",
            "lblLeadName": "lblLeadName",
            "lblLeadPhone": "lblLeadPhone",
            "lblLeadProduct": "lblLeadProduct",
            "lblSeparator": "lblSeparator"
        }
    },
    "focusedindex": null,
    "focuseditem": null,
    "groupcells": false,
    "hasSections": false,
    "id": "segLeads",
    "info": null,
    "ipad": {
        "psp": {
            "indicator": "rowselect"
        }
    },
    "iphone": {
        "psp": {
            "indicator": "rowselect"
        }
    },
    "iscustomlayout": false,
    "isvisible": true,
    "kuid": "e72fe3e8ebd74f8ab9fc3db29ad1dd1d",
    "masterdata": {},
    "name": "kony.ui.SegmentedUI2",
    "needpageindicator": true,
    "pageoffdotimage": "pageoffdot.png",
    "pageondotimage": "pageondot.png",
    "paginationconfig": {
        "position": "bottom"
    },
    "parent": "flxTableView",
    "pf": "userwidgetmodel",
    "retaincontentalignment": false,
    "retainflexpositionproperties": false,
    "retainselection": false,
    "rowcounter": 9,
    "rowfocusskin": "se901dcdd2ae4a58a81f21c009edf99e",
    "rowskin": "s54014e0d4204ce9acd27107655ded87",
    "rowtemplate": "flxLeads",
    "screenlevelwidget": false,
    "seccounter": 0,
    "sectionheaderskin": "sffa0c1a0560403189088e98f7b4f498",
    "selectedRows": null,
    "selectedState": false,
    "selectedindex": null,
    "selectedindices": null,
    "selecteditems": null,
    "selectedsectionindex": null,
    "selectionbehavior": "default",
    "separatorcolor": "aaaaaa00",
    "separatorrequired": false,
    "separatorthickness": 1,
    "showscrollbars": false,
    "viewtype": "tableview",
    "vizProps": {},
    "wType": "Segment",
    "widgetalignment": 5,
    "widgetdatamap": {
        "flxLeadAssignedTo": "flxLeadAssignedTo",
        "flxLeadCheckbox": "flxLeadCheckbox",
        "flxLeadEmail": "flxLeadEmail",
        "flxLeadMain": "flxLeadMain",
        "flxLeadModifiedOn": "flxLeadModifiedOn",
        "flxLeadName": "flxLeadName",
        "flxLeadOptions": "flxLeadOptions",
        "flxLeadPhone": "flxLeadPhone",
        "flxLeadProduct": "flxLeadProduct",
        "flxLeadType": "flxLeadType",
        "flxLeads": "flxLeads",
        "flxOptions": "flxOptions",
        "fonticonLeadType": "fonticonLeadType",
        "imgCheckBox": "imgCheckBox",
        "lblIconOptions": "lblIconOptions",
        "lblLeadAssignedTo": "lblLeadAssignedTo",
        "lblLeadEmail": "lblLeadEmail",
        "lblLeadModifiedOn": "lblLeadModifiedOn",
        "lblLeadName": "lblLeadName",
        "lblLeadPhone": "lblLeadPhone",
        "lblLeadProduct": "lblLeadProduct",
        "lblSeparator": "lblSeparator"
    },
    "zindex": 1
}