{
    "@class": "com.kony.gen.viz.model.component.KVizTextBox2",
    "DNDConfig": null,
    "__parentReadjusting__": false,
    "_height_": {
        "type": "string",
        "value": "100%"
    },
    "_left_": {
        "type": "string",
        "value": "0"
    },
    "_margin_": [
        0,
        0,
        0,
        0
    ],
    "_padding_": [
        4,
        0,
        0,
        0
    ],
    "_placeholder_": "",
    "_skin_": "s199e31ba0754258944efda3ae980b93",
    "_text_": "",
    "_top_": {
        "type": "string",
        "value": "0"
    },
    "_width_": {
        "type": "string",
        "value": "79%"
    },
    "autocapitalize": "none",
    "autocomplete": false,
    "autocorrect": false,
    "autofilter": false,
    "canUpdateUI": true,
    "containerheight": "",
    "containerheightmode": 1,
    "containerweight": 100,
    "contentalignment": 4,
    "disabledSkins": {
        "focusSkin": "s0e6bd44680c418e863293dd73f2dceb"
    },
    "focusskin": null,
    "id": "txtGrossIncomeValue1",
    "info": null,
    "iscustomlayout": false,
    "isvisible": true,
    "keyboardstyle": "telpad",
    "keyboardtype": "A",
    "kuid": "fc74d14127b7433085320e99f6863f0c",
    "mode": "N",
    "name": "kony.ui.TextBox2",
    "paddinginpixel": false,
    "parent": "flxGrossIncomeAmount1",
    "pf": "userwidgetmodel",
    "placeholderi18n": "i18n.frmLogs.blSearchParam3",
    "placeholderskin": "s1ad35988e124d51b6fc33c20681b05c",
    "retaincontentalignment": false,
    "retainflexpositionproperties": false,
    "securetextentry": false,
    "textinputmode": "N",
    "tooltip": "",
    "viewtype": "default",
    "wType": "TextField",
    "zindex": 1
}