{
    "DNDConfig": null,
    "_height_": {
        "type": "ref",
        "value": "preferred"
    },
    "_margin_": [
        0,
        0,
        0,
        0
    ],
    "_orientation_": 6,
    "_padding_": [
        0,
        0,
        0,
        0
    ],
    "_percent_": true,
    "_skin_": "sa516ef9f7594cab9cedd65e77444baf",
    "allboxes": [],
    "autogrowmode": 1,
    "canUpdateUI": true,
    "children": [
        "flxCustMangContent"
    ],
    "clipbounds": true,
    "containerId": true,
    "containerweight": 100,
    "controllerInfo": {
        "default": {
            "channel": "desktop",
            "name": "flxCustomerMangNotesController"
        }
    },
    "desktopweb": {
        "psp": {
            "hoverSkin": "s094cf034ba74d778fe9c91095115ace"
        }
    },
    "enablescrolling": true,
    "focusskin": "s094cf034ba74d778fe9c91095115ace",
    "id": "flxCustomerMangNotes",
    "info": null,
    "isTemplate": true,
    "isvisible": true,
    "kuid": "d8e0ed25a629456da7c287ba39a4566f",
    "layouttype": 2,
    "name": "kony.ui.FlexContainer",
    "parent": "segNotesDetails",
    "pf": "segNotesDetails",
    "snapgridsize": 10,
    "snaptogrid": true,
    "wType": "FlexContainer",
    "widgetalignment": 1
}