{
    "DNDConfig": null,
    "__parentReadjusting__": false,
    "_height_": {
        "type": "string",
        "value": "30px"
    },
    "_left_": {
        "type": "string",
        "value": "15px"
    },
    "_margin_": [
        0,
        0,
        0,
        0
    ],
    "_orientation_": 6,
    "_padding_": [
        0,
        0,
        0,
        0
    ],
    "_percent_": true,
    "_skin_": "s8ff24328417401b877c3ceb2a5fa27c",
    "_top_": {
        "type": "string",
        "value": "0px"
    },
    "_width_": {
        "type": "string",
        "value": "30px"
    },
    "allboxes": [],
    "autogrowmode": 0,
    "canUpdateUI": true,
    "children": [
        "imgUser"
    ],
    "clipbounds": true,
    "containerId": true,
    "containerweight": 100,
    "enablescrolling": true,
    "id": "flxUserPic",
    "ide_onClick": "AS_FlexContainer_ib224ef181d44b028170bcbd8cb15cc5",
    "info": null,
    "isvisible": true,
    "kuid": "b29f1dcf41ee4c29b54fa9769a891ace",
    "layouttype": 2,
    "name": "kony.ui.FlexContainer",
    "parent": "flxNotesUserProfile",
    "pf": "segNotesDetails",
    "snapgridsize": 10,
    "snaptogrid": true,
    "wType": "FlexContainer",
    "widgetalignment": 1,
    "zindex": 2
}