{
    "@class": "com.kony.gen.viz.model.component.KVizRichText",
    "DNDConfig": null,
    "__parentReadjusting__": false,
    "_height_": {
        "type": "ref",
        "value": "preferred"
    },
    "_left_": {
        "type": "string",
        "value": "15px"
    },
    "_margin_": [
        0,
        0,
        0,
        0
    ],
    "_padding_": [
        0,
        0,
        0,
        0
    ],
    "_right_": {
        "type": "string",
        "value": "15px"
    },
    "_skin_": "s3ffd2c66e5248c1aeb5430fa3380ad3",
    "_text_": "\nLorem ipsum dolor sit amet, consectetur adipiscing elitswde. Vestibulum quis dignissim quam. Curabitur enim eros, aliquet sit amet maximus et, porttitor et ligula.",
    "_top_": {
        "type": "string",
        "value": "16px"
    },
    "_wrapping_": 2,
    "canUpdateUI": true,
    "containerId": true,
    "containerweight": 100,
    "contentalignment": 4,
    "id": "rtxNotesDescription",
    "info": null,
    "isvisible": true,
    "kuid": "aefc6ebc8fab4420bf526d7a617305b7",
    "name": "kony.ui.RichText",
    "parent": "flxDetails",
    "pf": "segNotesDetails",
    "wType": "RichText",
    "watchos": {
        "render": false
    },
    "widgetalignment": 5,
    "windows10": {
        "render": false
    },
    "winphone10": {
        "render": false
    },
    "zindex": 1
}