{
    "DNDConfig": null,
    "__parentReadjusting__": false,
    "_height_": {
        "type": "ref",
        "value": "preferred"
    },
    "_left_": {
        "type": "string",
        "value": "0"
    },
    "_margin_": [
        0,
        0,
        0,
        0
    ],
    "_orientation_": 6,
    "_padding_": [
        0,
        0,
        0,
        0
    ],
    "_percent_": true,
    "_skin_": "s8ff24328417401b877c3ceb2a5fa27c",
    "_top_": {
        "type": "string",
        "value": "0px"
    },
    "_width_": {
        "type": "string",
        "value": "100%"
    },
    "allboxes": [],
    "autogrowmode": 1,
    "canUpdateUI": true,
    "children": [
        "flxReqId",
        "flxUserName",
        "lblSubject",
        "lblCategory",
        "lblDate",
        "flxStatus",
        "flxOptions"
    ],
    "clipbounds": true,
    "containerId": true,
    "containerweight": 100,
    "desktopweb": {
        "psp": {
            "hoverSkin": "s512ca636f844ef4aa81b2647c08ce24"
        }
    },
    "disabledSkins": {},
    "enablescrolling": true,
    "id": "flxMsgSegMain",
    "info": null,
    "isTemplate": true,
    "isvisible": true,
    "kuid": "j4672605ac504210a2fe2f645b6a73c6",
    "layouttype": 3,
    "name": "kony.ui.FlexContainer",
    "parent": "flxSegMain",
    "pf": "segCSRQueueList",
    "snapgridsize": 10,
    "snaptogrid": true,
    "wType": "FlexContainer",
    "widgetalignment": 4
}