{
    "@class": "com.kony.gen.viz.model.component.KVizUserWidget",
    "DNDConfig": null,
    "__parentReadjusting__": false,
    "_children_": [],
    "_desktopweb_": {},
    "_height_": {
        "type": "string",
        "value": "100%"
    },
    "_left_": {
        "type": "string",
        "value": "0dp"
    },
    "_margin_": [
        0,
        0,
        0,
        0
    ],
    "_orientation_": 1,
    "_padding_": [
        0,
        0,
        0,
        0
    ],
    "_percent_": true,
    "_render_": true,
    "_responsiveData_": {},
    "_skin_": "s2e03577cc6643d18402e876cee79ea2",
    "_top_": {
        "type": "string",
        "value": "0dp"
    },
    "_vizProps_": {
        "hidewidgethierarchy": false
    },
    "_width_": {
        "type": "string",
        "value": "100%"
    },
    "areflexpropsreferenced": false,
    "autogrowmode": 0,
    "canUpdateUI": true,
    "clipbounds": true,
    "containerweight": 0,
    "dataDiffs": {
        "AdvSearchDropDown11": {
            "__events__": {},
            "__info__": {
                "kuid": "edd0eab08474489cb3892ccb5d25ae3d",
                "srcKUID": "c748cff013d543f0869a15ae94f1ef02",
                "wType": "UserWidgetInstance"
            }
        },
        "AdvSearchDropDown11.flxDropDown": {
            "__events__": {},
            "__info__": {
                "kuid": "fa0fffe239a9424c8eced4964ed67273",
                "srcKUID": "a6adc8ea188847b0a40f49889b873e69",
                "wType": "FlexContainer"
            }
        },
        "AdvSearchDropDown11.flxPopupBody": {
            "__events__": {},
            "__info__": {
                "kuid": "j00ccf8125b04a3eb273837abc36370e",
                "srcKUID": "h178cfc30b574b8e96dc224c6cba2912",
                "wType": "FlexScrollContainer"
            }
        },
        "AdvSearchDropDown11.flxSearch": {
            "__events__": {},
            "__info__": {
                "kuid": "a497ac663c0c4b5c8a40c5ecc452ef88",
                "srcKUID": "e66842733716424bb8a235128f6ccfdb",
                "wType": "FlexContainer"
            }
        },
        "AdvSearchDropDown11.flxSearchCancel": {
            "__events__": {},
            "__info__": {
                "kuid": "bdb1e43e4b5f4ae19a2789604cc08b9b",
                "srcKUID": "d1b714cffee64f72b53fa1364473497a",
                "wType": "FlexContainer"
            }
        },
        "AdvSearchDropDown11.flxSearchContainer": {
            "__events__": {},
            "__info__": {
                "kuid": "d880f4e4a31341f2a91cf0e3730ee451",
                "srcKUID": "d55d679599a74f97822c07013a871f1e",
                "wType": "FlexContainer"
            }
        },
        "AdvSearchDropDown11.fontIconClearSearch": {
            "__events__": {},
            "__info__": {
                "kuid": "f06d95c17b424af9aa2bfcafbc342daf",
                "srcKUID": "cabc8476ed914ea2916a62413286c5a2",
                "wType": "Label"
            }
        },
        "AdvSearchDropDown11.fontIconSearch": {
            "__events__": {},
            "__info__": {
                "kuid": "e758b18f5af54da6955d6c8ade23c475",
                "srcKUID": "i64498a61dbf45b7ae91b2d60102ad64",
                "wType": "Label"
            }
        },
        "AdvSearchDropDown11.richTexNoResult": {
            "__events__": {},
            "__info__": {
                "kuid": "h980630964aa43c1bf65ee1e5957ac5c",
                "srcKUID": "aa3c4862391b45199e02823b25f65b1e",
                "wType": "RichText"
            }
        },
        "AdvSearchDropDown11.sgmentData": {
            "__events__": {},
            "__info__": {
                "kuid": "c4ed36af4f74420da68d3f5f61c61b5a",
                "srcKUID": "dd9547ad2fa1495d8f2ebc8f98df9b86",
                "wType": "Segment"
            }
        },
        "AdvSearchDropDown11.tbxSearchBox": {
            "__events__": {},
            "__info__": {
                "kuid": "hdcebda7b95b430a912e97b3f3ca532c",
                "srcKUID": "ac280664570a44cea514ab33781c0830",
                "wType": "TextField"
            }
        },
        "AdvancedSearch": {
            "__events__": {},
            "__info__": {
                "isRoot": true,
                "kuid": "f077800752db4d93b6213fa4c6e46c24",
                "srcKUID": "c15544cbfa7d4ee788b807abc51fe357",
                "wType": "FlexContainer"
            },
            "autogrowMode": 0,
            "height": {
                "Default": {
                    "type": "string",
                    "value": "100%"
                }
            },
            "width": {
                "Default": {
                    "type": "string",
                    "value": "100%"
                }
            }
        },
        "AdvancedSearchDropDown01": {
            "__events__": {},
            "__info__": {
                "kuid": "f22fedbdc9b344c5b96decfaef10e564",
                "srcKUID": "ac5cec282c654296bde63dda4d967280",
                "wType": "UserWidgetInstance"
            }
        },
        "AdvancedSearchDropDown01.flxDropDown": {
            "__events__": {},
            "__info__": {
                "kuid": "be5a449a0c034fde839579cb57a1f556",
                "srcKUID": "bbfd635606c24ce895d1a0c8674525fa",
                "wType": "FlexContainer"
            }
        },
        "AdvancedSearchDropDown01.flxPopupBody": {
            "__events__": {},
            "__info__": {
                "kuid": "acc82f6de8a64399add151e0cf9db51e",
                "srcKUID": "d229b3df5d864958976f21610fb36289",
                "wType": "FlexScrollContainer"
            }
        },
        "AdvancedSearchDropDown01.flxSearch": {
            "__events__": {},
            "__info__": {
                "kuid": "d76cf2aaf10d44b5824f273afae50554",
                "srcKUID": "d2572c64fb3a496098ddf88e1efc8ff1",
                "wType": "FlexContainer"
            }
        },
        "AdvancedSearchDropDown01.flxSearchCancel": {
            "__events__": {},
            "__info__": {
                "kuid": "a18104207f2e4d209863e0342a6ed539",
                "srcKUID": "b09793dfdfed4d71b3eff6637366727a",
                "wType": "FlexContainer"
            }
        },
        "AdvancedSearchDropDown01.flxSearchContainer": {
            "__events__": {},
            "__info__": {
                "kuid": "gf7c7e656a2a4db0aa82f4ec854b11eb",
                "srcKUID": "f3b8fcaf771145daa1f40ea46c61fd7d",
                "wType": "FlexContainer"
            }
        },
        "AdvancedSearchDropDown01.fontIconClearSearch": {
            "__events__": {},
            "__info__": {
                "kuid": "ha095e40b5144abdb514dc72918bcf1c",
                "srcKUID": "gbafbfc1f65746b5bc638514f581f1de",
                "wType": "Label"
            }
        },
        "AdvancedSearchDropDown01.fontIconSearch": {
            "__events__": {},
            "__info__": {
                "kuid": "e6a4db421f424919af638127e2956da0",
                "srcKUID": "a79c2766f408491eb1cc0f7aeecc5a44",
                "wType": "Label"
            }
        },
        "AdvancedSearchDropDown01.richTexNoResult": {
            "__events__": {},
            "__info__": {
                "kuid": "gccc5f34ea594cd383cd5d94fc72d101",
                "srcKUID": "j87011e4eb144ce9880bff11bb47d5be",
                "wType": "RichText"
            }
        },
        "AdvancedSearchDropDown01.sgmentData": {
            "__events__": {},
            "__info__": {
                "kuid": "jcd83c81b5ab4f008f94dd2515bc35b7",
                "srcKUID": "c6ece757d11f422280488817b471efba",
                "wType": "Segment"
            }
        },
        "AdvancedSearchDropDown01.tbxSearchBox": {
            "__events__": {},
            "__info__": {
                "kuid": "f3206ebf933a44928ed28bdbaf772524",
                "srcKUID": "a13bdc19f68b4d559e4a7046444b9fb0",
                "wType": "TextField"
            }
        },
        "AdvancedSearchDropDown02": {
            "__events__": {},
            "__info__": {
                "kuid": "c7216c77c7d4418d9868a7b98cebbde9",
                "srcKUID": "i9ce56dbbd244ff2aaee20097f92b835",
                "wType": "UserWidgetInstance"
            }
        },
        "AdvancedSearchDropDown02.flxDropDown": {
            "__events__": {},
            "__info__": {
                "kuid": "b66990e061c440d7aea3585e0e8ab56f",
                "srcKUID": "c1c6947ea5de40598fbbe2f3d8472697",
                "wType": "FlexContainer"
            }
        },
        "AdvancedSearchDropDown02.flxPopupBody": {
            "__events__": {},
            "__info__": {
                "kuid": "a18264efea924691ad01f9b151464278",
                "srcKUID": "d85508d1acb24189bd704ebb77ee4045",
                "wType": "FlexScrollContainer"
            }
        },
        "AdvancedSearchDropDown02.flxSearch": {
            "__events__": {},
            "__info__": {
                "kuid": "ea727686e50c425197c073da681da2e5",
                "srcKUID": "e1e7eb2ffafe428ba3619b8faa6d307e",
                "wType": "FlexContainer"
            }
        },
        "AdvancedSearchDropDown02.flxSearchCancel": {
            "__events__": {},
            "__info__": {
                "kuid": "d61f094b9a1b4f3da49f6f73f5032037",
                "srcKUID": "b6c4f76bdea6457097574493f83b5bd0",
                "wType": "FlexContainer"
            }
        },
        "AdvancedSearchDropDown02.flxSearchContainer": {
            "__events__": {},
            "__info__": {
                "kuid": "fd9f715c55704eedbbb6be956c2fdbb1",
                "srcKUID": "b3bf5ba0dcef4231ad123a0a147fd282",
                "wType": "FlexContainer"
            }
        },
        "AdvancedSearchDropDown02.fontIconClearSearch": {
            "__events__": {},
            "__info__": {
                "kuid": "hafcdbf4702e44408ed02a1e25ae31db",
                "srcKUID": "eb803d3bc5a44255a6f0485f9397a1a7",
                "wType": "Label"
            }
        },
        "AdvancedSearchDropDown02.fontIconSearch": {
            "__events__": {},
            "__info__": {
                "kuid": "g75970a21eda4f39a3e41c04883c8228",
                "srcKUID": "bf48b23550254f02af853caea7204aa1",
                "wType": "Label"
            }
        },
        "AdvancedSearchDropDown02.richTexNoResult": {
            "__events__": {},
            "__info__": {
                "kuid": "f3d44f80200c421bb78051db4dd5066a",
                "srcKUID": "eb256d95807c48cb8f7f7a50b0e78c88",
                "wType": "RichText"
            }
        },
        "AdvancedSearchDropDown02.sgmentData": {
            "__events__": {},
            "__info__": {
                "kuid": "a498bb03ed704d8bb54bb4af76eee840",
                "srcKUID": "bb7a3900bf1746f490adf93b18a05b8e",
                "wType": "Segment"
            }
        },
        "AdvancedSearchDropDown02.tbxSearchBox": {
            "__events__": {},
            "__info__": {
                "kuid": "hb2f58d19dc44356a68186d44cb40186",
                "srcKUID": "d53c8b77da2f436da374e121ae52a80a",
                "wType": "TextField"
            }
        },
        "AdvancedSearchDropDown03": {
            "__events__": {},
            "__info__": {
                "kuid": "dedeeb9a299c481baf08ab4eabf2ead9",
                "srcKUID": "b81a8b37acba4c7d8090f8bfbbafed27",
                "wType": "UserWidgetInstance"
            }
        },
        "AdvancedSearchDropDown03.flxDropDown": {
            "__events__": {},
            "__info__": {
                "kuid": "fa66f2cd9589437eb82be2a4792f26e4",
                "srcKUID": "e53b43638ccd470dbf17dcf56f78d0ca",
                "wType": "FlexContainer"
            }
        },
        "AdvancedSearchDropDown03.flxPopupBody": {
            "__events__": {},
            "__info__": {
                "kuid": "c5a5b9e38fea4c1f9171125195411a88",
                "srcKUID": "ge7376c9ad3b462fae7077ab4ee0346a",
                "wType": "FlexScrollContainer"
            }
        },
        "AdvancedSearchDropDown03.flxSearch": {
            "__events__": {},
            "__info__": {
                "kuid": "ga8aad8a1add49269eb1e24ea6338253",
                "srcKUID": "gb5e374bc67a49aaaf649bf1b4e5ae2e",
                "wType": "FlexContainer"
            }
        },
        "AdvancedSearchDropDown03.flxSearchCancel": {
            "__events__": {},
            "__info__": {
                "kuid": "cf0d057674ea483590f1b9ce77b7d16e",
                "srcKUID": "c3c4fe8a16bc42bd92cd9aef4fd535f6",
                "wType": "FlexContainer"
            }
        },
        "AdvancedSearchDropDown03.flxSearchContainer": {
            "__events__": {},
            "__info__": {
                "kuid": "becf25b4981a47af96a08f38f37908da",
                "srcKUID": "e35939e309f24430a2e259f266629621",
                "wType": "FlexContainer"
            }
        },
        "AdvancedSearchDropDown03.fontIconClearSearch": {
            "__events__": {},
            "__info__": {
                "kuid": "bdc8c971a80f44d1962259c1a95b6d31",
                "srcKUID": "b409676842e240f6977c1d67962d687c",
                "wType": "Label"
            }
        },
        "AdvancedSearchDropDown03.fontIconSearch": {
            "__events__": {},
            "__info__": {
                "kuid": "eebe38117b9441aaac830b82a6aa54f8",
                "srcKUID": "i7594d1577e54249a7f7b1aceabf296c",
                "wType": "Label"
            }
        },
        "AdvancedSearchDropDown03.richTexNoResult": {
            "__events__": {},
            "__info__": {
                "kuid": "fa5418ace6294533910d3093fab1083c",
                "srcKUID": "a86329d4045942089519defca3bde2c0",
                "wType": "RichText"
            }
        },
        "AdvancedSearchDropDown03.sgmentData": {
            "__events__": {},
            "__info__": {
                "kuid": "ea7700e2559d47d49f23472eef1d8520",
                "srcKUID": "ceed3e6cd77a4b1b8e86e611c4d3892f",
                "wType": "Segment"
            }
        },
        "AdvancedSearchDropDown03.tbxSearchBox": {
            "__events__": {},
            "__info__": {
                "kuid": "gcd686c1db044d21a9d89d003dcb370d",
                "srcKUID": "cb91586925344463bd0cf68bc64cb69e",
                "wType": "TextField"
            }
        },
        "AdvancedSearchDropDown12": {
            "__events__": {},
            "__info__": {
                "kuid": "eb6a7a882065410e9c16f8c81dcd0a5d",
                "srcKUID": "d917d42b31c94556ac59c8d226a597b4",
                "wType": "UserWidgetInstance"
            }
        },
        "AdvancedSearchDropDown12.flxDropDown": {
            "__events__": {},
            "__info__": {
                "kuid": "f9f0e06e719b4c90baceadec059a6e24",
                "srcKUID": "d0cf7779a4e84c619e350c6db1642357",
                "wType": "FlexContainer"
            }
        },
        "AdvancedSearchDropDown12.flxPopupBody": {
            "__events__": {},
            "__info__": {
                "kuid": "e455c309f6f84e7494a64dfc77e977f3",
                "srcKUID": "e57d388c26684b049a35e01bf0c0e1db",
                "wType": "FlexScrollContainer"
            }
        },
        "AdvancedSearchDropDown12.flxSearch": {
            "__events__": {},
            "__info__": {
                "kuid": "i344aba0f157465d958e62445845a43d",
                "srcKUID": "fc8c7a96ac6e49cfaecc50aca13f07ff",
                "wType": "FlexContainer"
            }
        },
        "AdvancedSearchDropDown12.flxSearchCancel": {
            "__events__": {},
            "__info__": {
                "kuid": "d6acbf70c6934a3c93ff326d75cef7f4",
                "srcKUID": "eea5f8f284714ae8aaa7eb538541a2f0",
                "wType": "FlexContainer"
            }
        },
        "AdvancedSearchDropDown12.flxSearchContainer": {
            "__events__": {},
            "__info__": {
                "kuid": "a791c9527c1b4adbbe00f39086f9caac",
                "srcKUID": "b6a4f931676f40d58545e74d2ed0e4cf",
                "wType": "FlexContainer"
            }
        },
        "AdvancedSearchDropDown12.fontIconClearSearch": {
            "__events__": {},
            "__info__": {
                "kuid": "f83c19a228bd402eb1b0888d506a6e7a",
                "srcKUID": "a5fba8d57e9f4b6f8d3ceed9ad5ebc13",
                "wType": "Label"
            }
        },
        "AdvancedSearchDropDown12.fontIconSearch": {
            "__events__": {},
            "__info__": {
                "kuid": "da57f66801d74aea9c41b7fa2ab37555",
                "srcKUID": "g7f369be583d42bcbb5afebfcb56018b",
                "wType": "Label"
            }
        },
        "AdvancedSearchDropDown12.richTexNoResult": {
            "__events__": {},
            "__info__": {
                "kuid": "c13b998abe5744948ea7699fe1ef7423",
                "srcKUID": "a1b204b685224f21aa9198f3cdf84c42",
                "wType": "RichText"
            }
        },
        "AdvancedSearchDropDown12.sgmentData": {
            "__events__": {},
            "__info__": {
                "kuid": "c07adc9cb66e4c898bf09a1e4e1164e3",
                "srcKUID": "c5970f90cf86472b8895aa429dca67f0",
                "wType": "Segment"
            }
        },
        "AdvancedSearchDropDown12.tbxSearchBox": {
            "__events__": {},
            "__info__": {
                "kuid": "fd6deb1a0cbe4694b561c81156a39b39",
                "srcKUID": "aac6ecceed7641c8a602fdb4047299a0",
                "wType": "TextField"
            }
        },
        "commonButtons": {
            "__events__": {},
            "__info__": {
                "kuid": "ec1c7f80f64841fbb27fa312ebb8fa79",
                "srcKUID": "c58cfb4b1ca04816b069e08109b347bd",
                "wType": "UserWidgetInstance"
            }
        },
        "commonButtons.btnCancel": {
            "__events__": {},
            "__info__": {
                "kuid": "fa24c95b7417415a96478d844709d96a",
                "srcKUID": "iee79da1cfa7428194cb1a5b3f98f0a1",
                "wType": "Button"
            }
        },
        "commonButtons.btnNext": {
            "__events__": {},
            "__info__": {
                "kuid": "e3aabd85ca944065981b2ae54b314112",
                "srcKUID": "dedf6eb04c814334ae249dc4915ec3b7",
                "wType": "Button"
            }
        },
        "commonButtons.btnSave": {
            "__events__": {},
            "__info__": {
                "kuid": "f256a23962424596b9b3c7a189e6af7d",
                "srcKUID": "b2fde254b55a47539d11b5289293db91",
                "wType": "Button"
            }
        },
        "commonButtons.flxRightButtons": {
            "__events__": {},
            "__info__": {
                "kuid": "b37b9b3a5f2f4bc49a49da231aa00209",
                "srcKUID": "b8cd97c5bb184b2583002123ba07580e",
                "wType": "FlexContainer"
            }
        },
        "flxAfter": {
            "__events__": {},
            "__info__": {
                "kuid": "c3131f980b204f098b20d5ca2720f9a4",
                "srcKUID": "aba92df5cd9a4c409645d60fa77f9205",
                "wType": "FlexContainer"
            }
        },
        "flxBankStaff": {
            "__events__": {},
            "__info__": {
                "kuid": "if1e082ec5e6414fbbcfbf65ce262b4d",
                "srcKUID": "d6331ac9cee54205bf2ac56c8a1d1ea0",
                "wType": "FlexContainer"
            }
        },
        "flxBankStaffSwitch": {
            "__events__": {},
            "__info__": {
                "kuid": "j0d42848ca5a4f389088f4eda0381213",
                "srcKUID": "h6e58bba4fe44d06b0d6d37502af03d0",
                "wType": "FlexContainer"
            }
        },
        "flxBefore": {
            "__events__": {},
            "__info__": {
                "kuid": "c101667ff30342b88770e1c22d8d85ed",
                "srcKUID": "b76276bb0d34402a92db5621f1774bb4",
                "wType": "FlexContainer"
            }
        },
        "flxBetween": {
            "__events__": {},
            "__info__": {
                "kuid": "h9da593dd89941af8bcb2e00b7b955f8",
                "srcKUID": "ie359116271841a7913c7545082ce037",
                "wType": "FlexContainer"
            }
        },
        "flxClearSearchImage": {
            "__events__": {},
            "__info__": {
                "kuid": "bfa7a75a3aee40d5b6cdfd3d3de1c498",
                "srcKUID": "b6b082b2312e4ab1aaa7504e59c6aeae",
                "wType": "FlexContainer"
            }
        },
        "flxColumn01": {
            "__events__": {},
            "__info__": {
                "kuid": "a8d7726a942f405abcecf71e2bb9834d",
                "srcKUID": "e45c831c90aa4866a3782877f2064652",
                "wType": "FlexContainer"
            }
        },
        "flxColumn02": {
            "__events__": {},
            "__info__": {
                "kuid": "d60cbf8cbf044a22b5546ffff72b9094",
                "srcKUID": "h93ff147aa7c4c66acf7d9a10b175d45",
                "wType": "FlexContainer"
            }
        },
        "flxColumn03": {
            "__events__": {},
            "__info__": {
                "kuid": "ba7163117ec04b80bfcaa4cdf4946288",
                "srcKUID": "fd8b432c92e64659a794c532e42f6d9c",
                "wType": "FlexContainer"
            }
        },
        "flxColumn11": {
            "__events__": {},
            "__info__": {
                "kuid": "ddf388d4115f45e69c52e354a191114e",
                "srcKUID": "ff2671e5370846e796a564be8ff30b7e",
                "wType": "FlexContainer"
            }
        },
        "flxColumn12": {
            "__events__": {},
            "__info__": {
                "kuid": "b7e6f24f39c944389ad302abf7103a7f",
                "srcKUID": "i9397954e35b4c8cbde1da6bcb5be8a6",
                "wType": "FlexContainer"
            }
        },
        "flxColumn13": {
            "__events__": {},
            "__info__": {
                "kuid": "ad134f2bbf5f46a0a0d8d29b0b79cd94",
                "srcKUID": "b2069583c8354119b33200619f02a93d",
                "wType": "FlexContainer"
            }
        },
        "flxColumn31": {
            "__events__": {},
            "__info__": {
                "kuid": "e0d65021c6b04e08a2d4248858cfd751",
                "srcKUID": "e189a6dcc29c40c8af3b950517852409",
                "wType": "FlexContainer"
            }
        },
        "flxColumn32": {
            "__events__": {},
            "__info__": {
                "kuid": "c5404133f16848a68cd255bbba2d6ad9",
                "srcKUID": "a762dfab2fe34e4dba5bd53eec64e3c6",
                "wType": "FlexContainer"
            }
        },
        "flxColumn33": {
            "__events__": {},
            "__info__": {
                "kuid": "aa3b7965dd6d4643a957ac954e4d34ad",
                "srcKUID": "d8b8183b4b944533adfebeb3f1593093",
                "wType": "FlexContainer"
            }
        },
        "flxCommonButton": {
            "__events__": {},
            "__info__": {
                "kuid": "d33d917c59f64b34a6be3f2b333e2525",
                "srcKUID": "j193d939a3ca4ae8b3ab4c5674c910fa",
                "wType": "FlexContainer"
            }
        },
        "flxDropDown01": {
            "__events__": {},
            "__info__": {
                "kuid": "gb35da50099d4baf85aef72cd23ae97d",
                "srcKUID": "fee0572e07944df899a6dd5029cc6eae",
                "wType": "FlexContainer"
            }
        },
        "flxDropDown02": {
            "__events__": {},
            "__info__": {
                "kuid": "e90f3118f32e4bfca0abc99bd5a33ed3",
                "srcKUID": "i602237e475244a0bc52791075744fae",
                "wType": "FlexContainer"
            }
        },
        "flxDropDown03": {
            "__events__": {},
            "__info__": {
                "kuid": "g36a8d6bc5184548bdd28100991b3c6e",
                "srcKUID": "h6ee8456e3dd46fcb333a6b7bd7821a1",
                "wType": "FlexContainer"
            }
        },
        "flxDropDown11": {
            "__events__": {},
            "__info__": {
                "kuid": "ja2403bc03b84945ac648ee9a6860b16",
                "srcKUID": "b69f92ee33674d48853ce0eabc79db86",
                "wType": "FlexContainer"
            }
        },
        "flxDropDown12": {
            "__events__": {},
            "__info__": {
                "kuid": "b03792cdbe5b444a876a51e7a53ecfe1",
                "srcKUID": "gd56eb2299a74b5c9154519e3b4c4b9e",
                "wType": "FlexContainer"
            }
        },
        "flxDropDownDetail01": {
            "__events__": {},
            "__info__": {
                "kuid": "cfa3e82cfc2e4d7ca4fc783e3e9ca3c5",
                "srcKUID": "b38042eb5b924e23b1e30ce69546eaf0",
                "wType": "FlexContainer"
            }
        },
        "flxDropDownDetail02": {
            "__events__": {},
            "__info__": {
                "kuid": "ca9ca6dea33c4db2918048968f70a256",
                "srcKUID": "f51433c69e27420cb417ea8aa255cd93",
                "wType": "FlexContainer"
            }
        },
        "flxDropDownDetail03": {
            "__events__": {},
            "__info__": {
                "kuid": "i0c1ab32668c4193a4316695933eeaef",
                "srcKUID": "i44270a55398491abd599d2d81988f06",
                "wType": "FlexContainer"
            }
        },
        "flxDropDownDetail11": {
            "__events__": {},
            "__info__": {
                "kuid": "h383d5b93a074c86a7fba90d1e9f1b8d",
                "srcKUID": "g3aa4ce1ab20496db4bf0bd067f7796b",
                "wType": "FlexContainer"
            }
        },
        "flxDropDownDetail12": {
            "__events__": {},
            "__info__": {
                "kuid": "ib0fce00091248bebef396431cb5f5d1",
                "srcKUID": "ad94fca047dc43a1b970ba69ee048133",
                "wType": "FlexContainer"
            }
        },
        "flxFlag1": {
            "__events__": {},
            "__info__": {
                "kuid": "f112d7fdf07544478864b167f7417742",
                "srcKUID": "d9166f4b528d4c409bd82c6bb6a01428",
                "wType": "FlexContainer"
            }
        },
        "flxFlag2": {
            "__events__": {},
            "__info__": {
                "kuid": "jc9a11365911428bb20a96d666267c62",
                "srcKUID": "c7635dbf74cf429c8abcd6ba89f9bd6e",
                "wType": "FlexContainer"
            }
        },
        "flxFlag3": {
            "__events__": {},
            "__info__": {
                "kuid": "a8d69256753542a582ac12536c2795af",
                "srcKUID": "e0b4b234c79a4e53a81904bc1cf27f2c",
                "wType": "FlexContainer"
            }
        },
        "flxPopUp": {
            "__events__": {},
            "__info__": {
                "kuid": "c57ae7351c7d44aea4ab73667c23e8be",
                "srcKUID": "5da1aec55a414bc28094cd6e1e602af5",
                "wType": "FlexContainer"
            },
            "bottom": {
                "Default": {
                    "type": "string",
                    "value": "5%"
                }
            }
        },
        "flxPopUpButtons": {
            "__events__": {},
            "__info__": {
                "kuid": "b8c48256f3a14de0ab6ffb85c6865105",
                "srcKUID": "e3022b1aedf6428cbe20fbb46e6f118c",
                "wType": "FlexContainer"
            }
        },
        "flxPopUpTopColor": {
            "__events__": {},
            "__info__": {
                "kuid": "d643394188b74959965abed7e289a84f",
                "srcKUID": "e2abbfe463334ab5a3c9faaf19def674",
                "wType": "FlexContainer"
            }
        },
        "flxPopupBody": {
            "__events__": {},
            "__info__": {
                "kuid": "cac81569d9534546ba23919161418689",
                "srcKUID": "15adc31ab89a4bdd9a5812bedcc05f41",
                "wType": "FlexContainer"
            }
        },
        "flxPopupHeader": {
            "__events__": {},
            "__info__": {
                "kuid": "c83d35e95af246ac834397d33b806653",
                "srcKUID": "2b32cd674bfb4a698149718c72249f17",
                "wType": "FlexContainer"
            }
        },
        "flxRightImage": {
            "__events__": {},
            "__info__": {
                "kuid": "cde6732ef9384e43a4f480764ee0bead",
                "srcKUID": "f486cbe3945a4a039e4010214ebdf799",
                "wType": "FlexContainer"
            }
        },
        "flxRow0": {
            "__events__": {},
            "__info__": {
                "kuid": "a4afd53b714d438fad3b49752030d18a",
                "srcKUID": "ca8e029d10244948b3dde5c1a18a6496",
                "wType": "FlexContainer"
            }
        },
        "flxRow1": {
            "__events__": {},
            "__info__": {
                "kuid": "b23d0de39a254a829669fb2cb4cd6219",
                "srcKUID": "j4576058dae44d3db74ae51057bd68cf",
                "wType": "FlexContainer"
            }
        },
        "flxRow2": {
            "__events__": {},
            "__info__": {
                "kuid": "dded4d7dd4f2453fb401458e8242539c",
                "srcKUID": "d842772d333e4f88be5aec97a55b6ac0",
                "wType": "FlexContainer"
            }
        },
        "flxRow3": {
            "__events__": {},
            "__info__": {
                "kuid": "f98cc4d6e5f44ed0ac9aaf14ffc02e06",
                "srcKUID": "e7657581f1f5478a9373d91731811d73",
                "wType": "FlexContainer"
            }
        },
        "flxRowHeader1": {
            "__events__": {},
            "__info__": {
                "kuid": "f4c5badfd7184a80a1c5ef1df51715b5",
                "srcKUID": "ge49d338bed74a5b820accc8dfe089b1",
                "wType": "FlexContainer"
            }
        },
        "flxRowHeader2": {
            "__events__": {},
            "__info__": {
                "kuid": "b034375b8c3144809e904dc1b19793ce",
                "srcKUID": "idcc0b6d6d114fa0b277b7620e11c1b9",
                "wType": "FlexContainer"
            }
        },
        "flxSearchContainer": {
            "__events__": {},
            "__info__": {
                "kuid": "f053706b2d844fb0843300bf2959077b",
                "srcKUID": "h731491406f74b37916960176012d353",
                "wType": "FlexContainer"
            }
        },
        "flxSearchDownImg": {
            "__events__": {},
            "__info__": {
                "kuid": "ff32fa75b163402796c9e86d214ee922",
                "srcKUID": "ec62cf84cb3a4032aeef5122f03ebbc6",
                "wType": "FlexContainer"
            }
        },
        "flxSearchDownImg02": {
            "__events__": {},
            "__info__": {
                "kuid": "ie708f80ef54413697d118b2240ea933",
                "srcKUID": "ca0737bcba654c358106e692adb17452",
                "wType": "FlexContainer"
            }
        },
        "flxSearchDownImg03": {
            "__events__": {},
            "__info__": {
                "kuid": "cd310951e45049c5863c09ccd684f2e4",
                "srcKUID": "ce67b0479519457cbe10a951cb2efe01",
                "wType": "FlexContainer"
            }
        },
        "flxSearchDownImg11": {
            "__events__": {},
            "__info__": {
                "kuid": "j5eb0b8a4a96442b873aa969cdae3acd",
                "srcKUID": "a8e4684d997d4633bfb5829679b7246a",
                "wType": "FlexContainer"
            }
        },
        "flxSearchDownImg12": {
            "__events__": {},
            "__info__": {
                "kuid": "d805c7b906a84cd1a443bb2582925436",
                "srcKUID": "iee6df216a0d4864b6326fa40fff66e9",
                "wType": "FlexContainer"
            }
        },
        "flxSelectFlags": {
            "__events__": {},
            "__info__": {
                "kuid": "ecabc8d64fb345fc8a590093ce937f73",
                "srcKUID": "h2beefd58fef4191a0a4544e14602ffe",
                "wType": "FlexContainer"
            }
        },
        "fontIconClearSearch": {
            "__events__": {},
            "__info__": {
                "kuid": "a94d0a129d9c421d9dac19908fabb953",
                "srcKUID": "ccb00d096e2943008e20536b5fa54421",
                "wType": "Label"
            }
        },
        "fontIconRight": {
            "__events__": {},
            "__info__": {
                "kuid": "fe59f54caccc46dd9c6d35cff8d7264d",
                "srcKUID": "bf5058ff5bb64d2586764c168c81afaf",
                "wType": "Label"
            }
        },
        "fontIconSearch": {
            "__events__": {},
            "__info__": {
                "kuid": "i18137de729f4f6a804b20d6fe88e4b5",
                "srcKUID": "c92be774468c4b45abb056414481a721",
                "wType": "Label"
            }
        },
        "fontIconSearchDown01": {
            "__events__": {},
            "__info__": {
                "kuid": "e6effef46c964b1bb167db921fb263b0",
                "srcKUID": "g7ebdea8abb642cda3e7b6077cd19163",
                "wType": "Label"
            }
        },
        "fontIconSearchDown02": {
            "__events__": {},
            "__info__": {
                "kuid": "e4f57af58a524ffea10474e715783397",
                "srcKUID": "cf52656929a343489564cdb9813e95ad",
                "wType": "Label"
            }
        },
        "fontIconSearchDown03": {
            "__events__": {},
            "__info__": {
                "kuid": "a25dd8e6059f42d6965bbff6c0e2ffc3",
                "srcKUID": "b807355b08ce4e96b9ebe71d244b26d0",
                "wType": "Label"
            }
        },
        "fontIconSearchDown11": {
            "__events__": {},
            "__info__": {
                "kuid": "i53916c18406497fa5e2db856b4562a7",
                "srcKUID": "c7d1c26c462b4a5f943d15440a7f5885",
                "wType": "Label"
            }
        },
        "fontIconSearchDown12": {
            "__events__": {},
            "__info__": {
                "kuid": "bb68e4fd0cf24e278cbbfa85fcba3b64",
                "srcKUID": "e559be7945a54c108cbfbd7c93265a97",
                "wType": "Label"
            }
        },
        "imgAfter": {
            "__events__": {},
            "__info__": {
                "kuid": "dcd0c0eb48a141d5bbed10a7a07ee430",
                "srcKUID": "ed2f7e89b4c8433fa29af110ae1630d2",
                "wType": "Image"
            },
            "src": "radionormal_2x.png"
        },
        "imgBefore": {
            "__events__": {},
            "__info__": {
                "kuid": "j524285b1d044ee5b428b82c639123b2",
                "srcKUID": "fab79308bcfc4fae8d436e387d03ad43",
                "wType": "Image"
            },
            "src": "radionormal_2x.png"
        },
        "imgBetween": {
            "__events__": {},
            "__info__": {
                "kuid": "b1cd82694605411e952ffa8528935820",
                "srcKUID": "d4a6703dfc0c484abca9a26a777e8807",
                "wType": "Image"
            },
            "src": "radionormal_2x.png"
        },
        "imgFlag1": {
            "__events__": {},
            "__info__": {
                "kuid": "cfbed0c575354fee86730a65fe7dd561",
                "srcKUID": "aa88a373236044baab9993acba1878e1",
                "wType": "Image"
            },
            "src": "radionormal_2x.png"
        },
        "imgFlag2": {
            "__events__": {},
            "__info__": {
                "kuid": "de81f551b4f649afb875353052c5d281",
                "srcKUID": "a965d6b61bc64f08ba9109040d167b9c",
                "wType": "Image"
            },
            "src": "radionormal_2x.png"
        },
        "imgFlag3": {
            "__events__": {},
            "__info__": {
                "kuid": "d9340bece73a4098aa55bb7fed0710d9",
                "srcKUID": "hb37982b37954515857ebae72c342eb3",
                "wType": "Image"
            },
            "src": "radionormal_2x.png"
        },
        "lblAfter": {
            "__events__": {},
            "__info__": {
                "kuid": "jf5324f62ee3474db533290a4ab42864",
                "srcKUID": "ea19ab8d1c9a4093aac4904b6df83a93",
                "wType": "Label"
            }
        },
        "lblBetween": {
            "__events__": {},
            "__info__": {
                "kuid": "fc3aa1efe55d44c3b3054641c37bbddb",
                "srcKUID": "b98cf64a41ec474e92f5da81a04bf804",
                "wType": "Label"
            }
        },
        "lblCol01": {
            "__events__": {},
            "__info__": {
                "kuid": "b8acefdc10d5485d823b13da042feb87",
                "srcKUID": "f64b4186b45f497eb44a069c6a56d408",
                "wType": "Label"
            }
        },
        "lblCol02": {
            "__events__": {},
            "__info__": {
                "kuid": "b48983fbb7384ed19d56e2abedf65c5a",
                "srcKUID": "bbc13bc2feef4faeb2ed17c7e4d855df",
                "wType": "Label"
            }
        },
        "lblCol03": {
            "__events__": {},
            "__info__": {
                "kuid": "ab7f638140fb49d3bd032c5ae2e4bc30",
                "srcKUID": "j99d15f150fc4c939118080e596df6f6",
                "wType": "Label"
            }
        },
        "lblCol11": {
            "__events__": {},
            "__info__": {
                "kuid": "ha1dacb17900409b800738261e4eacef",
                "srcKUID": "j0341524b41541f7a44d7bdd63b11be4",
                "wType": "Label"
            }
        },
        "lblCol12": {
            "__events__": {},
            "__info__": {
                "kuid": "faa576e14bd846dd96d9fff88bb83197",
                "srcKUID": "ga64df14d890499f991cecf965e036af",
                "wType": "Label"
            }
        },
        "lblCol13": {
            "__events__": {},
            "__info__": {
                "kuid": "jbf4032fe7d34864989af8f35938afd5",
                "srcKUID": "ff01dfab5af04281a43d72cfb77d49c1",
                "wType": "Label"
            }
        },
        "lblFlag1": {
            "__events__": {},
            "__info__": {
                "kuid": "f58217af71cf48d1aaadfc74a11eb813",
                "srcKUID": "i63582d2c95e4ff4879d01f895fccc5d",
                "wType": "Label"
            }
        },
        "lblFlag2": {
            "__events__": {},
            "__info__": {
                "kuid": "a9cdbe396271426bbbe22f65c1c17d86",
                "srcKUID": "bc6884427ee04d9f916d4498fa2c52e9",
                "wType": "Label"
            }
        },
        "lblFlag3": {
            "__events__": {},
            "__info__": {
                "kuid": "h2eb5ff47b5b44b4b8d9b787cd727cd0",
                "srcKUID": "d61d8d7238494a0c8240946614b21b3e",
                "wType": "Label"
            }
        },
        "lblPopUpMainMessage": {
            "__events__": {},
            "__info__": {
                "kuid": "d191a5260b3f4a39bef4603faaec23d4",
                "srcKUID": "63234af972f14132b50202ba37f9c4f7",
                "wType": "Label"
            },
            "i18n_text": "i18n.userwidgetmodel.search_for_customers"
        },
        "lblRow0": {
            "__events__": {},
            "__info__": {
                "kuid": "f94825c77b5c4016b2dd4b35bff9da2c",
                "srcKUID": "j9b0dfc7004042fd8226b58d34881112",
                "wType": "Label"
            }
        },
        "lblRowHeader1": {
            "__events__": {},
            "__info__": {
                "kuid": "b7e4984bd9904d089fa03a2bf45a6e62",
                "srcKUID": "c9fcb947d6144c8dabe3a931d5e3d3d9",
                "wType": "Label"
            }
        },
        "lblRowHeader2": {
            "__events__": {},
            "__info__": {
                "kuid": "i6875522dd764b8387468087d88b2bd3",
                "srcKUID": "h304bfbbc7b9403496b6b8d9653ab225",
                "wType": "Label"
            }
        },
        "lblSelectedRows": {
            "__events__": {},
            "__info__": {
                "kuid": "af2ce098cab84ef887bd2becbf5b900e",
                "srcKUID": "fb54faaa6c9948158806157b83b84007",
                "wType": "Label"
            }
        },
        "lblSelectedRows02": {
            "__events__": {},
            "__info__": {
                "kuid": "ge2fabb449eb4325ae65212fb32aac58",
                "srcKUID": "ja6ee95255d54f268f453128113733b6",
                "wType": "Label"
            }
        },
        "lblSelectedRows03": {
            "__events__": {},
            "__info__": {
                "kuid": "i9f08fbcd64f4890a0f724ce4fe664ed",
                "srcKUID": "bee5212a39f242e7ab314a3876a166db",
                "wType": "Label"
            }
        },
        "lblSelectedRows11": {
            "__events__": {},
            "__info__": {
                "kuid": "gd7ce89d108943769ebe8fbf9d28aa2a",
                "srcKUID": "f55e1d2a423543d3b0488fde15532275",
                "wType": "Label"
            }
        },
        "lblSelectedRows12": {
            "__events__": {},
            "__info__": {
                "kuid": "ca17533e47794db0861eb23ecd9a71bd",
                "srcKUID": "g61ec261cd324f29875476c70bc15bb8",
                "wType": "Label"
            }
        },
        "lblbefore": {
            "__events__": {},
            "__info__": {
                "kuid": "b21f4d7aa09e4f949c710a9da6c8ebfc",
                "srcKUID": "ic9fe73f98ff4e6ca59ddabc29642c20",
                "wType": "Label"
            }
        },
        "lblisBankStaff": {
            "__events__": {},
            "__info__": {
                "kuid": "c9df62242c13423788b7c236a3d7c47a",
                "srcKUID": "b872192b0ac14724bca376e75b914ef3",
                "wType": "Label"
            }
        },
        "switchToggle": {
            "__events__": {},
            "__info__": {
                "kuid": "a8e6918746734ef681f5d601e4aff676",
                "srcKUID": "e636acfdb4a3436ba2d8095c78e28923",
                "wType": "Switch"
            }
        },
        "tbxSearchBox": {
            "__events__": {},
            "__info__": {
                "kuid": "da564f4f23794943af01eb1682c6dbd9",
                "srcKUID": "e656f458f6c84a65afca5350383557f5",
                "wType": "TextField"
            }
        }
    },
    "id": "AdvancedSearch",
    "info": null,
    "isdatareferenced": false,
    "isvisible": true,
    "kuid": "e2fbc931110c4aa093c231acd37017e1",
    "layouttype": 2,
    "masterType": 0,
    "name": "kony.ui.UserWidgetInstance",
    "parent": "flxSearchFilters",
    "pf": "frmGroups",
    "snaptogrid": true,
    "sourceUserWidget": "c15544cbfa7d4ee788b807abc51fe357",
    "wType": "UserWidgetInstance",
    "zindex": 1
}