{
    "@class": "com.kony.gen.viz.model.component.KVizButton",
    "DNDConfig": null,
    "__parentReadjusting__": false,
    "_bottom_": {
        "type": "string",
        "value": "0px"
    },
    "_height_": {
        "type": "string",
        "value": "22px"
    },
    "_left_": {
        "type": "string",
        "value": "20px"
    },
    "_margin_": [
        6,
        6,
        6,
        6
    ],
    "_padding_": [
        0,
        0,
        0,
        0
    ],
    "_right_": {
        "type": "string",
        "value": "0px"
    },
    "_skin_": "sf855fbbb0b64b99b049f0282a1e49ba",
    "_text_": "Add and Close",
    "_width_": {
        "type": "string",
        "value": "100px"
    },
    "canUpdateUI": true,
    "centery": {
        "type": "string",
        "value": "50%"
    },
    "containerweight": 100,
    "contentalignment": 5,
    "desktopweb": {
        "psp": {
            "hoverSkin": "sbb6d769463643e8b84b0ddb613ea19d"
        }
    },
    "displaytext": true,
    "focusskin": "sf855fbbb0b64b99b049f0282a1e49ba",
    "id": "btnAddSelected",
    "info": null,
    "isvisible": true,
    "kuid": "a7654891d2c8481ca18c7efdadd6684a",
    "name": "kony.ui.Button",
    "parent": "flxSelected",
    "pf": "frmGroups",
    "texti18n": "i18n.frmGroups.btnAddSelected",
    "wType": "Button",
    "zindex": 5
}