{
    "@class": "com.kony.gen.viz.model.component.KVizUserWidget",
    "DNDConfig": null,
    "__parentReadjusting__": false,
    "_children_": [],
    "_desktopweb_": {},
    "_height_": {
        "type": "string",
        "value": "80px"
    },
    "_left_": {
        "type": "string",
        "value": "0dp"
    },
    "_margin_": [
        0,
        0,
        0,
        0
    ],
    "_orientation_": 1,
    "_padding_": [
        0,
        0,
        0,
        0
    ],
    "_percent_": true,
    "_render_": true,
    "_responsiveData_": {},
    "_right_": {
        "type": "string",
        "value": ""
    },
    "_skin_": "s8ff24328417401b877c3ceb2a5fa27c",
    "_top_": {
        "type": "string",
        "value": "0dp"
    },
    "_vizProps_": {
        "hidewidgethierarchy": false
    },
    "_width_": {
        "type": "string",
        "value": "100%"
    },
    "areflexpropsreferenced": false,
    "canUpdateUI": true,
    "clipbounds": true,
    "containerweight": 0,
    "dataDiffs": {
        "btnCancel": {
            "__events__": {},
            "__info__": {
                "kuid": "i26c7f135a044b2aac87d91569eec471",
                "srcKUID": "hb7e8e6dc73a4044aaa1636cb1f70704",
                "wType": "Button"
            }
        },
        "btnNext": {
            "__events__": {},
            "__info__": {
                "kuid": "b9cb561616c24124aba122636ed574d1",
                "srcKUID": "if89a3cc957141078b03996441e09d8c",
                "wType": "Button"
            },
            "width": {
                "Default": {
                    "type": "string",
                    "value": "100px"
                }
            }
        },
        "btnSave": {
            "__events__": {},
            "__info__": {
                "kuid": "b30d23666c284b57a7344243b6b4f697",
                "srcKUID": "af70c434338f4068a24a87b45c58f9ee",
                "wType": "Button"
            }
        },
        "commonButtons": {
            "__events__": {},
            "__info__": {
                "isRoot": true,
                "kuid": "adb606c3c39f40b0b3e7cd2c0cd37397",
                "srcKUID": "cc441f293bdb4489aebfc9b06fe5513e",
                "wType": "FlexContainer"
            },
            "left": {
                "Default": {
                    "type": "string",
                    "value": "0dp"
                }
            },
            "right": {
                "Default": {
                    "type": "string",
                    "value": ""
                }
            },
            "width": {
                "Default": {
                    "type": "string",
                    "value": "100%"
                }
            }
        },
        "flxRightButtons": {
            "__events__": {},
            "__info__": {
                "kuid": "h30dd23b657f4cb3ba1eed848cb29f9f",
                "srcKUID": "beae25c502d54e038c70de835ec18eca",
                "wType": "FlexContainer"
            },
            "width": {
                "Default": {
                    "type": "string",
                    "value": "210px"
                }
            }
        }
    },
    "id": "commonButtons",
    "info": null,
    "isdatareferenced": false,
    "isvisible": true,
    "kuid": "adb606c3c39f40b0b3e7cd2c0cd37397",
    "layouttype": 2,
    "masterType": 0,
    "name": "kony.ui.UserWidgetInstance",
    "parent": "flxButtons",
    "pf": "frmGroups",
    "snaptogrid": true,
    "sourceUserWidget": "cc441f293bdb4489aebfc9b06fe5513e",
    "wType": "UserWidgetInstance"
}