{
    "DNDConfig": null,
    "__parentReadjusting__": false,
    "_bottom_": {
        "type": "string",
        "value": "15px"
    },
    "_left_": {
        "type": "string",
        "value": "35dp"
    },
    "_margin_": [
        0,
        0,
        0,
        0
    ],
    "_orientation_": 6,
    "_padding_": [
        0,
        0,
        0,
        0
    ],
    "_percent_": true,
    "_right_": {
        "type": "string",
        "value": "35px"
    },
    "_skin_": "s18d010592a7449aa3bdd1093f63fab8",
    "_top_": {
        "type": "string",
        "value": "145dp"
    },
    "allboxes": [],
    "autogrowmode": 0,
    "canUpdateUI": true,
    "children": [
        "flxVerticalTabs",
        "flxGroupDetails",
        "flxAssignEntitlements",
        "flxAssignCustomers",
        "flxNoCustomerAssign",
        "flxCustomerAssigned",
        "flxSeparator"
    ],
    "clipbounds": true,
    "containerweight": 100,
    "enablescrolling": true,
    "id": "flxAddGroups",
    "info": null,
    "isvisible": false,
    "kuid": "a92b88b76b5c496fbbd3a186f4dd470a",
    "layouttype": 2,
    "name": "kony.ui.FlexContainer",
    "parent": "flxRightPannel",
    "pf": "frmGroups",
    "snapgridsize": 10,
    "snaptogrid": true,
    "wType": "FlexContainer",
    "widgetalignment": 1,
    "zindex": 1
}