{
    "DNDConfig": null,
    "__parentReadjusting__": false,
    "_height_": {
        "type": "string",
        "value": "55px"
    },
    "_left_": {
        "type": "string",
        "value": "0"
    },
    "_margin_": [
        0,
        0,
        0,
        0
    ],
    "_orientation_": 6,
    "_padding_": [
        0,
        0,
        0,
        0
    ],
    "_percent_": true,
    "_skin_": "s094cf034ba74d778fe9c91095115ace",
    "_top_": {
        "type": "string",
        "value": "60px"
    },
    "_width_": {
        "type": "string",
        "value": "100%"
    },
    "allboxes": [],
    "autogrowmode": 0,
    "canUpdateUI": true,
    "children": [
        "flxCustomerHeader",
        "lblCustHeaderSeperator"
    ],
    "clipbounds": true,
    "containerweight": 100,
    "desktopweb": {
        "psp": {}
    },
    "disabledSkins": {
        "hoverSkin": "s512ca636f844ef4aa81b2647c08ce24"
    },
    "enablescrolling": true,
    "id": "flxAssignedCustHeader",
    "info": null,
    "isTemplate": true,
    "isvisible": true,
    "kuid": "cbdd0d0635084462935d7d1d78e5ac5d",
    "layouttype": 2,
    "name": "kony.ui.FlexContainer",
    "parent": "flxCustomerAssigned",
    "pf": "frmGroups",
    "snapgridsize": 10,
    "snaptogrid": true,
    "wType": "FlexContainer",
    "widgetalignment": 1,
    "zindex": 10
}