{
    "DNDConfig": null,
    "__parentReadjusting__": false,
    "_height_": {
        "type": "string",
        "value": "35dp"
    },
    "_left_": {
        "type": "string",
        "value": "20dp"
    },
    "_margin_": [
        0,
        0,
        0,
        0
    ],
    "_orientation_": 6,
    "_padding_": [
        0,
        0,
        0,
        0
    ],
    "_percent_": true,
    "_skin_": "s89d9f5cebff45219abf70b3ec055a0c",
    "_top_": {
        "type": "string",
        "value": "450dp"
    },
    "_width_": {
        "type": "string",
        "value": "14%"
    },
    "allboxes": [],
    "autogrowmode": 0,
    "canUpdateUI": true,
    "children": [
        "customCalGroupBefore"
    ],
    "clipbounds": true,
    "containerweight": 100,
    "desktopweb": {
        "psp": {
            "hoverSkin": "s2d4514994fa46a68074b0fd2f5685bc"
        }
    },
    "enablescrolling": true,
    "id": "flxCalBefore",
    "info": null,
    "iscustomlayout": false,
    "isvisible": true,
    "kuid": "e5596c4eb9ef48008a2c67afa7cdfd09",
    "layouttype": 2,
    "name": "kony.ui.FlexContainer",
    "parent": "flxSearchFilters",
    "pf": "frmGroups",
    "retaincontentalignment": false,
    "retainflexpositionproperties": false,
    "snapgridsize": 10,
    "snaptogrid": true,
    "wType": "FlexContainer",
    "widgetalignment": 1,
    "zindex": 1
}