{
    "DNDConfig": null,
    "__parentReadjusting__": false,
    "_height_": {
        "type": "string",
        "value": "25dp"
    },
    "_margin_": [
        0,
        0,
        0,
        0
    ],
    "_orientation_": 6,
    "_padding_": [
        0,
        0,
        0,
        0
    ],
    "_percent_": true,
    "_right_": {
        "type": "string",
        "value": "35dp"
    },
    "_skin_": "s37f330ba79a4e25b9ac4f2e1c251147",
    "_top_": {
        "type": "string",
        "value": "15dp"
    },
    "_width_": {
        "type": "string",
        "value": "60dp"
    },
    "allboxes": [],
    "autogrowmode": 0,
    "canUpdateUI": true,
    "children": [],
    "clipbounds": true,
    "containerweight": 100,
    "desktopweb": {
        "psp": {
            "hoverSkin": "sf7c6aff21f8487f89e69932f9f210b4"
        }
    },
    "disabledSkins": {},
    "enablescrolling": true,
    "id": "flxEditDisableSkin",
    "info": null,
    "iscustomlayout": false,
    "isvisible": false,
    "kuid": "a5e8883a765643e682cb1a0c89e48572",
    "layouttype": 2,
    "name": "kony.ui.FlexContainer",
    "parent": "flxGroupViewContainer",
    "pf": "frmGroups",
    "retaincontentalignment": false,
    "retainflexpositionproperties": false,
    "retainflowhorizontalalignment": false,
    "snapgridsize": 10,
    "snaptogrid": true,
    "wType": "FlexContainer",
    "widgetalignment": 1,
    "zindex": 2
}