{
    "DNDConfig": null,
    "__parentReadjusting__": false,
    "_height_": {
        "type": "string",
        "value": "50px"
    },
    "_left_": {
        "type": "string",
        "value": "20dp"
    },
    "_margin_": [
        0,
        0,
        0,
        0
    ],
    "_orientation_": 6,
    "_padding_": [
        0,
        0,
        0,
        0
    ],
    "_percent_": true,
    "_right_": {
        "type": "string",
        "value": "20px"
    },
    "_skin_": "s094cf034ba74d778fe9c91095115ace",
    "_top_": {
        "type": "string",
        "value": "0px"
    },
    "allboxes": [],
    "autogrowmode": 0,
    "canUpdateUI": true,
    "children": [
        "flxCheckbox",
        "flxHederName",
        "flxUsername",
        "flxCustID",
        "flxBranch",
        "flxCity",
        "flxUsersHeaderStatus"
    ],
    "clipbounds": true,
    "containerweight": 100,
    "desktopweb": {
        "psp": {
            "hoverSkin": "s512ca636f844ef4aa81b2647c08ce24"
        }
    },
    "enablescrolling": true,
    "id": "flxGroupSegHeader",
    "info": null,
    "isTemplate": true,
    "isvisible": true,
    "kuid": "a3f6f0248bce442680809a7b1d9d8f88",
    "layouttype": 3,
    "name": "kony.ui.FlexContainer",
    "parent": "flxGroupsAdvSearchHeader",
    "pf": "frmGroups",
    "snapgridsize": 10,
    "snaptogrid": true,
    "wType": "FlexContainer",
    "widgetalignment": 1
}