{
    "DNDConfig": null,
    "__parentReadjusting__": false,
    "_height_": {
        "type": "string",
        "value": "60px"
    },
    "_left_": {
        "type": "string",
        "value": "35px"
    },
    "_margin_": [
        0,
        0,
        0,
        0
    ],
    "_orientation_": 6,
    "_padding_": [
        0,
        0,
        0,
        0
    ],
    "_percent_": true,
    "_right_": {
        "type": "string",
        "value": "35px"
    },
    "_skin_": "s094cf034ba74d778fe9c91095115ace",
    "_top_": {
        "type": "string",
        "value": "0"
    },
    "allboxes": [],
    "autogrowmode": 0,
    "canUpdateUI": true,
    "children": [
        "flxGroupName",
        "flxGroupDescription",
        "flxGroupValidTill",
        "flxGroupCustomers",
        "flxGroupEntitlements",
        "flxGroupHeaderStatus"
    ],
    "clipbounds": true,
    "containerweight": 100,
    "enablescrolling": true,
    "id": "flxGroupHeader",
    "info": null,
    "isTemplate": true,
    "isvisible": true,
    "kuid": "c951e98643b8413cb2afadcee17133e2",
    "layouttype": 2,
    "name": "kony.ui.FlexContainer",
    "parent": "flxSegGroups",
    "pf": "frmGroups",
    "snapgridsize": 10,
    "snaptogrid": true,
    "wType": "FlexContainer",
    "widgetalignment": 4
}