{
    "DNDConfig": null,
    "__parentReadjusting__": false,
    "_bottom_": {
        "type": "string",
        "value": "30px"
    },
    "_height_": {
        "type": "string",
        "value": "40dp"
    },
    "_left_": {
        "type": "string",
        "value": "35dp"
    },
    "_margin_": [
        0,
        0,
        0,
        0
    ],
    "_orientation_": 6,
    "_padding_": [
        0,
        0,
        0,
        0
    ],
    "_percent_": true,
    "_skin_": "s178204bb7a148248a665681d6c097c2",
    "_top_": {
        "type": "string",
        "value": "125dp"
    },
    "_width_": {
        "type": "string",
        "value": "150px"
    },
    "allboxes": [],
    "autogrowmode": 0,
    "canUpdateUI": true,
    "children": [
        "lblScheduler",
        "flxClose"
    ],
    "clipbounds": true,
    "containerweight": 100,
    "desktopweb": {
        "psp": {
            "hoverSkin": "s6c5f48815a64b0a9389341e3278f7d9"
        }
    },
    "enablescrolling": true,
    "focusskin": "s6c5f48815a64b0a9389341e3278f7d9",
    "id": "flxScheduler",
    "info": null,
    "isvisible": true,
    "kuid": "ga2eb13eb9454b5cb18a671348caff8d",
    "layouttype": 2,
    "name": "kony.ui.FlexContainer",
    "parent": "flxSettingsDetails",
    "pf": "frmGroups",
    "snapgridsize": 10,
    "snaptogrid": true,
    "wType": "FlexContainer",
    "widgetalignment": 1,
    "zindex": 1
}