{
    "@class": "com.kony.gen.viz.model.component.KVizLabel",
    "DNDConfig": null,
    "__parentReadjusting__": false,
    "_height_": {
        "type": "ref",
        "value": "preferred"
    },
    "_left_": {
        "type": "string",
        "value": "20px"
    },
    "_margin_": [
        1,
        1,
        1,
        1
    ],
    "_padding_": [
        0,
        0,
        0,
        0
    ],
    "_skin_": "sef1e5a8cd124a6088186e45fecda947",
    "_text_": "Active",
    "_top_": {
        "type": "string",
        "value": "22px"
    },
    "_width_": {
        "type": "ref",
        "value": "preferred"
    },
    "_wrapping_": 2,
    "android": {
        "textStyle": {
            "letterSpacing": 0,
            "strikeThrough": false
        }
    },
    "canUpdateUI": true,
    "containerweight": 100,
    "contentalignment": 4,
    "id": "lblViewValue2",
    "info": null,
    "ipad": {
        "psp": {
            "wrapping": 2
        }
    },
    "iphone": {
        "psp": {
            "wrapping": 2
        }
    },
    "isvisible": true,
    "kuid": "eb68fe51fad74c4c94e486a469ef094f",
    "name": "kony.ui.Label",
    "parent": "flxGroupViewStatus",
    "pf": "frmGroups",
    "texti18n": "i18n.secureimage.Active",
    "tooltip": "",
    "wType": "Label",
    "zindex": 1
}