{
    "@class": "com.kony.gen.viz.model.component.KVizUserWidget",
    "DNDConfig": null,
    "__parentReadjusting__": false,
    "_android_": {},
    "_androidwearos_": {},
    "_children_": [],
    "_desktopweb_": {},
    "_height_": {
        "type": "ref",
        "value": "preferred"
    },
    "_ipad_": {},
    "_iphone_": {},
    "_kiosk_": {},
    "_left_": {
        "type": "string",
        "value": "0dp"
    },
    "_margin_": [
        0,
        0,
        0,
        0
    ],
    "_orientation_": 1,
    "_padding_": [
        0,
        0,
        0,
        0
    ],
    "_percent_": true,
    "_render_": true,
    "_responsiveData_": {},
    "_skin_": "s8ff24328417401b877c3ceb2a5fa27c",
    "_spa_": {},
    "_spaan_": {},
    "_spaandroidtablet_": {},
    "_spabb_": {},
    "_spaip_": {},
    "_spaipad_": {},
    "_spamobile_": {},
    "_spatablet_": {},
    "_spawindowstablet_": {},
    "_spawinphone8_": {},
    "_tabrcandroid_": {},
    "_top_": {
        "type": "string",
        "value": "5dp"
    },
    "_vizProps_": {
        "hidewidgethierarchy": false
    },
    "_width_": {
        "type": "string",
        "value": "100%"
    },
    "_windows10_": {},
    "_windows8_": {},
    "_winphone10_": {},
    "_winphone8_": {},
    "areflexpropsreferenced": false,
    "autogrowmode": 1,
    "canUpdateUI": true,
    "clipbounds": true,
    "containerweight": 0,
    "dataDiffs": {
        "flxArrowImage": {
            "__events__": {},
            "__info__": {
                "kuid": "h92e46a62c3f4e13a33443b50cb17706",
                "srcKUID": "e7b826a9ded041789bb5730cdd1eb78d",
                "wType": "FlexContainer"
            }
        },
        "flxChechboxOuter": {
            "__events__": {},
            "__info__": {
                "kuid": "hafd596d7ebf4dd889610153c80c2e44",
                "srcKUID": "b678997e4ce643379e29f831f9e86639",
                "wType": "FlexContainer"
            }
        },
        "imgUpArrow": {
            "__events__": {},
            "__info__": {
                "kuid": "f20c940631334c4293e68cb13b14012d",
                "srcKUID": "f853b1ee32b74c379a8ff3fd820d5ce1",
                "wType": "Image"
            },
            "src": "uparrow_2x.png"
        },
        "segStatusFilterDropdown": {
            "__events__": {},
            "__info__": {
                "kuid": "b4f5594552514ca3b841665a796e4e8d",
                "srcKUID": "ida2f212b38b4e25bdb9fcb01c874379",
                "wType": "Segment"
            },
            "left": {
                "Default": {
                    "type": "string",
                    "value": "0dp"
                }
            },
            "top": {
                "Default": {
                    "type": "string",
                    "value": "5dp"
                }
            }
        },
        "statusFilterMenu": {
            "__events__": {},
            "__info__": {
                "isRoot": true,
                "kuid": "h36adcab488445b3beb718612d3ea5ce",
                "srcKUID": "dd73ab57bfd74a4b8c7dc5be300ddec8",
                "wType": "FlexContainer"
            }
        }
    },
    "id": "typeFilterMenu",
    "info": null,
    "iscustomlayout": false,
    "isdatareferenced": false,
    "isvisible": true,
    "kuid": "h36adcab488445b3beb718612d3ea5ce",
    "layouttype": 2,
    "masterType": 0,
    "name": "kony.ui.UserWidgetInstance",
    "parent": "flxTypeFilter",
    "pf": "frmGroups",
    "retaincontentalignment": false,
    "retainflexpositionproperties": false,
    "snaptogrid": true,
    "sourceUserWidget": "dd73ab57bfd74a4b8c7dc5be300ddec8",
    "wType": "UserWidgetInstance",
    "zindex": 5
}