{
    "@class": "com.kony.gen.viz.model.component.KVizUserWidget",
    "DNDConfig": null,
    "__parentReadjusting__": false,
    "_children_": [],
    "_desktopweb_": {},
    "_height_": {
        "type": "string",
        "value": "100%"
    },
    "_left_": {
        "type": "string",
        "value": "0dp"
    },
    "_margin_": [
        0,
        0,
        0,
        0
    ],
    "_orientation_": 1,
    "_padding_": [
        0,
        0,
        0,
        0
    ],
    "_percent_": true,
    "_render_": true,
    "_responsiveData_": {},
    "_skin_": "s8ff24328417401b877c3ceb2a5fa27c",
    "_top_": {
        "type": "string",
        "value": "0dp"
    },
    "_vizProps_": {
        "hidewidgethierarchy": false
    },
    "_width_": {
        "type": "string",
        "value": "100%"
    },
    "areflexpropsreferenced": false,
    "canUpdateUI": true,
    "clipbounds": true,
    "containerweight": 0,
    "dataDiffs": {
        "addAndRemoveOptions": {
            "__events__": {},
            "__info__": {
                "isRoot": true,
                "kuid": "e36c6650f0d544fb99dcdf90ad1716ca",
                "srcKUID": "h74ee31cf9834a748e874c9083db209a",
                "wType": "FlexContainer"
            }
        },
        "btnRemoveAll": {
            "__events__": {},
            "__info__": {
                "kuid": "ia814a85dd374bbaa6d0f738fb6e871a",
                "srcKUID": "i81619f589d14e10a59f9e78071674a8",
                "wType": "Button"
            },
            "i18n_text": "i18n.Common.button.Reset"
        },
        "btnSelectAll": {
            "__events__": {},
            "__info__": {
                "kuid": "a627f099369f4262aca8364494f2af59",
                "srcKUID": "eb037c28370f4d0c8645bb2c33ac2a1d",
                "wType": "Button"
            }
        },
        "flxAddOptionsSegment": {
            "__events__": {},
            "__info__": {
                "kuid": "g5d7cff9c2f64dd09ccac31aca0271ee",
                "srcKUID": "hd2a4c78aff64b93b88563b2f66ab0ba",
                "wType": "FlexContainer"
            }
        },
        "flxAvailableOptions": {
            "__events__": {},
            "__info__": {
                "kuid": "c98e12af499f408c962322981275a717",
                "srcKUID": "ja6c73faac1b4297bba8d56f888c65b4",
                "wType": "FlexContainer"
            }
        },
        "flxAvailableOptionsWrapper": {
            "__events__": {},
            "__info__": {
                "kuid": "a3382b09fc974feea805c8aa85c6a24f",
                "srcKUID": "fa80a1f715434fef83ca65975338b5ce",
                "wType": "FlexContainer"
            }
        },
        "flxClearSearchImage": {
            "__events__": {},
            "__info__": {
                "kuid": "ed70743b89fb4520ae6c048cc02e0218",
                "srcKUID": "b1ca3598372044b1ae131302149ca092",
                "wType": "FlexContainer"
            }
        },
        "flxSearch": {
            "__events__": {},
            "__info__": {
                "kuid": "g06852496f9b4505a91b0a113c69eb9a",
                "srcKUID": "deb8843c454744049c334a9b84731b0e",
                "wType": "FlexContainer"
            }
        },
        "flxSearchContainer": {
            "__events__": {},
            "__info__": {
                "kuid": "h221c592bcf0435d9e865148b4c270cf",
                "srcKUID": "e1edbe3b254848eaa27004022b66eb8a",
                "wType": "FlexContainer"
            }
        },
        "flxSearchImage": {
            "__events__": {},
            "__info__": {
                "kuid": "b237c5b83cab4e99b135b73ea6e5c158",
                "srcKUID": "g5eb438ea748400595ecaf631297379c",
                "wType": "FlexContainer"
            }
        },
        "flxSegSelectedOptions": {
            "__events__": {},
            "__info__": {
                "kuid": "b3fccf322799469a8f9ee24171cec243",
                "srcKUID": "b5c4cd4d2e324f64959f01b845d7b507",
                "wType": "FlexContainer"
            }
        },
        "flxSelectedOptions": {
            "__events__": {},
            "__info__": {
                "kuid": "aa811e822c0c45d7bee682e3f5decd7e",
                "srcKUID": "c56f11df7aae4a29a52f4996742ed730",
                "wType": "FlexContainer"
            }
        },
        "flxSelectedOptionsWrapper": {
            "__events__": {},
            "__info__": {
                "kuid": "aa36217b5a2642b894acc8c0fa481489",
                "srcKUID": "a74c6a4fa8044c72834910933e310d82",
                "wType": "FlexContainer"
            }
        },
        "imgClearSearch": {
            "__events__": {},
            "__info__": {
                "kuid": "c2fe3fccfd1f48e4a2e5aea5ad75e029",
                "srcKUID": "ceeaa77876cd4c04ab4054398f0f82a3",
                "wType": "Image"
            },
            "src": "close_blue.png"
        },
        "imgSearchIcon": {
            "__events__": {},
            "__info__": {
                "kuid": "j6c47db3dcde4e5886641e34ac07b2d2",
                "srcKUID": "bdcb0c628cbf4299a4db05aa098322bb",
                "wType": "Image"
            },
            "src": "search_1x.png"
        },
        "lblAvailableOptionsHeading": {
            "__events__": {},
            "__info__": {
                "kuid": "f751013fa76d41d68db90e28d481a807",
                "srcKUID": "df75178c32e5499a8c57de7b0050b07a",
                "wType": "Label"
            }
        },
        "lblSelectedOption": {
            "__events__": {},
            "__info__": {
                "kuid": "gf9dd65f3ed64f96a094148963a5b525",
                "srcKUID": "e48a3ee7191d461e954bb0fc3a555042",
                "wType": "Label"
            }
        },
        "rtxAvailableOptionsMessage": {
            "__events__": {},
            "__info__": {
                "kuid": "a43052d0a7494c3aac43dec8f465a50c",
                "srcKUID": "fa2ff6331c4e4dbb87e0948e88ecf623",
                "wType": "RichText"
            }
        },
        "rtxSelectedOptionsMessage": {
            "__events__": {},
            "__info__": {
                "kuid": "eb02b617bae3427d86470c56122a0729",
                "srcKUID": "f79b233552e54c5f9dc1156d8096e37c",
                "wType": "RichText"
            }
        },
        "segAddOptions": {
            "__events__": {},
            "__info__": {
                "kuid": "ge5d660a33eb47cf9a76b1445e1c0246",
                "srcKUID": "f7fe9a7e0eba466fa904f09ef227f0b4",
                "wType": "Segment"
            }
        },
        "segSelectedOptions": {
            "__events__": {},
            "__info__": {
                "kuid": "bf3a5b4170f54f38a3e69c0f22de1c64",
                "srcKUID": "f129758049094634bf1812dadab5b4fb",
                "wType": "Segment"
            }
        },
        "tbxSearchBox": {
            "__events__": {},
            "__info__": {
                "kuid": "d39186147df34c11b411497788373861",
                "srcKUID": "e35cf1351794406aaf557b7d0c6b2f9e",
                "wType": "TextField"
            }
        }
    },
    "id": "addAndRemoveOptions",
    "info": null,
    "isdatareferenced": false,
    "isvisible": true,
    "kuid": "e36c6650f0d544fb99dcdf90ad1716ca",
    "layouttype": 2,
    "masterType": 0,
    "name": "kony.ui.UserWidgetInstance",
    "parent": "flxAddAndRemoveEntitlements",
    "pf": "frmCustomerProfileEntitlements",
    "snaptogrid": true,
    "sourceUserWidget": "h74ee31cf9834a748e874c9083db209a",
    "vizprops": {
        "hidewidgethierarchy": false
    },
    "wType": "UserWidgetInstance"
}