{
    "@class": "com.kony.gen.viz.model.component.KVizUserWidget",
    "DNDConfig": null,
    "__parentReadjusting__": false,
    "_children_": [],
    "_desktopweb_": {},
    "_height_": {
        "type": "string",
        "value": "20px"
    },
    "_left_": {
        "type": "string",
        "value": "0dp"
    },
    "_margin_": [
        0,
        0,
        0,
        0
    ],
    "_orientation_": 1,
    "_padding_": [
        0,
        0,
        0,
        0
    ],
    "_percent_": true,
    "_render_": true,
    "_responsiveData_": {},
    "_skin_": "s8ff24328417401b877c3ceb2a5fa27c",
    "_top_": {
        "type": "string",
        "value": "0dp"
    },
    "_vizProps_": {
        "hidewidgethierarchy": false
    },
    "_width_": {
        "type": "string",
        "value": "100%"
    },
    "areflexpropsreferenced": false,
    "canUpdateUI": true,
    "clipbounds": true,
    "containerweight": 0,
    "dataDiffs": {
        "backToPageHeader": {
            "__events__": {},
            "__info__": {
                "isRoot": true,
                "kuid": "f7ecc3a4bcac4f04a095d392f7f7c23c",
                "srcKUID": "24ea587af3ca43bebbdca6cfa4ad6be3",
                "wType": "FlexContainer"
            }
        },
        "btnBack": {
            "__events__": {},
            "__info__": {
                "kuid": "dd416ee4be324d72a3a8f648f780af99",
                "srcKUID": "j7535d503246479497ace2c4c79047b2",
                "wType": "Button"
            }
        },
        "flxBack": {
            "__events__": {},
            "__info__": {
                "kuid": "hd861c5cdef24236b2a999897931276b",
                "srcKUID": "gf28a7ebb0fd4d6ca2636e03b4d175de",
                "wType": "FlexContainer"
            }
        },
        "fontIconBack": {
            "__events__": {},
            "__info__": {
                "kuid": "f3b21fc112fa466db4fa6f1e4f81358e",
                "srcKUID": "d3bee050e9ea4c6ba62e8195b118faf0",
                "wType": "Label"
            }
        }
    },
    "id": "backToEntitlementsListing",
    "info": null,
    "isdatareferenced": false,
    "isvisible": true,
    "kuid": "f7ecc3a4bcac4f04a095d392f7f7c23c",
    "layouttype": 3,
    "masterType": 0,
    "name": "kony.ui.UserWidgetInstance",
    "parent": "flxBackToEntitlementsListing",
    "pf": "frmCustomerProfileEntitlements",
    "snaptogrid": true,
    "sourceUserWidget": "24ea587af3ca43bebbdca6cfa4ad6be3",
    "vizprops": {
        "hidewidgethierarchy": false
    },
    "wType": "UserWidgetInstance"
}