{
    "@class": "com.kony.gen.viz.model.component.KVizUserWidget",
    "DNDConfig": null,
    "__parentReadjusting__": false,
    "_bottom_": {
        "type": "string",
        "value": "0px"
    },
    "_children_": [],
    "_desktopweb_": {},
    "_height_": {
        "type": "string",
        "value": "20px"
    },
    "_left_": {
        "type": "string",
        "value": "0px"
    },
    "_margin_": [
        0,
        0,
        0,
        0
    ],
    "_orientation_": 1,
    "_padding_": [
        0,
        0,
        0,
        0
    ],
    "_percent_": true,
    "_render_": true,
    "_responsiveData_": {},
    "_right_": {
        "type": "string",
        "value": "0px"
    },
    "_skin_": "s18e2ced6ee54b75a5ba66f8d41070d5",
    "_top_": {
        "type": "string",
        "value": "0px"
    },
    "_vizProps_": {
        "hidewidgethierarchy": false
    },
    "_width_": {
        "type": "string",
        "value": ""
    },
    "areflexpropsreferenced": false,
    "canUpdateUI": true,
    "clipbounds": true,
    "containerweight": 0,
    "dataDiffs": {
        "breadcrumbs": {
            "__events__": {},
            "__info__": {
                "isRoot": true,
                "kuid": "cac52aecb11f4dffafd47fb37bd604ef",
                "srcKUID": "e57b9ec944d34c8b834fa7fb78b60de9",
                "wType": "FlexContainer"
            },
            "bottom": {
                "Default": {
                    "type": "string",
                    "value": "0px"
                }
            },
            "left": {
                "Default": {
                    "type": "string",
                    "value": "0px"
                }
            },
            "right": {
                "Default": {
                    "type": "string",
                    "value": "0px"
                }
            },
            "top": {
                "Default": {
                    "type": "string",
                    "value": "0px"
                }
            },
            "width": {
                "Default": {
                    "type": "string",
                    "value": ""
                }
            },
            "zIndex": {
                "Default": 100
            }
        },
        "btnBackToMain": {
            "__events__": {},
            "__info__": {
                "kuid": "e793de571aa4487fabb499f7941c678f",
                "srcKUID": "ea97f85c5977457f93b8d984e28d4872",
                "wType": "Button"
            },
            "i18n_text": null,
            "left": {
                "Default": {
                    "type": "string",
                    "value": "35px"
                }
            },
            "text": "SEARCH"
        },
        "btnPreviousPage": {
            "__events__": {},
            "__info__": {
                "kuid": "f074a60c0d1a4dce8a41b1fe97f1972d",
                "srcKUID": "d0676390dcb747fa9849bbc49f0a18d9",
                "wType": "Button"
            }
        },
        "btnPreviousPage1": {
            "__events__": {},
            "__info__": {
                "kuid": "bcea1390f61c4f5f9ba1278832dc0d31",
                "srcKUID": "e7552a460536429580737450bf7c813b",
                "wType": "Button"
            }
        },
        "fontIconBreadcrumbsDown": {
            "__events__": {},
            "__info__": {
                "kuid": "fb5d34c1a1e24ac2906c8fc52ba27487",
                "srcKUID": "c2a443f3c4ba44668b78d4abbd727ece",
                "wType": "Label"
            }
        },
        "fontIconBreadcrumbsRight": {
            "__events__": {},
            "__info__": {
                "kuid": "f879749056094562af92bfb2f155e499",
                "srcKUID": "ida459e61e8d4663bacfa34ff30f7ad6",
                "wType": "Label"
            }
        },
        "fontIconBreadcrumbsRight2": {
            "__events__": {},
            "__info__": {
                "kuid": "f5d533c69429408e9c598bd589a39732",
                "srcKUID": "g785f1639b154e7aa5df9fac346a200a",
                "wType": "Label"
            }
        },
        "fontIconBreadcrumbsRight3": {
            "__events__": {},
            "__info__": {
                "kuid": "e682e6c262d44984a866469f6b843efc",
                "srcKUID": "ce04b87b0fe04c46acac3385cd5c792b",
                "wType": "Label"
            }
        },
        "imgBreadcrumbsDown": {
            "__events__": {},
            "__info__": {
                "kuid": "j578184a53134329b75d8624695f4849",
                "srcKUID": "efceab0102014e18b0fcbd4ee7f2f412",
                "wType": "Image"
            }
        },
        "imgBreadcrumbsRight": {
            "__events__": {},
            "__info__": {
                "kuid": "i608a536ae6b4d5ea3adb1f067991542",
                "srcKUID": "b1756ce4f6d744438bad7c9f5f4fd700",
                "wType": "Image"
            }
        },
        "imgBreadcrumbsRight2": {
            "__events__": {},
            "__info__": {
                "kuid": "ec6aad117e444439a022ebffe05842cd",
                "srcKUID": "d720d60d37e04d74a8e019d046a402bd",
                "wType": "Image"
            }
        },
        "imgBreadcrumbsRight3": {
            "__events__": {},
            "__info__": {
                "kuid": "b81b53268bd540c0a59146938848140a",
                "srcKUID": "dd44e3ff9a4b45fea146e20150e225d2",
                "wType": "Image"
            }
        },
        "lblCurrentScreen": {
            "__events__": {},
            "__info__": {
                "kuid": "gcb55ce7886d4d60b7c7ccf1907cae7b",
                "srcKUID": "d57a137ddf1a4ab19dd36fbb4e55c040",
                "wType": "Label"
            },
            "width": {
                "Default": {
                    "type": "ref",
                    "value": "preferred"
                }
            }
        }
    },
    "id": "breadcrumbs",
    "info": null,
    "isdatareferenced": false,
    "isvisible": true,
    "kuid": "cac52aecb11f4dffafd47fb37bd604ef",
    "layouttype": 3,
    "masterType": 0,
    "name": "kony.ui.UserWidgetInstance",
    "parent": "flxBreadCrumbs",
    "pf": "frmCustomerProfileEntitlements",
    "snaptogrid": true,
    "sourceUserWidget": "e57b9ec944d34c8b834fa7fb78b60de9",
    "vizprops": {
        "hidewidgethierarchy": false
    },
    "wType": "UserWidgetInstance",
    "zindex": 100
}