{
    "@class": "com.kony.gen.viz.model.component.KVizUserWidget",
    "DNDConfig": null,
    "__parentReadjusting__": false,
    "_android_": {},
    "_androidwearos_": {},
    "_children_": [],
    "_desktopweb_": {},
    "_height_": {
        "type": "ref",
        "value": "preferred"
    },
    "_ipad_": {},
    "_iphone_": {},
    "_kiosk_": {},
    "_left_": {
        "type": "string",
        "value": "0dp"
    },
    "_margin_": [
        0,
        0,
        0,
        0
    ],
    "_orientation_": 1,
    "_padding_": [
        0,
        0,
        0,
        0
    ],
    "_percent_": true,
    "_responsiveData_": {},
    "_skin_": "s8ff24328417401b877c3ceb2a5fa27c",
    "_spa_": {},
    "_spaan_": {},
    "_spaandroidtablet_": {},
    "_spabb_": {},
    "_spaip_": {},
    "_spaipad_": {},
    "_spamobile_": {},
    "_spatablet_": {},
    "_spawindowstablet_": {},
    "_spawinphone8_": {},
    "_tabrcandroid_": {},
    "_top_": {
        "type": "string",
        "value": "0dp"
    },
    "_vizProps_": {
        "hidewidgethierarchy": false
    },
    "_width_": {
        "type": "string",
        "value": "100%"
    },
    "_windows10_": {},
    "_windows8_": {},
    "_winphone10_": {},
    "_winphone8_": {},
    "areflexpropsreferenced": false,
    "autogrowmode": 1,
    "canUpdateUI": true,
    "clipbounds": true,
    "containerweight": 0,
    "dataDiffs": {
        "dropdownMainHeader": {
            "__events__": {},
            "__info__": {
                "isRoot": true,
                "kuid": "e8b58e4d4d534f19aee60c978f3112d8",
                "srcKUID": "e9ecd1a954fe449f933d74d4475ecb2c",
                "wType": "FlexContainer"
            }
        },
        "flxArrowImage": {
            "__events__": {},
            "__info__": {
                "kuid": "be18fc76a395414cb1280fcdcff4fe3d",
                "srcKUID": "a0654fb367434863a3dd04394f488963",
                "wType": "FlexContainer"
            }
        },
        "flxChangePassword": {
            "__events__": {},
            "__info__": {
                "kuid": "a306d238712949dc8d18f93908087bab",
                "srcKUID": "b9f5aa1dec1945e8a4fc706963151525",
                "wType": "FlexContainer"
            }
        },
        "flxDropdown": {
            "__events__": {},
            "__info__": {
                "kuid": "ac440b7b11274356b204cfbd6f212faa",
                "srcKUID": "e3ae96d2ab8e4053a060a40d0b51b0f7",
                "wType": "FlexContainer"
            },
            "isVisible": false
        },
        "flxHeaderUserOptions": {
            "__events__": {},
            "__info__": {
                "kuid": "bdaa969ce6fe4ea98462ef35a6ed75c1",
                "srcKUID": "d725df1665b84f33adf91d068d28c92d",
                "wType": "FlexContainer"
            }
        },
        "flxIconChangePswd": {
            "__events__": {},
            "__info__": {
                "kuid": "c8eaa78ab6324ec6a307a457810b3daf",
                "srcKUID": "a81662e8e3404d93b7def6cc521c34d3",
                "wType": "FlexContainer"
            }
        },
        "flxIconSignOut": {
            "__events__": {},
            "__info__": {
                "kuid": "a78fe213dff34bafaaa44755049d013e",
                "srcKUID": "d868d38e0d244a4394c73cb0e36d80f5",
                "wType": "FlexContainer"
            }
        },
        "flxOuterActions": {
            "__events__": {},
            "__info__": {
                "kuid": "h50bed4b40eb4a688e58852106038970",
                "srcKUID": "a995670c56484d68bb9ce2e772b37ca1",
                "wType": "FlexContainer"
            }
        },
        "flxSignOut": {
            "__events__": {},
            "__info__": {
                "kuid": "e32895bae9df48ef818698793b45423e",
                "srcKUID": "b5b4e89312864aba9b92703592a93bdc",
                "wType": "FlexContainer"
            }
        },
        "imgUpArrow": {
            "__events__": {},
            "__info__": {
                "kuid": "a1dd7550d52b4de3bcb5b372f04a2721",
                "srcKUID": "ia67f325a5bd440980ffbdd6113c1ed9",
                "wType": "Image"
            },
            "src": "uparrow_2x.png"
        },
        "lblChangePswd": {
            "__events__": {},
            "__info__": {
                "kuid": "aea155e0e02149bba6c91ad2c7ecbbd9",
                "srcKUID": "h6ef861927f14067a6e24571afbf3ac8",
                "wType": "Label"
            }
        },
        "lblIconChangePswrd": {
            "__events__": {},
            "__info__": {
                "kuid": "i1846be3b5a54873ae2a07af7ecf591d",
                "srcKUID": "c7e885b835f144349ee945acf74dc742",
                "wType": "Label"
            }
        },
        "lblIconDownArrow": {
            "__events__": {},
            "__info__": {
                "kuid": "dba1254ea7e945a19d66a5965ba4f695",
                "srcKUID": "ecb7499ea0ed400b85fb02d23bdca2cd",
                "wType": "Label"
            }
        },
        "lblIconSignOut": {
            "__events__": {},
            "__info__": {
                "kuid": "ff7a1f199f244b39a14207d955115c01",
                "srcKUID": "cef5bc51d7cc4302bb12ff0d453a0843",
                "wType": "Label"
            }
        },
        "lblSignOut": {
            "__events__": {},
            "__info__": {
                "kuid": "i023c2198750423caa36d2869cfff319",
                "srcKUID": "a5a8860442564f66b1446440e5b757ea",
                "wType": "Label"
            }
        },
        "lblUserName": {
            "__events__": {},
            "__info__": {
                "kuid": "d90d0c55ec2e4549917b9ee81c21d5a7",
                "srcKUID": "h86662bbad8b4d65b161e0756ea7b35d",
                "wType": "Label"
            }
        }
    },
    "enablescrolling": true,
    "id": "dropdownMainHeader",
    "info": null,
    "iscustomlayout": false,
    "isdatareferenced": false,
    "issegmentchild": false,
    "isvisible": true,
    "kuid": "e8b58e4d4d534f19aee60c978f3112d8",
    "layouttype": 2,
    "masterType": 0,
    "name": "kony.ui.UserWidgetInstance",
    "parent": "flxHeaderDropdown",
    "pf": "frmCustomerProfileEntitlements",
    "retaincontentalignment": false,
    "retainflexpositionproperties": false,
    "retainflowhorizontalalignment": false,
    "snapgridsize": 10,
    "snaptogrid": true,
    "sourceUserWidget": "e9ecd1a954fe449f933d74d4475ecb2c",
    "wType": "UserWidgetInstance"
}