{
    "DNDConfig": null,
    "__parentReadjusting__": false,
    "_height_": {
        "type": "ref",
        "value": "preferred"
    },
    "_margin_": [
        0,
        0,
        0,
        0
    ],
    "_orientation_": 6,
    "_padding_": [
        0,
        0,
        0,
        0
    ],
    "_percent_": true,
    "_skin_": "sc74bbd9c30247728d3dabf5547c0feb",
    "_top_": {
        "type": "string",
        "value": "250px"
    },
    "_width_": {
        "type": "string",
        "value": "600px"
    },
    "allboxes": [],
    "autogrowmode": 1,
    "canUpdateUI": true,
    "centerx": {
        "type": "string",
        "value": "50%"
    },
    "centery": {
        "type": "string",
        "value": ""
    },
    "children": [
        "flxEstatementTopColor",
        "flxEstatementInner",
        "flxEstatementButtons"
    ],
    "clipbounds": false,
    "containerweight": 100,
    "enablescrolling": true,
    "id": "flxEstatement",
    "info": null,
    "isvisible": true,
    "kuid": "h3f5c1edcf9243f68da776d5f7eec294",
    "layouttype": 4,
    "name": "kony.ui.FlexContainer",
    "parent": "flxEnableEstatement",
    "pf": "frmCustomerProfileEntitlements",
    "snapgridsize": 10,
    "snaptogrid": true,
    "wType": "FlexContainer",
    "widgetalignment": 1,
    "zindex": 10
}