{
    "@class": "com.kony.gen.viz.model.component.KVizLabel",
    "DNDConfig": null,
    "__parentReadjusting__": false,
    "_height_": {
        "type": "string",
        "value": "1px"
    },
    "_left_": {
        "type": "string",
        "value": "35px"
    },
    "_margin_": [
        1,
        1,
        1,
        1
    ],
    "_padding_": [
        0,
        0,
        0,
        0
    ],
    "_right_": {
        "type": "string",
        "value": "35px"
    },
    "_skin_": "s1385dd5c0624c5d88cfb0446fcae448",
    "_text_": ".",
    "_top_": {
        "type": "number",
        "value": "99"
    },
    "_wrapping_": 2,
    "android": {
        "textStyle": {
            "letterSpacing": 0,
            "strikeThrough": false
        }
    },
    "canUpdateUI": true,
    "containerweight": 100,
    "contentalignment": 4,
    "id": "lblEntitlementsHeaderSeperator",
    "info": null,
    "ipad": {
        "psp": {
            "wrapping": 2
        }
    },
    "iphone": {
        "psp": {
            "wrapping": 2
        }
    },
    "isvisible": true,
    "kuid": "d7271a5d77f04683917851775868dd39",
    "name": "kony.ui.Label",
    "parent": "flxEntitlementsListing",
    "pf": "frmCustomerProfileEntitlements",
    "texti18n": "i18n.frmCSR.lblSeperator",
    "tooltip": "",
    "wType": "Label",
    "zindex": 2
}