{
    "@class": "com.kony.gen.viz.model.component.KVizLabel",
    "DNDConfig": null,
    "__parentReadjusting__": false,
    "_height_": {
        "type": "string",
        "value": "20px"
    },
    "_left_": {
        "type": "string",
        "value": "20px"
    },
    "_margin_": [
        1,
        1,
        1,
        1
    ],
    "_padding_": [
        0,
        0,
        0,
        0
    ],
    "_skin_": "s12c70e4eaad4e1ab47cf741222f3d3a",
    "_text_": "Enable e-Statement",
    "_top_": {
        "type": "string",
        "value": "40px"
    },
    "_width_": {
        "type": "string",
        "value": "80%"
    },
    "_wrapping_": 2,
    "android": {
        "textStyle": {
            "letterSpacing": 0,
            "strikeThrough": false
        }
    },
    "canUpdateUI": true,
    "containerweight": 100,
    "contentalignment": 4,
    "id": "lblEnableEstatement",
    "info": null,
    "ipad": {
        "psp": {
            "wrapping": 2
        }
    },
    "iphone": {
        "psp": {
            "wrapping": 2
        }
    },
    "isvisible": true,
    "kuid": "d7fefef37c4b41739b6754eb40c8184d",
    "name": "kony.ui.Label",
    "parent": "flxEstatementInner",
    "pf": "frmCustomerProfileEntitlements",
    "texti18n": "i18n.frmCustomerManagementController.EnableEstatement",
    "tooltip": "",
    "wType": "Label",
    "zindex": 1
}