{
    "@class": "com.kony.gen.viz.model.component.KVizListBox",
    "DNDConfig": null,
    "__parentReadjusting__": false,
    "_height_": {
        "type": "string",
        "value": "35px"
    },
    "_left_": {
        "type": "string",
        "value": "20dp"
    },
    "_margin_": [
        0,
        0,
        0,
        0
    ],
    "_padding_": [
        0,
        0,
        0,
        0
    ],
    "_skin_": "sf172fb41e5e4367a8dd3a164a2a68b1",
    "_top_": {
        "type": "string",
        "value": "20px"
    },
    "_width_": {
        "type": "string",
        "value": "70%"
    },
    "canUpdateUI": true,
    "containerweight": 100,
    "contentalignment": 5,
    "context": {
        "channel": "desktop",
        "formID": "frmCustomerManagement",
        "platform": "desktopweb",
        "templateType": "forms",
        "topLevelBox": null
    },
    "focusskin": "sc4a2c26f1694f9cb34846ddf7be7730",
    "groupcells": false,
    "id": "lstboxEmails",
    "info": null,
    "isvisible": true,
    "kiosk": {
        "psp": {
            "placeholder": "Select Email"
        }
    },
    "kuid": "ae53791b0f4749ce8f380dc9f2fc651d",
    "masterdata": [
        [
            "Select",
            "Select service",
            "i18n.frmCustomers.selectEmail"
        ]
    ],
    "name": "kony.ui.ListBox",
    "paddinginpixel": false,
    "parent": "flxPopupBody",
    "pf": "frmCustomerProfileEntitlements",
    "selectedkeys": null,
    "selectedkeyvalue": null,
    "selectedkeyvalues": null,
    "size": 18,
    "viewconfig": {
        "toggleViewConfig": {
            "viewStyle": 0
        }
    },
    "viewtype": 0,
    "wType": "ListBox",
    "zindex": 1
}