{
    "@class": "com.kony.gen.viz.model.component.KVizUserWidget",
    "DNDConfig": null,
    "__parentReadjusting__": false,
    "_bottom_": {
        "type": "string",
        "value": ""
    },
    "_children_": [],
    "_desktopweb_": {},
    "_height_": {
        "type": "string",
        "value": "100%"
    },
    "_left_": {
        "type": "string",
        "value": "0dp"
    },
    "_margin_": [
        0,
        0,
        0,
        0
    ],
    "_orientation_": 1,
    "_padding_": [
        0,
        0,
        0,
        0
    ],
    "_percent_": true,
    "_render_": true,
    "_responsiveData_": {},
    "_right_": {
        "type": "string",
        "value": ""
    },
    "_skin_": "s39233a8d65f40d5b9120e116f6d9ef6",
    "_top_": {
        "type": "string",
        "value": "0dp"
    },
    "_vizProps_": {
        "hidewidgethierarchy": false
    },
    "_width_": {
        "type": "string",
        "value": "100%"
    },
    "areflexpropsreferenced": false,
    "autogrowmode": 0,
    "canUpdateUI": true,
    "centerx": {
        "type": "string",
        "value": ""
    },
    "centery": {
        "type": "string",
        "value": ""
    },
    "clipbounds": true,
    "containerweight": 0,
    "dataDiffs": {
        "btnPopUpCancel": {
            "__events__": {},
            "__info__": {
                "kuid": "d72e3f7d998849c58631281e82e48402",
                "srcKUID": "g552e00534a64c94b7e8432ae19e32be",
                "wType": "Button"
            },
            "i18n_text": "i8n.navigation.cancelButton"
        },
        "btnPopUpDelete": {
            "__events__": {},
            "__info__": {
                "kuid": "h75a938f8215475fb40ab3ff29df0c6a",
                "srcKUID": "j21d83290bfc4cc29a0b48797cce32dc",
                "wType": "Button"
            },
            "i18n_text": "i8n.navigation.okButton"
        },
        "flxPopUp": {
            "__events__": {},
            "__info__": {
                "kuid": "ef65c805df5b43c79df1fd7d5a95ba75",
                "srcKUID": "b3b6c1b67bec40aeb9afec3da3aa0d8e",
                "wType": "FlexContainer"
            }
        },
        "flxPopUpButtons": {
            "__events__": {},
            "__info__": {
                "kuid": "ba85f6e3e860404cb6501e1ca023636e",
                "srcKUID": "g2892d3bb666464291b179abd349e4f8",
                "wType": "FlexContainer"
            }
        },
        "flxPopUpClose": {
            "__events__": {},
            "__info__": {
                "kuid": "g3c4fb1944f146bea3e42a86ba56338f",
                "srcKUID": "cb66f68b3c0845eea5e6ef874da0a3a2",
                "wType": "FlexContainer"
            }
        },
        "flxPopUpTopColor": {
            "__events__": {},
            "__info__": {
                "kuid": "he881d65dd7c4ddabe3ef895d438c263",
                "srcKUID": "b5d4c1101ef948938dccd5d65d4e9080",
                "wType": "FlexContainer"
            }
        },
        "flxPopupHeader": {
            "__events__": {},
            "__info__": {
                "kuid": "d7e2bc773c9e41889468e1fe0ef4ef6a",
                "srcKUID": "e0e28c5127b244c389162777b8d82974",
                "wType": "FlexContainer"
            }
        },
        "imgPopUpClose": {
            "__events__": {},
            "__info__": {
                "kuid": "b6cb01b9a53b4c57b8c4956d857f6803",
                "srcKUID": "h3d585875d654994ae06962f33750f41",
                "wType": "Image"
            }
        },
        "lblPopUpMainMessage": {
            "__events__": {},
            "__info__": {
                "kuid": "g2dbedcecf6a4566b7273da12bdc8556",
                "srcKUID": "fd9f14b724e84619bddaf7f31975c1de",
                "wType": "Label"
            },
            "i18n_text": "i8n.navigation.cancelChanges"
        },
        "lblPopupClose": {
            "__events__": {},
            "__info__": {
                "kuid": "b3e4a90a23134112a81f1f63d86f0ad0",
                "srcKUID": "i85a6cf8cb4b418a865a8fd2df968f9e",
                "wType": "Label"
            }
        },
        "popUpCancelEdits": {
            "__events__": {},
            "__info__": {
                "isRoot": true,
                "kuid": "g6e1352f587b40d7be9fc58aa13021d6",
                "srcKUID": "a51dfb83d74844df8f40080c6b140c04",
                "wType": "FlexContainer"
            },
            "autogrowMode": {
                "Default": 0
            },
            "bottom": {
                "Default": {
                    "type": "string",
                    "value": ""
                }
            },
            "centerX": {
                "Default": {
                    "type": "string",
                    "value": ""
                }
            },
            "centerY": {
                "Default": {
                    "type": "string",
                    "value": ""
                }
            },
            "height": {
                "Default": {
                    "type": "string",
                    "value": "100%"
                }
            },
            "left": {
                "Default": {
                    "type": "string",
                    "value": "0dp"
                }
            },
            "maxHeight": {
                "Default": {
                    "type": "string",
                    "value": ""
                }
            },
            "maxWidth": {
                "Default": {
                    "type": "string",
                    "value": ""
                }
            },
            "minHeight": {
                "Default": {
                    "type": "string",
                    "value": ""
                }
            },
            "minWidth": {
                "Default": {
                    "type": "string",
                    "value": ""
                }
            },
            "right": {
                "Default": {
                    "type": "string",
                    "value": ""
                }
            },
            "top": {
                "Default": {
                    "type": "string",
                    "value": "0dp"
                }
            },
            "width": {
                "Default": {
                    "type": "string",
                    "value": "100%"
                }
            }
        },
        "rtxPopUpDisclaimer": {
            "__events__": {},
            "__info__": {
                "kuid": "b6a53af2396947c6a3b0037e7385e9c6",
                "srcKUID": "j6a3a55c67394eeabf87473139845f70",
                "wType": "RichText"
            },
            "i18n_text": "i8n.navigation.cancelChangesBody"
        }
    },
    "id": "popUpCancelEdits",
    "info": null,
    "iscustomlayout": false,
    "isdatareferenced": false,
    "isvisible": true,
    "kuid": "g6e1352f587b40d7be9fc58aa13021d6",
    "layouttype": 2,
    "masterType": 0,
    "maxheight": {
        "type": "string",
        "value": ""
    },
    "maxwidth": {
        "type": "string",
        "value": ""
    },
    "minheight": {
        "type": "string",
        "value": ""
    },
    "minwidth": {
        "type": "string",
        "value": ""
    },
    "name": "kony.ui.UserWidgetInstance",
    "parent": "flxEditCancelConfirmation",
    "pf": "frmCustomerProfileEntitlements",
    "retaincontentalignment": false,
    "retainflexpositionproperties": false,
    "snaptogrid": true,
    "sourceUserWidget": "a51dfb83d74844df8f40080c6b140c04",
    "vizprops": {
        "hidewidgethierarchy": false
    },
    "wType": "UserWidgetInstance",
    "zindex": 1
}