{
    "@class": "com.kony.gen.viz.model.component.KVizUserWidget",
    "DNDConfig": null,
    "__parentReadjusting__": false,
    "_android_": {},
    "_androidwearos_": {},
    "_children_": [],
    "_desktopweb_": {},
    "_height_": {
        "type": "ref",
        "value": "preferred"
    },
    "_ipad_": {},
    "_iphone_": {},
    "_kiosk_": {},
    "_left_": {
        "type": "string",
        "value": "0dp"
    },
    "_margin_": [
        0,
        0,
        0,
        0
    ],
    "_orientation_": 1,
    "_padding_": [
        0,
        0,
        0,
        0
    ],
    "_percent_": true,
    "_skin_": "s8ff24328417401b877c3ceb2a5fa27c",
    "_spa_": {},
    "_spaan_": {},
    "_spaandroidtablet_": {},
    "_spabb_": {},
    "_spaip_": {},
    "_spaipad_": {},
    "_spamobile_": {},
    "_spatablet_": {},
    "_spawindowstablet_": {},
    "_spawinphone8_": {},
    "_tabrcandroid_": {},
    "_top_": {
        "type": "string",
        "value": "40dp"
    },
    "_vizProps_": {
        "hidewidgethierarchy": false
    },
    "_width_": {
        "type": "ref",
        "value": "preferred"
    },
    "_windows10_": {},
    "_windows8_": {},
    "_winphone10_": {},
    "_winphone8_": {},
    "areflexpropsreferenced": false,
    "autogrowmode": 1,
    "canUpdateUI": true,
    "clipbounds": true,
    "containerweight": 0,
    "dataDiffs": {
        "editExpenditureInfo": {
            "__events__": {},
            "__info__": {
                "isRoot": true,
                "kuid": "cd5f0ee060634295a84a2e232666ba83",
                "srcKUID": "f5e4cc7f720541fd99d1d7429878ba8b",
                "wType": "FlexContainer"
            }
        },
        "flxExpenditureInfo": {
            "__events__": {},
            "__info__": {
                "kuid": "dc43980521884fb68075b1076a8a38e0",
                "srcKUID": "d5584162226841bab289555b1ff1d446",
                "wType": "FlexContainer"
            }
        },
        "flxMortgage": {
            "__events__": {},
            "__info__": {
                "kuid": "h6c424023e65427a96a281ad1c70f602",
                "srcKUID": "ib1fbd7482ff4817a53570b199ece57c",
                "wType": "FlexContainer"
            }
        },
        "flxMortgageAmount": {
            "__events__": {},
            "__info__": {
                "kuid": "fedf4bf356df49b2b2d1c71998111e7e",
                "srcKUID": "fb59d83a871544fd97835837d8065cf9",
                "wType": "FlexContainer"
            }
        },
        "flxRent": {
            "__events__": {},
            "__info__": {
                "kuid": "b1be52241fae459298cd9bc177e47937",
                "srcKUID": "h9b6aef088344337ab19510e18242fc2",
                "wType": "FlexContainer"
            }
        },
        "flxRentAmount": {
            "__events__": {},
            "__info__": {
                "kuid": "f2f92bbd3aa947689f7e3a5e8b52357c",
                "srcKUID": "hb82469c1a764a9594875d4c5440e3b4",
                "wType": "FlexContainer"
            }
        },
        "flxSection": {
            "__events__": {},
            "__info__": {
                "kuid": "h17314a7848e49a6a687c3a7068abf2a",
                "srcKUID": "be40a3728c4c411e8a5b119483c3e8f5",
                "wType": "FlexContainer"
            }
        },
        "lblCurrency": {
            "__events__": {},
            "__info__": {
                "kuid": "c5f1fbe32e2f4dc29c9a4499ae3d9fc3",
                "srcKUID": "d77490c73fb740ebb1340de2a4388d44",
                "wType": "Label"
            }
        },
        "lblMortgage": {
            "__events__": {},
            "__info__": {
                "kuid": "f504e01cedbc48c4914c9c7736f79893",
                "srcKUID": "f6fe90df037f4c7a9b117cf23f5d735c",
                "wType": "Label"
            }
        },
        "lblMortgageCurrency": {
            "__events__": {},
            "__info__": {
                "kuid": "dcdbd8a82924494ab92d711c74e7d3d0",
                "srcKUID": "fd93ca79d8584113a306029f006a4e7a",
                "wType": "Label"
            }
        },
        "lblRent": {
            "__events__": {},
            "__info__": {
                "kuid": "f7d3941bd5da47e9b93d8ab0e9773c9d",
                "srcKUID": "g5b9bf27ab4c47a6b07dc66f0520f45e",
                "wType": "Label"
            }
        },
        "loansSectionHeader": {
            "__events__": {},
            "__info__": {
                "kuid": "e6fa35ee5c384a528eeec3b783cf8634",
                "srcKUID": "a597e26269b24d07ac3e38974ce28a20",
                "wType": "UserWidgetInstance"
            }
        },
        "loansSectionHeader.btnEdit": {
            "__events__": {},
            "__info__": {
                "kuid": "b0ee5d6b5de74e2f8480acd4210fc522",
                "srcKUID": "jcdbfcff52eb479d93bd1f5996e18ece",
                "wType": "Button"
            }
        },
        "loansSectionHeader.flxSectionHeader": {
            "__events__": {},
            "__info__": {
                "kuid": "b0a88e8927a44c3899678d5584e567a5",
                "srcKUID": "fb19a85be0774e84ae3bb6cb91409d54",
                "wType": "FlexContainer"
            }
        },
        "loansSectionHeader.lblSectionHeader": {
            "__events__": {},
            "__info__": {
                "kuid": "f42801221f3b4c45a02d7ca2dfc2d409",
                "srcKUID": "i6a6d6067f564f88af9230a0dfecc0ba",
                "wType": "Label"
            }
        },
        "loansSectionHeader.lblSeparator": {
            "__events__": {},
            "__info__": {
                "kuid": "f28dfd903035487b9418e942c3d8cdfd",
                "srcKUID": "i1a0dc86cc0f4def883403d9bf961086",
                "wType": "Label"
            }
        },
        "mortgageValueErrorMsg": {
            "__events__": {},
            "__info__": {
                "kuid": "a12bb8a653be4e8c883044a0dad46f81",
                "srcKUID": "c8dcdfe363a2467ca98f88a3fa0c7a4d",
                "wType": "UserWidgetInstance"
            }
        },
        "mortgageValueErrorMsg.lblErrorIcon": {
            "__events__": {},
            "__info__": {
                "kuid": "hde25faf468f4c1a84ae7b83c5f64824",
                "srcKUID": "adb710e1107246b9bc1ec660b9b0a7f8",
                "wType": "Label"
            }
        },
        "mortgageValueErrorMsg.lblErrorText": {
            "__events__": {},
            "__info__": {
                "kuid": "cdacb60095c4485ea87e011c598efd57",
                "srcKUID": "c671d033f34c43b2af249037dccb81d2",
                "wType": "Label"
            }
        },
        "rentValueErrorMsg": {
            "__events__": {},
            "__info__": {
                "kuid": "fb1cf53fb679421da862ebd2d4b96953",
                "srcKUID": "ib0a46b1570c4ced972afd8816d9dc58",
                "wType": "UserWidgetInstance"
            }
        },
        "rentValueErrorMsg.lblErrorIcon": {
            "__events__": {},
            "__info__": {
                "kuid": "ia2e4c2c91124124aa0e2c60e3bd2e04",
                "srcKUID": "a41ec648a44e4e9dbcb946646c5dfffb",
                "wType": "Label"
            }
        },
        "rentValueErrorMsg.lblErrorText": {
            "__events__": {},
            "__info__": {
                "kuid": "i952f0f934f44d7298d03e01de632c6d",
                "srcKUID": "b7dbeea9f75d43eab2c22ac141acf1d0",
                "wType": "Label"
            }
        },
        "txtMortgageValue": {
            "__events__": {},
            "__info__": {
                "kuid": "fb47c1c470884cb1a6654f47882db0ae",
                "srcKUID": "h14a2a354d4a4399b99520327fe21f97",
                "wType": "TextField"
            }
        },
        "txtRentValue": {
            "__events__": {},
            "__info__": {
                "kuid": "a788fcc2d3254ada9a4d129ecb446574",
                "srcKUID": "cddf95a49edb49c1a01912853a827d38",
                "wType": "TextField"
            }
        }
    },
    "enablescrolling": true,
    "id": "editExpenditureInfo",
    "info": null,
    "iscustomlayout": false,
    "isdatareferenced": false,
    "issegmentchild": false,
    "isvisible": true,
    "kuid": "cd5f0ee060634295a84a2e232666ba83",
    "layouttype": 2,
    "masterType": 0,
    "name": "kony.ui.UserWidgetInstance",
    "parent": "editApplicantDetails",
    "pf": "userwidgetmodel",
    "retaincontentalignment": false,
    "retainflexpositionproperties": false,
    "snapgridsize": 10,
    "snaptogrid": true,
    "sourceUserWidget": "f5e4cc7f720541fd99d1d7429878ba8b",
    "wType": "UserWidgetInstance"
}