{
    "@class": "com.kony.gen.viz.model.component.KVizButton",
    "DNDConfig": null,
    "__parentReadjusting__": false,
    "_height_": {
        "type": "string",
        "value": "30px"
    },
    "_margin_": [
        6,
        6,
        6,
        6
    ],
    "_padding_": [
        0,
        0,
        0,
        0
    ],
    "_right_": {
        "type": "string",
        "value": "35px"
    },
    "_skin_": "s68f239b5bef4ddda93b35d84ab737ae",
    "_text_": "NOTE",
    "_top_": {
        "type": "string",
        "value": "58dp"
    },
    "_width_": {
        "type": "string",
        "value": "80dp"
    },
    "canUpdateUI": true,
    "containerweight": 100,
    "contentalignment": 5,
    "desktopweb": {
        "psp": {
            "hoverSkin": "sa0a214e6979469ebf190bb69eae8def"
        }
    },
    "disabledSkins": {},
    "displaytext": true,
    "focusskin": "s68f239b5bef4ddda93b35d84ab737ae",
    "id": "btnNotes",
    "info": null,
    "isvisible": true,
    "kuid": "f9d349496b974639807d36d2ebf753fc",
    "name": "kony.ui.Button",
    "parent": "flxMainHeader",
    "pf": "frmCustomerProfileHelpCenter",
    "texti18n": "i18n.frmCustomerManagement.btnNotes",
    "wType": "Button",
    "zindex": 1
}