{
    "DNDConfig": null,
    "__parentReadjusting__": false,
    "_height_": {
        "type": "string",
        "value": "60px"
    },
    "_left_": {
        "type": "string",
        "value": "0px"
    },
    "_margin_": [
        0,
        0,
        0,
        0
    ],
    "_orientation_": 6,
    "_padding_": [
        0,
        0,
        0,
        0
    ],
    "_percent_": true,
    "_skin_": "s094cf034ba74d778fe9c91095115ace",
    "_top_": {
        "type": "string",
        "value": "110px"
    },
    "_width_": {
        "type": "string",
        "value": "100%"
    },
    "allboxes": [],
    "autogrowmode": 0,
    "canUpdateUI": true,
    "children": [
        "flxRequestNumber",
        "flxCategory",
        "flxSubject",
        "flxRequestStatus",
        "flxRequestDate"
    ],
    "clipbounds": true,
    "containerweight": 100,
    "enablescrolling": true,
    "id": "flxRequestsSegmentHeader",
    "info": null,
    "isTemplate": true,
    "isvisible": true,
    "kuid": "iac72d37b07e474ca78f4bcf986d6522",
    "layouttype": 3,
    "name": "kony.ui.FlexContainer",
    "parent": "flxMessageSegContainer",
    "pf": "frmCustomerProfileHelpCenter",
    "snapgridsize": 10,
    "snaptogrid": true,
    "wType": "FlexContainer",
    "widgetalignment": 1
}