{
    "DNDConfig": null,
    "__parentReadjusting__": false,
    "_height_": {
        "type": "string",
        "value": "20dp"
    },
    "_left_": {
        "type": "string",
        "value": "8dp"
    },
    "_margin_": [
        0,
        0,
        0,
        0
    ],
    "_orientation_": 6,
    "_padding_": [
        0,
        0,
        0,
        0
    ],
    "_percent_": true,
    "_skin_": "s54b03ed0af548f4b10ba6e76cf19723",
    "_width_": {
        "type": "string",
        "value": "20px"
    },
    "allboxes": [],
    "autogrowmode": 0,
    "canUpdateUI": true,
    "centery": {
        "type": "string",
        "value": "50%"
    },
    "children": [
        "imgSortRequestNumber",
        "fonticonSortRequestNumber"
    ],
    "clipbounds": true,
    "containerweight": 100,
    "enablescrolling": true,
    "id": "flxSortRequestNumber",
    "info": null,
    "isvisible": true,
    "kuid": "e4b393a62ae8434ebf03e8b6e0021eed",
    "layouttype": 2,
    "name": "kony.ui.FlexContainer",
    "parent": "flxRequestNumber",
    "pf": "frmCustomerProfileHelpCenter",
    "snapgridsize": 10,
    "snaptogrid": true,
    "wType": "FlexContainer",
    "widgetalignment": 1,
    "zindex": 1
}