{
    "@class": "com.kony.gen.viz.model.component.KVizImage2",
    "DNDConfig": null,
    "__parentReadjusting__": false,
    "_base64_": null,
    "_height_": {
        "type": "string",
        "value": "13dp"
    },
    "_margin_": [
        0,
        0,
        0,
        0
    ],
    "_padding_": [
        0,
        0,
        0,
        0
    ],
    "_skin_": "s553d03f29cb43c9a26989454eea9499",
    "_src_": "sorting3x.png",
    "_width_": {
        "type": "string",
        "value": "13dp"
    },
    "canUpdateUI": true,
    "centerx": {
        "type": "string",
        "value": "50%"
    },
    "centery": {
        "type": "string",
        "value": "50%"
    },
    "containerweight": 100,
    "context": {
        "channel": "desktop",
        "formID": "frmCustomerProfileHelpCenter",
        "platform": "desktopweb",
        "templateType": "forms",
        "topLevelBox": null
    },
    "id": "imgSortRequestStatus",
    "imagescalemode": 1,
    "info": null,
    "isvisible": false,
    "kuid": "c544afa9ae514a2097bda3ba988fddd2",
    "name": "kony.ui.Image2",
    "parent": "flxSortRequestStatus",
    "pf": "frmCustomerProfileHelpCenter",
    "srcType": 1,
    "wType": "Image",
    "widgetalignment": 5,
    "zindex": 1
}