{
    "@class": "com.kony.gen.viz.model.component.KVizUserWidget",
    "DNDConfig": null,
    "__parentReadjusting__": false,
    "_children_": [],
    "_desktopweb_": {},
    "_height_": {
        "type": "ref",
        "value": "preferred"
    },
    "_left_": {
        "type": "string",
        "value": "0dp"
    },
    "_margin_": [
        0,
        0,
        0,
        0
    ],
    "_orientation_": 1,
    "_padding_": [
        0,
        0,
        0,
        0
    ],
    "_percent_": true,
    "_render_": true,
    "_responsiveData_": {},
    "_skin_": "s094cf034ba74d778fe9c91095115ace",
    "_top_": {
        "type": "string",
        "value": "0dp"
    },
    "_vizProps_": {
        "hidewidgethierarchy": false
    },
    "_width_": {
        "type": "string",
        "value": "100%"
    },
    "areflexpropsreferenced": false,
    "autogrowmode": 1,
    "canUpdateUI": true,
    "clipbounds": true,
    "containerweight": 0,
    "dataDiffs": {
        "RequestsHelpCenter": {
            "__events__": {},
            "__info__": {
                "isRoot": true,
                "kuid": "c31950c3f41d43ffb2fa642f90d740e4",
                "srcKUID": "ebe2cba4b0bb49f4b3f26b36ab40800d",
                "wType": "FlexContainer"
            }
        },
        "backToPageHeader": {
            "__events__": {},
            "__info__": {
                "kuid": "jd30749f69e245fcbf02d73c19982a20",
                "srcKUID": "hb5fad23106943849c6301802c50c784",
                "wType": "UserWidgetInstance"
            }
        },
        "backToPageHeader.btnBack": {
            "__events__": {},
            "__info__": {
                "kuid": "d80b314baf5f4e1dbb4a1b5d216faa4e",
                "srcKUID": "j83c3f1d0dba4079a99e38d161baa5a9",
                "wType": "Button"
            }
        },
        "backToPageHeader.flxBack": {
            "__events__": {},
            "__info__": {
                "kuid": "jda0e2b761c940628ab9bfc4ac4ea7d5",
                "srcKUID": "be2e9f33a8984fb491aa71de50d0d61d",
                "wType": "FlexContainer"
            }
        },
        "backToPageHeader.fontIconBack": {
            "__events__": {},
            "__info__": {
                "kuid": "j32c440dbf56438fb798b6f0494587a8",
                "srcKUID": "j6b86e9ae1134bf7aa382d63751c3983",
                "wType": "Label"
            }
        },
        "detailsRow1": {
            "__events__": {},
            "__info__": {
                "kuid": "if72f10ac375420293b1a9767d0781d6",
                "srcKUID": "e78b3f784ca14decacd8c00cae2d6ac6",
                "wType": "UserWidgetInstance"
            }
        },
        "detailsRow1.btnLink3": {
            "__events__": {},
            "__info__": {
                "kuid": "cc7928f267b3420bb59979fcb1d94cef",
                "srcKUID": "fd2ccf34eaa24c63a184d1df5b75aec3",
                "wType": "Button"
            }
        },
        "detailsRow1.flxColumn1": {
            "__events__": {},
            "__info__": {
                "kuid": "hb04584571814e87b76fbca179066502",
                "srcKUID": "d224bb2e1c274d5ab2c35cc46b07a759",
                "wType": "FlexContainer"
            }
        },
        "detailsRow1.flxColumn2": {
            "__events__": {},
            "__info__": {
                "kuid": "e2da622cb6a64d92a3b25afa20f677cf",
                "srcKUID": "ffd0c50c6d764b89a9cff3dc2b06e4cc",
                "wType": "FlexContainer"
            }
        },
        "detailsRow1.flxColumn3": {
            "__events__": {},
            "__info__": {
                "kuid": "bba96597fccb4d5d9ca5702e499418ca",
                "srcKUID": "bebf4125641e49d0ad039195d408a71f",
                "wType": "FlexContainer"
            }
        },
        "detailsRow1.flxDataAndImage1": {
            "__events__": {},
            "__info__": {
                "kuid": "e7433d0e423f4a20a2bcfe0d5296f962",
                "srcKUID": "gd7b7e3a22044b7a97c18dcde2de22b1",
                "wType": "FlexContainer"
            }
        },
        "detailsRow1.flxDataAndImage2": {
            "__events__": {},
            "__info__": {
                "kuid": "dfee232d98f94a91b02b7aef12dea7e5",
                "srcKUID": "af3d8c8182a44073bf65dab20728cec3",
                "wType": "FlexContainer"
            }
        },
        "detailsRow1.flxDataAndImage3": {
            "__events__": {},
            "__info__": {
                "kuid": "gbb1d8a80b314fc296266f933ec08a8b",
                "srcKUID": "j53a7a8a56af470e95703891c542bae5",
                "wType": "FlexContainer"
            }
        },
        "detailsRow1.lblData1": {
            "__events__": {},
            "__info__": {
                "kuid": "a91dccb6816342799a66c8cf2aded6bb",
                "srcKUID": "c4f400161c9840a89ec39375f5b46773",
                "wType": "Label"
            }
        },
        "detailsRow1.lblData2": {
            "__events__": {},
            "__info__": {
                "kuid": "ia824e92384649b9aaf194956b92cc30",
                "srcKUID": "a3734c6639704750b88432d3d9a402cb",
                "wType": "Label"
            }
        },
        "detailsRow1.lblData3": {
            "__events__": {},
            "__info__": {
                "kuid": "j640772496a746d7bac6e6cf53368d41",
                "srcKUID": "b16ec8edc9b04d7bb527a1a47109356c",
                "wType": "Label"
            }
        },
        "detailsRow1.lblHeading1": {
            "__events__": {},
            "__info__": {
                "kuid": "b8d6321c9d0744639dbec9f900f3b3ca",
                "srcKUID": "a9f134e926234c148521a0be93a05f54",
                "wType": "Label"
            }
        },
        "detailsRow1.lblHeading2": {
            "__events__": {},
            "__info__": {
                "kuid": "f4ff5f6430b448eeb7226fa46614d696",
                "srcKUID": "b1e3ddfaa5104acaa153eab92e81bcd2",
                "wType": "Label"
            }
        },
        "detailsRow1.lblHeading3": {
            "__events__": {},
            "__info__": {
                "kuid": "d3aa3764b9e6473a97ab4df28472ed85",
                "srcKUID": "j65ac1b28a9a495186c2eab944fa5e04",
                "wType": "Label"
            }
        },
        "detailsRow1.lblIconData1": {
            "__events__": {},
            "__info__": {
                "kuid": "c1f92aaf62e1468b8f3f5223049af4df",
                "srcKUID": "e86f99cd63944b5cae02d8b141838a79",
                "wType": "Label"
            }
        },
        "detailsRow1.lblIconData2": {
            "__events__": {},
            "__info__": {
                "kuid": "a702dab2ceae4644bd1b3e5dcfd1d39b",
                "srcKUID": "fad57ba619af4f3b8e2c91630557ec23",
                "wType": "Label"
            }
        },
        "detailsRow1.lblIconData3": {
            "__events__": {},
            "__info__": {
                "kuid": "c4fdd4f87539475d95641d27143f56cf",
                "srcKUID": "i199e78d53ff4d25a0f1ac0b7cfa90c1",
                "wType": "Label"
            }
        },
        "flxBottomLine": {
            "__events__": {},
            "__info__": {
                "kuid": "b6632e6635ca41a8b0483ac0b48af0fe",
                "srcKUID": "ec0ad045547544a3b3db54389d2f254a",
                "wType": "FlexContainer"
            }
        },
        "flxBottomSeparator": {
            "__events__": {},
            "__info__": {
                "kuid": "be8d1ca191ce4bd8ad1c548ea26da6c7",
                "srcKUID": "bd4c141ac57c4d20ae9d9fbbea8c0422",
                "wType": "FlexContainer"
            }
        },
        "flxBottomSeperator": {
            "__events__": {},
            "__info__": {
                "kuid": "fc39a39afa534947845c9ac077a50384",
                "srcKUID": "f7272fee25694090aa789d860a21c652",
                "wType": "FlexContainer"
            }
        },
        "flxBtmLine": {
            "__events__": {},
            "__info__": {
                "kuid": "dd0223cc776843cdb6193a3af3de1077",
                "srcKUID": "f1d7b5617cc44386b161ccb1b64a42c1",
                "wType": "FlexContainer"
            }
        },
        "flxCardAccountHeader": {
            "__events__": {},
            "__info__": {
                "kuid": "efb675a5fb5845cb8fa341b9d7def4e5",
                "srcKUID": "dba5753ff5ba481eb7e1292d19efabce",
                "wType": "FlexContainer"
            }
        },
        "flxChannel": {
            "__events__": {},
            "__info__": {
                "kuid": "d79854b22449419b8e5c9c182a005429",
                "srcKUID": "ed097e83ce4542efbf49e5e7e7952946",
                "wType": "FlexContainer"
            }
        },
        "flxClearSearchImage": {
            "__events__": {},
            "__info__": {
                "kuid": "a477f0050e0142fbbc258aea4d8e1c13",
                "srcKUID": "g5fa0f80c01b457f877b6999bc61116a",
                "wType": "FlexContainer"
            }
        },
        "flxColumn1": {
            "__events__": {},
            "__info__": {
                "kuid": "h7900258205a4a3dac9b7ae8372ce344",
                "srcKUID": "baec471221594e01b97a998eacc1249c",
                "wType": "FlexContainer"
            }
        },
        "flxColumn2": {
            "__events__": {},
            "__info__": {
                "kuid": "e236d93ff856451fbde59c53e2705edf",
                "srcKUID": "gf838f0aa5514ca2b0e6e612340c60eb",
                "wType": "FlexContainer"
            }
        },
        "flxColumn3": {
            "__events__": {},
            "__info__": {
                "kuid": "df359587065149bb8e44946051580e99",
                "srcKUID": "h0e753ee3ffe4687b3b53af5d4f2fd4d",
                "wType": "FlexContainer"
            }
        },
        "flxDataAndImage1": {
            "__events__": {},
            "__info__": {
                "kuid": "cda1e63c24f245dbb4335f01a6ff19dc",
                "srcKUID": "aff1725d4943417585a801b5b6134840",
                "wType": "FlexContainer"
            }
        },
        "flxDataAndImage2": {
            "__events__": {},
            "__info__": {
                "kuid": "f58d4a2728f04db39fa2d8d8e2b8cb41",
                "srcKUID": "aef38d1f425f41a8bc7077ece8e0a6f0",
                "wType": "FlexContainer"
            }
        },
        "flxDataAndImage3": {
            "__events__": {},
            "__info__": {
                "kuid": "g4c0c7dde15e4269a0265e55502444a0",
                "srcKUID": "d7c0ac9d796b463eafea4e524e33af49",
                "wType": "FlexContainer"
            }
        },
        "flxDataContainer": {
            "__events__": {},
            "__info__": {
                "kuid": "ie3fd1faf697499eaf3cfcd8f6c86fb3",
                "srcKUID": "fcde011efd0f41c88e3bf1f2e3d8d58c",
                "wType": "FlexContainer"
            }
        },
        "flxDataRow3Col1": {
            "__events__": {},
            "__info__": {
                "kuid": "eeaa3a538f47469b8cc2b56522b3fe04",
                "srcKUID": "e3d45ef3700540e5a9a03548b0b1bb22",
                "wType": "FlexContainer"
            }
        },
        "flxDataRow3Col2": {
            "__events__": {},
            "__info__": {
                "kuid": "d3d191d6b1784673a41ac65262c145b6",
                "srcKUID": "g96e21f6da584bd5bae5047b04a9e3ba",
                "wType": "FlexContainer"
            }
        },
        "flxDate": {
            "__events__": {},
            "__info__": {
                "kuid": "f7eeea35250f4c4da7cb4ecad5ed51f9",
                "srcKUID": "bb20a41667334d679b5889af66190342",
                "wType": "FlexContainer"
            }
        },
        "flxDetails": {
            "__events__": {},
            "__info__": {
                "kuid": "i41ad309d25640d3a3403af1e0042d18",
                "srcKUID": "h59280ec898e4771aedaefdef57bed56",
                "wType": "FlexContainer"
            }
        },
        "flxDetailsContainer": {
            "__events__": {},
            "__info__": {
                "kuid": "c72f99598f264c66b27e41dd1448c256",
                "srcKUID": "ca80cb6d13524009b4dd085cd0e02289",
                "wType": "FlexContainer"
            }
        },
        "flxDetailsContent": {
            "__events__": {},
            "__info__": {
                "kuid": "a26c4fd66ab64ef29e684b5d20c5d58b",
                "srcKUID": "f5bb1f05f53c418fac0397e7ab14d27c",
                "wType": "FlexContainer"
            }
        },
        "flxHeadingContainer": {
            "__events__": {},
            "__info__": {
                "kuid": "j5a7776292dc47a381b99c53d22f1ea4",
                "srcKUID": "d76ebcb912fc4c5da56e0ba117435cb0",
                "wType": "FlexContainer"
            }
        },
        "flxHeadingFilters": {
            "__events__": {},
            "__info__": {
                "kuid": "e90b160beaf94c72873e75a2ed71c142",
                "srcKUID": "a20c10c4e3a847448a3f4083220ee8a4",
                "wType": "FlexContainer"
            }
        },
        "flxNoResults": {
            "__events__": {},
            "__info__": {
                "kuid": "caffb05cb83f49a2ab889c31506630a8",
                "srcKUID": "be2f53ff4d254adbb74fa1af91968f6b",
                "wType": "FlexContainer"
            }
        },
        "flxNotificationId": {
            "__events__": {},
            "__info__": {
                "kuid": "f7c3d5e8392f4a6e9db28b9a9818cea0",
                "srcKUID": "g802824ba49349a9aadc05e87e405253",
                "wType": "FlexContainer"
            }
        },
        "flxNotificationNoResults": {
            "__events__": {},
            "__info__": {
                "kuid": "gd92784ab66f45868c3a70d1b6a77759",
                "srcKUID": "c9095ce52f8445ed831b013250388114",
                "wType": "FlexContainer"
            }
        },
        "flxNotificationSegHC": {
            "__events__": {},
            "__info__": {
                "kuid": "d9c0f1411c7944788886a253044621da",
                "srcKUID": "e84e6cc5aaaf426abc4f5286bd38f4a9",
                "wType": "FlexContainer"
            }
        },
        "flxNotificationStatus": {
            "__events__": {},
            "__info__": {
                "kuid": "fd89bd6da51942acadb6d0da1288f0f3",
                "srcKUID": "je0fc3e213d54834a932c248e6b12e05",
                "wType": "FlexContainer"
            }
        },
        "flxRequestDetailsRow1": {
            "__events__": {},
            "__info__": {
                "kuid": "h9647f2b1c044594a29d4b1bfe1e0de5",
                "srcKUID": "h06fc22fde894013847ce16400d115ed",
                "wType": "FlexContainer"
            }
        },
        "flxRequestDetailsRow2": {
            "__events__": {},
            "__info__": {
                "kuid": "hfd2dd47bee347a2b416e9c8233499ec",
                "srcKUID": "f57cf68902034e13b3b6e9a2fb5dd9db",
                "wType": "FlexContainer"
            },
            "bottom": {
                "Default": {
                    "type": "string",
                    "value": "10dp"
                }
            }
        },
        "flxRequestDetailsRow3": {
            "__events__": {},
            "__info__": {
                "kuid": "a0e6ef62bfbd4cdfac7d43fb549573e0",
                "srcKUID": "f1cf2e1e66494a97ad6f010e1decee7d",
                "wType": "FlexContainer"
            }
        },
        "flxRequestId": {
            "__events__": {},
            "__info__": {
                "kuid": "e6fcbbe5607c40028e3f4e9246851d29",
                "srcKUID": "i753fafd0f3d4046824629b74cdfaabe",
                "wType": "FlexContainer"
            }
        },
        "flxRequestSegHeader": {
            "__events__": {},
            "__info__": {
                "kuid": "b683e7ca46924e1f9f7719d9887bbb0d",
                "srcKUID": "fb8ac20cd6a245b882bcf1dc691dfc25",
                "wType": "FlexContainer"
            }
        },
        "flxRequestStatusFilter": {
            "__events__": {},
            "__info__": {
                "kuid": "bf51c06abb394e73b62dfd52b6d77b7f",
                "srcKUID": "b975272b6e9448be8d804e07c3487a28",
                "wType": "FlexContainer"
            },
            "isVisible": false,
            "left": {
                "Default": {
                    "type": "string",
                    "value": "711dp"
                }
            },
            "top": {
                "Default": {
                    "type": "string",
                    "value": "35dp"
                }
            }
        },
        "flxRequestsOnClick": {
            "__events__": {},
            "__info__": {
                "kuid": "h8df70b614fa4fe4bb5a341d5da4fa1f",
                "srcKUID": "d2c62cd3483b464fa27d281f80801bfd",
                "wType": "FlexContainer"
            },
            "isVisible": false
        },
        "flxRequestsSeg": {
            "__events__": {},
            "__info__": {
                "kuid": "hd884bc7297f4897a01036ae72ee4c49",
                "srcKUID": "j66f1a987e01431d859651c1d7c72412",
                "wType": "FlexContainer"
            }
        },
        "flxRow3Col1": {
            "__events__": {},
            "__info__": {
                "kuid": "aa3ae3edec85440fa7e93687d6ec812b",
                "srcKUID": "jb081617fe494b7c8bcea6b1cea8bc64",
                "wType": "FlexContainer"
            }
        },
        "flxRow3Col2": {
            "__events__": {},
            "__info__": {
                "kuid": "f099849365b5494bbe3d70b90af6f265",
                "srcKUID": "g4b37226b62248e19d5f6c9eadebcc36",
                "wType": "FlexContainer"
            }
        },
        "flxSearchContainer": {
            "__events__": {},
            "__info__": {
                "kuid": "db99b71d8f154b9ca10669b73e767227",
                "srcKUID": "h670ceeb30de47729edd0eaa58152956",
                "wType": "FlexContainer"
            }
        },
        "flxSegmentData": {
            "__events__": {},
            "__info__": {
                "kuid": "b731de9b3ccf40338068750bbe1f51f8",
                "srcKUID": "f0bf3dbf8e894a05bc705cbcc4c3c26e",
                "wType": "FlexContainer"
            },
            "isVisible": true
        },
        "flxSelectedCards": {
            "__events__": {},
            "__info__": {
                "kuid": "g9cbc8080a8b4ed890866e36133bad9e",
                "srcKUID": "d5758051f3534aa2bcc1d34ebe048e48",
                "wType": "FlexContainer"
            }
        },
        "flxStatusCont": {
            "__events__": {},
            "__info__": {
                "kuid": "ib75c6cf11bf4aa2bb40851bc1dcd76a",
                "srcKUID": "a63a0fb0a3dd45c083faf69221f16bec",
                "wType": "FlexContainer"
            }
        },
        "flxStatusHeader": {
            "__events__": {},
            "__info__": {
                "kuid": "ef48f19e2bee436e8d26de2b8f70b650",
                "srcKUID": "bae93b6eacb845b7a7622f445e364d3a",
                "wType": "FlexContainer"
            }
        },
        "flxTopLine": {
            "__events__": {},
            "__info__": {
                "kuid": "bdb3529768ce47459e8e3dc417721ad6",
                "srcKUID": "a673f26908f947a28bfac0f172beb28d",
                "wType": "FlexContainer"
            }
        },
        "flxTopSeperator": {
            "__events__": {},
            "__info__": {
                "kuid": "bae13a7287df46ca8f91df63345bed6d",
                "srcKUID": "fbd338544ba447898ce2fc3d00aaac16",
                "wType": "FlexContainer"
            }
        },
        "flxType": {
            "__events__": {},
            "__info__": {
                "kuid": "edb07c33b1e1441db01d0932de2350a5",
                "srcKUID": "da70fdf4421c40308ccce87f20eb902a",
                "wType": "FlexContainer"
            }
        },
        "flxnotificationSegHeader": {
            "__events__": {},
            "__info__": {
                "kuid": "c0781a9903ec45ad8bd74a4b65b794f4",
                "srcKUID": "e9f223d2995442babd025227698608e2",
                "wType": "FlexContainer"
            }
        },
        "fontIconCross": {
            "__events__": {},
            "__info__": {
                "kuid": "d9de98d21de24785a93ff79b1c805f76",
                "srcKUID": "i6bfa9df675949f1b9c58ce738654bd6",
                "wType": "Label"
            }
        },
        "fontIconSearchImg": {
            "__events__": {},
            "__info__": {
                "kuid": "hcfa6b7f8f2e469a8fcbe46d1bbfa837",
                "srcKUID": "d48e454ac07b4e44b08f7ef0483543d6",
                "wType": "Label"
            }
        },
        "lblCardHeader": {
            "__events__": {},
            "__info__": {
                "kuid": "be5871b4d9034782a704131492a0f846",
                "srcKUID": "bbdf85e2c948464f85f20405d7029a66",
                "wType": "Label"
            }
        },
        "lblChannelHeader": {
            "__events__": {},
            "__info__": {
                "kuid": "bd8d29bce8cd4ecc9d7a73ab9d72689c",
                "srcKUID": "da2202eb3e7f420f85839f135fd860f2",
                "wType": "Label"
            }
        },
        "lblData1": {
            "__events__": {},
            "__info__": {
                "kuid": "c83a570f4f2948658955541fc16fc16c",
                "srcKUID": "e140e09147f1472c99cd451768de831f",
                "wType": "Label"
            }
        },
        "lblData2": {
            "__events__": {},
            "__info__": {
                "kuid": "ea45d6a8242c4d8488522af054e5058b",
                "srcKUID": "bc02724ed4c94475a2d2b89a81c6f740",
                "wType": "Label"
            }
        },
        "lblData3": {
            "__events__": {},
            "__info__": {
                "kuid": "g19727458629458291a741c6ff066b7e",
                "srcKUID": "gcebd38db21e4d23bd0c0d7599db538c",
                "wType": "Label"
            }
        },
        "lblDataRow3Col1": {
            "__events__": {},
            "__info__": {
                "kuid": "a362a35fc85a4071adc357b729012f5d",
                "srcKUID": "e37b1858d8f0434392663a36c18cbe8a",
                "wType": "Label"
            }
        },
        "lblDataRow3Col2": {
            "__events__": {},
            "__info__": {
                "kuid": "cc8afb39b39b402eaac75b1da7ae709a",
                "srcKUID": "a4091635b6a344eaad36e4d99235733f",
                "wType": "Label"
            }
        },
        "lblDate": {
            "__events__": {},
            "__info__": {
                "kuid": "dc22d96ceff742e78c7fd8f2a591932e",
                "srcKUID": "c4f5fdbf44e6429b94e39ddce9191d8c",
                "wType": "Label"
            }
        },
        "lblDetailsHeader": {
            "__events__": {},
            "__info__": {
                "kuid": "e622c68ec5bf41f2b98b72f395fab53b",
                "srcKUID": "fa7fb957185344189be4fd710ff33a28",
                "wType": "Label"
            }
        },
        "lblHeading1": {
            "__events__": {},
            "__info__": {
                "kuid": "b9b74a0d89b743339ffb5e6905c80cbb",
                "srcKUID": "af553d0f4e6b42ab9bf33ced7182e1f9",
                "wType": "Label"
            }
        },
        "lblHeading2": {
            "__events__": {},
            "__info__": {
                "kuid": "f7a4377ff1e64a0f9b3b7713059590ba",
                "srcKUID": "ebfb9f6e181144b69a60bd21e6dce7e1",
                "wType": "Label"
            }
        },
        "lblHeading3": {
            "__events__": {},
            "__info__": {
                "kuid": "bb1cec289eee4f66b3e65b34fb239e2c",
                "srcKUID": "d29cc57bbbee4819a608ac1581b76172",
                "wType": "Label"
            }
        },
        "lblHeadingFilter": {
            "__events__": {},
            "__info__": {
                "kuid": "d88b95eee8894c259c77bd5dc0c1482f",
                "srcKUID": "jabd81d6979742b2af69cd76b86b8a6e",
                "wType": "Label"
            }
        },
        "lblHeadingRow3Col1": {
            "__events__": {},
            "__info__": {
                "kuid": "adabf361f3e246b0955b8aae23232e78",
                "srcKUID": "jb9db518630f407e8dc8ea21ed3313e6",
                "wType": "Label"
            }
        },
        "lblHeadingRow3Col2": {
            "__events__": {},
            "__info__": {
                "kuid": "c2e4fe33a5fd4a75b6b9987459a03647",
                "srcKUID": "a77df736a5ef425e97d736ed925449f4",
                "wType": "Label"
            }
        },
        "lblIconCardAcc": {
            "__events__": {},
            "__info__": {
                "kuid": "df57a3ea01294a2baeaa2623d5088e2e",
                "srcKUID": "c0dde61631d54cef9498aedad7ae3349",
                "wType": "Label"
            }
        },
        "lblIconChannelSort": {
            "__events__": {},
            "__info__": {
                "kuid": "e19737e9839640878903d59382c174ef",
                "srcKUID": "bf1580e5c8ef4b78890f5a3f09272bb5",
                "wType": "Label"
            }
        },
        "lblIconDateSort": {
            "__events__": {},
            "__info__": {
                "kuid": "ca859582f2ce4310aa0a4da43cb333c3",
                "srcKUID": "g75811fbce094a828b4eea7480714773",
                "wType": "Label"
            }
        },
        "lblIconDetailsSort": {
            "__events__": {},
            "__info__": {
                "kuid": "h76706f248e84ccba560a575809bd502",
                "srcKUID": "d98845c2a64e4563856fe435eae330a9",
                "wType": "Label"
            }
        },
        "lblIconIdSort": {
            "__events__": {},
            "__info__": {
                "kuid": "ie0844d9b8914b2f8117e7ca31703d79",
                "srcKUID": "f66b965bbd3d40d3b3a640e4865c9611",
                "wType": "Label"
            }
        },
        "lblIconNotifStatusSort": {
            "__events__": {},
            "__info__": {
                "kuid": "a42dda5581974be895388d79a195836b",
                "srcKUID": "cc251f602b144fe7bfd8c98e1aa94b27",
                "wType": "Label"
            }
        },
        "lblIconNotificationIdSort": {
            "__events__": {},
            "__info__": {
                "kuid": "e009433b60e94ba48c577a1d492b779e",
                "srcKUID": "c06d56e593a9417fbc9ab1cffa19d2f6",
                "wType": "Label"
            }
        },
        "lblIconSelCardsSort": {
            "__events__": {},
            "__info__": {
                "kuid": "ba06f705e9334351ae252703cc11c9ea",
                "srcKUID": "d7c95343230949cb87b789642c6db790",
                "wType": "Label"
            }
        },
        "lblIconStatus": {
            "__events__": {},
            "__info__": {
                "kuid": "a89c9baed23143b0b12f4f17f29db57f",
                "srcKUID": "c34c4d65844849fb8a2768ccbaf8a824",
                "wType": "Label"
            }
        },
        "lblIconStatusSort": {
            "__events__": {},
            "__info__": {
                "kuid": "cc34c03e5842432186276c966392d8ff",
                "srcKUID": "d861b45ab0b6481cbed96c206403507e",
                "wType": "Label"
            }
        },
        "lblIconTypeSort": {
            "__events__": {},
            "__info__": {
                "kuid": "e57da9f0628b4dacabdc82875cae1bcf",
                "srcKUID": "d1272582d5fd42aeab0c86379af6ab2e",
                "wType": "Label"
            }
        },
        "lblIdHeading": {
            "__events__": {},
            "__info__": {
                "kuid": "ace886893d934a1aa77ddb06d10a54f3",
                "srcKUID": "b668b85711a044e28271037d5918f7ae",
                "wType": "Label"
            }
        },
        "lblIdValue": {
            "__events__": {},
            "__info__": {
                "kuid": "f87b73aa9f454849b0fe55a84c636061",
                "srcKUID": "jce222d9b8d14ff99486aa961e94c0bc",
                "wType": "Label"
            }
        },
        "lblNotifStatusHeader": {
            "__events__": {},
            "__info__": {
                "kuid": "ffffe9a71e254db9bcb1e88b3a6e92da",
                "srcKUID": "db7c1c7a73434b79b1dc1b43f494e624",
                "wType": "Label"
            }
        },
        "lblNotificationIdHeader": {
            "__events__": {},
            "__info__": {
                "kuid": "ff8a1658e18446d8b3becc9aa7484be1",
                "srcKUID": "h524c4d573d947e59882d27fe2dae353",
                "wType": "Label"
            }
        },
        "lblRequestId": {
            "__events__": {},
            "__info__": {
                "kuid": "a447e170a5ea445d8eef04f097b66ea5",
                "srcKUID": "f0c5c579bd5d4dd1bb07c442c5d54dc8",
                "wType": "Label"
            }
        },
        "lblSelCardsHeader": {
            "__events__": {},
            "__info__": {
                "kuid": "gce8aa3e5d284585b2d62bfae137d38d",
                "srcKUID": "f87961483fa04296b67ea0702d809872",
                "wType": "Label"
            }
        },
        "lblStatus": {
            "__events__": {},
            "__info__": {
                "kuid": "aec9cc4957f24f628fbedb128fac8f7e",
                "srcKUID": "f51caeaa53a546b890e6d2103ce6005b",
                "wType": "Label"
            }
        },
        "lblStatusHeader": {
            "__events__": {},
            "__info__": {
                "kuid": "cde92bd8bc9e43188770d4a101019d06",
                "srcKUID": "c4a8585540c94c3ea679a61e6a024f6f",
                "wType": "Label"
            }
        },
        "lblTypeHeader": {
            "__events__": {},
            "__info__": {
                "kuid": "aa16e9d2c470452f8aec855e60bc1abd",
                "srcKUID": "c2101dce07b1480092e4440daf5eca63",
                "wType": "Label"
            }
        },
        "rtxNoNotification": {
            "__events__": {},
            "__info__": {
                "kuid": "hf00562cffd4496686306d7df51bcf0f",
                "srcKUID": "c10919a501f446309b993c76c96a8536",
                "wType": "RichText"
            }
        },
        "rtxNoResults": {
            "__events__": {},
            "__info__": {
                "kuid": "c4efdfcd186e43109f8bd0641646689a",
                "srcKUID": "a0d96df8d8364c4a8c9439b7dcbd7eb3",
                "wType": "RichText"
            }
        },
        "segNotificationsHC": {
            "__events__": {},
            "__info__": {
                "kuid": "e85f459dfc5e4e93b5e3d98e79b33bf2",
                "srcKUID": "ha84f9b76682418d916f6e666f727f45",
                "wType": "Segment"
            }
        },
        "segRequestsHelpCenter": {
            "__events__": {},
            "__info__": {
                "kuid": "eef66adecc38474cac4546a5fc666257",
                "srcKUID": "ae580c945ebb4e169aaa4fc4590dcb11",
                "wType": "Segment"
            }
        },
        "statusFilterMenu": {
            "__events__": {},
            "__info__": {
                "kuid": "i775039898ef435e89e66d0b1f1b04c5",
                "srcKUID": "b7c4e0c8a3de4223a56d86ac915a821c",
                "wType": "UserWidgetInstance"
            }
        },
        "statusFilterMenu.flxArrowImage": {
            "__events__": {},
            "__info__": {
                "kuid": "ge0928b0546e43b58ff82f7c3b922a00",
                "srcKUID": "g1f5ef003e8c4493b26624826b0ff315",
                "wType": "FlexContainer"
            }
        },
        "statusFilterMenu.flxChechboxOuter": {
            "__events__": {},
            "__info__": {
                "kuid": "h690238fcbea4835a4f8a0ec714d9f0b",
                "srcKUID": "dc2f95c5a67842b189578761d7130613",
                "wType": "FlexContainer"
            }
        },
        "statusFilterMenu.imgUpArrow": {
            "__events__": {},
            "__info__": {
                "kuid": "ed2683aeffa64ed9b37aef0d3b4d0f78",
                "srcKUID": "e5437b0de5c84d3185a174b4cb5ccb41",
                "wType": "Image"
            },
            "src": "uparrow_2x.png"
        },
        "statusFilterMenu.segStatusFilterDropdown": {
            "__events__": {},
            "__info__": {
                "kuid": "h1a27fe1814a4b36ab89519cb1438728",
                "srcKUID": "d2ce7af9ab1b43c3ba864dde13aba406",
                "wType": "Segment"
            }
        },
        "tbxSearchBox": {
            "__events__": {
                "ide_onTouchStart": "AS_TextField_f57fa670aaf141f8bacaaaf7703bb5c9"
            },
            "__info__": {
                "kuid": "d7c3d51ca8594b3a9c87e26d0bb222cf",
                "srcKUID": "d81f003d89144290a82aa66bc5de1875",
                "wType": "TextField"
            }
        }
    },
    "id": "RequestsHelpCenter",
    "info": null,
    "iscustomlayout": false,
    "isdatareferenced": false,
    "isvisible": true,
    "kuid": "c31950c3f41d43ffb2fa642f90d740e4",
    "layouttype": 2,
    "masterType": 0,
    "name": "kony.ui.UserWidgetInstance",
    "parent": "flxRequestAndNotificationList",
    "pf": "frmCustomerProfileHelpCenter",
    "retaincontentalignment": false,
    "retainflexpositionproperties": false,
    "snaptogrid": true,
    "sourceUserWidget": "ebe2cba4b0bb49f4b3f26b36ab40800d",
    "vizprops": {
        "hidewidgethierarchy": false
    },
    "wType": "UserWidgetInstance"
}