{
    "@class": "com.kony.gen.viz.model.component.KVizDateField",
    "DNDConfig": null,
    "Image": "calbtn.png",
    "__id": "uwb87f767a28b148258e76990e63ee1ead_calFrom",
    "__input": "calFrom",
    "__parentReadjusting__": false,
    "_bottom_": {
        "type": "string",
        "value": "20px"
    },
    "_data_": null,
    "_date_": [
        null,
        null,
        null
    ],
    "_height_": {
        "type": "string",
        "value": "40dp"
    },
    "_margin_": [
        0,
        0,
        0,
        0
    ],
    "_padding_": [
        3,
        0,
        3,
        0
    ],
    "_placeholder_": "To",
    "_right_": {
        "type": "string",
        "value": "10px"
    },
    "_skin_": "s5f5a63f974243bf94489038a1319edd",
    "_top_": {
        "type": "string",
        "value": "10dp"
    },
    "_width_": {
        "type": "string",
        "value": "130px"
    },
    "advview": "default",
    "calendaricon": "calbtn.png",
    "canUpdateUI": true,
    "centerx": {
        "type": "string",
        "value": "50%"
    },
    "containerweight": 100,
    "contentalignment": 4,
    "datecomponents": null,
    "dateeditable": true,
    "dateformat": "MM/dd/yyyy",
    "datesGroup": [],
    "datesState": 0,
    "day": null,
    "daytextalignmentincell": 5,
    "displayedMonths": [
        1,
        2018
    ],
    "entereddate": null,
    "format": "MM/dd/yyyy",
    "formatteddate": null,
    "hidedaysheader": false,
    "hidemonthsheader": false,
    "hour": null,
    "id": "calTo",
    "info": null,
    "isvisible": true,
    "kuid": "bcddba4cd3d44571b106546574edb895",
    "minutes": null,
    "month": null,
    "monthsinrow": 3,
    "name": "kony.ui.Calendar",
    "navigatorAlert": "Invalid Selection",
    "noofmonths": 1,
    "paddinginpixel": false,
    "pagedate": "/2017",
    "parent": "flxDatepicker",
    "pf": "userwidgetmodel",
    "popupHeight": "auto",
    "popupWidth": "auto",
    "seconds": null,
    "selectdate": "//2017",
    "startDay": 0,
    "viewtype": "default",
    "wType": "Calendar",
    "widgetalignment": 5,
    "widths": [
        "14.2857%;",
        "14.2857%;",
        "14.2857%;",
        "14.2857%;",
        "14.2857%;",
        "14.2857%;",
        "14.2857%;"
    ],
    "year": null,
    "zindex": 1
}