{
    "@class": "com.kony.gen.viz.model.component.KVizUserWidget",
    "DNDConfig": null,
    "__parentReadjusting__": false,
    "_children_": [],
    "_desktopweb_": {},
    "_height_": {
        "type": "string",
        "value": "100%"
    },
    "_left_": {
        "type": "string",
        "value": "0dp"
    },
    "_margin_": [
        0,
        0,
        0,
        0
    ],
    "_orientation_": 1,
    "_padding_": [
        0,
        0,
        0,
        0
    ],
    "_percent_": true,
    "_render_": true,
    "_responsiveData_": {},
    "_skin_": "s8ff24328417401b877c3ceb2a5fa27c",
    "_top_": {
        "type": "string",
        "value": "0dp"
    },
    "_vizProps_": {
        "hidewidgethierarchy": false
    },
    "_width_": {
        "type": "string",
        "value": "100%"
    },
    "areflexpropsreferenced": false,
    "canUpdateUI": true,
    "clipbounds": true,
    "containerweight": 0,
    "dataDiffs": {
        "addAndRemoveOptions": {
            "__events__": {},
            "__info__": {
                "isRoot": true,
                "kuid": "de1b75863dc64875a4e9f32a0ee633cc",
                "srcKUID": "h74ee31cf9834a748e874c9083db209a",
                "wType": "FlexContainer"
            }
        },
        "btnRemoveAll": {
            "__events__": {},
            "__info__": {
                "kuid": "h398b19c4fbf48e990ba51fcbd6b006a",
                "srcKUID": "i81619f589d14e10a59f9e78071674a8",
                "wType": "Button"
            }
        },
        "btnSelectAll": {
            "__events__": {},
            "__info__": {
                "kuid": "d74b18a3142d4cbb8995ad84c8c1fee8",
                "srcKUID": "eb037c28370f4d0c8645bb2c33ac2a1d",
                "wType": "Button"
            },
            "text": "Add All"
        },
        "flxAddOptionsSegment": {
            "__events__": {},
            "__info__": {
                "kuid": "dbaad5c4418845e7a9fb02ff260f80a7",
                "srcKUID": "hd2a4c78aff64b93b88563b2f66ab0ba",
                "wType": "FlexContainer"
            }
        },
        "flxAvailableOptions": {
            "__events__": {},
            "__info__": {
                "kuid": "c196b5554599466e9486aee27bd7dc51",
                "srcKUID": "ja6c73faac1b4297bba8d56f888c65b4",
                "wType": "FlexContainer"
            }
        },
        "flxAvailableOptionsWrapper": {
            "__events__": {},
            "__info__": {
                "kuid": "f6f5d471b81d46b09d357b7a0dcac799",
                "srcKUID": "fa80a1f715434fef83ca65975338b5ce",
                "wType": "FlexContainer"
            }
        },
        "flxClearSearchImage": {
            "__events__": {},
            "__info__": {
                "kuid": "c750aa789c8041158e6b24ff2a3fb309",
                "srcKUID": "b1ca3598372044b1ae131302149ca092",
                "wType": "FlexContainer"
            }
        },
        "flxSearch": {
            "__events__": {},
            "__info__": {
                "kuid": "if9b043450684aac875b8188348f4d37",
                "srcKUID": "deb8843c454744049c334a9b84731b0e",
                "wType": "FlexContainer"
            }
        },
        "flxSearchContainer": {
            "__events__": {},
            "__info__": {
                "kuid": "hc9ddd318f0e44b28d3f5c2833742b86",
                "srcKUID": "e1edbe3b254848eaa27004022b66eb8a",
                "wType": "FlexContainer"
            }
        },
        "flxSearchImage": {
            "__events__": {},
            "__info__": {
                "kuid": "e8728c87c0934f4885fff2e19ae3a836",
                "srcKUID": "g5eb438ea748400595ecaf631297379c",
                "wType": "FlexContainer"
            }
        },
        "flxSegSelectedOptions": {
            "__events__": {},
            "__info__": {
                "kuid": "b9e315d2fb274dedbefca27b1258197a",
                "srcKUID": "b5c4cd4d2e324f64959f01b845d7b507",
                "wType": "FlexContainer"
            }
        },
        "flxSelectedOptions": {
            "__events__": {},
            "__info__": {
                "kuid": "jce51895527d4aa8a4af355f5479dd8f",
                "srcKUID": "c56f11df7aae4a29a52f4996742ed730",
                "wType": "FlexContainer"
            }
        },
        "flxSelectedOptionsWrapper": {
            "__events__": {},
            "__info__": {
                "kuid": "hb8ed1dd912c41109d227dc6aed2f58d",
                "srcKUID": "a74c6a4fa8044c72834910933e310d82",
                "wType": "FlexContainer"
            }
        },
        "imgClearSearch": {
            "__events__": {},
            "__info__": {
                "kuid": "e1b71ad53806438786471ef58ab84baa",
                "srcKUID": "ceeaa77876cd4c04ab4054398f0f82a3",
                "wType": "Image"
            },
            "src": "close_blue.png"
        },
        "imgSearchIcon": {
            "__events__": {},
            "__info__": {
                "kuid": "hcd6917643a84a189e405d75111adfda",
                "srcKUID": "bdcb0c628cbf4299a4db05aa098322bb",
                "wType": "Image"
            },
            "src": "search_1x.png"
        },
        "lblAvailableOptionsHeading": {
            "__events__": {},
            "__info__": {
                "kuid": "fafb20db39804937b925df441fcba367",
                "srcKUID": "df75178c32e5499a8c57de7b0050b07a",
                "wType": "Label"
            },
            "text": "Available Groups"
        },
        "lblSelectedOption": {
            "__events__": {},
            "__info__": {
                "kuid": "a2bbd76e1b8348f2955f04e030fa54df",
                "srcKUID": "e48a3ee7191d461e954bb0fc3a555042",
                "wType": "Label"
            },
            "i18n_text": null,
            "text": "Selected Groups"
        },
        "rtxAvailableOptionsMessage": {
            "__events__": {},
            "__info__": {
                "kuid": "be0444d185b34e5d97e5a530146214cc",
                "srcKUID": "fa2ff6331c4e4dbb87e0948e88ecf623",
                "wType": "RichText"
            }
        },
        "rtxSelectedOptionsMessage": {
            "__events__": {},
            "__info__": {
                "kuid": "ac1b0a15ed034340933ecef3d784b8eb",
                "srcKUID": "f79b233552e54c5f9dc1156d8096e37c",
                "wType": "RichText"
            }
        },
        "segAddOptions": {
            "__events__": {},
            "__info__": {
                "kuid": "d090b0fd61274903a79b04ac172ea4db",
                "srcKUID": "f7fe9a7e0eba466fa904f09ef227f0b4",
                "wType": "Segment"
            }
        },
        "segSelectedOptions": {
            "__events__": {},
            "__info__": {
                "kuid": "b1a77d56fffb4fbe8db7f7a4c7568d8e",
                "srcKUID": "f129758049094634bf1812dadab5b4fb",
                "wType": "Segment"
            }
        },
        "tbxSearchBox": {
            "__events__": {},
            "__info__": {
                "kuid": "e6fc0ec985ff4544a69f808e447809cb",
                "srcKUID": "e35cf1351794406aaf557b7d0c6b2f9e",
                "wType": "TextField"
            }
        }
    },
    "id": "addAndRemoveGroups",
    "info": null,
    "isdatareferenced": false,
    "isvisible": true,
    "kuid": "de1b75863dc64875a4e9f32a0ee633cc",
    "layouttype": 2,
    "masterType": 0,
    "name": "kony.ui.UserWidgetInstance",
    "parent": "flxAddAndRemoveGroups",
    "pf": "frmCustomerProfileRoles",
    "snaptogrid": true,
    "sourceUserWidget": "h74ee31cf9834a748e874c9083db209a",
    "vizprops": {
        "hidewidgethierarchy": false
    },
    "wType": "UserWidgetInstance"
}