{
    "@class": "com.kony.gen.viz.model.component.KVizUserWidget",
    "DNDConfig": null,
    "__parentReadjusting__": false,
    "_children_": [],
    "_desktopweb_": {},
    "_height_": {
        "type": "string",
        "value": "20px"
    },
    "_left_": {
        "type": "string",
        "value": "0dp"
    },
    "_margin_": [
        0,
        0,
        0,
        0
    ],
    "_orientation_": 1,
    "_padding_": [
        0,
        0,
        0,
        0
    ],
    "_percent_": true,
    "_render_": true,
    "_responsiveData_": {},
    "_skin_": "s8ff24328417401b877c3ceb2a5fa27c",
    "_top_": {
        "type": "string",
        "value": "0dp"
    },
    "_vizProps_": {
        "hidewidgethierarchy": false
    },
    "_width_": {
        "type": "string",
        "value": "100%"
    },
    "areflexpropsreferenced": false,
    "canUpdateUI": true,
    "clipbounds": true,
    "containerweight": 0,
    "dataDiffs": {
        "backToPageHeader": {
            "__events__": {},
            "__info__": {
                "isRoot": true,
                "kuid": "h4efffbea94845cd8dc3b5f71b3e3d35",
                "srcKUID": "24ea587af3ca43bebbdca6cfa4ad6be3",
                "wType": "FlexContainer"
            }
        },
        "btnBack": {
            "__events__": {},
            "__info__": {
                "kuid": "e7991d6c28a444bb8f01548e7d34c464",
                "srcKUID": "j7535d503246479497ace2c4c79047b2",
                "wType": "Button"
            }
        },
        "flxBack": {
            "__events__": {},
            "__info__": {
                "kuid": "ed4e28712b9140ddabbee161fac335c7",
                "srcKUID": "gf28a7ebb0fd4d6ca2636e03b4d175de",
                "wType": "FlexContainer"
            }
        },
        "fontIconBack": {
            "__events__": {},
            "__info__": {
                "kuid": "b713994d8e9b4aa38937e85bf3e17da4",
                "srcKUID": "d3bee050e9ea4c6ba62e8195b118faf0",
                "wType": "Label"
            }
        }
    },
    "id": "backToGroupsListing",
    "info": null,
    "isdatareferenced": false,
    "isvisible": true,
    "kuid": "h4efffbea94845cd8dc3b5f71b3e3d35",
    "layouttype": 3,
    "masterType": 0,
    "name": "kony.ui.UserWidgetInstance",
    "parent": "flxBackToGroupsListing",
    "pf": "frmCustomerProfileRoles",
    "snaptogrid": true,
    "sourceUserWidget": "24ea587af3ca43bebbdca6cfa4ad6be3",
    "vizprops": {
        "hidewidgethierarchy": false
    },
    "wType": "UserWidgetInstance"
}