{
    "@class": "com.kony.gen.viz.model.component.KVizButton",
    "DNDConfig": null,
    "__parentReadjusting__": false,
    "_height_": {
        "type": "string",
        "value": "40px"
    },
    "_margin_": [
        6,
        6,
        6,
        6
    ],
    "_padding_": [
        3,
        0,
        3,
        0
    ],
    "_right_": {
        "type": "string",
        "value": "20px"
    },
    "_skin_": "s68f239b5bef4ddda93b35d84ab737ae",
    "_text_": "YES, ENABLE",
    "_width_": {
        "type": "ref",
        "value": "preferred"
    },
    "canUpdateUI": true,
    "centery": {
        "type": "string",
        "value": "50%"
    },
    "containerweight": 100,
    "contentalignment": 5,
    "desktopweb": {
        "psp": {
            "hoverSkin": "sa0a214e6979469ebf190bb69eae8def"
        }
    },
    "displaytext": true,
    "focusskin": "s68f239b5bef4ddda93b35d84ab737ae",
    "id": "btnEstatementEnable",
    "info": null,
    "isvisible": true,
    "kuid": "i2a46e803e3448268d829026003bff05",
    "minwidth": {
        "type": "string",
        "value": "100px"
    },
    "name": "kony.ui.Button",
    "paddinginpixel": false,
    "parent": "flxEstatementButtons",
    "pf": "frmCustomerProfileRoles",
    "texti18n": "i18n.PopUp.YesEnable",
    "wType": "Button",
    "zindex": 20
}