{
    "@class": "com.kony.gen.viz.model.component.KVizUserWidget",
    "DNDConfig": null,
    "__parentReadjusting__": false,
    "_android_": {},
    "_androidwearos_": {},
    "_children_": [],
    "_desktopweb_": {},
    "_height_": {
        "type": "ref",
        "value": "preferred"
    },
    "_ipad_": {},
    "_iphone_": {},
    "_kiosk_": {},
    "_left_": {
        "type": "string",
        "value": ""
    },
    "_margin_": [
        0,
        0,
        0,
        0
    ],
    "_orientation_": 1,
    "_padding_": [
        0,
        0,
        0,
        0
    ],
    "_percent_": true,
    "_responsiveData_": {},
    "_right_": {
        "type": "string",
        "value": "80px"
    },
    "_skin_": "s8ff24328417401b877c3ceb2a5fa27c",
    "_spa_": {},
    "_spaan_": {},
    "_spaandroidtablet_": {},
    "_spabb_": {},
    "_spaip_": {},
    "_spaipad_": {},
    "_spamobile_": {},
    "_spatablet_": {},
    "_spawindowstablet_": {},
    "_spawinphone8_": {},
    "_tabrcandroid_": {},
    "_top_": {
        "type": "string",
        "value": "58dp"
    },
    "_vizProps_": {
        "hidewidgethierarchy": false
    },
    "_width_": {
        "type": "string",
        "value": "230px"
    },
    "_windows10_": {},
    "_windows8_": {},
    "_winphone10_": {},
    "_winphone8_": {},
    "areflexpropsreferenced": false,
    "autogrowmode": 1,
    "canUpdateUI": true,
    "clipbounds": true,
    "containerweight": 0,
    "dataDiffs": {
        "ToolTip": {
            "__events__": {},
            "__info__": {
                "isRoot": true,
                "kuid": "jb6b95e0da8c4ab3be3fd2e239cf3d93",
                "srcKUID": "d2e8e05418294939bb169899d92582ca",
                "wType": "FlexContainer"
            },
            "isVisible": false,
            "left": {
                "Default": {
                    "type": "string",
                    "value": ""
                }
            },
            "right": {
                "Default": {
                    "type": "string",
                    "value": "80px"
                }
            },
            "top": {
                "Default": {
                    "type": "string",
                    "value": "58dp"
                }
            }
        },
        "flxToolTipMessage": {
            "__events__": {},
            "__info__": {
                "kuid": "c3366265f1de497db8d1bf096e767d42",
                "srcKUID": "cd78a1e8c5f4485887810951944b2775",
                "wType": "FlexContainer"
            }
        },
        "lblNoConcentToolTip": {
            "__events__": {},
            "__info__": {
                "kuid": "b4b4538c6bd7462ab493cb35fd038ea3",
                "srcKUID": "c2397e5b3585463faa9fed82f0f10286",
                "wType": "Label"
            }
        },
        "lblarrow": {
            "__events__": {},
            "__info__": {
                "kuid": "e1817513b7ce4ed6934efef2d6cbc61b",
                "srcKUID": "db1c452d6a2b41ba8fffadcdfc88f362",
                "wType": "Label"
            }
        }
    },
    "enablescrolling": true,
    "id": "CSRAssistToolTip",
    "info": null,
    "iscustomlayout": false,
    "isdatareferenced": false,
    "issegmentchild": false,
    "isvisible": false,
    "kuid": "jb6b95e0da8c4ab3be3fd2e239cf3d93",
    "layouttype": 2,
    "masterType": 0,
    "name": "kony.ui.UserWidgetInstance",
    "parent": "flxMainContent",
    "pf": "frmCustomerProfileRoles",
    "retaincontentalignment": false,
    "retainflexpositionproperties": false,
    "snapgridsize": 10,
    "snaptogrid": true,
    "sourceUserWidget": "d2e8e05418294939bb169899d92582ca",
    "wType": "UserWidgetInstance"
}