{
    "@class": "com.kony.gen.viz.model.component.KVizUserWidget",
    "DNDConfig": null,
    "__parentReadjusting__": false,
    "_android_": {},
    "_androidwearos_": {},
    "_children_": [],
    "_desktopweb_": {},
    "_height_": {
        "type": "ref",
        "value": "preferred"
    },
    "_ipad_": {},
    "_iphone_": {},
    "_kiosk_": {},
    "_left_": {
        "type": "string",
        "value": "0dp"
    },
    "_margin_": [
        0,
        0,
        0,
        0
    ],
    "_orientation_": 1,
    "_padding_": [
        0,
        0,
        0,
        0
    ],
    "_percent_": true,
    "_responsiveData_": {},
    "_skin_": "s8ff24328417401b877c3ceb2a5fa27c",
    "_spa_": {},
    "_spaan_": {},
    "_spaandroidtablet_": {},
    "_spabb_": {},
    "_spaip_": {},
    "_spaipad_": {},
    "_spamobile_": {},
    "_spatablet_": {},
    "_spawindowstablet_": {},
    "_spawinphone8_": {},
    "_tabrcandroid_": {},
    "_top_": {
        "type": "string",
        "value": "0dp"
    },
    "_vizProps_": {
        "hidewidgethierarchy": false
    },
    "_width_": {
        "type": "string",
        "value": "100%"
    },
    "_windows10_": {},
    "_windows8_": {},
    "_winphone10_": {},
    "_winphone8_": {},
    "areflexpropsreferenced": false,
    "autogrowmode": 1,
    "canUpdateUI": true,
    "clipbounds": true,
    "containerweight": 0,
    "dataDiffs": {
        "dropdownMainHeader": {
            "__events__": {},
            "__info__": {
                "isRoot": true,
                "kuid": "e999428ff4b34f9e8c55c8d00a7d23a3",
                "srcKUID": "e9ecd1a954fe449f933d74d4475ecb2c",
                "wType": "FlexContainer"
            }
        },
        "flxArrowImage": {
            "__events__": {},
            "__info__": {
                "kuid": "e31ad8ae635247229f691c8472283dd5",
                "srcKUID": "a0654fb367434863a3dd04394f488963",
                "wType": "FlexContainer"
            }
        },
        "flxChangePassword": {
            "__events__": {},
            "__info__": {
                "kuid": "af846461056249e79ea2b734cd57219a",
                "srcKUID": "b9f5aa1dec1945e8a4fc706963151525",
                "wType": "FlexContainer"
            }
        },
        "flxDropdown": {
            "__events__": {},
            "__info__": {
                "kuid": "cd7e56af4a694fea92b52815e46d6d95",
                "srcKUID": "e3ae96d2ab8e4053a060a40d0b51b0f7",
                "wType": "FlexContainer"
            },
            "isVisible": false
        },
        "flxHeaderUserOptions": {
            "__events__": {},
            "__info__": {
                "kuid": "cc8d19d7b5374a43b13a53fde25d44e0",
                "srcKUID": "d725df1665b84f33adf91d068d28c92d",
                "wType": "FlexContainer"
            }
        },
        "flxIconChangePswd": {
            "__events__": {},
            "__info__": {
                "kuid": "aee28553040046e6b501e9f2e1ba65d0",
                "srcKUID": "a81662e8e3404d93b7def6cc521c34d3",
                "wType": "FlexContainer"
            }
        },
        "flxIconSignOut": {
            "__events__": {},
            "__info__": {
                "kuid": "iaee35665d9440f8a05f28a2942db396",
                "srcKUID": "d868d38e0d244a4394c73cb0e36d80f5",
                "wType": "FlexContainer"
            }
        },
        "flxOuterActions": {
            "__events__": {},
            "__info__": {
                "kuid": "f6fd841a386949148f47566fe6f34ba4",
                "srcKUID": "a995670c56484d68bb9ce2e772b37ca1",
                "wType": "FlexContainer"
            }
        },
        "flxSignOut": {
            "__events__": {},
            "__info__": {
                "kuid": "ff1bd8883e774fb583ab6030cabb5345",
                "srcKUID": "b5b4e89312864aba9b92703592a93bdc",
                "wType": "FlexContainer"
            }
        },
        "imgUpArrow": {
            "__events__": {},
            "__info__": {
                "kuid": "dea35c95da264f7ea9e0806242be7530",
                "srcKUID": "ia67f325a5bd440980ffbdd6113c1ed9",
                "wType": "Image"
            },
            "src": "uparrow_2x.png"
        },
        "lblChangePswd": {
            "__events__": {},
            "__info__": {
                "kuid": "faf1f4600c864b43a98f680f0ea83843",
                "srcKUID": "h6ef861927f14067a6e24571afbf3ac8",
                "wType": "Label"
            }
        },
        "lblIconChangePswrd": {
            "__events__": {},
            "__info__": {
                "kuid": "b62a7bea55134e24a54c1b95467fe5bc",
                "srcKUID": "c7e885b835f144349ee945acf74dc742",
                "wType": "Label"
            }
        },
        "lblIconDownArrow": {
            "__events__": {},
            "__info__": {
                "kuid": "cfd4981be8d84d8c9afdead31af3309d",
                "srcKUID": "ecb7499ea0ed400b85fb02d23bdca2cd",
                "wType": "Label"
            }
        },
        "lblIconSignOut": {
            "__events__": {},
            "__info__": {
                "kuid": "bdd4ba6e8f594380a886e6c19245eb95",
                "srcKUID": "cef5bc51d7cc4302bb12ff0d453a0843",
                "wType": "Label"
            }
        },
        "lblSignOut": {
            "__events__": {},
            "__info__": {
                "kuid": "f4f4f258902842d28d4ceba70de68eb7",
                "srcKUID": "a5a8860442564f66b1446440e5b757ea",
                "wType": "Label"
            }
        },
        "lblUserName": {
            "__events__": {},
            "__info__": {
                "kuid": "f5504dc85ead4d42b1523ebee2460b34",
                "srcKUID": "h86662bbad8b4d65b161e0756ea7b35d",
                "wType": "Label"
            }
        }
    },
    "enablescrolling": true,
    "id": "dropdownMainHeader",
    "info": null,
    "iscustomlayout": false,
    "isdatareferenced": false,
    "issegmentchild": false,
    "isvisible": true,
    "kuid": "e999428ff4b34f9e8c55c8d00a7d23a3",
    "layouttype": 2,
    "masterType": 0,
    "name": "kony.ui.UserWidgetInstance",
    "parent": "flxHeaderDropdown",
    "pf": "frmCustomerProfileRoles",
    "retaincontentalignment": false,
    "retainflexpositionproperties": false,
    "retainflowhorizontalalignment": false,
    "snapgridsize": 10,
    "snaptogrid": true,
    "sourceUserWidget": "e9ecd1a954fe449f933d74d4475ecb2c",
    "wType": "UserWidgetInstance"
}