{
    "DNDConfig": null,
    "__parentReadjusting__": false,
    "_height_": {
        "type": "ref",
        "value": "preferred"
    },
    "_left_": {
        "type": "string",
        "value": "0dp"
    },
    "_margin_": [
        0,
        0,
        0,
        0
    ],
    "_orientation_": 6,
    "_padding_": [
        0,
        0,
        0,
        0
    ],
    "_percent_": true,
    "_skin_": "sd89a921ecc34c6382fc233008f56a43",
    "_top_": {
        "type": "string",
        "value": "0px"
    },
    "_width_": {
        "type": "string",
        "value": "100%"
    },
    "allboxes": [],
    "autogrowmode": 1,
    "canUpdateUI": true,
    "children": [
        "flxEstatementClose",
        "lblEnableEstatement",
        "lblEstatementHeader",
        "lbxEstatementEmail",
        "lblEstatementMessage"
    ],
    "clipbounds": true,
    "containerweight": 100,
    "enablescrolling": true,
    "id": "flxEstatementInner",
    "info": null,
    "isvisible": true,
    "kuid": "dd64b95710214bf98db86bcb6222ab64",
    "layouttype": 2,
    "name": "kony.ui.FlexContainer",
    "parent": "flxEstatement",
    "pf": "frmCustomerProfileRoles",
    "snapgridsize": 10,
    "snaptogrid": true,
    "wType": "FlexContainer",
    "widgetalignment": 1,
    "zindex": 1
}