{
    "DNDConfig": null,
    "__parentReadjusting__": false,
    "_height_": {
        "type": "ref",
        "value": "preferred"
    },
    "_left_": {
        "type": "string",
        "value": "0dp"
    },
    "_margin_": [
        0,
        0,
        0,
        0
    ],
    "_orientation_": 6,
    "_padding_": [
        0,
        0,
        0,
        0
    ],
    "_percent_": true,
    "_skin_": "s8ff24328417401b877c3ceb2a5fa27c",
    "_top_": {
        "type": "string",
        "value": "0dp"
    },
    "_width_": {
        "type": "string",
        "value": "100%"
    },
    "allboxes": [],
    "autogrowmode": 1,
    "canUpdateUI": true,
    "children": [
        "flxGroupsEditButton",
        "flxGroupsSegmentHeader",
        "lblGroupsHeaderSeperator",
        "segGroups",
        "rtxMsgGroups"
    ],
    "clipbounds": true,
    "containerweight": 100,
    "enablescrolling": true,
    "id": "flxGroupsListing",
    "info": null,
    "isvisible": true,
    "kuid": "ac73fca53dfd4e6b874d35afbc0c24d6",
    "layouttype": 2,
    "name": "kony.ui.FlexContainer",
    "parent": "flxGroupsWrapper",
    "pf": "frmCustomerProfileRoles",
    "snapgridsize": 10,
    "snaptogrid": true,
    "wType": "FlexContainer",
    "widgetalignment": 1,
    "zindex": 1
}