{
    "@class": "com.kony.gen.viz.model.component.KVizUserWidget",
    "DNDConfig": null,
    "__parentReadjusting__": false,
    "_children_": [],
    "_desktopweb_": {},
    "_height_": {
        "type": "string",
        "value": "106px"
    },
    "_left_": {
        "type": "string",
        "value": "0"
    },
    "_margin_": [
        0,
        0,
        0,
        0
    ],
    "_orientation_": 1,
    "_padding_": [
        0,
        0,
        0,
        0
    ],
    "_percent_": true,
    "_render_": true,
    "_responsiveData_": {},
    "_skin_": "s4886d30205846ce90dddbeb96d1d6ef",
    "_top_": {
        "type": "string",
        "value": "0"
    },
    "_vizProps_": {
        "hidewidgethierarchy": false
    },
    "_width_": {
        "type": "string",
        "value": "100%"
    },
    "areflexpropsreferenced": false,
    "canUpdateUI": true,
    "clipbounds": true,
    "containerweight": 0,
    "dataDiffs": {
        "btnAddNewOption": {
            "__events__": {},
            "__info__": {
                "kuid": "e99648b6ccd24d209ac4b94cd03bfacc",
                "srcKUID": "ada5d4a4ecde43cca0304c5882f66bb7",
                "wType": "Button"
            },
            "isVisible": false,
            "right": {
                "Default": {
                    "type": "string",
                    "value": "0dp"
                }
            },
            "text": "IMPORT CUSTOMER"
        },
        "btnDropdownList": {
            "__events__": {},
            "__info__": {
                "kuid": "b4d147f320e04db390256937b449e034",
                "srcKUID": "b43698c27a4f4d988b5a7d3585c0a45b",
                "wType": "Button"
            },
            "isVisible": false,
            "vizProps": {
                "hide": false
            }
        },
        "flxAddNewOption": {
            "__events__": {},
            "__info__": {
                "kuid": "g89cb01189d14727963b0847f339bd13",
                "srcKUID": "gcf4f343946b48eb8cfdddb8ea99ee15",
                "wType": "FlexContainer"
            }
        },
        "flxButtons": {
            "__events__": {},
            "__info__": {
                "kuid": "h825cf6532cc495c8b0bf18113d9b5e3",
                "srcKUID": "ie1e60199eb3482b836d57a31097ad15",
                "wType": "FlexContainer"
            },
            "top": {
                "Default": {
                    "type": "string",
                    "value": "58px"
                }
            }
        },
        "flxDownloadList": {
            "__events__": {},
            "__info__": {
                "kuid": "i6f190e7ff9142eda0384851b1d5d306",
                "srcKUID": "hed9c70306a244ed9913ad2c67adf9b5",
                "wType": "FlexContainer"
            }
        },
        "flxHeaderSeperator": {
            "__events__": {},
            "__info__": {
                "kuid": "ha6960dda877435eacef3ed4bea0d749",
                "srcKUID": "d5e902ebe40e41059acd4452ef74ee71",
                "wType": "FlexContainer"
            }
        },
        "flxHeaderUserOptions": {
            "__events__": {},
            "__info__": {
                "kuid": "idb99f5dd11841729356fd4e7029c2c2",
                "srcKUID": "e340add28ee8424ab0f160b52c1c3c49",
                "wType": "FlexContainer"
            }
        },
        "flxMainHeader": {
            "__events__": {},
            "__info__": {
                "kuid": "be16f4d212b64a8e877ed7c961cd3d1e",
                "srcKUID": "b5acbdce2d1f4b79be60f46a616882ae",
                "wType": "FlexContainer"
            }
        },
        "imgLogout": {
            "__events__": {},
            "__info__": {
                "kuid": "ca87e8fcb79c4026a72e96961dd7e3bd",
                "srcKUID": "ff744a337cf24ffa97ecc82ef9964a85",
                "wType": "Image"
            }
        },
        "lblAddNewOption": {
            "__events__": {},
            "__info__": {
                "kuid": "h6aa3dbd87234a35b65fe4e415cc29b9",
                "srcKUID": "b3a6223eaac240c2aec04f4e88d4c9a7",
                "wType": "Label"
            }
        },
        "lblDownloadList": {
            "__events__": {},
            "__info__": {
                "kuid": "c6c457da01204b22b65d8f76d3944673",
                "srcKUID": "b6599b7f52704e498d2f53cc4ab1f6e7",
                "wType": "Label"
            }
        },
        "lblHeading": {
            "__events__": {},
            "__info__": {
                "kuid": "h97242a27b664a6f89b23fbc38d3484a",
                "srcKUID": "a773cdbb83be4b82acfb733f2e46eb06",
                "wType": "Label"
            },
            "i18n_text": "i18n.leftmenu.customer_Management",
            "text": "Customer Management  "
        },
        "lblUserName": {
            "__events__": {},
            "__info__": {
                "kuid": "h2f9e2379cc4493bab0ad1d578944088",
                "srcKUID": "i605a8166a1941eead62b15cbf43026c",
                "wType": "Label"
            }
        },
        "mainHeader": {
            "__events__": {},
            "__info__": {
                "isRoot": true,
                "kuid": "e08cdde11e3149f1b660c9ac6d8029fc",
                "srcKUID": "a90b792b68af4d448d2757e88c7e1671",
                "wType": "FlexContainer"
            },
            "left": {
                "Default": {
                    "type": "string",
                    "value": "0"
                }
            },
            "top": {
                "Default": {
                    "type": "string",
                    "value": "0"
                }
            }
        }
    },
    "id": "mainHeader",
    "info": null,
    "isdatareferenced": false,
    "isvisible": true,
    "kuid": "e08cdde11e3149f1b660c9ac6d8029fc",
    "layouttype": 2,
    "masterType": 0,
    "name": "kony.ui.UserWidgetInstance",
    "parent": "flxMainHeader",
    "pf": "frmCustomerProfileRoles",
    "snaptogrid": true,
    "sourceUserWidget": "a90b792b68af4d448d2757e88c7e1671",
    "vizprops": {
        "hidewidgethierarchy": false
    },
    "wType": "UserWidgetInstance"
}