{
    "@class": "com.kony.gen.viz.model.component.KVizUserWidget",
    "DNDConfig": null,
    "__parentReadjusting__": false,
    "_children_": [],
    "_desktopweb_": {
        "render": true
    },
    "_height_": {
        "type": "string",
        "value": "100%"
    },
    "_kiosk_": {
        "render": true
    },
    "_left_": {
        "type": "string",
        "value": "0dp"
    },
    "_margin_": [
        0,
        0,
        0,
        0
    ],
    "_orientation_": 1,
    "_padding_": [
        0,
        0,
        0,
        0
    ],
    "_percent_": true,
    "_render_": true,
    "_responsiveData_": {},
    "_skin_": "s002eff99f314a6ca6c1e855a9339351",
    "_top_": "0dp",
    "_vizProps_": {
        "hidewidgethierarchy": false
    },
    "_width_": {
        "type": "string",
        "value": "100%"
    },
    "areflexpropsreferenced": false,
    "autogrowmode": 0,
    "canUpdateUI": true,
    "clipbounds": true,
    "containerweight": 0,
    "dataDiffs": {
        "Notes": {
            "__events__": {},
            "__info__": {
                "isRoot": true,
                "kuid": "df613543b9274a9c8e9e6c9ee9c9e421",
                "srcKUID": "655ab9f93d964f79a2d91e49a9b0d260",
                "wType": "FlexContainer"
            }
        },
        "addBtn": {
            "__events__": {},
            "__info__": {
                "kuid": "b12c200429a04e5dbeb3ab834af417c0",
                "srcKUID": "bb297ee6d8f14666b71d4bbfff875bb7",
                "wType": "Button"
            }
        },
        "flxCloseNotes": {
            "__events__": {},
            "__info__": {
                "kuid": "i298421323f8469f91f497f7225ef373",
                "srcKUID": "d5241977a1f3449c8457c8be17a21996",
                "wType": "FlexContainer"
            }
        },
        "flxNotes": {
            "__events__": {},
            "__info__": {
                "kuid": "c6df25c92b2245ea92c2a0eb27a42088",
                "srcKUID": "f517bd93838e41fab40b4dd0b3bd4215",
                "wType": "FlexContainer"
            },
            "top": {
                "Default": {
                    "type": "string",
                    "value": ""
                }
            }
        },
        "flxNotesHeader": {
            "__events__": {},
            "__info__": {
                "kuid": "c137689f3439475db8a701235dbd0a4e",
                "srcKUID": "a0710e2d63b84ad58f36fbc6cab8851b",
                "wType": "FlexContainer"
            }
        },
        "flxNotesSegment": {
            "__events__": {},
            "__info__": {
                "kuid": "de0ba18879064e00a2c89ca70ce2d250",
                "srcKUID": "f75b6813fb46480d98653db1764e2be1",
                "wType": "FlexScrollContainer"
            }
        },
        "imgCloseNotes": {
            "__events__": {},
            "__info__": {
                "kuid": "e07848e660cf4237a63c6605cfbcb988",
                "srcKUID": "dce71c543d524f76bd71fd06ad621298",
                "wType": "Image"
            }
        },
        "lblNotes": {
            "__events__": {},
            "__info__": {
                "kuid": "hd516c128e2b41689ef042e710c695a2",
                "srcKUID": "g6698350090a44249e44975428fe2631",
                "wType": "Label"
            }
        },
        "lblNotesSize": {
            "__events__": {},
            "__info__": {
                "kuid": "b21ee71489104f829a7c6e79aba9ad52",
                "srcKUID": "j86e28804b0d4dfa9b3d3e982ab1f626",
                "wType": "Label"
            }
        },
        "rtxMsgNotes": {
            "__events__": {},
            "__info__": {
                "kuid": "de1e8574cbd841639ae9b52da72630ce",
                "srcKUID": "d0899cfa28d44e4e9a826999fbd05107",
                "wType": "RichText"
            }
        },
        "segNotes": {
            "__events__": {},
            "__info__": {
                "kuid": "f803c0346c434c119e7a12a9635ba784",
                "srcKUID": "d31089bbee204a1db1ff801c87989086",
                "wType": "Segment"
            }
        },
        "txtAreaNotes": {
            "__events__": {},
            "__info__": {
                "kuid": "db8b0ec0893242819d109e7bc62023ba",
                "srcKUID": "e94c92e3de2043f5a907e8edd7941a33",
                "wType": "TextArea"
            }
        }
    },
    "id": "Notes",
    "info": null,
    "isdatareferenced": false,
    "isvisible": true,
    "kuid": "df613543b9274a9c8e9e6c9ee9c9e421",
    "layouttype": 2,
    "masterType": 0,
    "name": "kony.ui.UserWidgetInstance",
    "parent": "flxNote",
    "pf": "frmCustomerProfileRoles",
    "snaptogrid": true,
    "sourceUserWidget": "655ab9f93d964f79a2d91e49a9b0d260",
    "vizprops": {
        "hidewidgethierarchy": false
    },
    "wType": "UserWidgetInstance"
}