{
    "@class": "com.kony.gen.viz.model.component.KVizUserWidget",
    "DNDConfig": null,
    "__parentReadjusting__": false,
    "_children_": [],
    "_desktopweb_": {},
    "_height_": {
        "type": "string",
        "value": "70px"
    },
    "_left_": {
        "type": "string",
        "value": "0dp"
    },
    "_margin_": [
        0,
        0,
        0,
        0
    ],
    "_orientation_": 1,
    "_padding_": [
        0,
        0,
        0,
        0
    ],
    "_percent_": true,
    "_render_": true,
    "_responsiveData_": {},
    "_skin_": "s8ff24328417401b877c3ceb2a5fa27c",
    "_top_": {
        "type": "string",
        "value": "0dp"
    },
    "_vizProps_": {
        "hidewidgethierarchy": false
    },
    "_width_": {
        "type": "string",
        "value": "100%"
    },
    "areflexpropsreferenced": false,
    "autogrowmode": 0,
    "canUpdateUI": true,
    "clipbounds": true,
    "containerweight": 0,
    "dataDiffs": {
        "flxRightImage": {
            "__events__": {},
            "__info__": {
                "kuid": "d1a913bd53eb4d6f913bcebd7df579e0",
                "srcKUID": "aa381edce9594097a08f270e53aafd61",
                "wType": "FlexContainer"
            }
        },
        "flxToastContainer": {
            "__events__": {},
            "__info__": {
                "kuid": "i2734800c6fe4835bf3043f6e50e3340",
                "srcKUID": "ace26cdabbed423ca9732ff24d147536",
                "wType": "FlexContainer"
            }
        },
        "fontIconImgLeft": {
            "__events__": {},
            "__info__": {
                "kuid": "f2e1820e213e40e2a6f08015dfd0b092",
                "srcKUID": "faf74347eeca40f9ac54474b326619bb",
                "wType": "Label"
            }
        },
        "lblIconRight": {
            "__events__": {},
            "__info__": {
                "kuid": "bd364462855945d584b8fa61d2547141",
                "srcKUID": "dd846396bb83462482492090b97fcbf2",
                "wType": "Label"
            }
        },
        "lbltoastMessage": {
            "__events__": {},
            "__info__": {
                "kuid": "a99f7f333e9e445189368f53eab03738",
                "srcKUID": "fee535920ef34249a172f881337ae55d",
                "wType": "Label"
            }
        },
        "toastMessage": {
            "__events__": {},
            "__info__": {
                "isRoot": true,
                "kuid": "b0a85e2e90124bdda41da0a629dc77bb",
                "srcKUID": "iffa234d2a7f4452a688a49d5dd8cdb2",
                "wType": "FlexContainer"
            },
            "zIndex": {
                "Default": 20
            }
        }
    },
    "id": "toastMessage",
    "info": null,
    "isdatareferenced": false,
    "isvisible": true,
    "kuid": "b0a85e2e90124bdda41da0a629dc77bb",
    "layouttype": 2,
    "masterType": 0,
    "name": "kony.ui.UserWidgetInstance",
    "parent": "flxToastMessage",
    "pf": "frmCustomerProfileRoles",
    "snaptogrid": true,
    "sourceUserWidget": "iffa234d2a7f4452a688a49d5dd8cdb2",
    "vizprops": {
        "hidewidgethierarchy": false
    },
    "wType": "UserWidgetInstance",
    "zindex": 20
}