{
    "@class": "com.kony.gen.viz.model.component.KVizUserWidget",
    "DNDConfig": null,
    "__parentReadjusting__": false,
    "_bottom_": {
        "type": "string",
        "value": ""
    },
    "_children_": [],
    "_height_": {
        "type": "ref",
        "value": "preferred"
    },
    "_left_": {
        "type": "string",
        "value": "0dp"
    },
    "_margin_": [
        0,
        0,
        0,
        0
    ],
    "_orientation_": 1,
    "_padding_": [
        0,
        0,
        0,
        0
    ],
    "_percent_": true,
    "_render_": true,
    "_right_": {
        "type": "string",
        "value": ""
    },
    "_skin_": "s88cc708170d4e3e8fed2490fd5e632e",
    "_top_": {
        "type": "string",
        "value": "0dp"
    },
    "_width_": {
        "type": "string",
        "value": "100%"
    },
    "areflexpropsreferenced": false,
    "autogrowmode": 1,
    "canUpdateUI": true,
    "centerx": {
        "type": "string",
        "value": ""
    },
    "centery": {
        "type": "string",
        "value": ""
    },
    "clipbounds": true,
    "containerweight": 0,
    "dataDiffs": {
        "btnLink1": {
            "__events__": {},
            "__info__": {
                "kuid": "c4130a0f73ca4b3bbd0ca6f9a16a6960",
                "srcKUID": "c79a78ee48ff4e59ad87e4475decfb09",
                "wType": "Button"
            }
        },
        "btnLink2": {
            "__events__": {},
            "__info__": {
                "kuid": "e52d451d5c6946d9b0eae40b97f495dd",
                "srcKUID": "abcc48517eda4244911200cc947eac21",
                "wType": "Button"
            }
        },
        "contextualMenu1": {
            "__events__": {},
            "__info__": {
                "isRoot": true,
                "kuid": "h782be1a8a2d478095026d93d78839ee",
                "srcKUID": "d2183cdc0d9e4e9aaa65a3dec22e02a9",
                "wType": "FlexContainer"
            },
            "autogrowMode": {
                "Default": 1
            },
            "bottom": {
                "Default": {
                    "type": "string",
                    "value": ""
                }
            },
            "centerX": {
                "Default": {
                    "type": "string",
                    "value": ""
                }
            },
            "centerY": {
                "Default": {
                    "type": "string",
                    "value": ""
                }
            },
            "height": {
                "Default": {
                    "type": "ref",
                    "value": "preferred"
                }
            },
            "left": {
                "Default": {
                    "type": "string",
                    "value": "0dp"
                }
            },
            "maxHeight": {
                "Default": {
                    "type": "string",
                    "value": ""
                }
            },
            "maxWidth": {
                "Default": {
                    "type": "string",
                    "value": ""
                }
            },
            "minHeight": {
                "Default": {
                    "type": "string",
                    "value": ""
                }
            },
            "minWidth": {
                "Default": {
                    "type": "string",
                    "value": ""
                }
            },
            "right": {
                "Default": {
                    "type": "string",
                    "value": ""
                }
            },
            "top": {
                "Default": {
                    "type": "string",
                    "value": "0dp"
                }
            },
            "width": {
                "Default": {
                    "type": "string",
                    "value": "100%"
                }
            }
        },
        "flxOption1": {
            "__events__": {},
            "__info__": {
                "kuid": "jed0cd266cf444d1827ad8b9999ef356",
                "srcKUID": "db2058b30203423db41cb34c21a3c10e",
                "wType": "FlexContainer"
            }
        },
        "flxOption2": {
            "__events__": {},
            "__info__": {
                "kuid": "ead38a04ecb8453caa664eefd4d578da",
                "srcKUID": "g37630f97cc649e69c4dc5ed5f717fc3",
                "wType": "FlexContainer"
            }
        },
        "flxOption3": {
            "__events__": {},
            "__info__": {
                "kuid": "ab34634f25cf42009e5e78f1ed0dfa34",
                "srcKUID": "f83dc0ac37834569adfd6ea12cd29e16",
                "wType": "FlexContainer"
            }
        },
        "flxOption4": {
            "__events__": {},
            "__info__": {
                "kuid": "b8d78570cb0647da8b5b3266158fd0a8",
                "srcKUID": "eb37120620ac4437817e47847695ac64",
                "wType": "FlexContainer"
            }
        },
        "flxOptionsSeperator": {
            "__events__": {},
            "__info__": {
                "kuid": "ad926e8c98ab400eb1fe6b9f70604461",
                "srcKUID": "f118e6d56d4f41d1a253a6e250dfb20c",
                "wType": "FlexContainer"
            }
        },
        "imgOption1": {
            "__events__": {},
            "__info__": {
                "kuid": "a44c3cca2114497ea5be01af982b3c71",
                "srcKUID": "fcf7925bf2fb4fe188700242fa7d4809",
                "wType": "Image"
            }
        },
        "imgOption2": {
            "__events__": {},
            "__info__": {
                "kuid": "b207cb14bbf94bbf88644ac52d8bca75",
                "srcKUID": "f34da36097e34c58bf358c57911259b5",
                "wType": "Image"
            }
        },
        "imgOption3": {
            "__events__": {},
            "__info__": {
                "kuid": "acbdc19f8f4148abb3d5d17d86164b9e",
                "srcKUID": "g55d22a2b94a42bca2bbe2062455ca59",
                "wType": "Image"
            }
        },
        "imgOption4": {
            "__events__": {},
            "__info__": {
                "kuid": "c91c240ebe5c4afaac53fbe754f1e77b",
                "srcKUID": "g19ba47069ed4de5b73cc9aee57e8f04",
                "wType": "Image"
            }
        },
        "lblHeader": {
            "__events__": {},
            "__info__": {
                "kuid": "i4f3c953a12b4e0f80135f27b4dcc45f",
                "srcKUID": "d5434f07b0bd46d2bf456542f8e2a4af",
                "wType": "Label"
            }
        },
        "lblIconOption1": {
            "__events__": {},
            "__info__": {
                "kuid": "h07749b11d0d4dd48cfe8582391464a3",
                "srcKUID": "hf5f3c4981ee44e2844d761ce8c4dbdf",
                "wType": "Label"
            }
        },
        "lblIconOption2": {
            "__events__": {},
            "__info__": {
                "kuid": "a189ee5ff12845b387bfed237d45af49",
                "srcKUID": "fffbee09231e47b8a32995e66d7a0d7c",
                "wType": "Label"
            }
        },
        "lblIconOption3": {
            "__events__": {},
            "__info__": {
                "kuid": "a35f36fb08f04cecaf7e2921b1f3d0d9",
                "srcKUID": "f65a4a6fed4c4732a2b80e3d11d6e447",
                "wType": "Label"
            }
        },
        "lblIconOption4": {
            "__events__": {},
            "__info__": {
                "kuid": "f65b9007310c42c1bf12cd98d60c6097",
                "srcKUID": "e38088e0fd1b48ac933fcbca18d5ff77",
                "wType": "Label"
            }
        },
        "lblOption1": {
            "__events__": {},
            "__info__": {
                "kuid": "e6b0e63a48df4d528c4a141e8d47b33b",
                "srcKUID": "fbf420a898374bd4b6f90262313755df",
                "wType": "Label"
            }
        },
        "lblOption2": {
            "__events__": {},
            "__info__": {
                "kuid": "h4cd5689b2844ee88fac849972f5db2e",
                "srcKUID": "b3f92f4b0c7b4bff91fd183b9b518db1",
                "wType": "Label"
            }
        },
        "lblOption3": {
            "__events__": {},
            "__info__": {
                "kuid": "he568abfac01404699617e4cfcb1e803",
                "srcKUID": "e537cff024b346fe94cceb983f858289",
                "wType": "Label"
            }
        },
        "lblOption4": {
            "__events__": {},
            "__info__": {
                "kuid": "e14b4d41afd7417e9258e1f304029e5d",
                "srcKUID": "bbdadb5c424245f1b173fcdcf506eed8",
                "wType": "Label"
            }
        }
    },
    "id": "contextualMenu",
    "info": null,
    "iscustomlayout": false,
    "isdatareferenced": false,
    "isvisible": true,
    "kuid": "h782be1a8a2d478095026d93d78839ee",
    "layouttype": 4,
    "masterType": 0,
    "maxheight": {
        "type": "string",
        "value": ""
    },
    "maxwidth": {
        "type": "string",
        "value": ""
    },
    "minheight": {
        "type": "string",
        "value": ""
    },
    "minwidth": {
        "type": "string",
        "value": ""
    },
    "name": "kony.ui.UserWidgetInstance",
    "parent": "FlexContextMenu",
    "pf": "userwidgetmodel",
    "retaincontentalignment": false,
    "retainflexpositionproperties": false,
    "snaptogrid": true,
    "sourceUserWidget": "d2183cdc0d9e4e9aaa65a3dec22e02a9",
    "wType": "UserWidgetInstance"
}