{
    "@class": "com.kony.gen.viz.model.component.KVizListBox",
    "DNDConfig": null,
    "__parentReadjusting__": false,
    "_height_": {
        "type": "string",
        "value": "40px"
    },
    "_left_": {
        "type": "string",
        "value": "0dp"
    },
    "_margin_": [
        0,
        0,
        0,
        0
    ],
    "_padding_": [
        3,
        0,
        0,
        0
    ],
    "_skin_": "sce51b380ef94ee9bcfbab6230c0d90e",
    "_top_": {
        "type": "string",
        "value": "28dp"
    },
    "_width_": {
        "type": "string",
        "value": "100%"
    },
    "canUpdateUI": true,
    "containerweight": 100,
    "contentalignment": 4,
    "context": {
        "channel": "desktop",
        "formID": "uwff3bf73da3ef4d5a88843c7bac9ae83f",
        "platform": "desktopweb",
        "templateType": "userwidgets",
        "topLevelBox": null
    },
    "desktopweb": {
        "psp": {
            "hoverSkin": "s44124b03793406484d400c989c8ec4f"
        }
    },
    "focusskin": "sd131a980868405aa7045508835764fe",
    "groupcells": false,
    "id": "ListBoxStatus",
    "info": null,
    "isvisible": true,
    "kiosk": {
        "psp": {
            "placeholder": "Select Status"
        }
    },
    "kuid": "icdae19baf724783a71091beaa2cd415",
    "masterdata": [
        [
            "Select Status",
            "Select Status"
        ],
        [
            "SID_OPEN",
            "New"
        ],
        [
            "SID_INPROGRESS",
            "InProgress"
        ]
    ],
    "name": "kony.ui.ListBox",
    "paddinginpixel": false,
    "parent": "flxColumn5",
    "pf": "userwidgetmodel",
    "selectedkey": "Select Status",
    "selectedkeys": null,
    "selectedkeyvalue": [
        "Select Status",
        "Select Status"
    ],
    "selectedkeyvalues": null,
    "size": 18,
    "viewconfig": {
        "toggleViewConfig": {
            "viewStyle": 0
        }
    },
    "viewtype": 0,
    "wType": "ListBox",
    "zindex": 1
}