{
    "@class": "com.kony.gen.viz.model.component.KVizRichText",
    "DNDConfig": null,
    "__parentReadjusting__": false,
    "_height_": {
        "type": "ref",
        "value": "preferred"
    },
    "_left_": {
        "type": "string",
        "value": "0dp"
    },
    "_margin_": [
        0,
        0,
        0,
        0
    ],
    "_padding_": [
        0,
        0,
        0,
        0
    ],
    "_skin_": "s51059fbae2b42caa62840881cd589c6",
    "_text_": "No results found with the selected criteria.",
    "_top_": {
        "type": "string",
        "value": "0dp"
    },
    "_width_": {
        "type": "string",
        "value": "100%"
    },
    "_wrapping_": 2,
    "canUpdateUI": true,
    "centerx": {
        "type": "string",
        "value": "50%"
    },
    "centery": {
        "type": "string",
        "value": "50%"
    },
    "containerweight": 100,
    "contentalignment": 5,
    "id": "richtextNoResult2",
    "info": null,
    "isvisible": false,
    "kuid": "gbf1e702525b4bd384e5a0f80eb2da2b",
    "name": "kony.ui.RichText",
    "paddinginpixel": false,
    "parent": "flxRepliedOnDropdown",
    "pf": "userwidgetmodel",
    "texti18n": "i18n.frmCSRController.prop773",
    "wType": "RichText",
    "widgetalignment": 5,
    "zindex": 1
}