{
    "@class": "com.kony.gen.viz.model.component.KVizTextBox2",
    "DNDConfig": null,
    "__parentReadjusting__": false,
    "_height_": {
        "type": "string",
        "value": "30px"
    },
    "_left_": {
        "type": "string",
        "value": "35dp"
    },
    "_margin_": [
        0,
        0,
        0,
        0
    ],
    "_padding_": [
        0,
        0,
        0,
        0
    ],
    "_placeholder_": "Search by Name, Username, Customer ID, Subject",
    "_right_": {
        "type": "string",
        "value": "35px"
    },
    "_skin_": "sbeade505ae44d5981ad831f6bbca092",
    "_text_": "",
    "autocapitalize": "none",
    "autocomplete": false,
    "autocorrect": false,
    "autofilter": false,
    "canUpdateUI": true,
    "centery": {
        "type": "string",
        "value": "50%"
    },
    "containerheight": "",
    "containerheightmode": 1,
    "containerweight": 100,
    "contentalignment": 4,
    "desktopweb": {
        "psp": {}
    },
    "disabledSkins": {
        "focusSkin": "sd5d9f2f9f9a4eb4a885e2a0f597f79b",
        "hoverSkin": "se5abcf5912c4d6f91d091b897714d1f"
    },
    "id": "tbxSearchBox",
    "ide_onTouchStart": "AS_TextField_f90fbf5228c54b1bb97b994a46bbf289",
    "info": null,
    "isvisible": true,
    "keyboardtype": "A",
    "kuid": "b38c821a9c034fe3a0ae6bafb17d8ed4",
    "mode": "A",
    "name": "kony.ui.TextBox2",
    "paddinginpixel": false,
    "parent": "flxSearchContainer",
    "pf": "userwidgetmodel",
    "securetextentry": false,
    "textinputmode": "A",
    "viewtype": "default",
    "wType": "TextField",
    "zindex": 1
}