{
    "DNDConfig": null,
    "_height_": {
        "type": "string",
        "value": "50px"
    },
    "_margin_": [
        0,
        0,
        0,
        0
    ],
    "_orientation_": 6,
    "_padding_": [
        0,
        0,
        0,
        0
    ],
    "_percent_": true,
    "_skin_": "s094cf034ba74d778fe9c91095115ace",
    "allboxes": [],
    "autogrowmode": 0,
    "canUpdateUI": true,
    "children": [
        "lblViewFullName",
        "lblViewUsername",
        "lblViewEmailId",
        "lblViewUpdatedBy",
        "lblViewUpdatedDate",
        "lblViewUpdatedTime",
        "lblViewSeperator"
    ],
    "clipbounds": true,
    "containerId": true,
    "containerweight": 100,
    "controllerInfo": {
        "default": {
            "channel": "desktop",
            "name": "flxViewUsersController"
        }
    },
    "desktopweb": {
        "psp": {
            "hoverSkin": "s512ca636f844ef4aa81b2647c08ce24"
        }
    },
    "disabledSkins": {},
    "enablescrolling": true,
    "id": "flxViewUsers",
    "info": null,
    "isTemplate": true,
    "isvisible": true,
    "kuid": "ce798235ac0947a0bfbcc548b645ffff",
    "layouttype": 2,
    "name": "kony.ui.FlexContainer",
    "parent": "segViewUsers",
    "pf": "segViewUsers",
    "snapgridsize": 10,
    "snaptogrid": true,
    "wType": "FlexContainer",
    "widgetalignment": 1
}