{
    "@class": "com.kony.gen.viz.model.component.KVizLabel",
    "DNDConfig": null,
    "__markedForDelete__": true,
    "__parentReadjusting__": false,
    "_height_": {
        "type": "string",
        "value": "20px"
    },
    "_margin_": [
        1,
        1,
        1,
        1
    ],
    "_padding_": [
        0,
        0,
        0,
        0
    ],
    "_skin_": "s5853f6dfb96442da546e09d6f3b3d49",
    "_text_": "Click on \"Add Question\" to continue",
    "_top_": {
        "type": "string",
        "value": "139px"
    },
    "_width_": {
        "type": "string",
        "value": "100%"
    },
    "_wrapping_": 2,
    "android": {
        "textStyle": {
            "letterSpacing": 0,
            "strikeThrough": false
        }
    },
    "canUpdateUI": true,
    "centerx": {
        "type": "string",
        "value": "50%"
    },
    "containerweight": 100,
    "contentalignment": 5,
    "id": "lblNoStaticContentMsg",
    "info": null,
    "ipad": {
        "psp": {
            "wrapping": 2
        }
    },
    "iphone": {
        "psp": {
            "wrapping": 2
        }
    },
    "isvisible": true,
    "kuid": "c3f02a02fb284c35a7458c5fd292e4b5",
    "name": "kony.ui.Label",
    "parent": "flxNoStaticDataWrapper",
    "pf": "userwidgetmodel",
    "texti18n": "i18n.TermsAndConditions.addTnCMessage",
    "tooltip": "",
    "wType": "Label",
    "zindex": 1
}