{
    "DNDConfig": null,
    "_height_": {
        "type": "string",
        "value": "50dp"
    },
    "_margin_": [
        0,
        0,
        0,
        0
    ],
    "_orientation_": 6,
    "_padding_": [
        0,
        0,
        0,
        0
    ],
    "_percent_": true,
    "_skin_": "sa783444a562469892ee4cde19b9d664",
    "allboxes": [],
    "autogrowmode": 0,
    "canUpdateUI": true,
    "children": [
        "flxAccordianContainer",
        "lblPoliciesSeperator",
        "flxViewEditButton"
    ],
    "clipbounds": true,
    "containerId": true,
    "containerweight": 100,
    "controllerInfo": {
        "default": {
            "channel": "desktop",
            "name": "flxPoliciesController"
        }
    },
    "desktopweb": {
        "psp": {
            "hoverSkin": "s512ca636f844ef4aa81b2647c08ce24"
        }
    },
    "enablescrolling": true,
    "id": "flxPolicies",
    "info": null,
    "isTemplate": true,
    "isvisible": true,
    "kuid": "a87a7136e70e4007a6c7d9a243978c2c",
    "layouttype": 2,
    "name": "kony.ui.FlexContainer",
    "parent": "segPolicies",
    "pf": "segPolicies",
    "snapgridsize": 10,
    "snaptogrid": true,
    "wType": "FlexContainer",
    "widgetalignment": 1
}