{
    "@class": "com.kony.gen.viz.model.component.KVizTextBox2",
    "DNDConfig": null,
    "__parentReadjusting__": false,
    "_height_": {
        "type": "string",
        "value": "40dp"
    },
    "_left_": {
        "type": "string",
        "value": "0px"
    },
    "_margin_": [
        0,
        0,
        0,
        0
    ],
    "_padding_": [
        3,
        0,
        0,
        0
    ],
    "_placeholder_": "Customer Name",
    "_right_": {
        "type": "string",
        "value": "0px"
    },
    "_skin_": "s199e31ba0754258944efda3ae980b93",
    "_text_": "",
    "_top_": {
        "type": "string",
        "value": "25px"
    },
    "autocapitalize": "none",
    "autocomplete": false,
    "autocorrect": false,
    "autofilter": false,
    "canUpdateUI": true,
    "containerheight": "",
    "containerheightmode": 1,
    "containerweight": 100,
    "contentalignment": 4,
    "desktopweb": {
        "psp": {
            "hoverSkin": "s860f329d76648689c1283387fb1abff"
        }
    },
    "focusskin": "s9357d21bfa3405db1e4511ef5053cc0",
    "id": "txtSearchParam1",
    "info": null,
    "isvisible": true,
    "keyboardtype": "A",
    "kuid": "c6f5185a94e04acdb10507df6bf24522",
    "mode": "A",
    "name": "kony.ui.TextBox2",
    "parent": "flxSearchCriteria1",
    "pf": "userwidgetmodel",
    "securetextentry": false,
    "textinputmode": "A",
    "viewtype": "default",
    "wType": "TextField",
    "zindex": 1
}