{
    "@class": "com.kony.gen.viz.model.component.KVizLabel",
    "DNDConfig": null,
    "__parentReadjusting__": false,
    "_height_": {
        "type": "string",
        "value": "40dp"
    },
    "_left_": {
        "type": "string",
        "value": "35px"
    },
    "_margin_": [
        1,
        1,
        1,
        1
    ],
    "_padding_": [
        0,
        0,
        0,
        0
    ],
    "_right_": {
        "type": "string",
        "value": "0px"
    },
    "_skin_": "s5a7f4cde72446fd8066d61a3149a230",
    "_text_": "Retail Banking | Transactional - P2P Transfer",
    "_top_": {
        "type": "string",
        "value": "20px"
    },
    "_wrapping_": 2,
    "android": {
        "textStyle": {
            "letterSpacing": 0,
            "strikeThrough": false
        }
    },
    "canUpdateUI": true,
    "centery": {
        "type": "string",
        "value": "50%"
    },
    "containerId": true,
    "containerweight": 100,
    "contentalignment": 4,
    "id": "lblMFAConfigName",
    "info": null,
    "ipad": {
        "psp": {
            "wrapping": 2
        }
    },
    "iphone": {
        "psp": {
            "wrapping": 2
        }
    },
    "isvisible": true,
    "kuid": "j58215cd923745459042204f7d6e5d23",
    "name": "kony.ui.Label",
    "parent": "flxAccordianContainer",
    "pf": "segMFAScenariosSelected",
    "tooltip": "",
    "wType": "Label",
    "zindex": 1
}