{
    "DNDConfig": null,
    "__parentReadjusting__": false,
    "_bottom_": {
        "type": "string",
        "value": "20dp"
    },
    "_height_": {
        "type": "ref",
        "value": "preferred"
    },
    "_left_": {
        "type": "string",
        "value": "0dp"
    },
    "_margin_": [
        0,
        0,
        0,
        0
    ],
    "_orientation_": 6,
    "_padding_": [
        0,
        0,
        0,
        0
    ],
    "_percent_": true,
    "_skin_": "s438947e0b124486a93d616f381275f9",
    "_top_": {
        "type": "string",
        "value": "0dp"
    },
    "_width_": {
        "type": "string",
        "value": "100%"
    },
    "allboxes": [],
    "autogrowmode": 1,
    "canUpdateUI": true,
    "children": [
        "flxDepositCreateLead",
        "flxListOfLeadsHeader",
        "flxDepositsLeadScroll",
        "flxNoLeadsFound"
    ],
    "clipbounds": true,
    "containerweight": 100,
    "enablescrolling": true,
    "id": "flxListOfLeads",
    "info": null,
    "iscustomlayout": false,
    "isvisible": true,
    "kuid": "dfdea1cb75d34bab9fd8cf7cc91def35",
    "layouttype": 2,
    "name": "kony.ui.FlexContainer",
    "parent": "flxApplicationsandLeadsContainer",
    "pf": "frmDepositsDashboard",
    "retaincontentalignment": false,
    "retainflexpositionproperties": false,
    "snapgridsize": 10,
    "snaptogrid": true,
    "wType": "FlexContainer",
    "widgetalignment": 1,
    "zindex": 10
}