{
    "@class": "com.kony.gen.viz.model.component.KVizRichText",
    "DNDConfig": null,
    "__parentReadjusting__": false,
    "_height_": {
        "type": "ref",
        "value": "preferred"
    },
    "_margin_": [
        0,
        0,
        0,
        0
    ],
    "_padding_": [
        0,
        0,
        0,
        0
    ],
    "_skin_": "s51059fbae2b42caa62840881cd589c6",
    "_text_": "No applications available.",
    "_top_": {
        "type": "string",
        "value": "24dp"
    },
    "_width_": {
        "type": "ref",
        "value": "preferred"
    },
    "_wrapping_": 2,
    "canUpdateUI": true,
    "centerx": {
        "type": "string",
        "value": "50%"
    },
    "containerweight": 100,
    "contentalignment": 4,
    "id": "rtxDepositsNoLeads",
    "info": null,
    "iscustomlayout": false,
    "isvisible": true,
    "kuid": "a09cf6425964412a8a45b643b497774d",
    "linkskin": "s67b40eec9524df3a22e43e6c88b00f1",
    "name": "kony.ui.RichText",
    "parent": "flxNoLeadsFound",
    "pf": "frmDepositsDashboard",
    "retaincontentalignment": false,
    "retainflexpositionproperties": false,
    "wType": "RichText",
    "widgetalignment": 5,
    "zindex": 1
}