{
    "@class": "com.kony.gen.viz.model.component.KVizUserWidget",
    "DNDConfig": null,
    "__parentReadjusting__": false,
    "_android_": {},
    "_androidwearos_": {},
    "_children_": [],
    "_desktopweb_": {},
    "_height_": {
        "type": "string",
        "value": "70px"
    },
    "_ipad_": {},
    "_iphone_": {},
    "_kiosk_": {},
    "_left_": {
        "type": "string",
        "value": "0dp"
    },
    "_margin_": [
        0,
        0,
        0,
        0
    ],
    "_orientation_": 1,
    "_padding_": [
        0,
        0,
        0,
        0
    ],
    "_percent_": true,
    "_render_": true,
    "_responsiveData_": {},
    "_skin_": "s8ff24328417401b877c3ceb2a5fa27c",
    "_spa_": {},
    "_spaan_": {},
    "_spaandroidtablet_": {},
    "_spabb_": {},
    "_spaip_": {},
    "_spaipad_": {},
    "_spamobile_": {},
    "_spatablet_": {},
    "_spawindowstablet_": {},
    "_spawinphone8_": {},
    "_tabrcandroid_": {},
    "_top_": {
        "type": "string",
        "value": "0dp"
    },
    "_vizProps_": {
        "hidewidgethierarchy": false
    },
    "_width_": {
        "type": "string",
        "value": "100%"
    },
    "_windows10_": {},
    "_windows8_": {},
    "_winphone10_": {},
    "_winphone8_": {},
    "areflexpropsreferenced": false,
    "autogrowmode": 0,
    "canUpdateUI": true,
    "clipbounds": true,
    "containerweight": 0,
    "dataDiffs": {
        "flxRightImage": {
            "__events__": {},
            "__info__": {
                "kuid": "d4affe3082e74744a2275cc4e278b7d4",
                "srcKUID": "aa381edce9594097a08f270e53aafd61",
                "wType": "FlexContainer"
            }
        },
        "flxToastContainer": {
            "__events__": {},
            "__info__": {
                "kuid": "gfb72c7d8c4c4da1a086d47619ebfaa6",
                "srcKUID": "ace26cdabbed423ca9732ff24d147536",
                "wType": "FlexContainer"
            }
        },
        "fontIconImgLeft": {
            "__events__": {},
            "__info__": {
                "kuid": "c724afdfb61241568d6d80051b46175d",
                "srcKUID": "faf74347eeca40f9ac54474b326619bb",
                "wType": "Label"
            }
        },
        "lblIconRight": {
            "__events__": {},
            "__info__": {
                "kuid": "hb24a0c289054ab1935df99a060fe112",
                "srcKUID": "dd846396bb83462482492090b97fcbf2",
                "wType": "Label"
            }
        },
        "lbltoastMessage": {
            "__events__": {},
            "__info__": {
                "kuid": "a00fa9e5199541ff802f0304239b8c18",
                "srcKUID": "fee535920ef34249a172f881337ae55d",
                "wType": "Label"
            }
        },
        "toastMessage": {
            "__events__": {},
            "__info__": {
                "isRoot": true,
                "kuid": "d794b0846ac6447cb7d20248d232e12c",
                "srcKUID": "iffa234d2a7f4452a688a49d5dd8cdb2",
                "wType": "FlexContainer"
            }
        }
    },
    "id": "toastMessage",
    "info": null,
    "isdatareferenced": false,
    "isvisible": true,
    "kuid": "d794b0846ac6447cb7d20248d232e12c",
    "layouttype": 2,
    "masterType": 0,
    "name": "kony.ui.UserWidgetInstance",
    "parent": "flxToastMessage",
    "pf": "frmDepositsDashboard",
    "snaptogrid": true,
    "sourceUserWidget": "iffa234d2a7f4452a688a49d5dd8cdb2",
    "wType": "UserWidgetInstance"
}