{
    "DNDConfig": null,
    "_height_": {
        "type": "string",
        "value": "26dp"
    },
    "_left_": {
        "type": "string",
        "value": "0dp"
    },
    "_margin_": [
        0,
        0,
        0,
        0
    ],
    "_orientation_": 6,
    "_padding_": [
        0,
        0,
        0,
        0
    ],
    "_percent_": true,
    "_skin_": "s8ff24328417401b877c3ceb2a5fa27c",
    "_top_": {
        "type": "string",
        "value": "0dp"
    },
    "_width_": {
        "type": "string",
        "value": "100%"
    },
    "allboxes": [],
    "autogrowmode": 0,
    "canUpdateUI": true,
    "children": [
        "lblMenuSectionHeader"
    ],
    "clipbounds": true,
    "containerId": true,
    "containerweight": 100,
    "controllerInfo": {
        "default": {
            "channel": "desktop",
            "name": "flxLeftMenuSectionHeaderController"
        }
    },
    "enablescrolling": true,
    "id": "flxLeftMenuSectionHeader",
    "info": null,
    "iscustomlayout": false,
    "isvisible": true,
    "kuid": "e8f321cb7da845ff8cedb9129dbbbfa1",
    "layouttype": 2,
    "name": "kony.ui.FlexContainer",
    "parent": "segLeftMenuSectionHeader",
    "pf": "segLeftMenuSectionHeader",
    "retaincontentalignment": false,
    "retainflexpositionproperties": false,
    "snapgridsize": 10,
    "snaptogrid": true,
    "wType": "FlexContainer",
    "widgetalignment": 1
}