{
    "DNDConfig": null,
    "_height_": {
        "type": "ref",
        "value": "preferred"
    },
    "_margin_": [
        0,
        0,
        0,
        0
    ],
    "_orientation_": 6,
    "_padding_": [
        0,
        0,
        0,
        0
    ],
    "_percent_": true,
    "_skin_": "s8ff24328417401b877c3ceb2a5fa27c",
    "allboxes": [],
    "autogrowmode": 1,
    "canUpdateUI": true,
    "children": [
        "flxAddUsersWrapper"
    ],
    "clipbounds": true,
    "containerId": true,
    "containerweight": 100,
    "controllerInfo": {
        "default": {
            "channel": "desktop",
            "name": "flxCampaignAddCustomerController"
        }
    },
    "enablescrolling": true,
    "id": "flxCampaignAddCustomer",
    "info": null,
    "isTemplate": true,
    "isvisible": true,
    "kuid": "c9c4ab5fc67f4056946a2e862cb51723",
    "layouttype": 2,
    "name": "kony.ui.FlexContainer",
    "parent": "segCampaignCustomerRoles",
    "pf": "segCampaignCustomerRoles",
    "snapgridsize": 10,
    "snaptogrid": true,
    "wType": "FlexContainer",
    "widgetalignment": 1
}