{
    "@class": "com.kony.gen.viz.model.component.KVizUserWidget",
    "DNDConfig": null,
    "__parentReadjusting__": false,
    "_android_": {},
    "_androidwearos_": {},
    "_bottom_": {
        "type": "string",
        "value": "25dp"
    },
    "_children_": [],
    "_desktopweb_": {},
    "_height_": {
        "type": "ref",
        "value": "preferred"
    },
    "_ipad_": {},
    "_iphone_": {},
    "_kiosk_": {},
    "_left_": {
        "type": "string",
        "value": "0dp"
    },
    "_margin_": [
        0,
        0,
        0,
        0
    ],
    "_orientation_": 1,
    "_padding_": [
        0,
        0,
        0,
        0
    ],
    "_percent_": true,
    "_responsiveData_": {},
    "_skin_": "s8ff24328417401b877c3ceb2a5fa27c",
    "_spa_": {},
    "_spaan_": {},
    "_spaandroidtablet_": {},
    "_spabb_": {},
    "_spaip_": {},
    "_spaipad_": {},
    "_spamobile_": {},
    "_spatablet_": {},
    "_spawindowstablet_": {},
    "_spawinphone8_": {},
    "_tabrcandroid_": {},
    "_top_": {
        "type": "string",
        "value": "0dp"
    },
    "_vizProps_": {
        "hidewidgethierarchy": false
    },
    "_width_": {
        "type": "string",
        "value": "100%"
    },
    "_windows10_": {},
    "_windows8_": {},
    "_winphone10_": {},
    "_winphone8_": {},
    "areflexpropsreferenced": false,
    "autogrowmode": 1,
    "canUpdateUI": true,
    "clipbounds": true,
    "containerweight": 0,
    "dataDiffs": {
        "btnLink1": {
            "__events__": {},
            "__info__": {
                "kuid": "f62a9d2dbb21498a9e186c3626aa2a52",
                "srcKUID": "f9cd08e92d104573826b599112d2d40c",
                "wType": "Button"
            }
        },
        "btnLink2": {
            "__events__": {},
            "__info__": {
                "kuid": "ia13972f06584db4b43c7280898793f0",
                "srcKUID": "h4696e15fc1b48be977fef2807df44da",
                "wType": "Button"
            }
        },
        "btnLink3": {
            "__events__": {},
            "__info__": {
                "kuid": "e9e535e5986745ba8d562aa6070e7495",
                "srcKUID": "de0012d2ac32449b8dc7ce7b90ae6d59",
                "wType": "Button"
            },
            "centerY": {
                "Default": {
                    "type": "string",
                    "value": ""
                }
            }
        },
        "details": {
            "__events__": {},
            "__info__": {
                "isRoot": true,
                "kuid": "f47cc0e7b3ae4b22849500ce2d704dba",
                "srcKUID": "e2af4587476946cf966c194460006daa",
                "wType": "FlexContainer"
            },
            "autogrowMode": {
                "Default": 1
            },
            "bottom": {
                "Default": {
                    "type": "string",
                    "value": "25dp"
                }
            },
            "height": {
                "Default": {
                    "type": "ref",
                    "value": "preferred"
                }
            }
        },
        "flxColumn1": {
            "__events__": {},
            "__info__": {
                "kuid": "e9dd5a98263043b3b2e78f609b56bb9b",
                "srcKUID": "ja59132c672b445f9e33d969226ce6bd",
                "wType": "FlexContainer"
            }
        },
        "flxColumn2": {
            "__events__": {},
            "__info__": {
                "kuid": "aa2cd15ae3674ac7a115ff3335e08058",
                "srcKUID": "d164bee50e3f4d74b99deadfbe5e8b12",
                "wType": "FlexContainer"
            }
        },
        "flxColumn3": {
            "__events__": {},
            "__info__": {
                "kuid": "cf6654e433cf4427a844b69341cd09ac",
                "srcKUID": "i1da355959d5439aa866b4b78da2756f",
                "wType": "FlexContainer"
            },
            "autogrowMode": {
                "Default": 1
            },
            "height": {
                "Default": {
                    "type": "ref",
                    "value": "preferred"
                }
            }
        },
        "flxDataAndImage1": {
            "__events__": {},
            "__info__": {
                "kuid": "g04579f45f9e4aa6b748cf2650959528",
                "srcKUID": "aac06ded810443cfb30c9866dc0ed4fe",
                "wType": "FlexContainer"
            }
        },
        "flxDataAndImage2": {
            "__events__": {},
            "__info__": {
                "kuid": "f82da1393fa3460b9d3ee45aca3f88b8",
                "srcKUID": "fcf513557ef549fe9ca8c899408b3c0f",
                "wType": "FlexContainer"
            }
        },
        "flxDataAndImage3": {
            "__events__": {},
            "__info__": {
                "kuid": "b00344a0ed70498bb65c8d6ed8add1fd",
                "srcKUID": "b6abeeb4f07448fc81ec7f0552670dfa",
                "wType": "FlexContainer"
            },
            "autogrowMode": {
                "Default": 1
            },
            "height": {
                "Default": {
                    "type": "ref",
                    "value": "preferred"
                }
            },
            "top": {
                "Default": {
                    "type": "string",
                    "value": "21dp"
                }
            }
        },
        "imgData1": {
            "__events__": {},
            "__info__": {
                "kuid": "f628f2a362234bd5a9b04ad7b7fba672",
                "srcKUID": "a69ba1fc69924e3688ed9b47431a5817",
                "wType": "Image"
            },
            "src": "active_circle2x.png"
        },
        "imgData2": {
            "__events__": {},
            "__info__": {
                "kuid": "dcdd35f9d480424180dd6264d173ce16",
                "srcKUID": "ea862f1df4034d5f857d4139759b8879",
                "wType": "Image"
            },
            "src": "active_circle2x.png"
        },
        "imgData3": {
            "__events__": {},
            "__info__": {
                "kuid": "ee9cfae9af384f9fb4c102051df591f4",
                "srcKUID": "e67672b9251543849f250b4c4f12b11f",
                "wType": "Image"
            },
            "centerY": {
                "Default": {
                    "type": "string",
                    "value": ""
                }
            },
            "src": "active_circle2x.png"
        },
        "lblData1": {
            "__events__": {},
            "__info__": {
                "kuid": "d0402b93a8d844e19ba206ae8b20e79a",
                "srcKUID": "fdcfca94d329437093879c8c50b46d5a",
                "wType": "Label"
            }
        },
        "lblData2": {
            "__events__": {},
            "__info__": {
                "kuid": "d4626416d43e4bb09e0ab141d0ce109e",
                "srcKUID": "jd1bc4d8d2b24bf9bb745b6d9ab62385",
                "wType": "Label"
            }
        },
        "lblData3": {
            "__events__": {},
            "__info__": {
                "kuid": "h8fc4b13ea7941a6a8823a220734d03b",
                "srcKUID": "f4de4c0070c143e49d125d3507f23ebf",
                "wType": "Label"
            },
            "centerY": {
                "Default": {
                    "type": "string",
                    "value": ""
                }
            },
            "width": {
                "Default": {
                    "type": "string",
                    "value": "100%"
                }
            }
        },
        "lblHeading1": {
            "__events__": {},
            "__info__": {
                "kuid": "c77e551cd43540dea850ecc1c4e7629b",
                "srcKUID": "j114728de2a740adbf052042003e381e",
                "wType": "Label"
            }
        },
        "lblHeading2": {
            "__events__": {},
            "__info__": {
                "kuid": "b50085f510574c1aa8b5e993e8d19150",
                "srcKUID": "gb5813e8c1504894a57cf7c8a39d934a",
                "wType": "Label"
            }
        },
        "lblHeading3": {
            "__events__": {},
            "__info__": {
                "kuid": "b6f71c9a686542b592f8f1583e257b1b",
                "srcKUID": "ia0a6fc98deb45d9861fdb728dd1ae55",
                "wType": "Label"
            }
        },
        "lblIconData2": {
            "__events__": {},
            "__info__": {
                "kuid": "b99b81a9fba747e6a55dc105c380a42a",
                "srcKUID": "d78bd98d099d4ad59ae85d485b532723",
                "wType": "Label"
            }
        },
        "lblSignData2": {
            "__events__": {},
            "__info__": {
                "kuid": "a987ead5231841228a3fa282c137e04c",
                "srcKUID": "b9be6c2e94c848a68507ebb34c191c12",
                "wType": "Label"
            }
        }
    },
    "enablescrolling": true,
    "id": "row1",
    "info": null,
    "iscustomlayout": false,
    "isdatareferenced": false,
    "issegmentchild": false,
    "isvisible": true,
    "kuid": "f47cc0e7b3ae4b22849500ce2d704dba",
    "layouttype": 2,
    "masterType": 0,
    "name": "kony.ui.UserWidgetInstance",
    "parent": "flxGmInfoDetailWrapper",
    "pf": "userwidgetmodel",
    "retaincontentalignment": false,
    "retainflexpositionproperties": false,
    "snapgridsize": 10,
    "snaptogrid": true,
    "sourceUserWidget": "e2af4587476946cf966c194460006daa",
    "wType": "UserWidgetInstance"
}