{
    "@class": "com.kony.gen.viz.model.component.KVizUserWidget",
    "DNDConfig": null,
    "__parentReadjusting__": false,
    "_android_": {},
    "_androidwearos_": {},
    "_children_": [],
    "_desktopweb_": {},
    "_height_": {
        "type": "string",
        "value": "60px"
    },
    "_ipad_": {},
    "_iphone_": {},
    "_kiosk_": {},
    "_left_": {
        "type": "string",
        "value": "0dp"
    },
    "_margin_": [
        0,
        0,
        0,
        0
    ],
    "_orientation_": 1,
    "_padding_": [
        0,
        0,
        0,
        0
    ],
    "_percent_": true,
    "_render_": true,
    "_skin_": "s8ff24328417401b877c3ceb2a5fa27c",
    "_spa_": {},
    "_spaan_": {},
    "_spaandroidtablet_": {},
    "_spabb_": {},
    "_spaip_": {},
    "_spaipad_": {},
    "_spamobile_": {},
    "_spatablet_": {},
    "_spawindowstablet_": {},
    "_spawinphone8_": {},
    "_tabrcandroid_": {},
    "_top_": {
        "type": "string",
        "value": ""
    },
    "_vizProps_": {
        "hidewidgethierarchy": false
    },
    "_width_": {
        "type": "string",
        "value": "100%"
    },
    "_windows10_": {},
    "_windows8_": {},
    "_winphone10_": {},
    "_winphone8_": {},
    "areflexpropsreferenced": false,
    "canUpdateUI": true,
    "clipbounds": true,
    "containerweight": 0,
    "dataDiffs": {
        "btnLink1": {
            "__events__": {},
            "__info__": {
                "kuid": "f21da2e008594c19824317a483075071",
                "srcKUID": "f9cd08e92d104573826b599112d2d40c",
                "wType": "Button"
            }
        },
        "btnLink2": {
            "__events__": {},
            "__info__": {
                "kuid": "gba40c89568a45ff8ca8fa44d6e305ed",
                "srcKUID": "h4696e15fc1b48be977fef2807df44da",
                "wType": "Button"
            }
        },
        "btnLink3": {
            "__events__": {},
            "__info__": {
                "kuid": "af503eca2b6e4ab48da4c46fd86dc044",
                "srcKUID": "de0012d2ac32449b8dc7ce7b90ae6d59",
                "wType": "Button"
            }
        },
        "details": {
            "__events__": {},
            "__info__": {
                "isRoot": true,
                "kuid": "d77efdfd623d47adb7f8f93e14878816",
                "srcKUID": "e2af4587476946cf966c194460006daa",
                "wType": "FlexContainer"
            },
            "autogrowMode": {
                "Default": 0
            },
            "height": {
                "Default": {
                    "type": "string",
                    "value": "60px"
                }
            },
            "top": {
                "Default": {
                    "type": "string",
                    "value": ""
                }
            }
        },
        "flxColumn1": {
            "__events__": {},
            "__info__": {
                "kuid": "c3d7735a6a92474d82e9650796ef833c",
                "srcKUID": "ja59132c672b445f9e33d969226ce6bd",
                "wType": "FlexContainer"
            }
        },
        "flxColumn2": {
            "__events__": {},
            "__info__": {
                "kuid": "j8308b97eb34441f9e7b0749472697bc",
                "srcKUID": "d164bee50e3f4d74b99deadfbe5e8b12",
                "wType": "FlexContainer"
            }
        },
        "flxColumn3": {
            "__events__": {},
            "__info__": {
                "kuid": "c6f1c1aec6094fbdae47b31fb22ff0a4",
                "srcKUID": "i1da355959d5439aa866b4b78da2756f",
                "wType": "FlexContainer"
            }
        },
        "flxDataAndImage1": {
            "__events__": {},
            "__info__": {
                "kuid": "ddb1dbeccf074430b08d5a644c03213e",
                "srcKUID": "aac06ded810443cfb30c9866dc0ed4fe",
                "wType": "FlexContainer"
            }
        },
        "flxDataAndImage2": {
            "__events__": {},
            "__info__": {
                "kuid": "c1b4edc5a8374a10ad36349ba8791af5",
                "srcKUID": "fcf513557ef549fe9ca8c899408b3c0f",
                "wType": "FlexContainer"
            }
        },
        "flxDataAndImage3": {
            "__events__": {},
            "__info__": {
                "kuid": "bdec6dd0fec749e3a82699e55d6dd4dd",
                "srcKUID": "b6abeeb4f07448fc81ec7f0552670dfa",
                "wType": "FlexContainer"
            }
        },
        "imgData1": {
            "__events__": {},
            "__info__": {
                "kuid": "fff2e8d3c14b48899102e53fecb38b39",
                "srcKUID": "a69ba1fc69924e3688ed9b47431a5817",
                "wType": "Image"
            },
            "src": "active_circle2x.png"
        },
        "imgData2": {
            "__events__": {},
            "__info__": {
                "kuid": "cd3cb034ff1040048d255966d1430abb",
                "srcKUID": "ea862f1df4034d5f857d4139759b8879",
                "wType": "Image"
            },
            "src": "active_circle2x.png"
        },
        "imgData3": {
            "__events__": {},
            "__info__": {
                "kuid": "ff6598f3a19645f19f555eb281c460c7",
                "srcKUID": "e67672b9251543849f250b4c4f12b11f",
                "wType": "Image"
            },
            "src": "active_circle2x.png"
        },
        "lblData1": {
            "__events__": {},
            "__info__": {
                "kuid": "e09982f19c6143ccb2e2c0b4122b1231",
                "srcKUID": "fdcfca94d329437093879c8c50b46d5a",
                "wType": "Label"
            }
        },
        "lblData2": {
            "__events__": {},
            "__info__": {
                "kuid": "a00ce7ad46f747fbb7e6e6e4209761f5",
                "srcKUID": "jd1bc4d8d2b24bf9bb745b6d9ab62385",
                "wType": "Label"
            }
        },
        "lblData3": {
            "__events__": {},
            "__info__": {
                "kuid": "cad3617851b14212ba7d8a1d485f52d8",
                "srcKUID": "f4de4c0070c143e49d125d3507f23ebf",
                "wType": "Label"
            }
        },
        "lblHeading1": {
            "__events__": {},
            "__info__": {
                "kuid": "ca6fca860d6d4c42a81514ba670c92d9",
                "srcKUID": "j114728de2a740adbf052042003e381e",
                "wType": "Label"
            }
        },
        "lblHeading2": {
            "__events__": {},
            "__info__": {
                "kuid": "f691f0bf16cf46e48e0ec5971185102a",
                "srcKUID": "gb5813e8c1504894a57cf7c8a39d934a",
                "wType": "Label"
            }
        },
        "lblHeading3": {
            "__events__": {},
            "__info__": {
                "kuid": "e2365375d13c45c9ab0de026f074ffcd",
                "srcKUID": "ia0a6fc98deb45d9861fdb728dd1ae55",
                "wType": "Label"
            }
        },
        "lblIconData2": {
            "__events__": {},
            "__info__": {
                "kuid": "c1f8d16442594acc918d173d5d61bf56",
                "srcKUID": "d78bd98d099d4ad59ae85d485b532723",
                "wType": "Label"
            }
        },
        "lblSignData2": {
            "__events__": {},
            "__info__": {
                "kuid": "d817fa983dd741eab70d36191fe301ed",
                "srcKUID": "b9be6c2e94c848a68507ebb34c191c12",
                "wType": "Label"
            }
        }
    },
    "id": "row2",
    "info": null,
    "isdatareferenced": false,
    "issegmentchild": false,
    "isvisible": true,
    "kuid": "d77efdfd623d47adb7f8f93e14878816",
    "layouttype": 2,
    "masterType": 0,
    "name": "kony.ui.UserWidgetInstance",
    "parent": "flxGmInfoDetailWrapper",
    "pf": "userwidgetmodel",
    "snaptogrid": true,
    "sourceUserWidget": "e2af4587476946cf966c194460006daa",
    "vizprops": {
        "hidewidgethierarchy": false
    },
    "wType": "UserWidgetInstance"
}