{
    "@class": "com.kony.gen.viz.model.component.KVizUserWidget",
    "DNDConfig": null,
    "__parentReadjusting__": false,
    "_android_": {},
    "_androidwearos_": {},
    "_children_": [],
    "_desktopweb_": {},
    "_height_": {
        "type": "string",
        "value": "60px"
    },
    "_ipad_": {},
    "_iphone_": {},
    "_kiosk_": {},
    "_left_": {
        "type": "string",
        "value": "0dp"
    },
    "_margin_": [
        0,
        0,
        0,
        0
    ],
    "_orientation_": 1,
    "_padding_": [
        0,
        0,
        0,
        0
    ],
    "_percent_": true,
    "_render_": true,
    "_skin_": "s8ff24328417401b877c3ceb2a5fa27c",
    "_spa_": {},
    "_spaan_": {},
    "_spaandroidtablet_": {},
    "_spabb_": {},
    "_spaip_": {},
    "_spaipad_": {},
    "_spamobile_": {},
    "_spatablet_": {},
    "_spawindowstablet_": {},
    "_spawinphone8_": {},
    "_tabrcandroid_": {},
    "_top_": {
        "type": "string",
        "value": "0dp"
    },
    "_vizProps_": {
        "hidewidgethierarchy": false
    },
    "_width_": {
        "type": "string",
        "value": "100%"
    },
    "_windows10_": {},
    "_windows8_": {},
    "_winphone10_": {},
    "_winphone8_": {},
    "areflexpropsreferenced": false,
    "autogrowmode": 0,
    "canUpdateUI": true,
    "clipbounds": true,
    "containerweight": 0,
    "dataDiffs": {
        "btnLink1": {
            "__events__": {},
            "__info__": {
                "kuid": "h225f68653bd420fa1203f7850177ff2",
                "srcKUID": "f9cd08e92d104573826b599112d2d40c",
                "wType": "Button"
            }
        },
        "btnLink2": {
            "__events__": {},
            "__info__": {
                "kuid": "cd0f1d5f3c9340ffbaddd3cf18a3e2fd",
                "srcKUID": "h4696e15fc1b48be977fef2807df44da",
                "wType": "Button"
            }
        },
        "btnLink3": {
            "__events__": {},
            "__info__": {
                "kuid": "b16c224830424d7d842b018bff9abc25",
                "srcKUID": "de0012d2ac32449b8dc7ce7b90ae6d59",
                "wType": "Button"
            }
        },
        "details": {
            "__events__": {},
            "__info__": {
                "isRoot": true,
                "kuid": "a569b29775ce4e13a70c5f77cb0c6819",
                "srcKUID": "e2af4587476946cf966c194460006daa",
                "wType": "FlexContainer"
            },
            "autogrowMode": 0,
            "height": {
                "Default": {
                    "type": "string",
                    "value": "60px"
                }
            }
        },
        "flxColumn1": {
            "__events__": {},
            "__info__": {
                "kuid": "b364315e0e664f4dab55ee78c2e2a4d0",
                "srcKUID": "ja59132c672b445f9e33d969226ce6bd",
                "wType": "FlexContainer"
            }
        },
        "flxColumn2": {
            "__events__": {},
            "__info__": {
                "kuid": "i62296a5aa3d45f7a1f97f22455eeeb6",
                "srcKUID": "d164bee50e3f4d74b99deadfbe5e8b12",
                "wType": "FlexContainer"
            }
        },
        "flxColumn3": {
            "__events__": {},
            "__info__": {
                "kuid": "h58f3dfb47fc4648b39f88d660962b05",
                "srcKUID": "i1da355959d5439aa866b4b78da2756f",
                "wType": "FlexContainer"
            }
        },
        "flxDataAndImage1": {
            "__events__": {},
            "__info__": {
                "kuid": "j4ef038a03a74ee89b7d552a4205a350",
                "srcKUID": "aac06ded810443cfb30c9866dc0ed4fe",
                "wType": "FlexContainer"
            }
        },
        "flxDataAndImage2": {
            "__events__": {},
            "__info__": {
                "kuid": "ae9ce019a31f41d9a28367c410be824c",
                "srcKUID": "fcf513557ef549fe9ca8c899408b3c0f",
                "wType": "FlexContainer"
            }
        },
        "flxDataAndImage3": {
            "__events__": {},
            "__info__": {
                "kuid": "a09bf8bbe6dc48299cc8284825527740",
                "srcKUID": "b6abeeb4f07448fc81ec7f0552670dfa",
                "wType": "FlexContainer"
            }
        },
        "imgData1": {
            "__events__": {},
            "__info__": {
                "kuid": "h0c2f9d310984b06b18a9150b710343a",
                "srcKUID": "a69ba1fc69924e3688ed9b47431a5817",
                "wType": "Image"
            },
            "src": "active_circle2x.png"
        },
        "imgData2": {
            "__events__": {},
            "__info__": {
                "kuid": "e75fdab949dd4fabb464d967139ddbf3",
                "srcKUID": "ea862f1df4034d5f857d4139759b8879",
                "wType": "Image"
            },
            "src": "active_circle2x.png"
        },
        "imgData3": {
            "__events__": {},
            "__info__": {
                "kuid": "d73603c104c6485391c6585b60991fc0",
                "srcKUID": "e67672b9251543849f250b4c4f12b11f",
                "wType": "Image"
            },
            "src": "active_circle2x.png"
        },
        "lblData1": {
            "__events__": {},
            "__info__": {
                "kuid": "ee9a83d9d1904b24a29e24bceafde365",
                "srcKUID": "fdcfca94d329437093879c8c50b46d5a",
                "wType": "Label"
            }
        },
        "lblData2": {
            "__events__": {},
            "__info__": {
                "kuid": "c06128d74df741ed8b89c2d6a79e642a",
                "srcKUID": "jd1bc4d8d2b24bf9bb745b6d9ab62385",
                "wType": "Label"
            }
        },
        "lblData3": {
            "__events__": {},
            "__info__": {
                "kuid": "c79ee5a0b0b8405bb674f8b660292e86",
                "srcKUID": "f4de4c0070c143e49d125d3507f23ebf",
                "wType": "Label"
            }
        },
        "lblHeading1": {
            "__events__": {},
            "__info__": {
                "kuid": "d223cbfcc02f4e068db7b22cf191dbdc",
                "srcKUID": "j114728de2a740adbf052042003e381e",
                "wType": "Label"
            }
        },
        "lblHeading2": {
            "__events__": {},
            "__info__": {
                "kuid": "je86947e4ff3460084b6f4ff2cc7af78",
                "srcKUID": "gb5813e8c1504894a57cf7c8a39d934a",
                "wType": "Label"
            }
        },
        "lblHeading3": {
            "__events__": {},
            "__info__": {
                "kuid": "ab025475fa3f461a90a8166a83c75b9e",
                "srcKUID": "ia0a6fc98deb45d9861fdb728dd1ae55",
                "wType": "Label"
            }
        },
        "lblIconData2": {
            "__events__": {},
            "__info__": {
                "kuid": "a03698c9b5fe44eb93cca7a588a494ef",
                "srcKUID": "d78bd98d099d4ad59ae85d485b532723",
                "wType": "Label"
            }
        },
        "lblSignData2": {
            "__events__": {},
            "__info__": {
                "kuid": "fc9d9db4bc914239bf050c07dcd71fef",
                "srcKUID": "b9be6c2e94c848a68507ebb34c191c12",
                "wType": "Label"
            }
        }
    },
    "id": "row3",
    "info": null,
    "isdatareferenced": false,
    "issegmentchild": false,
    "isvisible": true,
    "kuid": "a569b29775ce4e13a70c5f77cb0c6819",
    "layouttype": 2,
    "masterType": 0,
    "name": "kony.ui.UserWidgetInstance",
    "parent": "flxGmInfoDetailWrapper",
    "pf": "userwidgetmodel",
    "snaptogrid": true,
    "sourceUserWidget": "e2af4587476946cf966c194460006daa",
    "vizprops": {
        "hidewidgethierarchy": false
    },
    "wType": "UserWidgetInstance"
}