{
    "@class": "com.kony.gen.viz.model.component.KVizUserWidget",
    "DNDConfig": null,
    "__parentReadjusting__": false,
    "_bottom_": {
        "type": "string",
        "value": "0px"
    },
    "_children_": [],
    "_desktopweb_": {},
    "_height_": {
        "type": "string",
        "value": "20px"
    },
    "_left_": {
        "type": "string",
        "value": "0px"
    },
    "_margin_": [
        0,
        0,
        0,
        0
    ],
    "_orientation_": 1,
    "_padding_": [
        0,
        0,
        0,
        0
    ],
    "_percent_": true,
    "_render_": true,
    "_responsiveData_": {},
    "_right_": {
        "type": "string",
        "value": "0px"
    },
    "_skin_": "s18e2ced6ee54b75a5ba66f8d41070d5",
    "_top_": {
        "type": "string",
        "value": "0px"
    },
    "_vizProps_": {
        "hidewidgethierarchy": false
    },
    "_width_": {
        "type": "string",
        "value": ""
    },
    "areflexpropsreferenced": false,
    "canUpdateUI": true,
    "clipbounds": true,
    "containerweight": 0,
    "dataDiffs": {
        "breadcrumbs": {
            "__events__": {},
            "__info__": {
                "isRoot": true,
                "kuid": "j730f0473fbc42e882b8f6bcd34f70b7",
                "srcKUID": "e57b9ec944d34c8b834fa7fb78b60de9",
                "wType": "FlexContainer"
            },
            "bottom": {
                "Default": {
                    "type": "string",
                    "value": "0px"
                }
            },
            "left": {
                "Default": {
                    "type": "string",
                    "value": "0px"
                }
            },
            "right": {
                "Default": {
                    "type": "string",
                    "value": "0px"
                }
            },
            "top": {
                "Default": {
                    "type": "string",
                    "value": "0px"
                }
            },
            "width": {
                "Default": {
                    "type": "string",
                    "value": ""
                }
            },
            "zIndex": {
                "Default": 100
            }
        },
        "btnBackToMain": {
            "__events__": {
                "ide_onClick": "AS_Button_f5330200c5bf4bcdad11d8d2a31158f7"
            },
            "__info__": {
                "kuid": "eef20423447e453087fbd4fa84888ef7",
                "srcKUID": "ea97f85c5977457f93b8d984e28d4872",
                "wType": "Button"
            },
            "i18n_text": "i18n.frmLoansDashboard.SearchCustomers",
            "left": {
                "Default": {
                    "type": "string",
                    "value": "35px"
                }
            },
            "text": ""
        },
        "btnPreviousPage": {
            "__events__": {},
            "__info__": {
                "kuid": "ba01f4cf1673422e8aca84af25733337",
                "srcKUID": "d0676390dcb747fa9849bbc49f0a18d9",
                "wType": "Button"
            }
        },
        "btnPreviousPage1": {
            "__events__": {},
            "__info__": {
                "kuid": "c07ad247c6fd4b8785e165d1137c83ec",
                "srcKUID": "e7552a460536429580737450bf7c813b",
                "wType": "Button"
            }
        },
        "fontIconBreadcrumbsDown": {
            "__events__": {},
            "__info__": {
                "kuid": "aaafb18e1538429d8e1fd767c0e58373",
                "srcKUID": "c2a443f3c4ba44668b78d4abbd727ece",
                "wType": "Label"
            }
        },
        "fontIconBreadcrumbsRight": {
            "__events__": {},
            "__info__": {
                "kuid": "c2ab74497f7f4fd4879ad1154d3fe488",
                "srcKUID": "ida459e61e8d4663bacfa34ff30f7ad6",
                "wType": "Label"
            }
        },
        "fontIconBreadcrumbsRight2": {
            "__events__": {},
            "__info__": {
                "kuid": "cb129ffe7c9d4b43bd06d813396ad935",
                "srcKUID": "g785f1639b154e7aa5df9fac346a200a",
                "wType": "Label"
            }
        },
        "fontIconBreadcrumbsRight3": {
            "__events__": {},
            "__info__": {
                "kuid": "f91a417799f54c0e90e3263de8ce61d3",
                "srcKUID": "ce04b87b0fe04c46acac3385cd5c792b",
                "wType": "Label"
            }
        },
        "imgBreadcrumbsDown": {
            "__events__": {},
            "__info__": {
                "kuid": "d9c5092265984113b92c0da2cbf88645",
                "srcKUID": "efceab0102014e18b0fcbd4ee7f2f412",
                "wType": "Image"
            }
        },
        "imgBreadcrumbsRight": {
            "__events__": {},
            "__info__": {
                "kuid": "f78eacc849d948bbba868bae76730679",
                "srcKUID": "b1756ce4f6d744438bad7c9f5f4fd700",
                "wType": "Image"
            }
        },
        "imgBreadcrumbsRight2": {
            "__events__": {},
            "__info__": {
                "kuid": "gcf70cd6772b4fb0a1e57c6a745ec3f4",
                "srcKUID": "d720d60d37e04d74a8e019d046a402bd",
                "wType": "Image"
            }
        },
        "imgBreadcrumbsRight3": {
            "__events__": {},
            "__info__": {
                "kuid": "f46e0774420543dd827769a6a4ed7bcd",
                "srcKUID": "dd44e3ff9a4b45fea146e20150e225d2",
                "wType": "Image"
            }
        },
        "lblCurrentScreen": {
            "__events__": {},
            "__info__": {
                "kuid": "ff22c9468789434092450dcb452447ce",
                "srcKUID": "d57a137ddf1a4ab19dd36fbb4e55c040",
                "wType": "Label"
            },
            "i18n_text": "i18n.Common.Breadcrumbs.NewCustomer",
            "text": "",
            "width": {
                "Default": {
                    "type": "ref",
                    "value": "preferred"
                }
            }
        }
    },
    "id": "breadcrumbs",
    "info": null,
    "isdatareferenced": false,
    "isvisible": true,
    "kuid": "j730f0473fbc42e882b8f6bcd34f70b7",
    "layouttype": 3,
    "masterType": 0,
    "name": "kony.ui.UserWidgetInstance",
    "parent": "flxBreadCrumbs",
    "pf": "frmGuestDashboard",
    "snaptogrid": true,
    "sourceUserWidget": "e57b9ec944d34c8b834fa7fb78b60de9",
    "vizprops": {
        "hidewidgethierarchy": false
    },
    "wType": "UserWidgetInstance",
    "zindex": 100
}