{
    "@class": "com.kony.gen.viz.model.component.KVizButton",
    "DNDConfig": null,
    "__parentReadjusting__": false,
    "_height_": {
        "type": "string",
        "value": "40dp"
    },
    "_margin_": [
        6,
        6,
        6,
        6
    ],
    "_padding_": [
        0,
        0,
        0,
        0
    ],
    "_right_": {
        "type": "string",
        "value": "135dp"
    },
    "_skin_": "s2afb441e94e423899e847209a051d31",
    "_text_": "CANCEL",
    "_top_": {
        "type": "string",
        "value": "20dp"
    },
    "_width_": {
        "type": "string",
        "value": "100px"
    },
    "canUpdateUI": true,
    "containerweight": 100,
    "contentalignment": 5,
    "desktopweb": {
        "psp": {
            "hoverSkin": "s2afb441e94e423899e847209a051d31"
        }
    },
    "displaytext": true,
    "focusskin": "s3fead79081947b1b06e45ac20ca46d4",
    "id": "btCancelMEC",
    "ide_onClick": "AS_Button_cca8c9081dc1443e8639c55587bed34b",
    "info": null,
    "isvisible": true,
    "kuid": "d369ab5e7dbb4e5eadd2b378641106f2",
    "name": "kony.ui.Button",
    "parent": "flxFooter",
    "pf": "frmGuestDashboard",
    "texti18n": "i18n.permission.CANCEL",
    "wType": "Button",
    "zindex": 1
}