{
    "@class": "com.kony.gen.viz.model.component.KVizButton",
    "DNDConfig": null,
    "__parentReadjusting__": false,
    "_height_": {
        "type": "string",
        "value": "40dp"
    },
    "_margin_": [
        6,
        6,
        6,
        6
    ],
    "_padding_": [
        0,
        0,
        0,
        0
    ],
    "_right_": {
        "type": "string",
        "value": "20dp"
    },
    "_skin_": "s3c60f327c994b9595aae04de642fdbe",
    "_text_": "SUBMIT",
    "_top_": {
        "type": "string",
        "value": "20dp"
    },
    "_width_": {
        "type": "string",
        "value": "100px"
    },
    "canUpdateUI": true,
    "containerweight": 100,
    "contentalignment": 5,
    "desktopweb": {
        "psp": {
            "hoverSkin": "s7db9565c1ce4ed8bc9c274c79bb2eca"
        }
    },
    "displaytext": true,
    "focusskin": "s68f239b5bef4ddda93b35d84ab737ae",
    "id": "btSubmitMEC",
    "ide_onClick": "AS_Button_cf9965396b6542e4b40d1d81a7956b4b",
    "info": null,
    "isvisible": true,
    "kuid": "j4f86b526b7240aa9d76d203835cc3f1",
    "name": "kony.ui.Button",
    "parent": "flxFooter",
    "pf": "frmGuestDashboard",
    "wType": "Button",
    "zindex": 1
}