{
    "DNDConfig": null,
    "__parentReadjusting__": false,
    "_height_": {
        "type": "string",
        "value": "17dp"
    },
    "_left_": {
        "type": "string",
        "value": "20dp"
    },
    "_margin_": [
        0,
        0,
        0,
        0
    ],
    "_orientation_": 6,
    "_padding_": [
        0,
        0,
        0,
        0
    ],
    "_percent_": true,
    "_skin_": "s8ff24328417401b877c3ceb2a5fa27c",
    "_top_": {
        "type": "string",
        "value": "313dp"
    },
    "_width_": {
        "type": "string",
        "value": "670dp"
    },
    "allboxes": [],
    "autogrowmode": 0,
    "canUpdateUI": true,
    "children": [
        "lblErrorMsgIcon",
        "lblErrorMsgMEC"
    ],
    "clipbounds": true,
    "containerweight": 100,
    "enablescrolling": true,
    "id": "flxErrorMsgMEC",
    "info": null,
    "iscustomlayout": false,
    "isvisible": false,
    "kuid": "g8a61854bc6e411bb1b064a4175d02a0",
    "layouttype": 3,
    "name": "kony.ui.FlexContainer",
    "parent": "flxEligibilityCheck",
    "pf": "frmGuestDashboard",
    "retaincontentalignment": false,
    "retainflexpositionproperties": false,
    "snapgridsize": 10,
    "snaptogrid": true,
    "wType": "FlexContainer",
    "widgetalignment": 1,
    "zindex": 1
}