{
    "@class": "com.kony.gen.viz.model.component.KVizLabel",
    "DNDConfig": null,
    "__parentReadjusting__": false,
    "_height_": {
        "type": "ref",
        "value": "preferred"
    },
    "_left_": {
        "type": "string",
        "value": "10dp"
    },
    "_margin_": [
        1,
        1,
        1,
        1
    ],
    "_padding_": [
        0,
        0,
        0,
        0
    ],
    "_skin_": "s40c807624574d0f8841ac08fdbc7109",
    "_text_": "",
    "_top_": {
        "type": "string",
        "value": "0dp"
    },
    "_width_": {
        "type": "ref",
        "value": "preferred"
    },
    "_wrapping_": 2,
    "android": {
        "textStyle": {
            "letterSpacing": 0,
            "strikeThrough": false
        }
    },
    "canUpdateUI": true,
    "centerx": {
        "type": "string",
        "value": "50%"
    },
    "centery": {
        "type": "string",
        "value": "50%"
    },
    "containerweight": 100,
    "contentalignment": 5,
    "desktopweb": {
        "psp": {
            "hoverSkin": "s1f73ed0ddb24e23b5193623dd86342d"
        }
    },
    "disabledSkins": {},
    "id": "lblAddingInfo",
    "info": null,
    "ipad": {
        "psp": {
            "wrapping": 2
        }
    },
    "iphone": {
        "psp": {
            "wrapping": 2
        }
    },
    "iscustomlayout": false,
    "isvisible": true,
    "kuid": "ib72b3c3ee4647e7a7c7e827ad577871",
    "name": "kony.ui.Label",
    "parent": "flxAddingInfo",
    "pf": "frmGuestDashboard",
    "retaincontentalignment": false,
    "retainflexpositionproperties": false,
    "texti18n": "i18n.frmGuestDashboard.AddInfo",
    "tooltip": "",
    "wType": "Label",
    "zindex": 1
}