{
    "DNDConfig": null,
    "__markedForDelete__": true,
    "__parentReadjusting__": false,
    "_bottom_": {
        "type": "string",
        "value": "0px"
    },
    "_height_": {
        "type": "string",
        "value": "12dp"
    },
    "_left_": {
        "type": "string",
        "value": "51%"
    },
    "_margin_": [
        0,
        0,
        0,
        0
    ],
    "_orientation_": 6,
    "_padding_": [
        0,
        0,
        0,
        0
    ],
    "_percent_": true,
    "_skin_": "s8ff24328417401b877c3ceb2a5fa27c",
    "_width_": {
        "type": "string",
        "value": "48%"
    },
    "allboxes": [],
    "autogrowmode": 0,
    "canUpdateUI": true,
    "children": [
        "lblHintHeader3",
        "lblHintMessage3",
        "lblAmount3"
    ],
    "clipbounds": true,
    "containerweight": 100,
    "enablescrolling": true,
    "focusskin": "sd55fb56226742d1bd6d1cee7acb3619",
    "id": "flxHint3",
    "info": null,
    "isvisible": true,
    "kuid": "afedf565077047fd9da9eeb9e14c4e35",
    "layouttype": 3,
    "name": "kony.ui.FlexContainer",
    "parent": "flxLimit3",
    "pf": "userwidgetmodel",
    "snapgridsize": 10,
    "snaptogrid": true,
    "wType": "FlexContainer",
    "widgetalignment": 1,
    "zindex": 1
}