{
    "@class": "com.kony.gen.viz.model.component.KVizButton",
    "DNDConfig": null,
    "__parentReadjusting__": false,
    "_height_": {
        "type": "string",
        "value": "44px"
    },
    "_left_": {
        "type": "string",
        "value": "0dp"
    },
    "_margin_": [
        6,
        6,
        6,
        6
    ],
    "_padding_": [
        0,
        0,
        0,
        0
    ],
    "_skin_": "s238ed0c41f041d1a5d8ae6b3208accb",
    "_text_": "CANCEL",
    "_top_": {
        "type": "string",
        "value": "260px"
    },
    "_width_": {
        "type": "string",
        "value": "110px"
    },
    "canUpdateUI": true,
    "centerx": {
        "type": "string",
        "value": "50%"
    },
    "containerweight": 100,
    "contentalignment": 5,
    "desktopweb": {
        "psp": {
            "hoverSkin": "sde74ab790254d17926936bd89fc6df3"
        }
    },
    "displaytext": true,
    "focusskin": "s14e5eb1c6fe432ca2ed4f99402afa24",
    "id": "btnCancel2KA",
    "info": null,
    "isvisible": true,
    "kuid": "a714ffdebc19406e814c5492559de3d1",
    "name": "kony.ui.Button",
    "parent": "flxUploadingIndiacator2KA",
    "pf": "frmSecureImage",
    "texti18n": "i18n.secureimage.CANCEL",
    "wType": "Button",
    "zindex": 1
}