{
    "@class": "com.kony.gen.viz.model.component.KVizButton",
    "DNDConfig": null,
    "__parentReadjusting__": false,
    "_height_": {
        "type": "string",
        "value": "60%"
    },
    "_margin_": [
        6,
        6,
        6,
        6
    ],
    "_padding_": [
        0,
        0,
        0,
        0
    ],
    "_right_": {
        "type": "string",
        "value": "15px"
    },
    "_skin_": "s884b1c37e674cd5949bc4eb7118068b",
    "_text_": "Yes, cancel",
    "_top_": {
        "type": "string",
        "value": "0%"
    },
    "_width_": {
        "type": "string",
        "value": "140px"
    },
    "canUpdateUI": true,
    "centery": {
        "type": "string",
        "value": "50%"
    },
    "containerweight": 100,
    "contentalignment": 5,
    "desktopweb": {
        "psp": {
            "hoverSkin": "s3237e982c3c41078dd0dd28ab30e83b"
        }
    },
    "displaytext": true,
    "focusskin": "sb31585ca56c4f3fac939fbe44b3e063",
    "id": "btnDeactivate",
    "info": null,
    "isvisible": true,
    "kuid": "g7b82fb798d8415b9ffc5bd99d43b4a9",
    "name": "kony.ui.Button",
    "parent": "flxDeactivateButtons",
    "pf": "frmSecureImage",
    "texti18n": "i18n.secureimage.YesCancel",
    "wType": "Button",
    "zindex": 1
}