{
    "@class": "com.kony.gen.viz.model.component.KVizButton",
    "DNDConfig": null,
    "__parentReadjusting__": false,
    "_height_": {
        "type": "string",
        "value": "60%"
    },
    "_margin_": [
        6,
        6,
        6,
        6
    ],
    "_padding_": [
        0,
        0,
        0,
        0
    ],
    "_right_": {
        "type": "string",
        "value": "170px"
    },
    "_skin_": "s9c1982fb46a4972a0ce1e07a88bc52c",
    "_text_": "No, leave as is",
    "_top_": {
        "type": "string",
        "value": "0%"
    },
    "_width_": {
        "type": "string",
        "value": "140px"
    },
    "canUpdateUI": true,
    "centery": {
        "type": "string",
        "value": "50%"
    },
    "containerweight": 100,
    "contentalignment": 5,
    "desktopweb": {
        "psp": {
            "hoverSkin": "s4fea91dc69e4497afb7adedc955da29"
        }
    },
    "displaytext": true,
    "focusskin": "sdf281657fb5401492d5b6562f8082f0",
    "id": "btnLeaveAsItIs1",
    "info": null,
    "isvisible": true,
    "kuid": "i6d55d5e9ff74b1ca1e07e25307cd85d",
    "name": "kony.ui.Button",
    "parent": "flxDeactivateButtons1",
    "pf": "frmSecureImage",
    "texti18n": "i18n.PopUp.NoLeaveAsIS",
    "wType": "Button",
    "zindex": 1
}