{
    "@class": "com.kony.gen.viz.model.component.KVizButton",
    "DNDConfig": null,
    "__parentReadjusting__": false,
    "_height_": {
        "type": "string",
        "value": "40px"
    },
    "_margin_": [
        6,
        6,
        6,
        6
    ],
    "_padding_": [
        0,
        0,
        0,
        0
    ],
    "_right_": {
        "type": "string",
        "value": "20px"
    },
    "_skin_": "s68f239b5bef4ddda93b35d84ab737ae",
    "_text_": "OK",
    "_top_": {
        "type": "string",
        "value": "0%"
    },
    "_width_": {
        "type": "string",
        "value": "100px"
    },
    "canUpdateUI": true,
    "centery": {
        "type": "string",
        "value": "50%"
    },
    "containerweight": 100,
    "contentalignment": 5,
    "desktopweb": {
        "psp": {
            "hoverSkin": "sa0a214e6979469ebf190bb69eae8def"
        }
    },
    "displaytext": true,
    "focusskin": "s316ff14e9444015bb0e06b0145c02bd",
    "id": "btnOk",
    "info": null,
    "isvisible": true,
    "kuid": "aebee22c928445dfa8a2543c8c5a737c",
    "name": "kony.ui.Button",
    "parent": "flxDeactivateButtons2",
    "pf": "frmSecureImage",
    "texti18n": "i18n.SecurityQuestions.OK",
    "wType": "Button",
    "zindex": 1
}