{
    "@class": "com.kony.gen.viz.model.component.KVizLabel",
    "DNDConfig": null,
    "__parentReadjusting__": false,
    "_height_": {
        "type": "ref",
        "value": "preferred"
    },
    "_margin_": [
        1,
        1,
        1,
        1
    ],
    "_padding_": [
        0,
        0,
        0,
        0
    ],
    "_right_": {
        "type": "string",
        "value": "50px"
    },
    "_skin_": "s8451a70066849109338e675f311fb21",
    "_text_": "PHRASE STATUS",
    "_width_": {
        "type": "ref",
        "value": "preferred"
    },
    "_wrapping_": 2,
    "android": {
        "textStyle": {
            "letterSpacing": 0,
            "strikeThrough": false
        }
    },
    "canUpdateUI": true,
    "centery": {
        "type": "string",
        "value": "50%"
    },
    "containerweight": 100,
    "contentalignment": 4,
    "desktopweb": {
        "contentAlignment": 4
    },
    "id": "lblPhraseStatus",
    "info": null,
    "ipad": {
        "psp": {
            "wrapping": 2
        }
    },
    "iphone": {
        "psp": {
            "wrapping": 2
        }
    },
    "isvisible": true,
    "kuid": "aa4641504f1d40dfbe5f61a73c860bf5",
    "name": "kony.ui.Label",
    "parent": "flxPhraseStatus",
    "pf": "frmSecureImage",
    "texti18n": "i18n.secureimage.PHRASESTATUS",
    "tooltip": "",
    "wType": "Label",
    "zindex": 1
}