{
    "@class": "com.kony.gen.viz.model.component.KVizLabel",
    "DNDConfig": null,
    "__parentReadjusting__": false,
    "_height_": {
        "type": "string",
        "value": "15px"
    },
    "_margin_": [
        1,
        1,
        1,
        1
    ],
    "_padding_": [
        0,
        0,
        0,
        0
    ],
    "_skin_": "sbb8a134ced84b54a1351e3d9ddafd79",
    "_text_": "Uploading...",
    "_top_": {
        "type": "string",
        "value": "190px"
    },
    "_width_": {
        "type": "string",
        "value": "40%"
    },
    "_wrapping_": 2,
    "android": {
        "textStyle": {
            "letterSpacing": 0,
            "strikeThrough": false
        }
    },
    "canUpdateUI": true,
    "centerx": {
        "type": "string",
        "value": "50%"
    },
    "containerweight": 100,
    "contentalignment": 5,
    "id": "lblUploading2",
    "info": null,
    "ipad": {
        "psp": {
            "wrapping": 2
        }
    },
    "iphone": {
        "psp": {
            "wrapping": 2
        }
    },
    "isvisible": true,
    "kuid": "h4d06458ae4e49dd8e82b3fd43ea8ca5",
    "name": "kony.ui.Label",
    "parent": "flxUploadingIndiacator2KA",
    "pf": "frmSecureImage",
    "texti18n": "i18n.secureimage.Uploading",
    "tooltip": "",
    "wType": "Label",
    "zindex": 1
}