{
    "@class": "com.kony.gen.viz.model.component.KVizRichText",
    "DNDConfig": null,
    "__parentReadjusting__": false,
    "_height_": {
        "type": "ref",
        "value": "preferred"
    },
    "_left_": {
        "type": "string",
        "value": "20px"
    },
    "_margin_": [
        0,
        0,
        0,
        0
    ],
    "_padding_": [
        0,
        0,
        0,
        0
    ],
    "_skin_": "s14d950ab751401ab448e52bccf9cf37",
    "_text_": "Are you sure to cancel image upload process?<br><br>If you cancel the process, the images do not get uploaded to the application.\n",
    "_top_": {
        "type": "string",
        "value": "75px"
    },
    "_width_": {
        "type": "string",
        "value": "560px"
    },
    "_wrapping_": 2,
    "canUpdateUI": true,
    "containerweight": 100,
    "contentalignment": 4,
    "id": "RichTextDisclaimer",
    "info": null,
    "isvisible": true,
    "kuid": "eea01148f305453db0a6e10c492e80ce",
    "name": "kony.ui.RichText",
    "parent": "flxPopupHeader",
    "pf": "frmSecureImage",
    "texti18n": "i18n.frmSecureImage.RichTextDisclaimer",
    "wType": "RichText",
    "widgetalignment": 5,
    "zindex": 1
}