{
    "@class": "com.kony.gen.viz.model.component.KVizRichText",
    "DNDConfig": null,
    "__parentReadjusting__": false,
    "_bottom_": {
        "type": "string",
        "value": "150px"
    },
    "_height_": {
        "type": "ref",
        "value": "preferred"
    },
    "_margin_": [
        0,
        0,
        0,
        0
    ],
    "_padding_": [
        0,
        0,
        0,
        0
    ],
    "_skin_": "s53dc044bbca444d9db68eee3dc9c9eb",
    "_text_": "No result found with the keyword \"Key Word\". <br>Try with another keyword",
    "_top_": {
        "type": "string",
        "value": "150px"
    },
    "_width_": {
        "type": "ref",
        "value": "preferred"
    },
    "_wrapping_": 2,
    "canUpdateUI": true,
    "centerx": {
        "type": "string",
        "value": "50%"
    },
    "containerweight": 100,
    "contentalignment": 5,
    "id": "rtxNoResultsFound",
    "info": null,
    "isvisible": false,
    "kuid": "i3a38ebc39e14c4281cc661737ad1a98",
    "name": "kony.ui.RichText",
    "parent": "flxScrollImageUploadList",
    "pf": "frmSecureImage",
    "texti18n": "i18n.frmCSR.richtextNoResult",
    "wType": "RichText",
    "widgetalignment": 5,
    "zindex": 1
}