{
    "@class": "com.kony.gen.viz.model.component.KVizSwitch",
    "DNDConfig": null,
    "__parentReadjusting__": false,
    "_height_": {
        "type": "string",
        "value": "25px"
    },
    "_margin_": [
        0,
        0,
        0,
        0
    ],
    "_padding_": [
        0,
        0,
        0,
        0
    ],
    "_right_": {
        "type": "string",
        "value": "0px"
    },
    "_skin_": "s1e6736edf3545d59ef481cbb911bcbd",
    "_width_": {
        "type": "string",
        "value": "38px"
    },
    "canUpdateUI": true,
    "centery": {
        "type": "string",
        "value": "50%"
    },
    "containerweight": 100,
    "id": "SwitchToggleStatus",
    "info": null,
    "isvisible": true,
    "kiosk": {
        "render": false
    },
    "kuid": "hb701d7b741842db8b5afad1a12adf69",
    "leftsidetext": " ",
    "name": "kony.ui.Switch",
    "onslide": null,
    "osPlatform": "desktopweb",
    "osVersion": "iOS7",
    "parent": "flxPhraseStatus",
    "pf": "frmSecureImage",
    "rightsidetext": " ",
    "selectedindex": 0,
    "wType": "Switch",
    "widgetalignment": 5,
    "zindex": 1
}