{
    "DNDConfig": null,
    "__parentReadjusting__": false,
    "_height_": {
        "type": "string",
        "value": "50dp"
    },
    "_left_": {
        "type": "string",
        "value": "0dp"
    },
    "_margin_": [
        0,
        0,
        0,
        0
    ],
    "_orientation_": 6,
    "_padding_": [
        0,
        0,
        0,
        0
    ],
    "_percent_": true,
    "_right_": {
        "type": "string",
        "value": "0dp"
    },
    "_skin_": "s8ff24328417401b877c3ceb2a5fa27c",
    "_width_": {
        "type": "ref",
        "value": "preferred"
    },
    "allboxes": [],
    "autogrowmode": 0,
    "canUpdateUI": true,
    "children": [
        "flxDeviceName",
        "lblVersion",
        "lblChannel",
        "lblLastUserIP",
        "lblLastAcessedOn",
        "lblStatus",
        "flxStatusInfo"
    ],
    "clipbounds": true,
    "containerId": true,
    "containerweight": 100,
    "desktopweb": {
        "psp": {
            "hoverSkin": "s4d59565d7014378b2ef6f9e2e6e46d3"
        }
    },
    "enablescrolling": true,
    "id": "flxRow",
    "info": null,
    "iscustomlayout": false,
    "isvisible": true,
    "kuid": "f85df41dd3f2476d9fdfe4d2ed01428c",
    "layouttype": 3,
    "name": "kony.ui.FlexContainer",
    "parent": "flxDeviceManagement",
    "pf": "segDeviceManagement",
    "retaincontentalignment": false,
    "retainflexpositionproperties": false,
    "snapgridsize": 10,
    "snaptogrid": true,
    "wType": "FlexContainer",
    "widgetalignment": 1
}