{
    "@class": "com.kony.gen.viz.model.component.KVizButton",
    "DNDConfig": null,
    "__parentReadjusting__": false,
    "_height_": {
        "type": "string",
        "value": "40px"
    },
    "_left_": {
        "type": "string",
        "value": "20px"
    },
    "_margin_": [
        6,
        6,
        6,
        6
    ],
    "_padding_": [
        0,
        0,
        0,
        0
    ],
    "_skin_": "s7abfe97d6764a4394de3a6300d190e0",
    "_text_": "DISCARD",
    "_top_": {
        "type": "string",
        "value": "0%"
    },
    "_width_": {
        "type": "string",
        "value": "100px"
    },
    "canUpdateUI": true,
    "centery": {
        "type": "string",
        "value": "50%"
    },
    "containerweight": 100,
    "contentalignment": 5,
    "desktopweb": {
        "psp": {
            "hoverSkin": "sef647f836e741dea3509607954529b6"
        }
    },
    "displaytext": true,
    "focusskin": "sae388955d5d4104a8c104d11516eb12",
    "id": "btnCancel",
    "ide_onClick": "AS_Button_d66222d93d9448b6a7f9c2c4379fe48a",
    "info": null,
    "isvisible": false,
    "kuid": "eac99ed72861488eb465aa17ad36eb06",
    "name": "kony.ui.Button",
    "parent": "flxEditButtons",
    "pf": "userwidgetmodel",
    "texti18n": "i18n.frmCSRController.DISCARD",
    "wType": "Button",
    "zindex": 1
}