{
    "@class": "com.kony.gen.viz.model.component.KVizRichText",
    "DNDConfig": null,
    "__parentReadjusting__": false,
    "_height_": {
        "type": "string",
        "value": "20px"
    },
    "_left_": {
        "type": "string",
        "value": "0dp"
    },
    "_margin_": [
        0,
        0,
        0,
        0
    ],
    "_padding_": [
        0,
        0,
        0,
        0
    ],
    "_skin_": "sc01e8aa92f346c388fce223f0d1196d",
    "_text_": "No results found",
    "_width_": {
        "type": "string",
        "value": "100%"
    },
    "_wrapping_": 2,
    "canUpdateUI": true,
    "centerx": {
        "type": "string",
        "value": "50%"
    },
    "centery": {
        "type": "string",
        "value": "50%"
    },
    "containerweight": 100,
    "contentalignment": 5,
    "id": "richtextNoResult",
    "info": null,
    "isvisible": false,
    "kuid": "hbad3a51e7ff4296bab091d4a869a49e",
    "name": "kony.ui.RichText",
    "paddinginpixel": false,
    "parent": "flxFilter",
    "pf": "userwidgetmodel",
    "texti18n": "i18n.Messages.SuggestionsNoResultsFound",
    "wType": "RichText",
    "widgetalignment": 5,
    "zindex": 10
}