{
    "@class": "com.kony.gen.viz.model.component.KVizUserWidget",
    "DNDConfig": null,
    "__parentReadjusting__": false,
    "_android_": {},
    "_androidwearos_": {},
    "_children_": [],
    "_desktopweb_": {},
    "_height_": {
        "type": "ref",
        "value": "preferred"
    },
    "_ipad_": {},
    "_iphone_": {},
    "_kiosk_": {},
    "_left_": {
        "type": "string",
        "value": "0dp"
    },
    "_margin_": [
        0,
        0,
        0,
        0
    ],
    "_orientation_": 1,
    "_padding_": [
        0,
        0,
        0,
        0
    ],
    "_percent_": true,
    "_skin_": "s8ff24328417401b877c3ceb2a5fa27c",
    "_spa_": {},
    "_spaan_": {},
    "_spaandroidtablet_": {},
    "_spabb_": {},
    "_spaip_": {},
    "_spaipad_": {},
    "_spamobile_": {},
    "_spatablet_": {},
    "_spawindowstablet_": {},
    "_spawinphone8_": {},
    "_tabrcandroid_": {},
    "_top_": {
        "type": "string",
        "value": "0dp"
    },
    "_vizProps_": {
        "hidewidgethierarchy": false
    },
    "_width_": {
        "type": "string",
        "value": "100%"
    },
    "_windows10_": {},
    "_windows8_": {},
    "_winphone10_": {},
    "_winphone8_": {},
    "areflexpropsreferenced": false,
    "autogrowmode": 1,
    "canUpdateUI": true,
    "clipbounds": true,
    "containerweight": 0,
    "dataDiffs": {
        "btnEdit": {
            "__events__": {},
            "__info__": {
                "kuid": "iafc9c84517043df9c78c79a35a1b0d0",
                "srcKUID": "d4dcfae996024b42bcc011d56742fdba",
                "wType": "Button"
            }
        },
        "flxSectionHeader": {
            "__events__": {},
            "__info__": {
                "kuid": "f46a7a38a7314b568967237aaccf84e3",
                "srcKUID": "cccd38c0b8364293b40ce983dd9c8a24",
                "wType": "FlexContainer"
            }
        },
        "lblSectionHeader": {
            "__events__": {},
            "__info__": {
                "kuid": "a9d85264cb2a4c039c867c98d72b5e76",
                "srcKUID": "f19d2d5f5b794f0d9d33564cb7d192e5",
                "wType": "Label"
            },
            "i18n_text": "i18n.frmTrackApplication.IncomeSource",
            "text": ""
        },
        "lblSeparator": {
            "__events__": {},
            "__info__": {
                "kuid": "f0bdc3dafa054129852ed0558c10c942",
                "srcKUID": "d4788e9bb4f34df3a638466a8e41ae49",
                "wType": "Label"
            }
        },
        "loansSectionHeader": {
            "__events__": {},
            "__info__": {
                "isRoot": true,
                "kuid": "eebaa4cef06a4a01826c697569619aeb",
                "srcKUID": "j00dc876d0f042169ae7bffaa6ef6538",
                "wType": "FlexContainer"
            },
            "top": {
                "Default": {
                    "type": "string",
                    "value": "0dp"
                }
            }
        }
    },
    "enablescrolling": true,
    "id": "loansSectionHeader",
    "info": null,
    "iscustomlayout": false,
    "isdatareferenced": false,
    "issegmentchild": false,
    "isvisible": true,
    "kuid": "eebaa4cef06a4a01826c697569619aeb",
    "layouttype": 2,
    "masterType": 0,
    "name": "kony.ui.UserWidgetInstance",
    "parent": "viewIncomeSource",
    "pf": "userwidgetmodel",
    "retaincontentalignment": false,
    "retainflexpositionproperties": false,
    "snapgridsize": 10,
    "snaptogrid": true,
    "sourceUserWidget": "j00dc876d0f042169ae7bffaa6ef6538",
    "wType": "UserWidgetInstance"
}