{
    "@class": "com.kony.gen.viz.model.component.KVizUserWidget",
    "DNDConfig": null,
    "__parentReadjusting__": false,
    "_android_": {},
    "_androidwearos_": {},
    "_children_": [],
    "_desktopweb_": {},
    "_height_": {
        "type": "string",
        "value": "40px"
    },
    "_ipad_": {},
    "_iphone_": {},
    "_kiosk_": {},
    "_left_": {
        "type": "string",
        "value": "0dp"
    },
    "_margin_": [
        0,
        0,
        0,
        0
    ],
    "_orientation_": 1,
    "_padding_": [
        0,
        0,
        0,
        0
    ],
    "_percent_": true,
    "_responsiveData_": {},
    "_skin_": "s8ff24328417401b877c3ceb2a5fa27c",
    "_spa_": {},
    "_spaan_": {},
    "_spaandroidtablet_": {},
    "_spabb_": {},
    "_spaip_": {},
    "_spaipad_": {},
    "_spamobile_": {},
    "_spatablet_": {},
    "_spawindowstablet_": {},
    "_spawinphone8_": {},
    "_tabrcandroid_": {},
    "_top_": {
        "type": "string",
        "value": "0dp"
    },
    "_vizProps_": {
        "hidewidgethierarchy": false
    },
    "_width_": {
        "type": "string",
        "value": "100%"
    },
    "_windows10_": {},
    "_windows8_": {},
    "_winphone10_": {},
    "_winphone8_": {},
    "areflexpropsreferenced": false,
    "autogrowmode": 0,
    "canUpdateUI": true,
    "clipbounds": true,
    "containerweight": 0,
    "dataDiffs": {
        "btnLink1": {
            "__events__": {},
            "__info__": {
                "kuid": "e5b0707670d741ffb9907b7282b2c79c",
                "srcKUID": "f9cd08e92d104573826b599112d2d40c",
                "wType": "Button"
            }
        },
        "btnLink2": {
            "__events__": {},
            "__info__": {
                "kuid": "cbfc9b72b4c14190ac7ca2d43f825f5f",
                "srcKUID": "h4696e15fc1b48be977fef2807df44da",
                "wType": "Button"
            }
        },
        "btnLink3": {
            "__events__": {},
            "__info__": {
                "kuid": "f06fae80c1a543abb97845b0b07c49d7",
                "srcKUID": "de0012d2ac32449b8dc7ce7b90ae6d59",
                "wType": "Button"
            }
        },
        "details": {
            "__events__": {},
            "__info__": {
                "isRoot": true,
                "kuid": "e82d7e31e8cf43e2b950bd710034d1f3",
                "srcKUID": "e2af4587476946cf966c194460006daa",
                "wType": "FlexContainer"
            },
            "left": {
                "Default": {
                    "type": "string",
                    "value": "0dp"
                }
            },
            "top": {
                "Default": {
                    "type": "string",
                    "value": "0dp"
                }
            }
        },
        "flxColumn1": {
            "__events__": {},
            "__info__": {
                "kuid": "ca0d294dd8e54373a9db86bac57e3431",
                "srcKUID": "ja59132c672b445f9e33d969226ce6bd",
                "wType": "FlexContainer"
            },
            "left": {
                "Default": {
                    "type": "string",
                    "value": "20px"
                }
            }
        },
        "flxColumn2": {
            "__events__": {},
            "__info__": {
                "kuid": "ef2122c38dd843078bf1f7d3116335bd",
                "srcKUID": "d164bee50e3f4d74b99deadfbe5e8b12",
                "wType": "FlexContainer"
            },
            "left": {
                "Default": {
                    "type": "string",
                    "value": "34%"
                }
            },
            "width": {
                "Default": {
                    "type": "string",
                    "value": "30%"
                }
            }
        },
        "flxColumn3": {
            "__events__": {},
            "__info__": {
                "kuid": "f29157c0214743ab9ff1b467a4f7e930",
                "srcKUID": "i1da355959d5439aa866b4b78da2756f",
                "wType": "FlexContainer"
            },
            "autogrowMode": {
                "Default": 0
            },
            "height": {
                "Default": {
                    "type": "string",
                    "value": "40px"
                }
            },
            "isVisible": false,
            "left": {
                "Default": {
                    "type": "string",
                    "value": "66%"
                }
            },
            "right": {
                "Default": {
                    "type": "string",
                    "value": "20px"
                }
            }
        },
        "flxDataAndImage1": {
            "__events__": {},
            "__info__": {
                "kuid": "g61ca4defbc043e084108eb8fe83b5b8",
                "srcKUID": "aac06ded810443cfb30c9866dc0ed4fe",
                "wType": "FlexContainer"
            }
        },
        "flxDataAndImage2": {
            "__events__": {},
            "__info__": {
                "kuid": "d90bcbcc7d8f41d69e907f1ded6b3aca",
                "srcKUID": "fcf513557ef549fe9ca8c899408b3c0f",
                "wType": "FlexContainer"
            }
        },
        "flxDataAndImage3": {
            "__events__": {},
            "__info__": {
                "kuid": "c04549fcf1d3403685dbda936ac0ecad",
                "srcKUID": "b6abeeb4f07448fc81ec7f0552670dfa",
                "wType": "FlexContainer"
            }
        },
        "imgData1": {
            "__events__": {},
            "__info__": {
                "kuid": "f1f763a7af67431b97bcdb5c0d2d573d",
                "srcKUID": "a69ba1fc69924e3688ed9b47431a5817",
                "wType": "Image"
            },
            "src": "active_circle2x.png"
        },
        "imgData2": {
            "__events__": {},
            "__info__": {
                "kuid": "dab6d8b47c24489eaf2aa509048608b3",
                "srcKUID": "ea862f1df4034d5f857d4139759b8879",
                "wType": "Image"
            },
            "src": "active_circle2x.png"
        },
        "imgData3": {
            "__events__": {},
            "__info__": {
                "kuid": "c874fe861fc249dba6fd3366f072b607",
                "srcKUID": "e67672b9251543849f250b4c4f12b11f",
                "wType": "Image"
            },
            "src": "active_circle2x.png"
        },
        "lblData1": {
            "__events__": {},
            "__info__": {
                "kuid": "cbe93ff68fd9431183f0ba9e25f5f574",
                "srcKUID": "fdcfca94d329437093879c8c50b46d5a",
                "wType": "Label"
            }
        },
        "lblData2": {
            "__events__": {},
            "__info__": {
                "kuid": "i1a6ab6483394b429c036652a9b602aa",
                "srcKUID": "jd1bc4d8d2b24bf9bb745b6d9ab62385",
                "wType": "Label"
            }
        },
        "lblData3": {
            "__events__": {},
            "__info__": {
                "kuid": "e0d258d76bf54e24a5ebe5831c248649",
                "srcKUID": "f4de4c0070c143e49d125d3507f23ebf",
                "wType": "Label"
            }
        },
        "lblHeading1": {
            "__events__": {},
            "__info__": {
                "kuid": "gcbabc6dd81f400ead7eec44252c633d",
                "srcKUID": "j114728de2a740adbf052042003e381e",
                "wType": "Label"
            },
            "i18n_text": "i18n.frmMFAScenarios.Frequency_Caps"
        },
        "lblHeading2": {
            "__events__": {},
            "__info__": {
                "kuid": "b530bdec23f94ece9dc7e06f6daff5c1",
                "srcKUID": "gb5813e8c1504894a57cf7c8a39d934a",
                "wType": "Label"
            },
            "i18n_text": "i18n.frmMFAScenarios.Value_Above_Caps"
        },
        "lblHeading3": {
            "__events__": {},
            "__info__": {
                "kuid": "d576073498b1460c8b3499ed934501b6",
                "srcKUID": "ia0a6fc98deb45d9861fdb728dd1ae55",
                "wType": "Label"
            }
        },
        "lblIconData2": {
            "__events__": {},
            "__info__": {
                "kuid": "ddebabe206a74a2fb6c5b1f172fba039",
                "srcKUID": "d78bd98d099d4ad59ae85d485b532723",
                "wType": "Label"
            }
        },
        "lblSignData2": {
            "__events__": {},
            "__info__": {
                "kuid": "a9f0ba2a294549418704d3de92cfb84a",
                "srcKUID": "b9be6c2e94c848a68507ebb34c191c12",
                "wType": "Label"
            }
        }
    },
    "enablescrolling": true,
    "id": "details2",
    "info": null,
    "isdatareferenced": false,
    "isvisible": true,
    "kuid": "e82d7e31e8cf43e2b950bd710034d1f3",
    "layouttype": 2,
    "masterType": 0,
    "name": "kony.ui.UserWidgetInstance",
    "parent": "flxViewRow2",
    "pf": "frmMFAScenarios",
    "snapgridsize": 10,
    "snaptogrid": true,
    "sourceUserWidget": "e2af4587476946cf966c194460006daa",
    "wType": "UserWidgetInstance"
}