{
    "@class": "com.kony.gen.viz.model.component.KVizUserWidget",
    "DNDConfig": null,
    "__parentReadjusting__": false,
    "_android_": {},
    "_androidwearos_": {},
    "_children_": [],
    "_desktopweb_": {},
    "_height_": {
        "type": "ref",
        "value": "preferred"
    },
    "_ipad_": {},
    "_iphone_": {},
    "_kiosk_": {},
    "_left_": {
        "type": "string",
        "value": "200dp"
    },
    "_margin_": [
        0,
        0,
        0,
        0
    ],
    "_orientation_": 1,
    "_padding_": [
        0,
        0,
        0,
        0
    ],
    "_percent_": true,
    "_responsiveData_": {},
    "_skin_": "s8ff24328417401b877c3ceb2a5fa27c",
    "_spa_": {},
    "_spaan_": {},
    "_spaandroidtablet_": {},
    "_spabb_": {},
    "_spaip_": {},
    "_spaipad_": {},
    "_spamobile_": {},
    "_spatablet_": {},
    "_spawindowstablet_": {},
    "_spawinphone8_": {},
    "_tabrcandroid_": {},
    "_top_": {
        "type": "string",
        "value": "0dp"
    },
    "_vizProps_": {
        "hidewidgethierarchy": false
    },
    "_width_": {
        "type": "string",
        "value": "250dp"
    },
    "_windows10_": {},
    "_windows8_": {},
    "_winphone10_": {},
    "_winphone8_": {},
    "areflexpropsreferenced": false,
    "autogrowmode": 1,
    "canUpdateUI": true,
    "clipbounds": true,
    "containerweight": 0,
    "dataDiffs": {
        "flxArrowImage": {
            "__events__": {},
            "__info__": {
                "kuid": "d9161687947b4c1fad4b7b2e7d2bdf8a",
                "srcKUID": "c0d3cd53d250444a9daa0938844dcde2",
                "wType": "FlexContainer"
            },
            "width": {
                "Default": {
                    "type": "string",
                    "value": "14dp"
                }
            }
        },
        "flxChechboxOuter": {
            "__events__": {},
            "__info__": {
                "kuid": "i8651d0d5d9b42cdbd6c7221c40b2589",
                "srcKUID": "h96c725bf6d34ec0b09ac2dfb0ea339b",
                "wType": "FlexContainer"
            },
            "left": {
                "Default": {
                    "type": "string",
                    "value": "13dp"
                }
            }
        },
        "imgUpArrow": {
            "__events__": {},
            "__info__": {
                "kuid": "eb5014415e9c4d1f8877e107d227b784",
                "srcKUID": "deb53e7665bb4591869f6ba63be4ae5d",
                "wType": "Image"
            },
            "src": "leftarrow_2x.png"
        },
        "lblHeading": {
            "__events__": {},
            "__info__": {
                "kuid": "ec463168fcbe4f468e835aff06c87c65",
                "srcKUID": "e58f1724423e45c483449f808448244c",
                "wType": "Label"
            },
            "i18n_text": "i18n.frmAlertsManagement.lblVariableReferenceHeader",
            "text": "Following variables should be enclosed in '[#] [/#]'"
        },
        "lblSeperator": {
            "__events__": {},
            "__info__": {
                "kuid": "g79379a2f86d48b3b153cf4602aac488",
                "srcKUID": "d533c7eed2fb4ca6ac258927bc466771",
                "wType": "Label"
            }
        },
        "segOptionsDropdown": {
            "__events__": {},
            "__info__": {
                "kuid": "b80554dc7f394f4193aea8a1ef77dc0c",
                "srcKUID": "geaab1aadbaf47998e29b067757ea096",
                "wType": "Segment"
            },
            "top": {
                "Default": {
                    "type": "string",
                    "value": "2dp"
                }
            }
        },
        "variableReferencesMenu": {
            "__events__": {},
            "__info__": {
                "isRoot": true,
                "kuid": "ea374b4ab5804c01a6d40e2960288995",
                "srcKUID": "e38dd4bda9d24e5cad517f93dd58dddc",
                "wType": "FlexContainer"
            },
            "isVisible": false,
            "left": {
                "Default": {
                    "type": "string",
                    "value": "200dp"
                }
            },
            "top": {
                "Default": {
                    "type": "string",
                    "value": "0dp"
                }
            },
            "width": {
                "Default": {
                    "type": "string",
                    "value": "250dp"
                }
            }
        }
    },
    "enablescrolling": true,
    "id": "emailVariableReferencesMenu",
    "info": null,
    "iscustomlayout": false,
    "isdatareferenced": false,
    "issegmentchild": false,
    "isvisible": false,
    "kuid": "ea374b4ab5804c01a6d40e2960288995",
    "layouttype": 2,
    "masterType": 0,
    "name": "kony.ui.UserWidgetInstance",
    "parent": "flxRow7",
    "pf": "frmMFAScenarios",
    "retaincontentalignment": false,
    "retainflexpositionproperties": false,
    "snapgridsize": 10,
    "snaptogrid": true,
    "sourceUserWidget": "e38dd4bda9d24e5cad517f93dd58dddc",
    "wType": "UserWidgetInstance",
    "zindex": 5
}