{
    "DNDConfig": null,
    "__parentReadjusting__": false,
    "_height_": {
        "type": "string",
        "value": "25dp"
    },
    "_margin_": [
        0,
        0,
        0,
        0
    ],
    "_orientation_": 6,
    "_padding_": [
        0,
        0,
        0,
        0
    ],
    "_percent_": true,
    "_right_": {
        "type": "string",
        "value": "20px"
    },
    "_skin_": "s8ff24328417401b877c3ceb2a5fa27c",
    "_top_": {
        "type": "string",
        "value": "10dp"
    },
    "_width_": {
        "type": "string",
        "value": "25px"
    },
    "allboxes": [],
    "autogrowmode": 0,
    "canUpdateUI": true,
    "centery": {
        "type": "string",
        "value": "50%"
    },
    "children": [
        "lblIconOptions"
    ],
    "clipbounds": true,
    "containerweight": 100,
    "desktopweb": {
        "psp": {
            "hoverSkin": "scd6759b91984d0791be140ca44627a3"
        }
    },
    "disabledSkins": {},
    "enablescrolling": true,
    "id": "flxOptions",
    "ide_onClick": "AS_FlexContainer_a4df6b3c553a41f9b22caa3c8542e575",
    "info": null,
    "isvisible": true,
    "kuid": "bec6f6d51eec4e47bbd8efec4a688a93",
    "layouttype": 2,
    "name": "kony.ui.FlexContainer",
    "parent": "flxRightOptions",
    "pf": "frmMFAScenarios",
    "snapgridsize": 10,
    "snaptogrid": true,
    "wType": "FlexContainer",
    "widgetalignment": 1,
    "zindex": 2
}