{
    "@class": "com.kony.gen.viz.model.component.KVizListBox",
    "DNDConfig": null,
    "__parentReadjusting__": false,
    "_height_": {
        "type": "string",
        "value": "40dp"
    },
    "_left_": {
        "type": "string",
        "value": "0dp"
    },
    "_margin_": [
        0,
        0,
        0,
        0
    ],
    "_padding_": [
        3,
        0,
        0,
        0
    ],
    "_placeholder_": "Please Select",
    "_skin_": "sf172fb41e5e4367a8dd3a164a2a68b1",
    "_top_": {
        "type": "string",
        "value": "5dp"
    },
    "_width_": {
        "type": "string",
        "value": "100%"
    },
    "canUpdateUI": true,
    "containerweight": 100,
    "contentalignment": 4,
    "focusskin": "s8e2b9bc59214798999099f19e4148ae",
    "groupcells": false,
    "id": "lbxChallengePrimary",
    "info": null,
    "iscustomlayout": false,
    "isvisible": true,
    "kiosk": {
        "psp": {
            "placeholder": "Select an Application"
        }
    },
    "kuid": "if1c7f15e3c54b158216c5590fa299f1",
    "masterdata": [
        [
            "lb1",
            "Placeholder One"
        ],
        [
            "lb2",
            "Placeholder Two"
        ],
        [
            "lb3",
            "Placeholder Three"
        ]
    ],
    "name": "kony.ui.ListBox",
    "parent": "flxColumn41",
    "pf": "frmMFAScenarios",
    "retaincontentalignment": false,
    "retainflexpositionproperties": false,
    "selectedkey": null,
    "selectedkeys": null,
    "selectedkeyvalue": null,
    "selectedkeyvalues": null,
    "size": 18,
    "viewconfig": {
        "toggleViewConfig": {
            "viewStyle": 0
        }
    },
    "viewtype": 0,
    "wType": "ListBox",
    "zindex": 1
}