{
    "@class": "com.kony.gen.viz.model.component.KVizUserWidget",
    "DNDConfig": null,
    "__parentReadjusting__": false,
    "_android_": {},
    "_androidwearos_": {},
    "_children_": [],
    "_desktopweb_": {},
    "_height_": {
        "type": "string",
        "value": "48dp"
    },
    "_ipad_": {},
    "_iphone_": {},
    "_kiosk_": {},
    "_left_": {
        "type": "string",
        "value": "0dp"
    },
    "_margin_": [
        0,
        0,
        0,
        0
    ],
    "_orientation_": 1,
    "_padding_": [
        0,
        0,
        0,
        0
    ],
    "_percent_": true,
    "_responsiveData_": {},
    "_skin_": "s236cef409fb42b8a9690344e37ac553",
    "_spa_": {},
    "_spaan_": {},
    "_spaandroidtablet_": {},
    "_spabb_": {},
    "_spaip_": {},
    "_spaipad_": {},
    "_spamobile_": {},
    "_spatablet_": {},
    "_spawindowstablet_": {},
    "_spawinphone8_": {},
    "_tabrcandroid_": {},
    "_top_": {
        "type": "string",
        "value": "0dp"
    },
    "_vizProps_": {
        "hidewidgethierarchy": false
    },
    "_width_": {
        "type": "string",
        "value": "100%"
    },
    "_windows10_": {},
    "_windows8_": {},
    "_winphone10_": {},
    "_winphone8_": {},
    "areflexpropsreferenced": false,
    "autogrowmode": 0,
    "canUpdateUI": true,
    "clipbounds": true,
    "containerweight": 0,
    "dataDiffs": {
        "flxClearSearchImage": {
            "__events__": {},
            "__info__": {
                "kuid": "bbdbe17b38764633bac120c5169c0b4c",
                "srcKUID": "d5fa1fe0b8df4dc88da1fb9c1cc109d4",
                "wType": "FlexContainer"
            }
        },
        "flxMenu": {
            "__events__": {},
            "__info__": {
                "kuid": "e7ea340075ba46eb89f41334e0a1e6d0",
                "srcKUID": "d69af681a5b043b59258497c8bf4de80",
                "wType": "FlexContainer"
            },
            "isVisible": false,
            "vizProps": {
                "hide": true
            }
        },
        "flxSearch": {
            "__events__": {},
            "__info__": {
                "kuid": "j005290db43c482f92c6850891f7d603",
                "srcKUID": "c8397c48f8fe4b758a72e50699c1383e",
                "wType": "FlexContainer"
            },
            "right": {
                "Default": {
                    "type": "string",
                    "value": "0dp"
                }
            }
        },
        "flxSearchContainer": {
            "__events__": {},
            "__info__": {
                "kuid": "b4c21dd4ef33427b88ee224935f17e03",
                "srcKUID": "f2c45a126e844667bda14ad3d83009e4",
                "wType": "FlexContainer"
            }
        },
        "flxSubHeader": {
            "__events__": {},
            "__info__": {
                "kuid": "jfc066c01a8e4b94b217af21cd463b1e",
                "srcKUID": "h9164354ac8d4fdba73c54494c3ca15c",
                "wType": "FlexContainer"
            }
        },
        "fontIconCross": {
            "__events__": {},
            "__info__": {
                "kuid": "c0097274511b43ebb4964c8e0c031399",
                "srcKUID": "c00fcb7c57884242a6b19f90da4fc926",
                "wType": "Label"
            }
        },
        "fontIconSearchImg": {
            "__events__": {},
            "__info__": {
                "kuid": "d493d0a612824a23aefec0cebe710c3f",
                "srcKUID": "e0cab33f475f4edc80682504e43f6456",
                "wType": "Label"
            }
        },
        "lblRecords": {
            "__events__": {},
            "__info__": {
                "kuid": "c31ca60fe1d44f89b0baf9f572728dbb",
                "srcKUID": "b2c0b2ef982f466296ffcc5e6c27bdba",
                "wType": "Label"
            }
        },
        "lbxPageNumbers": {
            "__events__": {},
            "__info__": {
                "kuid": "i097a043cba945d8bf7100c7a9f10df2",
                "srcKUID": "e740cc4c33bc4c159a021bebd5f76924",
                "wType": "ListBox"
            }
        },
        "subHeader": {
            "__events__": {},
            "__info__": {
                "isRoot": true,
                "kuid": "ad43148736644f7c9beff526e8cc9a0a",
                "srcKUID": "d58a9887d7c34a8b81ed6f04b08810ea",
                "wType": "FlexContainer"
            }
        },
        "tbxSearchBox": {
            "__events__": {},
            "__info__": {
                "kuid": "aea02b6da52c43739b26e05dccab5fd7",
                "srcKUID": "ced686da45754d2e859a31b958148437",
                "wType": "TextField"
            },
            "i18n_placeholder": "i18n.frmMFAScenarios.Search_by_transaction/activity_type",
            "placeholder": "Search by transaction/activity type"
        }
    },
    "enablescrolling": true,
    "id": "subHeader",
    "info": null,
    "iscustomlayout": false,
    "isdatareferenced": false,
    "isvisible": true,
    "kuid": "ad43148736644f7c9beff526e8cc9a0a",
    "layouttype": 2,
    "masterType": 0,
    "name": "kony.ui.UserWidgetInstance",
    "parent": "flxMainSubHeader",
    "pf": "frmMFAScenarios",
    "retaincontentalignment": false,
    "retainflexpositionproperties": false,
    "snapgridsize": 10,
    "snaptogrid": true,
    "sourceUserWidget": "d58a9887d7c34a8b81ed6f04b08810ea",
    "wType": "UserWidgetInstance"
}