{
    "@class": "com.kony.gen.viz.model.component.KVizUserWidget",
    "DNDConfig": null,
    "__parentReadjusting__": false,
    "_android_": {},
    "_androidwearos_": {},
    "_children_": [],
    "_desktopweb_": {},
    "_height_": {
        "type": "string",
        "value": "70px"
    },
    "_ipad_": {},
    "_iphone_": {},
    "_kiosk_": {},
    "_left_": {
        "type": "string",
        "value": "0dp"
    },
    "_margin_": [
        0,
        0,
        0,
        0
    ],
    "_orientation_": 1,
    "_padding_": [
        0,
        0,
        0,
        0
    ],
    "_percent_": true,
    "_render_": true,
    "_responsiveData_": {},
    "_skin_": "s8ff24328417401b877c3ceb2a5fa27c",
    "_spa_": {},
    "_spaan_": {},
    "_spaandroidtablet_": {},
    "_spabb_": {},
    "_spaip_": {},
    "_spaipad_": {},
    "_spamobile_": {},
    "_spatablet_": {},
    "_spawindowstablet_": {},
    "_spawinphone8_": {},
    "_tabrcandroid_": {},
    "_top_": {
        "type": "string",
        "value": "0dp"
    },
    "_vizProps_": {
        "hidewidgethierarchy": false
    },
    "_width_": {
        "type": "string",
        "value": "100%"
    },
    "_windows10_": {},
    "_windows8_": {},
    "_winphone10_": {},
    "_winphone8_": {},
    "areflexpropsreferenced": false,
    "autogrowmode": 0,
    "canUpdateUI": true,
    "clipbounds": true,
    "containerweight": 0,
    "dataDiffs": {
        "flxRightImage": {
            "__events__": {},
            "__info__": {
                "kuid": "e6243e38ec7a435888737c82cd845d7f",
                "srcKUID": "aa381edce9594097a08f270e53aafd61",
                "wType": "FlexContainer"
            }
        },
        "flxToastContainer": {
            "__events__": {},
            "__info__": {
                "kuid": "ia42db414ed241f1a9a8e27311a707ca",
                "srcKUID": "ace26cdabbed423ca9732ff24d147536",
                "wType": "FlexContainer"
            }
        },
        "fontIconImgLeft": {
            "__events__": {},
            "__info__": {
                "kuid": "a0b1e7ba6542402fa26f03fe699e0ace",
                "srcKUID": "faf74347eeca40f9ac54474b326619bb",
                "wType": "Label"
            }
        },
        "lblIconRight": {
            "__events__": {},
            "__info__": {
                "kuid": "j6e6042acfbb481eaff1fbc9da67b501",
                "srcKUID": "dd846396bb83462482492090b97fcbf2",
                "wType": "Label"
            }
        },
        "lbltoastMessage": {
            "__events__": {},
            "__info__": {
                "kuid": "ge9804593ee64fdb91a82863b57e4a12",
                "srcKUID": "fee535920ef34249a172f881337ae55d",
                "wType": "Label"
            }
        },
        "toastMessage": {
            "__events__": {},
            "__info__": {
                "isRoot": true,
                "kuid": "f3ce759ac5734475b4a777f478a43ed3",
                "srcKUID": "iffa234d2a7f4452a688a49d5dd8cdb2",
                "wType": "FlexContainer"
            }
        }
    },
    "id": "toastMessage",
    "info": null,
    "isdatareferenced": false,
    "isvisible": true,
    "kuid": "f3ce759ac5734475b4a777f478a43ed3",
    "layouttype": 2,
    "masterType": 0,
    "name": "kony.ui.UserWidgetInstance",
    "parent": "flxToastMessage",
    "pf": "frmMFAScenarios",
    "snaptogrid": true,
    "sourceUserWidget": "iffa234d2a7f4452a688a49d5dd8cdb2",
    "wType": "UserWidgetInstance"
}