{
    "@class": "com.kony.gen.viz.model.component.KVizLabel",
    "DNDConfig": null,
    "__parentReadjusting__": false,
    "_bottom_": {
        "type": "string",
        "value": "0px"
    },
    "_height_": {
        "type": "string",
        "value": "1px"
    },
    "_left_": {
        "type": "number",
        "value": "0"
    },
    "_margin_": [
        1,
        1,
        1,
        1
    ],
    "_padding_": [
        0,
        0,
        0,
        0
    ],
    "_right_": {
        "type": "number",
        "value": "0"
    },
    "_skin_": "s671336e1f2b458fb9e793e457b74f0a",
    "_text_": "Label",
    "_width_": {
        "type": "string",
        "value": "100%"
    },
    "_wrapping_": 2,
    "android": {
        "textStyle": {
            "letterSpacing": 0,
            "strikeThrough": false
        }
    },
    "canUpdateUI": true,
    "containerId": true,
    "containerweight": 100,
    "contentalignment": 4,
    "id": "lblRowSeparator",
    "info": null,
    "ipad": {
        "psp": {
            "wrapping": 2
        }
    },
    "iphone": {
        "psp": {
            "wrapping": 2
        }
    },
    "isvisible": true,
    "kuid": "idced61844b14cb69a09d11e933295ec",
    "name": "kony.ui.Label",
    "parent": "flxInnerContainer",
    "pf": "segCustomerResults",
    "texti18n": "i18n.userwidgetmodel.lblHeaderSeparator",
    "tooltip": "",
    "wType": "Label",
    "zindex": 1
}