{
    "@class": "com.kony.gen.viz.model.component.KVizButton",
    "DNDConfig": null,
    "__parentReadjusting__": false,
    "_height_": {
        "type": "ref",
        "value": "preferred"
    },
    "_left_": {
        "type": "string",
        "value": "30dp"
    },
    "_margin_": [
        6,
        6,
        6,
        6
    ],
    "_padding_": [
        0,
        0,
        0,
        0
    ],
    "_skin_": "s08f7c8829ac4d47a409798cfb3d0ac9",
    "_text_": "OPTION1",
    "_width_": {
        "type": "ref",
        "value": "preferred"
    },
    "canUpdateUI": true,
    "centery": {
        "type": "string",
        "value": "50%"
    },
    "containerweight": 100,
    "contentalignment": 1,
    "desktopweb": {
        "psp": {
            "hoverSkin": "s08f7c8829ac4d47a409798cfb3d0ac9"
        }
    },
    "disabledSkins": {
        "focusSkin": "s152a8ebff2840e2b2942e5ec1abbdb5"
    },
    "displaytext": true,
    "id": "btnOption1",
    "info": null,
    "isvisible": true,
    "kuid": "c2d257ab80ae4fc9ad9de81f29cce669",
    "name": "kony.ui.Button",
    "parent": "flxOption1",
    "pf": "userwidgetmodel",
    "texti18n": "i18n.userwidgetmodel.btnOption1",
    "wType": "Button",
    "zindex": 1
}