{
    "DNDConfig": null,
    "__parentReadjusting__": false,
    "_height_": {
        "type": "string",
        "value": "30px"
    },
    "_margin_": [
        0,
        0,
        0,
        0
    ],
    "_orientation_": 6,
    "_padding_": [
        0,
        0,
        0,
        0
    ],
    "_percent_": true,
    "_right_": {
        "type": "string",
        "value": "20px"
    },
    "_skin_": "sf619648c7f34aac8b212e95c7b43377",
    "_width_": {
        "type": "string",
        "value": "30px"
    },
    "allboxes": [],
    "autogrowmode": 0,
    "canUpdateUI": true,
    "centery": {
        "type": "string",
        "value": "50%"
    },
    "children": [
        "lblIconOptions"
    ],
    "clipbounds": true,
    "containerId": true,
    "containerweight": 100,
    "desktopweb": {
        "psp": {
            "hoverSkin": "scd6759b91984d0791be140ca44627a3"
        }
    },
    "enablescrolling": true,
    "id": "flxOptions",
    "ide_onClick": "AS_FlexContainer_b2c24ab86083483bae9d1d23854fe16f",
    "info": null,
    "isvisible": true,
    "kuid": "e7c12362a89f4ea2be0b9a3d5b8bd212",
    "layouttype": 2,
    "name": "kony.ui.FlexContainer",
    "parent": "flxLeadOptions",
    "pf": "segLeads",
    "snapgridsize": 10,
    "snaptogrid": true,
    "wType": "FlexContainer",
    "widgetalignment": 1,
    "zindex": 1
}