{
    "@class": "com.kony.gen.viz.model.component.KVizButton",
    "DNDConfig": null,
    "__parentReadjusting__": false,
    "_height_": {
        "type": "string",
        "value": "27dp"
    },
    "_margin_": [
        6,
        6,
        6,
        6
    ],
    "_padding_": [
        0,
        0,
        0,
        0
    ],
    "_right_": {
        "type": "number",
        "value": "55"
    },
    "_skin_": "s787b416527849c49e96cc61d868eec1",
    "_text_": "",
    "_top_": {
        "type": "string",
        "value": "18dp"
    },
    "_width_": {
        "type": "string",
        "value": "83dp"
    },
    "canUpdateUI": true,
    "containerweight": 100,
    "contentalignment": 5,
    "displaytext": true,
    "focusskin": "s152a8ebff2840e2b2942e5ec1abbdb5",
    "id": "btnBackToLoans",
    "info": null,
    "iscustomlayout": false,
    "isvisible": true,
    "kuid": "c67fbfb5c793411c8d996b512344145c",
    "name": "kony.ui.Button",
    "parent": "flxHeaderSimulate",
    "pf": "userwidgetmodel",
    "retaincontentalignment": false,
    "retainflexpositionproperties": false,
    "texti18n": "i18n.Applications.BackToLoans",
    "wType": "Button",
    "zindex": 20
}