{
    "@class": "com.kony.gen.viz.model.component.KVizTextBox2",
    "DNDConfig": null,
    "__parentReadjusting__": false,
    "_height_": {
        "type": "string",
        "value": "40dp"
    },
    "_left_": {
        "type": "string",
        "value": "40dp"
    },
    "_margin_": [
        0,
        0,
        0,
        0
    ],
    "_padding_": [
        3,
        0,
        0,
        0
    ],
    "_placeholder_": "Amount",
    "_skin_": "sd6e2b81495a4bb7b338d11674e944ed",
    "_text_": "",
    "_top_": {
        "type": "string",
        "value": "-1dp"
    },
    "_width_": {
        "type": "string",
        "value": "100dp"
    },
    "autocapitalize": "none",
    "autocomplete": false,
    "autocorrect": false,
    "autofilter": false,
    "canUpdateUI": true,
    "containerheight": "",
    "containerheightmode": 1,
    "containerweight": 100,
    "contentalignment": 4,
    "focusskin": "s1992c3cdd0c45afb007a0ceeed1111d",
    "id": "txtLoanAmount",
    "info": null,
    "iscustomlayout": false,
    "isvisible": true,
    "keyboardtype": "A",
    "kuid": "afe87f17ed504add9524df5d52acb091",
    "mode": "A",
    "name": "kony.ui.TextBox2",
    "parent": "flxAmountSlider",
    "pf": "userwidgetmodel",
    "placeholderskin": "s1ad35988e124d51b6fc33c20681b05c",
    "retaincontentalignment": false,
    "retainflexpositionproperties": false,
    "securetextentry": false,
    "textinputmode": "A",
    "tooltip": "",
    "viewtype": "default",
    "wType": "TextField",
    "zindex": 1
}