{
    "DNDConfig": null,
    "_height_": {
        "type": "string",
        "value": "80dp"
    },
    "_margin_": [
        0,
        0,
        0,
        0
    ],
    "_orientation_": 6,
    "_padding_": [
        0,
        0,
        0,
        0
    ],
    "_percent_": true,
    "_skin_": "s8ff24328417401b877c3ceb2a5fa27c",
    "allboxes": [],
    "autogrowmode": 0,
    "canUpdateUI": true,
    "children": [
        "flxAddUsersWrapper"
    ],
    "clipbounds": true,
    "containerId": true,
    "containerweight": 100,
    "controllerInfo": {
        "default": {
            "channel": "desktop",
            "name": "flxAddUsersController"
        }
    },
    "enablescrolling": true,
    "id": "flxAddUsers",
    "info": null,
    "isTemplate": true,
    "isvisible": true,
    "kuid": "ea971d1d3a814a72b79af286bc1463d1",
    "layouttype": 2,
    "name": "kony.ui.FlexContainer",
    "parent": "segAddUsers",
    "pf": "segAddUsers",
    "snapgridsize": 10,
    "snaptogrid": true,
    "wType": "FlexContainer",
    "widgetalignment": 1
}