{
    "@class": "com.kony.gen.viz.model.component.KVizUserWidget",
    "DNDConfig": null,
    "__parentReadjusting__": false,
    "_children_": [],
    "_desktopweb_": {},
    "_height_": {
        "type": "string",
        "value": "20px"
    },
    "_left_": {
        "type": "string",
        "value": "0dp"
    },
    "_margin_": [
        0,
        0,
        0,
        0
    ],
    "_orientation_": 1,
    "_padding_": [
        0,
        0,
        0,
        0
    ],
    "_percent_": true,
    "_render_": true,
    "_responsiveData_": {},
    "_skin_": "s18e2ced6ee54b75a5ba66f8d41070d5",
    "_top_": {
        "type": "string",
        "value": "0dp"
    },
    "_vizProps_": {
        "hidewidgethierarchy": false
    },
    "_width_": {
        "type": "string",
        "value": "100%"
    },
    "areflexpropsreferenced": false,
    "canUpdateUI": true,
    "clipbounds": true,
    "containerweight": 0,
    "dataDiffs": {
        "breadcrumbs": {
            "__events__": {},
            "__info__": {
                "isRoot": true,
                "kuid": "e5b017e8b87d419caf7633c5e4613d58",
                "srcKUID": "e57b9ec944d34c8b834fa7fb78b60de9",
                "wType": "FlexContainer"
            }
        },
        "btnBackToMain": {
            "__events__": {},
            "__info__": {
                "kuid": "df7ad7c04f2642d5b024424a809f4690",
                "srcKUID": "ea97f85c5977457f93b8d984e28d4872",
                "wType": "Button"
            },
            "i18n_text": null,
            "text": "TERMS & CONDITIONS LIST"
        },
        "btnPreviousPage": {
            "__events__": {},
            "__info__": {
                "kuid": "f3862dbe380b4a98853e99a0ce385c9d",
                "srcKUID": "d0676390dcb747fa9849bbc49f0a18d9",
                "wType": "Button"
            }
        },
        "btnPreviousPage1": {
            "__events__": {},
            "__info__": {
                "kuid": "a9f66c4a35a442e3a9a1ec43dd9ab803",
                "srcKUID": "e7552a460536429580737450bf7c813b",
                "wType": "Button"
            }
        },
        "fontIconBreadcrumbsDown": {
            "__events__": {},
            "__info__": {
                "kuid": "ib167de0c9064eb3a42193ee5cd7271e",
                "srcKUID": "c2a443f3c4ba44668b78d4abbd727ece",
                "wType": "Label"
            }
        },
        "fontIconBreadcrumbsRight": {
            "__events__": {},
            "__info__": {
                "kuid": "e918a34363304b718983b8074915b8cf",
                "srcKUID": "ida459e61e8d4663bacfa34ff30f7ad6",
                "wType": "Label"
            }
        },
        "fontIconBreadcrumbsRight2": {
            "__events__": {},
            "__info__": {
                "kuid": "id163dfbefa843418942efe56060dcb4",
                "srcKUID": "g785f1639b154e7aa5df9fac346a200a",
                "wType": "Label"
            }
        },
        "fontIconBreadcrumbsRight3": {
            "__events__": {},
            "__info__": {
                "kuid": "f4e1e99b51934c62a92af73030bc2c8a",
                "srcKUID": "ce04b87b0fe04c46acac3385cd5c792b",
                "wType": "Label"
            }
        },
        "imgBreadcrumbsDown": {
            "__events__": {},
            "__info__": {
                "kuid": "df49775fa0634f0fabd6f5866184d446",
                "srcKUID": "efceab0102014e18b0fcbd4ee7f2f412",
                "wType": "Image"
            },
            "src": "img_down_arrow.png"
        },
        "imgBreadcrumbsRight": {
            "__events__": {},
            "__info__": {
                "kuid": "j3c75f095a164c3db953c2bafda80395",
                "srcKUID": "b1756ce4f6d744438bad7c9f5f4fd700",
                "wType": "Image"
            },
            "src": "img_breadcrumb_arrow.png"
        },
        "imgBreadcrumbsRight2": {
            "__events__": {},
            "__info__": {
                "kuid": "f4879a3d7a354b9297f7fcbfc7197bfe",
                "srcKUID": "d720d60d37e04d74a8e019d046a402bd",
                "wType": "Image"
            },
            "src": "img_breadcrumb_arrow.png"
        },
        "imgBreadcrumbsRight3": {
            "__events__": {},
            "__info__": {
                "kuid": "geaacad98d4348b0ba062c1c68fc8b62",
                "srcKUID": "dd44e3ff9a4b45fea146e20150e225d2",
                "wType": "Image"
            },
            "src": "img_breadcrumb_arrow.png"
        },
        "lblCurrentScreen": {
            "__events__": {},
            "__info__": {
                "kuid": "ce6754f045b2496aafe05a8aaa2beff1",
                "srcKUID": "d57a137ddf1a4ab19dd36fbb4e55c040",
                "wType": "Label"
            }
        }
    },
    "id": "breadcrumbs",
    "info": null,
    "iscustomlayout": false,
    "isdatareferenced": false,
    "isvisible": true,
    "kuid": "e5b017e8b87d419caf7633c5e4613d58",
    "layouttype": 3,
    "masterType": 0,
    "name": "kony.ui.UserWidgetInstance",
    "parent": "flxBreadcrumb",
    "pf": "frmTermsAndConditions",
    "retaincontentalignment": false,
    "retainflexpositionproperties": false,
    "snaptogrid": true,
    "sourceUserWidget": "e57b9ec944d34c8b834fa7fb78b60de9",
    "wType": "UserWidgetInstance"
}