{
    "DNDConfig": null,
    "__parentReadjusting__": false,
    "_bottom_": {
        "type": "string",
        "value": "10px"
    },
    "_left_": {
        "type": "string",
        "value": "0dp"
    },
    "_margin_": [
        0,
        0,
        0,
        0
    ],
    "_orientation_": 6,
    "_padding_": [
        0,
        0,
        0,
        0
    ],
    "_percent_": true,
    "_right_": {
        "type": "string",
        "value": "0dp"
    },
    "_skin_": "s18d010592a7449aa3bdd1093f63fab8",
    "_top_": {
        "type": "string",
        "value": "0dp"
    },
    "allboxes": [],
    "autogrowmode": 0,
    "canUpdateUI": true,
    "children": [
        "flxTandCHeader",
        "segTandC",
        "flxPagination",
        "flxApplicableAppsFilter",
        "flxNoRecordsFound"
    ],
    "clipbounds": true,
    "containerweight": 100,
    "enablescrolling": true,
    "id": "flxTandCList",
    "info": null,
    "iscustomlayout": false,
    "isvisible": true,
    "kuid": "d58cf10ff41641869a7b0c3e34ec2504",
    "layouttype": 2,
    "name": "kony.ui.FlexContainer",
    "parent": "flxTandCTable",
    "pf": "frmTermsAndConditions",
    "retaincontentalignment": false,
    "retainflexpositionproperties": false,
    "snapgridsize": 10,
    "snaptogrid": true,
    "wType": "FlexContainer",
    "widgetalignment": 1
}