{
    "@class": "com.kony.gen.viz.model.container.KVizSegment2",
    "DNDConfig": null,
    "__parentReadjusting__": false,
    "_data_": [
        {
            "fonticonActive": {
                "@class": "com.viz.ide.model.segment.SimpleTextSegmentData",
                "i18nkey": "i18n.frmFAQ.fonticonEdit",
                "text": ""
            },
            "lblApplicableApps": {
                "@class": "com.viz.ide.model.segment.SimpleTextSegmentData",
                "text": "Retail Banking, Business Banking, Onboarding"
            },
            "lblCode": {
                "@class": "com.viz.ide.model.segment.SimpleTextSegmentData",
                "text": "Loans_Mortgage_ApplicantAgreement"
            },
            "lblSeparator": {
                "@class": "com.viz.ide.model.segment.SimpleTextSegmentData",
                "text": "Label"
            },
            "lblTitle": {
                "@class": "com.viz.ide.model.segment.SimpleTextSegmentData",
                "text": " DBX footer terms & conditions"
            }
        },
        {
            "fonticonActive": {
                "@class": "com.viz.ide.model.segment.SimpleTextSegmentData",
                "i18nkey": "i18n.frmFAQ.fonticonEdit",
                "text": ""
            },
            "lblApplicableApps": {
                "@class": "com.viz.ide.model.segment.SimpleTextSegmentData",
                "text": "Retail Banking, Business Banking, Onboarding"
            },
            "lblCode": {
                "@class": "com.viz.ide.model.segment.SimpleTextSegmentData",
                "text": "Loans_Mortgage_ApplicantAgreement"
            },
            "lblSeparator": {
                "@class": "com.viz.ide.model.segment.SimpleTextSegmentData",
                "text": "Label"
            },
            "lblTitle": {
                "@class": "com.viz.ide.model.segment.SimpleTextSegmentData",
                "text": " DBX footer terms & conditions"
            }
        },
        {
            "fonticonActive": {
                "@class": "com.viz.ide.model.segment.SimpleTextSegmentData",
                "i18nkey": "i18n.frmFAQ.fonticonEdit",
                "text": ""
            },
            "lblApplicableApps": {
                "@class": "com.viz.ide.model.segment.SimpleTextSegmentData",
                "text": "Retail Banking, Business Banking, Onboarding"
            },
            "lblCode": {
                "@class": "com.viz.ide.model.segment.SimpleTextSegmentData",
                "text": "Loans_Mortgage_ApplicantAgreement"
            },
            "lblSeparator": {
                "@class": "com.viz.ide.model.segment.SimpleTextSegmentData",
                "text": "Label"
            },
            "lblTitle": {
                "@class": "com.viz.ide.model.segment.SimpleTextSegmentData",
                "text": " DBX footer terms & conditions"
            }
        },
        {
            "fonticonActive": {
                "@class": "com.viz.ide.model.segment.SimpleTextSegmentData",
                "i18nkey": "i18n.frmFAQ.fonticonEdit",
                "text": ""
            },
            "lblApplicableApps": {
                "@class": "com.viz.ide.model.segment.SimpleTextSegmentData",
                "text": "Retail Banking, Business Banking, Onboarding"
            },
            "lblCode": {
                "@class": "com.viz.ide.model.segment.SimpleTextSegmentData",
                "text": "Loans_Mortgage_ApplicantAgreement"
            },
            "lblSeparator": {
                "@class": "com.viz.ide.model.segment.SimpleTextSegmentData",
                "text": "Label"
            },
            "lblTitle": {
                "@class": "com.viz.ide.model.segment.SimpleTextSegmentData",
                "text": " DBX footer terms & conditions"
            }
        },
        {
            "fonticonActive": {
                "@class": "com.viz.ide.model.segment.SimpleTextSegmentData",
                "i18nkey": "i18n.frmFAQ.fonticonEdit",
                "text": ""
            },
            "lblApplicableApps": {
                "@class": "com.viz.ide.model.segment.SimpleTextSegmentData",
                "text": "Retail Banking, Business Banking, Onboarding"
            },
            "lblCode": {
                "@class": "com.viz.ide.model.segment.SimpleTextSegmentData",
                "text": "Loans_Mortgage_ApplicantAgreement"
            },
            "lblSeparator": {
                "@class": "com.viz.ide.model.segment.SimpleTextSegmentData",
                "text": "Label"
            },
            "lblTitle": {
                "@class": "com.viz.ide.model.segment.SimpleTextSegmentData",
                "text": " DBX footer terms & conditions"
            }
        },
        {
            "fonticonActive": {
                "@class": "com.viz.ide.model.segment.SimpleTextSegmentData",
                "i18nkey": "i18n.frmFAQ.fonticonEdit",
                "text": ""
            },
            "lblApplicableApps": {
                "@class": "com.viz.ide.model.segment.SimpleTextSegmentData",
                "text": "Retail Banking, Business Banking, Onboarding"
            },
            "lblCode": {
                "@class": "com.viz.ide.model.segment.SimpleTextSegmentData",
                "text": "Loans_Mortgage_ApplicantAgreement"
            },
            "lblSeparator": {
                "@class": "com.viz.ide.model.segment.SimpleTextSegmentData",
                "text": "Label"
            },
            "lblTitle": {
                "@class": "com.viz.ide.model.segment.SimpleTextSegmentData",
                "text": " DBX footer terms & conditions"
            }
        },
        {
            "fonticonActive": {
                "@class": "com.viz.ide.model.segment.SimpleTextSegmentData",
                "i18nkey": "i18n.frmFAQ.fonticonEdit",
                "text": ""
            },
            "lblApplicableApps": {
                "@class": "com.viz.ide.model.segment.SimpleTextSegmentData",
                "text": "Retail Banking, Business Banking, Onboarding"
            },
            "lblCode": {
                "@class": "com.viz.ide.model.segment.SimpleTextSegmentData",
                "text": "Loans_Mortgage_ApplicantAgreement"
            },
            "lblSeparator": {
                "@class": "com.viz.ide.model.segment.SimpleTextSegmentData",
                "text": "Label"
            },
            "lblTitle": {
                "@class": "com.viz.ide.model.segment.SimpleTextSegmentData",
                "text": " DBX footer terms & conditions"
            }
        },
        {
            "fonticonActive": {
                "@class": "com.viz.ide.model.segment.SimpleTextSegmentData",
                "i18nkey": "i18n.frmFAQ.fonticonEdit",
                "text": ""
            },
            "lblApplicableApps": {
                "@class": "com.viz.ide.model.segment.SimpleTextSegmentData",
                "text": "Retail Banking, Business Banking, Onboarding"
            },
            "lblCode": {
                "@class": "com.viz.ide.model.segment.SimpleTextSegmentData",
                "text": "Loans_Mortgage_ApplicantAgreement"
            },
            "lblSeparator": {
                "@class": "com.viz.ide.model.segment.SimpleTextSegmentData",
                "text": "Label"
            },
            "lblTitle": {
                "@class": "com.viz.ide.model.segment.SimpleTextSegmentData",
                "text": " DBX footer terms & conditions"
            }
        },
        {
            "fonticonActive": {
                "@class": "com.viz.ide.model.segment.SimpleTextSegmentData",
                "i18nkey": "i18n.frmFAQ.fonticonEdit",
                "text": ""
            },
            "lblApplicableApps": {
                "@class": "com.viz.ide.model.segment.SimpleTextSegmentData",
                "text": "Retail Banking, Business Banking, Onboarding"
            },
            "lblCode": {
                "@class": "com.viz.ide.model.segment.SimpleTextSegmentData",
                "text": "Loans_Mortgage_ApplicantAgreement"
            },
            "lblSeparator": {
                "@class": "com.viz.ide.model.segment.SimpleTextSegmentData",
                "text": "Label"
            },
            "lblTitle": {
                "@class": "com.viz.ide.model.segment.SimpleTextSegmentData",
                "text": " DBX footer terms & conditions"
            }
        },
        {
            "fonticonActive": {
                "@class": "com.viz.ide.model.segment.SimpleTextSegmentData",
                "i18nkey": "i18n.frmFAQ.fonticonEdit",
                "text": ""
            },
            "lblApplicableApps": {
                "@class": "com.viz.ide.model.segment.SimpleTextSegmentData",
                "text": "Retail Banking, Business Banking, Onboarding"
            },
            "lblCode": {
                "@class": "com.viz.ide.model.segment.SimpleTextSegmentData",
                "text": "Loans_Mortgage_ApplicantAgreement"
            },
            "lblSeparator": {
                "@class": "com.viz.ide.model.segment.SimpleTextSegmentData",
                "text": "Label"
            },
            "lblTitle": {
                "@class": "com.viz.ide.model.segment.SimpleTextSegmentData",
                "text": " DBX footer terms & conditions"
            }
        }
    ],
    "_height_": {
        "type": "string",
        "value": "350dp"
    },
    "_indicator_": "none",
    "_left_": {
        "type": "string",
        "value": "0dp"
    },
    "_margin_": [
        0,
        0,
        0,
        0
    ],
    "_orientation_": 2,
    "_padding_": [
        0,
        0,
        0,
        0
    ],
    "_top_": {
        "type": "string",
        "value": "65dp"
    },
    "_width_": {
        "type": "string",
        "value": "100%"
    },
    "autogrowmode": 0,
    "canUpdateUI": true,
    "containerweight": 100,
    "counter": "09",
    "focusedindex": null,
    "focuseditem": null,
    "groupcells": false,
    "hasSections": false,
    "id": "segTandC",
    "info": null,
    "ipad": {
        "psp": {
            "indicator": "rowselect"
        }
    },
    "iphone": {
        "psp": {
            "indicator": "rowselect"
        }
    },
    "iscustomlayout": false,
    "isvisible": true,
    "kuid": "da5556baef784ad19c89ad8dc6e40626",
    "masterdata": {},
    "name": "kony.ui.SegmentedUI2",
    "needpageindicator": true,
    "pageoffdotimage": "pageoffdot.png",
    "pageondotimage": "pageondot.png",
    "paginationconfig": {
        "position": "bottom"
    },
    "parent": "flxTandCList",
    "pf": "frmTermsAndConditions",
    "retaincontentalignment": false,
    "retainflexpositionproperties": false,
    "retainselection": false,
    "rowTemplateId": "i804d35358be4275a72f954b4996d99a",
    "rowcounter": 9,
    "rowfocusskin": "se901dcdd2ae4a58a81f21c009edf99e",
    "rowskin": "s54014e0d4204ce9acd27107655ded87",
    "rowtemplate": "flxTermsAndConditions",
    "screenlevelwidget": false,
    "seccounter": 0,
    "sectionheaderskin": "sffa0c1a0560403189088e98f7b4f498",
    "selectedRows": null,
    "selectedState": false,
    "selectedindex": null,
    "selectedindices": null,
    "selecteditems": null,
    "selectedsectionindex": 0,
    "selectionbehavior": "default",
    "separatorrequired": false,
    "showscrollbars": false,
    "viewtype": "tableview",
    "vizProps": {},
    "wType": "Segment",
    "widgetalignment": 5,
    "widgetdatamap": {
        "flxTermsAndConditions": "flxTermsAndConditions",
        "flxTermsAndConditionsWrapper": "flxTermsAndConditionsWrapper",
        "fonticonActive": "fonticonActive",
        "lblApplicableApps": "lblApplicableApps",
        "lblCode": "lblCode",
        "lblSeparator": "lblSeparator",
        "lblTitle": "lblTitle"
    },
    "zindex": 11
}