{
    "@class": "com.kony.gen.viz.model.component.KVizUserWidget",
    "DNDConfig": null,
    "__parentReadjusting__": false,
    "_android_": {},
    "_androidwearos_": {},
    "_children_": [],
    "_desktopweb_": {},
    "_height_": {
        "type": "string",
        "value": "48dp"
    },
    "_ipad_": {},
    "_iphone_": {},
    "_kiosk_": {},
    "_left_": {
        "type": "string",
        "value": "0dp"
    },
    "_margin_": [
        0,
        0,
        0,
        0
    ],
    "_orientation_": 1,
    "_padding_": [
        0,
        0,
        0,
        0
    ],
    "_percent_": true,
    "_render_": true,
    "_responsiveData_": {},
    "_skin_": "s236cef409fb42b8a9690344e37ac553",
    "_spa_": {},
    "_spaan_": {},
    "_spaandroidtablet_": {},
    "_spabb_": {},
    "_spaip_": {},
    "_spaipad_": {},
    "_spamobile_": {},
    "_spatablet_": {},
    "_spawindowstablet_": {},
    "_spawinphone8_": {},
    "_tabrcandroid_": {},
    "_top_": {
        "type": "string",
        "value": "0dp"
    },
    "_vizProps_": {
        "hidewidgethierarchy": false
    },
    "_width_": {
        "type": "string",
        "value": "100%"
    },
    "_windows10_": {},
    "_windows8_": {},
    "_winphone10_": {},
    "_winphone8_": {},
    "areflexpropsreferenced": false,
    "autogrowmode": 0,
    "canUpdateUI": true,
    "centery": {
        "type": "string",
        "value": "50%"
    },
    "clipbounds": true,
    "containerweight": 0,
    "dataDiffs": {
        "flxClearSearchImage": {
            "__events__": {},
            "__info__": {
                "kuid": "b31f03a2a2b94733babf90a7285d57a3",
                "srcKUID": "d5fa1fe0b8df4dc88da1fb9c1cc109d4",
                "wType": "FlexContainer"
            }
        },
        "flxMenu": {
            "__events__": {},
            "__info__": {
                "kuid": "g749cd21254d449d99b8baedb83a612f",
                "srcKUID": "d69af681a5b043b59258497c8bf4de80",
                "wType": "FlexContainer"
            },
            "isVisible": false,
            "left": {
                "Default": {
                    "type": "string",
                    "value": "35dp"
                }
            }
        },
        "flxSearch": {
            "__events__": {},
            "__info__": {
                "kuid": "i060d68d8f5840928765667fd77dd678",
                "srcKUID": "c8397c48f8fe4b758a72e50699c1383e",
                "wType": "FlexContainer"
            },
            "top": {
                "Default": {
                    "type": "string",
                    "value": "0px"
                }
            },
            "width": {
                "Default": {
                    "type": "string",
                    "value": "350px"
                }
            }
        },
        "flxSearchContainer": {
            "__events__": {},
            "__info__": {
                "kuid": "ea41d41ad7374705974b6da3b1b7c7a7",
                "srcKUID": "f2c45a126e844667bda14ad3d83009e4",
                "wType": "FlexContainer"
            },
            "left": {
                "Default": {
                    "type": "string",
                    "value": "0dp"
                }
            },
            "right": {
                "Default": {
                    "type": "string",
                    "value": "0dp"
                }
            },
            "top": {
                "Default": {
                    "type": "string",
                    "value": "5dp"
                }
            }
        },
        "flxSubHeader": {
            "__events__": {},
            "__info__": {
                "kuid": "d137423a7c4f40dcb7bb63f543616eaf",
                "srcKUID": "h9164354ac8d4fdba73c54494c3ca15c",
                "wType": "FlexContainer"
            },
            "autogrowMode": {
                "Default": 0
            },
            "bottom": {
                "Default": {
                    "type": "string",
                    "value": "0dp"
                }
            },
            "height": {
                "Default": {
                    "type": "string",
                    "value": "100%"
                }
            },
            "top": {
                "Default": {
                    "type": "string",
                    "value": "0dp"
                }
            }
        },
        "fontIconCross": {
            "__events__": {},
            "__info__": {
                "kuid": "g5903d3a8c3746049d8696f34f0cdc30",
                "srcKUID": "c00fcb7c57884242a6b19f90da4fc926",
                "wType": "Label"
            }
        },
        "fontIconSearchImg": {
            "__events__": {},
            "__info__": {
                "kuid": "b83425d6d889497d9bbfe3f66dc9cd9d",
                "srcKUID": "e0cab33f475f4edc80682504e43f6456",
                "wType": "Label"
            }
        },
        "lblRecords": {
            "__events__": {},
            "__info__": {
                "kuid": "f6a4127637ac48289586ce6793a7c64e",
                "srcKUID": "b2c0b2ef982f466296ffcc5e6c27bdba",
                "wType": "Label"
            }
        },
        "lbxPageNumbers": {
            "__events__": {},
            "__info__": {
                "kuid": "a73f79cefe20434e984d670ef33ebf2c",
                "srcKUID": "e740cc4c33bc4c159a021bebd5f76924",
                "wType": "ListBox"
            }
        },
        "subHeader": {
            "__events__": {},
            "__info__": {
                "isRoot": true,
                "kuid": "ha74104b5291414d83a6506f3d313d3b",
                "srcKUID": "d58a9887d7c34a8b81ed6f04b08810ea",
                "wType": "FlexContainer"
            },
            "autogrowMode": {
                "Default": 0
            },
            "centerY": {
                "Default": {
                    "type": "string",
                    "value": "50%"
                }
            },
            "height": {
                "Default": {
                    "type": "string",
                    "value": "48dp"
                }
            },
            "top": {
                "Default": {
                    "type": "string",
                    "value": "0dp"
                }
            }
        },
        "tbxSearchBox": {
            "__events__": {},
            "__info__": {
                "kuid": "dfea826a960743c8a346e84710013bdf",
                "srcKUID": "ced686da45754d2e859a31b958148437",
                "wType": "TextField"
            },
            "placeholder": "Search by Code / Title"
        }
    },
    "id": "subHeader",
    "info": null,
    "isdatareferenced": false,
    "isvisible": true,
    "kuid": "ha74104b5291414d83a6506f3d313d3b",
    "layouttype": 2,
    "masterType": 0,
    "name": "kony.ui.UserWidgetInstance",
    "parent": "flxMainSubHeader",
    "pf": "frmTermsAndConditions",
    "snaptogrid": true,
    "sourceUserWidget": "d58a9887d7c34a8b81ed6f04b08810ea",
    "wType": "UserWidgetInstance"
}