{
    "DNDConfig": null,
    "__parentReadjusting__": false,
    "_height_": {
        "type": "string",
        "value": "40px"
    },
    "_margin_": [
        0,
        0,
        0,
        0
    ],
    "_orientation_": 6,
    "_padding_": [
        0,
        0,
        0,
        0
    ],
    "_percent_": true,
    "_right_": {
        "type": "string",
        "value": "3%"
    },
    "_skin_": "s8ff24328417401b877c3ceb2a5fa27c",
    "_top_": {
        "type": "string",
        "value": "7px"
    },
    "_width_": {
        "type": "string",
        "value": "50px"
    },
    "allboxes": [],
    "autogrowmode": 0,
    "canUpdateUI": true,
    "children": [
        "imgConfigure"
    ],
    "clipbounds": true,
    "containerId": true,
    "containerweight": 100,
    "enablescrolling": true,
    "id": "flxEntitlementsConfigure",
    "ide_onClick": "AS_FlexContainer_fb895631855f434eac40b66293684b9b",
    "info": null,
    "isvisible": true,
    "kuid": "fd1be91bcc014c8c81c24aaf0aa6f153",
    "layouttype": 2,
    "name": "kony.ui.FlexContainer",
    "parent": "flxViewEntitlements",
    "pf": "segViewEntitlements",
    "snapgridsize": 10,
    "snaptogrid": true,
    "wType": "FlexContainer",
    "widgetalignment": 1,
    "zindex": 1
}