{
    "DNDConfig": null,
    "__parentReadjusting__": false,
    "_height_": {
        "type": "string",
        "value": "50px"
    },
    "_left_": {
        "type": "string",
        "value": "35px"
    },
    "_margin_": [
        0,
        0,
        0,
        0
    ],
    "_orientation_": 6,
    "_padding_": [
        0,
        0,
        0,
        0
    ],
    "_percent_": true,
    "_right_": {
        "type": "string",
        "value": "35px"
    },
    "_skin_": "s8ff24328417401b877c3ceb2a5fa27c",
    "_top_": {
        "type": "string",
        "value": "0"
    },
    "allboxes": [],
    "autogrowmode": 0,
    "canUpdateUI": true,
    "children": [
        "flxFirstColumn",
        "lblMobile",
        "lblOnline",
        "flxlastColoumn"
    ],
    "clipbounds": true,
    "containerId": true,
    "containerweight": 100,
    "desktopweb": {
        "psp": {
            "hoverSkin": "s4d59565d7014378b2ef6f9e2e6e46d3"
        }
    },
    "disabledSkins": {},
    "enablescrolling": true,
    "id": "flxUsersReportWrapper",
    "ide_onClick": "AS_FlexContainer_e553ee3b13fe4973aef70f31c7776c5d",
    "info": null,
    "isTemplate": true,
    "isvisible": true,
    "kuid": "f69cebf588524b019bffcbe03ab62579",
    "layouttype": 3,
    "name": "kony.ui.FlexContainer",
    "parent": "flxUsersReport",
    "pf": "segReportsMangUsers",
    "snapgridsize": 10,
    "snaptogrid": true,
    "wType": "FlexContainer",
    "widgetalignment": 1
}