{
    "@class": "com.kony.gen.viz.model.component.KVizUserWidget",
    "DNDConfig": null,
    "__parentReadjusting__": false,
    "_children_": [],
    "_height_": {
        "type": "ref",
        "value": "preferred"
    },
    "_left_": {
        "type": "string",
        "value": "0dp"
    },
    "_margin_": [
        0,
        0,
        0,
        0
    ],
    "_orientation_": 1,
    "_padding_": [
        0,
        0,
        0,
        0
    ],
    "_percent_": true,
    "_render_": true,
    "_skin_": "s88cc708170d4e3e8fed2490fd5e632e",
    "_top_": {
        "type": "string",
        "value": "0dp"
    },
    "_width_": {
        "type": "string",
        "value": "100%"
    },
    "areflexpropsreferenced": false,
    "autogrowmode": 1,
    "canUpdateUI": true,
    "clipbounds": true,
    "containerweight": 0,
    "dataDiffs": {
        "btnLink1": {
            "__events__": {},
            "__info__": {
                "kuid": "c3198fc56999488d8195cef46d95d3da",
                "srcKUID": "c79a78ee48ff4e59ad87e4475decfb09",
                "wType": "Button"
            }
        },
        "btnLink2": {
            "__events__": {},
            "__info__": {
                "kuid": "g61d805e065f490f9d24cf6476e9396f",
                "srcKUID": "abcc48517eda4244911200cc947eac21",
                "wType": "Button"
            }
        },
        "contextualMenu1": {
            "__events__": {},
            "__info__": {
                "isRoot": true,
                "kuid": "c55ec1df5b614025a9102a3862022293",
                "srcKUID": "d2183cdc0d9e4e9aaa65a3dec22e02a9",
                "wType": "FlexContainer"
            }
        },
        "flxOption1": {
            "__events__": {},
            "__info__": {
                "kuid": "d57ef2e176a342d2be8d2572690a369c",
                "srcKUID": "db2058b30203423db41cb34c21a3c10e",
                "wType": "FlexContainer"
            }
        },
        "flxOption2": {
            "__events__": {},
            "__info__": {
                "kuid": "i3b9ff9e776c4c2a8852a24d7385aa0f",
                "srcKUID": "g37630f97cc649e69c4dc5ed5f717fc3",
                "wType": "FlexContainer"
            }
        },
        "flxOption3": {
            "__events__": {},
            "__info__": {
                "kuid": "g78fdc49dd384c7fb842f360e4561554",
                "srcKUID": "f83dc0ac37834569adfd6ea12cd29e16",
                "wType": "FlexContainer"
            }
        },
        "flxOption4": {
            "__events__": {},
            "__info__": {
                "kuid": "jdd734486ae546c99734d9f06b05ecb1",
                "srcKUID": "eb37120620ac4437817e47847695ac64",
                "wType": "FlexContainer"
            }
        },
        "flxOptionsSeperator": {
            "__events__": {},
            "__info__": {
                "kuid": "b0f9b9aaf7a941adbd7d5f7acbbe6e6a",
                "srcKUID": "f118e6d56d4f41d1a253a6e250dfb20c",
                "wType": "FlexContainer"
            }
        },
        "imgOption1": {
            "__events__": {},
            "__info__": {
                "kuid": "b051b7cd6924409b91b0e629f62725f0",
                "srcKUID": "fcf7925bf2fb4fe188700242fa7d4809",
                "wType": "Image"
            }
        },
        "imgOption2": {
            "__events__": {},
            "__info__": {
                "kuid": "ff6937141a494879b1a139aaabd4ff95",
                "srcKUID": "f34da36097e34c58bf358c57911259b5",
                "wType": "Image"
            }
        },
        "imgOption3": {
            "__events__": {},
            "__info__": {
                "kuid": "decca8aec5654a2a9570c1fce7791d81",
                "srcKUID": "g55d22a2b94a42bca2bbe2062455ca59",
                "wType": "Image"
            }
        },
        "imgOption4": {
            "__events__": {},
            "__info__": {
                "kuid": "h5c6a131dfda454dbb80e11154493911",
                "srcKUID": "g19ba47069ed4de5b73cc9aee57e8f04",
                "wType": "Image"
            }
        },
        "lblHeader": {
            "__events__": {},
            "__info__": {
                "kuid": "hb4073d4ad8f4e8f931a7836d91261ff",
                "srcKUID": "d5434f07b0bd46d2bf456542f8e2a4af",
                "wType": "Label"
            }
        },
        "lblIconOption1": {
            "__events__": {},
            "__info__": {
                "kuid": "g85323c05b0143fda1fc25eb978de784",
                "srcKUID": "hf5f3c4981ee44e2844d761ce8c4dbdf",
                "wType": "Label"
            }
        },
        "lblIconOption2": {
            "__events__": {},
            "__info__": {
                "kuid": "jc505367040342eebcda363f74fc278c",
                "srcKUID": "fffbee09231e47b8a32995e66d7a0d7c",
                "wType": "Label"
            }
        },
        "lblIconOption3": {
            "__events__": {},
            "__info__": {
                "kuid": "db5cfde883fa4263982d029ec36ad701",
                "srcKUID": "f65a4a6fed4c4732a2b80e3d11d6e447",
                "wType": "Label"
            }
        },
        "lblIconOption4": {
            "__events__": {},
            "__info__": {
                "kuid": "ha84290c12184ca685fa3e42626a9af3",
                "srcKUID": "e38088e0fd1b48ac933fcbca18d5ff77",
                "wType": "Label"
            }
        },
        "lblOption1": {
            "__events__": {},
            "__info__": {
                "kuid": "df39950c33c0460892b77d7580a91c86",
                "srcKUID": "fbf420a898374bd4b6f90262313755df",
                "wType": "Label"
            }
        },
        "lblOption2": {
            "__events__": {},
            "__info__": {
                "kuid": "ef0d9e7070d94fcfb8e816bfe300d547",
                "srcKUID": "b3f92f4b0c7b4bff91fd183b9b518db1",
                "wType": "Label"
            }
        },
        "lblOption3": {
            "__events__": {},
            "__info__": {
                "kuid": "eb2fcbe583ff438483b147f9e5a7e9f8",
                "srcKUID": "e537cff024b346fe94cceb983f858289",
                "wType": "Label"
            }
        },
        "lblOption4": {
            "__events__": {},
            "__info__": {
                "kuid": "e47342c178284b50beff801dda7964c3",
                "srcKUID": "bbdadb5c424245f1b173fcdcf506eed8",
                "wType": "Label"
            }
        }
    },
    "id": "contextualMenu",
    "info": null,
    "iscustomlayout": false,
    "isdatareferenced": false,
    "isvisible": true,
    "kuid": "c55ec1df5b614025a9102a3862022293",
    "layouttype": 4,
    "masterType": 0,
    "name": "kony.ui.UserWidgetInstance",
    "parent": "flxContextualMenu",
    "pf": "userwidgetmodel",
    "retaincontentalignment": false,
    "retainflexpositionproperties": false,
    "snaptogrid": true,
    "sourceUserWidget": "d2183cdc0d9e4e9aaa65a3dec22e02a9",
    "wType": "UserWidgetInstance"
}