{
    "@class": "com.kony.gen.viz.model.component.KVizButton",
    "DNDConfig": null,
    "__parentReadjusting__": false,
    "_height_": {
        "type": "string",
        "value": "40px"
    },
    "_margin_": [
        6,
        6,
        6,
        6
    ],
    "_padding_": [
        0,
        0,
        0,
        0
    ],
    "_right_": {
        "type": "string",
        "value": "155px"
    },
    "_skin_": "s3fead79081947b1b06e45ac20ca46d4",
    "_text_": "CANCEL",
    "_top_": {
        "type": "string",
        "value": "0%"
    },
    "_width_": {
        "type": "string",
        "value": "120px"
    },
    "canUpdateUI": true,
    "centery": {
        "type": "string",
        "value": "50%"
    },
    "containerweight": 100,
    "contentalignment": 5,
    "desktopweb": {
        "psp": {
            "hoverSkin": "sf0607ed109940678312f918794b5975"
        }
    },
    "displaytext": true,
    "focusskin": "s3fead79081947b1b06e45ac20ca46d4",
    "id": "btnCancel",
    "ide_onClick": "AS_Button_fe48adad632c43c5b97a05155a450331",
    "info": null,
    "isvisible": true,
    "kuid": "cf86d3d8407f4c30ac739ac9a5dfb7bc",
    "name": "kony.ui.Button",
    "parent": "flxEditButtons",
    "pf": "frmBusinessConfigurations",
    "texti18n": "i18n.frmCustomers.CANCEL",
    "wType": "Button",
    "zindex": 1
}