{
    "@class": "com.kony.gen.viz.model.component.KVizSwitch",
    "DNDConfig": null,
    "__parentReadjusting__": false,
    "_height_": {
        "type": "string",
        "value": "25px"
    },
    "_left_": {
        "type": "string",
        "value": "0%"
    },
    "_margin_": [
        0,
        0,
        0,
        0
    ],
    "_padding_": [
        0,
        0,
        0,
        0
    ],
    "_skin_": "s1e6736edf3545d59ef481cbb911bcbd",
    "_width_": {
        "type": "string",
        "value": "36dp"
    },
    "canUpdateUI": true,
    "centery": {
        "type": "string",
        "value": "50%"
    },
    "containerweight": 100,
    "id": "SwitchToggleStatus",
    "info": null,
    "isvisible": true,
    "kiosk": {
        "render": false
    },
    "kuid": "eeef448a5a26413ea64622aec6feecd6",
    "leftsidetext": "ON",
    "name": "kony.ui.Switch",
    "onslide": null,
    "osPlatform": "desktopweb",
    "osVersion": "iOS7",
    "parent": "flxPhraseStatus",
    "pf": "frmBusinessConfigurations",
    "rightsidetext": "OFF",
    "selectedindex": 0,
    "wType": "Switch",
    "widgetalignment": 5,
    "windows10": {
        "render": false
    },
    "winphone10": {
        "render": false
    },
    "zindex": 1
}