{
    "@class": "com.kony.gen.viz.model.component.KVizButton",
    "DNDConfig": null,
    "__parentReadjusting__": false,
    "_height_": {
        "type": "string",
        "value": "35px"
    },
    "_left_": {
        "type": "string",
        "value": "10dp"
    },
    "_margin_": [
        6,
        6,
        6,
        6
    ],
    "_padding_": [
        0,
        0,
        0,
        0
    ],
    "_skin_": "s27a374376144a71bc311b5bbd640050",
    "_text_": "7",
    "_top_": {
        "type": "string",
        "value": "0dp"
    },
    "_width_": {
        "type": "string",
        "value": "35px"
    },
    "canUpdateUI": true,
    "containerweight": 100,
    "contentalignment": 5,
    "displaytext": true,
    "focusskin": "s27a374376144a71bc311b5bbd640050",
    "id": "btnNumber114",
    "info": null,
    "iscustomlayout": false,
    "isvisible": true,
    "kuid": "iaae294f3238422fb0798b8d9992aacd",
    "name": "kony.ui.Button",
    "parent": "flxButtons11",
    "pf": "frmMFAConfigurations",
    "retaincontentalignment": false,
    "retainflexpositionproperties": false,
    "wType": "Button",
    "zindex": 1
}