{
    "@class": "com.kony.gen.viz.model.container.KVizSegment2",
    "DNDConfig": null,
    "__parentReadjusting__": false,
    "_data_": [
        {
            "fontIconImgViewDescription": {
                "@class": "com.viz.ide.model.segment.SimpleTextSegmentData",
                "text": ""
            },
            "imgOptions": {
                "@class": "com.viz.ide.model.segment.ImageSegmentData",
                "src": ""
            },
            "imgServiceStatus": {
                "@class": "com.viz.ide.model.segment.ImageSegmentData",
                "src": ""
            },
            "lblIconOptions": {
                "@class": "com.viz.ide.model.segment.SimpleTextSegmentData",
                "text": ""
            },
            "lblMFAConfigName": {
                "@class": "com.viz.ide.model.segment.SimpleTextSegmentData",
                "text": ""
            },
            "lblSeperator": {
                "@class": "com.viz.ide.model.segment.SimpleTextSegmentData",
                "text": "."
            },
            "lblServiceStatus": {
                "@class": "com.viz.ide.model.segment.SimpleTextSegmentData",
                "text": ""
            },
            "lblViewEditButton": {
                "@class": "com.viz.ide.model.segment.SimpleTextSegmentData",
                "i18nkey": "i18n.permission.Edit",
                "text": "Edit"
            }
        }
    ],
    "_height_": {
        "type": "string",
        "value": "100%"
    },
    "_indicator_": "none",
    "_left_": {
        "type": "string",
        "value": "0dp"
    },
    "_margin_": [
        0,
        0,
        0,
        0
    ],
    "_orientation_": 2,
    "_padding_": [
        0,
        0,
        0,
        0
    ],
    "_right_": {
        "type": "string",
        "value": "0dp"
    },
    "_top_": {
        "type": "string",
        "value": "0dp"
    },
    "_width_": {
        "type": "string",
        "value": "100%"
    },
    "autogrowmode": 0,
    "canUpdateUI": true,
    "centery": {
        "type": "string",
        "value": "50%"
    },
    "containerweight": 100,
    "counter": "00",
    "focusedindex": null,
    "focuseditem": null,
    "groupcells": false,
    "hasSections": false,
    "id": "segMFAConfigs",
    "info": null,
    "ipad": {
        "psp": {
            "indicator": "rowselect"
        }
    },
    "iphone": {
        "psp": {
            "indicator": "rowselect"
        }
    },
    "isvisible": true,
    "kuid": "de6dd2bf34b249d89e282ad5f97ebe0b",
    "masterdata": {},
    "name": "kony.ui.SegmentedUI2",
    "needpageindicator": true,
    "pageoffdotimage": "pageoffdot.png",
    "pageondotimage": "pageondot.png",
    "paginationconfig": {
        "position": "bottom"
    },
    "parent": "flxSegmentMFAConfigs",
    "pf": "frmMFAConfigurations",
    "retainselection": false,
    "rowTemplateId": "e99fdf4efe8141299b0587a7ecb41607",
    "rowcounter": 0,
    "rowfocusskin": "se901dcdd2ae4a58a81f21c009edf99e",
    "rowskin": "s73753bba9d94dc2863448c8fa9af0b0",
    "rowtemplate": "flxSegMFAConfigs",
    "screenlevelwidget": false,
    "seccounter": 0,
    "sectionheaderskin": "sffa0c1a0560403189088e98f7b4f498",
    "selectedRows": null,
    "selectedState": false,
    "selectedindex": null,
    "selectedindices": null,
    "selecteditems": null,
    "selectedsectionindex": 0,
    "selectionbehavior": "default",
    "separatorrequired": false,
    "showscrollbars": false,
    "viewtype": "tableview",
    "vizProps": {},
    "wType": "Segment",
    "widgetalignment": 5,
    "widgetdatamap": {
        "flxAccordianContainer": "flxAccordianContainer",
        "flxArrow": "flxArrow",
        "flxContent": "flxContent",
        "flxOptions": "flxOptions",
        "flxSegMFAConfigs": "flxSegMFAConfigs",
        "flxStatus": "flxStatus",
        "flxViewEditButton": "flxViewEditButton",
        "fontIconImgViewDescription": "fontIconImgViewDescription",
        "imgOptions": "imgOptions",
        "imgServiceStatus": "imgServiceStatus",
        "lblIconOptions": "lblIconOptions",
        "lblMFAConfigName": "lblMFAConfigName",
        "lblSeperator": "lblSeperator",
        "lblServiceStatus": "lblServiceStatus",
        "lblViewEditButton": "lblViewEditButton"
    },
    "zindex": 1
}