{
    "@class": "com.kony.gen.viz.model.component.KVizButton",
    "DNDConfig": null,
    "__parentReadjusting__": false,
    "_height_": {
        "type": "string",
        "value": "100%"
    },
    "_left_": {
        "type": "string",
        "value": "0dp"
    },
    "_margin_": [
        6,
        6,
        6,
        6
    ],
    "_padding_": [
        0,
        0,
        0,
        0
    ],
    "_right_": {
        "type": "string",
        "value": "20px"
    },
    "_skin_": "sc69985e73be4e9f8dd77c23c66bd47a",
    "_text_": "CONTACT",
    "_top_": {
        "type": "string",
        "value": "19dp"
    },
    "_width_": {
        "type": "ref",
        "value": "preferred"
    },
    "canUpdateUI": true,
    "centery": {
        "type": "string",
        "value": "50%"
    },
    "containerweight": 100,
    "contentalignment": 5,
    "desktopweb": {
        "psp": {
            "hoverSkin": "sc4f2837eb754218a75ce958d4062ae3"
        }
    },
    "disabledSkins": {
        "focusSkin": "sc4f2837eb754218a75ce958d4062ae3"
    },
    "displaytext": true,
    "id": "btnTabName7",
    "info": null,
    "isvisible": true,
    "kuid": "cd65fcace9c6480e836b119e3bb35c93",
    "name": "kony.ui.Button",
    "parent": "tabs",
    "pf": "userwidgetmodel",
    "texti18n": "i18n.AlertsManagement.ALERT",
    "wType": "Button",
    "zindex": 1
}