{
    "@class": "com.kony.gen.viz.model.component.KVizUserWidget",
    "DNDConfig": null,
    "__parentReadjusting__": false,
    "_android_": {},
    "_androidwearos_": {},
    "_children_": [],
    "_desktopweb_": {},
    "_height_": {
        "type": "ref",
        "value": "preferred"
    },
    "_ipad_": {},
    "_iphone_": {},
    "_kiosk_": {},
    "_left_": {
        "type": "string",
        "value": "0dp"
    },
    "_margin_": [
        0,
        0,
        0,
        0
    ],
    "_orientation_": 1,
    "_padding_": [
        0,
        0,
        0,
        0
    ],
    "_percent_": true,
    "_render_": true,
    "_responsiveData_": {},
    "_skin_": "s8ff24328417401b877c3ceb2a5fa27c",
    "_spa_": {},
    "_spaan_": {},
    "_spaandroidtablet_": {},
    "_spabb_": {},
    "_spaip_": {},
    "_spaipad_": {},
    "_spamobile_": {},
    "_spatablet_": {},
    "_spawindowstablet_": {},
    "_spawinphone8_": {},
    "_tabrcandroid_": {},
    "_top_": {
        "type": "string",
        "value": "5dp"
    },
    "_vizProps_": {
        "hidewidgethierarchy": false
    },
    "_width_": {
        "type": "string",
        "value": "100%"
    },
    "_windows10_": {},
    "_windows8_": {},
    "_winphone10_": {},
    "_winphone8_": {},
    "areflexpropsreferenced": false,
    "autogrowmode": 1,
    "canUpdateUI": true,
    "clipbounds": true,
    "containerweight": 0,
    "dataDiffs": {
        "flxArrowImage": {
            "__events__": {},
            "__info__": {
                "kuid": "je8debba71f74d549c1d11e1d85580f5",
                "srcKUID": "e7b826a9ded041789bb5730cdd1eb78d",
                "wType": "FlexContainer"
            }
        },
        "flxChechboxOuter": {
            "__events__": {},
            "__info__": {
                "kuid": "cca37abdcf4240f6b8307f30341bc85e",
                "srcKUID": "b678997e4ce643379e29f831f9e86639",
                "wType": "FlexContainer"
            },
            "zIndex": {
                "Default": 1
            }
        },
        "imgUpArrow": {
            "__events__": {},
            "__info__": {
                "kuid": "a1d35a19ad76474f940cd6a5fa38cdb5",
                "srcKUID": "f853b1ee32b74c379a8ff3fd820d5ce1",
                "wType": "Image"
            },
            "src": "uparrow_2x.png"
        },
        "segStatusFilterDropdown": {
            "__events__": {},
            "__info__": {
                "kuid": "eecd932c4e7d44e0b02c26a7790d0ea2",
                "srcKUID": "ida2f212b38b4e25bdb9fcb01c874379",
                "wType": "Segment"
            },
            "top": {
                "Default": {
                    "type": "string",
                    "value": "5dp"
                }
            },
            "zIndex": {
                "Default": 1
            }
        },
        "statusFilterMenu": {
            "__events__": {},
            "__info__": {
                "isRoot": true,
                "kuid": "b7db8ec9c14445189343f2adf02c1178",
                "srcKUID": "dd73ab57bfd74a4b8c7dc5be300ddec8",
                "wType": "FlexContainer"
            }
        }
    },
    "id": "securityQuestionsStatusFilterMenu",
    "info": null,
    "iscustomlayout": false,
    "isdatareferenced": false,
    "isvisible": true,
    "kuid": "b7db8ec9c14445189343f2adf02c1178",
    "layouttype": 2,
    "masterType": 0,
    "name": "kony.ui.UserWidgetInstance",
    "parent": "flxSecurityQuestionsStatusFilter",
    "pf": "frmSecurityQuestions",
    "retaincontentalignment": false,
    "retainflexpositionproperties": false,
    "snaptogrid": true,
    "sourceUserWidget": "dd73ab57bfd74a4b8c7dc5be300ddec8",
    "wType": "UserWidgetInstance",
    "zindex": 5
}