{
    "@class": "com.kony.gen.viz.model.component.KVizUserWidget",
    "DNDConfig": null,
    "__parentReadjusting__": false,
    "_android_": {},
    "_androidwearos_": {},
    "_children_": [],
    "_desktopweb_": {},
    "_height_": {
        "type": "ref",
        "value": "preferred"
    },
    "_ipad_": {},
    "_iphone_": {},
    "_kiosk_": {},
    "_left_": {
        "type": "string",
        "value": "0dp"
    },
    "_margin_": [
        0,
        0,
        0,
        0
    ],
    "_orientation_": 1,
    "_padding_": [
        0,
        0,
        0,
        0
    ],
    "_percent_": true,
    "_responsiveData_": {},
    "_skin_": "s8ff24328417401b877c3ceb2a5fa27c",
    "_spa_": {},
    "_spaan_": {},
    "_spaandroidtablet_": {},
    "_spabb_": {},
    "_spaip_": {},
    "_spaipad_": {},
    "_spamobile_": {},
    "_spatablet_": {},
    "_spawindowstablet_": {},
    "_spawinphone8_": {},
    "_tabrcandroid_": {},
    "_top_": {
        "type": "string",
        "value": "0dp"
    },
    "_vizProps_": {
        "hidewidgethierarchy": false
    },
    "_width_": {
        "type": "string",
        "value": "100%"
    },
    "_windows10_": {},
    "_windows8_": {},
    "_winphone10_": {},
    "_winphone8_": {},
    "areflexpropsreferenced": false,
    "autogrowmode": 1,
    "canUpdateUI": true,
    "clipbounds": true,
    "containerweight": 0,
    "dataDiffs": {
        "dropdownMainHeader": {
            "__events__": {},
            "__info__": {
                "isRoot": true,
                "kuid": "i3ed5626be0c4f5dbd86049b7db348a5",
                "srcKUID": "e9ecd1a954fe449f933d74d4475ecb2c",
                "wType": "FlexContainer"
            }
        },
        "flxArrowImage": {
            "__events__": {},
            "__info__": {
                "kuid": "a41d0459639b40879f961547daba0451",
                "srcKUID": "a0654fb367434863a3dd04394f488963",
                "wType": "FlexContainer"
            }
        },
        "flxChangePassword": {
            "__events__": {},
            "__info__": {
                "kuid": "d59326ccf8e64780974e4f94596c66cd",
                "srcKUID": "b9f5aa1dec1945e8a4fc706963151525",
                "wType": "FlexContainer"
            }
        },
        "flxDropdown": {
            "__events__": {},
            "__info__": {
                "kuid": "e39497a656774af0a65924c885498d3c",
                "srcKUID": "e3ae96d2ab8e4053a060a40d0b51b0f7",
                "wType": "FlexContainer"
            },
            "isVisible": false
        },
        "flxHeaderUserOptions": {
            "__events__": {},
            "__info__": {
                "kuid": "d67620224d4d4dc19b18f831c89a2f8a",
                "srcKUID": "d725df1665b84f33adf91d068d28c92d",
                "wType": "FlexContainer"
            }
        },
        "flxIconChangePswd": {
            "__events__": {},
            "__info__": {
                "kuid": "cac9151e147048edbb592a98b97256df",
                "srcKUID": "a81662e8e3404d93b7def6cc521c34d3",
                "wType": "FlexContainer"
            }
        },
        "flxIconSignOut": {
            "__events__": {},
            "__info__": {
                "kuid": "ba91a71f4751435280c566948fb933a4",
                "srcKUID": "d868d38e0d244a4394c73cb0e36d80f5",
                "wType": "FlexContainer"
            }
        },
        "flxOuterActions": {
            "__events__": {},
            "__info__": {
                "kuid": "ff1f50e55e554695a0a8293cfb681b9d",
                "srcKUID": "a995670c56484d68bb9ce2e772b37ca1",
                "wType": "FlexContainer"
            }
        },
        "flxSignOut": {
            "__events__": {},
            "__info__": {
                "kuid": "cd6323de745b4f3c8e95386038ef702d",
                "srcKUID": "b5b4e89312864aba9b92703592a93bdc",
                "wType": "FlexContainer"
            }
        },
        "imgUpArrow": {
            "__events__": {},
            "__info__": {
                "kuid": "cfb1e15cfd5f4a4cbb23e6e145b0581d",
                "srcKUID": "ia67f325a5bd440980ffbdd6113c1ed9",
                "wType": "Image"
            },
            "src": "uparrow_2x.png"
        },
        "lblChangePswd": {
            "__events__": {},
            "__info__": {
                "kuid": "ec6cd7a0377c4f0d93b604f3fdb2789f",
                "srcKUID": "h6ef861927f14067a6e24571afbf3ac8",
                "wType": "Label"
            }
        },
        "lblIconChangePswrd": {
            "__events__": {},
            "__info__": {
                "kuid": "i8f40fb828794180b938f01042a1d3ef",
                "srcKUID": "c7e885b835f144349ee945acf74dc742",
                "wType": "Label"
            }
        },
        "lblIconDownArrow": {
            "__events__": {},
            "__info__": {
                "kuid": "jc5173fc2b4f4146885643208d9eda82",
                "srcKUID": "ecb7499ea0ed400b85fb02d23bdca2cd",
                "wType": "Label"
            }
        },
        "lblIconSignOut": {
            "__events__": {},
            "__info__": {
                "kuid": "b86211b843504be7a608282f6053bab3",
                "srcKUID": "cef5bc51d7cc4302bb12ff0d453a0843",
                "wType": "Label"
            }
        },
        "lblSignOut": {
            "__events__": {},
            "__info__": {
                "kuid": "f29fd909e4d84238afea02ae0b3dce2e",
                "srcKUID": "a5a8860442564f66b1446440e5b757ea",
                "wType": "Label"
            }
        },
        "lblUserName": {
            "__events__": {},
            "__info__": {
                "kuid": "g19195d1574f4374b455e235631431d3",
                "srcKUID": "h86662bbad8b4d65b161e0756ea7b35d",
                "wType": "Label"
            }
        }
    },
    "enablescrolling": true,
    "id": "dropdownMainHeader",
    "info": null,
    "iscustomlayout": false,
    "isdatareferenced": false,
    "issegmentchild": false,
    "isvisible": true,
    "kuid": "i3ed5626be0c4f5dbd86049b7db348a5",
    "layouttype": 2,
    "masterType": 0,
    "name": "kony.ui.UserWidgetInstance",
    "parent": "flxHeaderDropdown",
    "pf": "frmCustomerProfileAccounts",
    "retaincontentalignment": false,
    "retainflexpositionproperties": false,
    "retainflowhorizontalalignment": false,
    "snapgridsize": 10,
    "snaptogrid": true,
    "sourceUserWidget": "e9ecd1a954fe449f933d74d4475ecb2c",
    "wType": "UserWidgetInstance"
}