{
    "DNDConfig": null,
    "__parentReadjusting__": false,
    "_height_": {
        "type": "string",
        "value": "470dp"
    },
    "_margin_": [
        0,
        0,
        0,
        0
    ],
    "_orientation_": 6,
    "_padding_": [
        0,
        0,
        0,
        0
    ],
    "_percent_": true,
    "_skin_": "sc74bbd9c30247728d3dabf5547c0feb",
    "_top_": {
        "type": "string",
        "value": "120px"
    },
    "_width_": {
        "type": "string",
        "value": "800px"
    },
    "allboxes": [],
    "autogrowmode": 0,
    "canUpdateUI": true,
    "centerx": {
        "type": "string",
        "value": "50%"
    },
    "centery": {
        "type": "string",
        "value": ""
    },
    "children": [
        "flxAlertPopUpTopColor",
        "flxPreviewPopupHeader",
        "flxAlertProductsTabs",
        "flxTemplatePreviewHeader",
        "flxTemplatePreviewBody",
        "flxAlertPopUpButtons"
    ],
    "clipbounds": false,
    "containerweight": 100,
    "enablescrolling": true,
    "id": "flxAlertPopUp",
    "info": null,
    "isvisible": true,
    "kuid": "fdf059f2f0fb4862b15d061c490a40cc",
    "layouttype": 4,
    "name": "kony.ui.FlexContainer",
    "parent": "flxPreviewPopup",
    "pf": "frmCustomerProfileAccounts",
    "snapgridsize": 10,
    "snaptogrid": true,
    "wType": "FlexContainer",
    "widgetalignment": 1,
    "zindex": 10
}