{
    "@class": "com.kony.gen.viz.model.component.KVizUserWidget",
    "DNDConfig": null,
    "__parentReadjusting__": false,
    "_android_": {},
    "_androidwearos_": {},
    "_children_": [],
    "_desktopweb_": {},
    "_height_": {
        "type": "ref",
        "value": "preferred"
    },
    "_ipad_": {},
    "_iphone_": {},
    "_kiosk_": {},
    "_left_": {
        "type": "string",
        "value": "0px"
    },
    "_margin_": [
        0,
        0,
        0,
        0
    ],
    "_orientation_": 1,
    "_padding_": [
        0,
        0,
        0,
        0
    ],
    "_percent_": true,
    "_responsiveData_": {},
    "_right_": {
        "type": "string",
        "value": "0px"
    },
    "_skin_": "s8ff24328417401b877c3ceb2a5fa27c",
    "_spa_": {},
    "_spaan_": {},
    "_spaandroidtablet_": {},
    "_spabb_": {},
    "_spaip_": {},
    "_spaipad_": {},
    "_spamobile_": {},
    "_spatablet_": {},
    "_spawindowstablet_": {},
    "_spawinphone8_": {},
    "_tabrcandroid_": {},
    "_top_": {
        "type": "string",
        "value": "0px"
    },
    "_vizProps_": {
        "hidewidgethierarchy": false
    },
    "_windows10_": {},
    "_windows8_": {},
    "_winphone10_": {},
    "_winphone8_": {},
    "areflexpropsreferenced": false,
    "autogrowmode": 1,
    "canUpdateUI": true,
    "clipbounds": true,
    "containerweight": 0,
    "dataDiffs": {
        "EditGeneralInfo": {
            "__events__": {},
            "__info__": {
                "kuid": "e059e307cea543b5a4b928b76f179101",
                "srcKUID": "e055c9670a5e4c00bc03049adf79dc27",
                "wType": "UserWidgetInstance"
            }
        },
        "EditGeneralInfo.flxDetails1": {
            "__events__": {},
            "__info__": {
                "kuid": "eefb8ac7cd404b5a818f6782c67075a0",
                "srcKUID": "g30caf7f484442678dd8535808be4880",
                "wType": "FlexContainer"
            }
        },
        "EditGeneralInfo.flxDetails2": {
            "__events__": {},
            "__info__": {
                "kuid": "c8f2d3d584cf42edaf7a7732ac721d58",
                "srcKUID": "a7ea3d37b29b46029086ccca7f326398",
                "wType": "FlexContainer"
            }
        },
        "EditGeneralInfo.flxDetails3": {
            "__events__": {},
            "__info__": {
                "kuid": "b13a4f46933b48959e233af09dff19e9",
                "srcKUID": "c8316a4a30b344b9a3c8bb0ecf8bcd48",
                "wType": "FlexContainer"
            }
        },
        "EditGeneralInfo.flxDetails4": {
            "__events__": {},
            "__info__": {
                "kuid": "i97eb363b7b64aa8b28bad5cfb918dc3",
                "srcKUID": "b04c549e87ea4ce68fd63eb39492b3c1",
                "wType": "FlexContainer"
            }
        },
        "EditGeneralInfo.flxDetails5": {
            "__events__": {},
            "__info__": {
                "kuid": "h89170485f3143ac88bf8592873d5e8b",
                "srcKUID": "b016d902124841139a20440a289001cf",
                "wType": "FlexContainer"
            }
        },
        "EditGeneralInfo.flxDetails7": {
            "__events__": {},
            "__info__": {
                "kuid": "fe234e684cb74b05bf56d9bd96e74110",
                "srcKUID": "d34a03f98493405f8d1bb9640f5efae0",
                "wType": "FlexContainer"
            }
        },
        "EditGeneralInfo.flxDetails8": {
            "__events__": {},
            "__info__": {
                "kuid": "j356dcb9d9744b22bf53d71dda7528f5",
                "srcKUID": "d463346aafeb4f79ab743bc656956009",
                "wType": "FlexContainer"
            }
        },
        "EditGeneralInfo.flxFlag1": {
            "__events__": {},
            "__info__": {
                "kuid": "c9c981ea7bf2452a9cd23291686da089",
                "srcKUID": "aac6d2a1a8bc41d3b0500043c33876d6",
                "wType": "FlexContainer"
            }
        },
        "EditGeneralInfo.flxFlag2": {
            "__events__": {},
            "__info__": {
                "kuid": "e7c34dc36b664e7dbb5587835e0020ec",
                "srcKUID": "b179170e699141a78a772f8019950539",
                "wType": "FlexContainer"
            }
        },
        "EditGeneralInfo.flxFlag3": {
            "__events__": {},
            "__info__": {
                "kuid": "abb9af364acb479599b00d69d3865f1e",
                "srcKUID": "ed8dd206757142f0b37034b79c08422a",
                "wType": "FlexContainer"
            }
        },
        "EditGeneralInfo.flxFlagSeperator": {
            "__events__": {},
            "__info__": {
                "kuid": "ja89c3f9f9f546229a93f23b7a102591",
                "srcKUID": "bedaa6bd33fc444faee17fc9aa944896",
                "wType": "FlexContainer"
            }
        },
        "EditGeneralInfo.flxGeneralDetails": {
            "__events__": {},
            "__info__": {
                "kuid": "i39df725c8024ea59cf21b66ce3e7082",
                "srcKUID": "aeeeaa01f5c5437794d341c5666edd2d",
                "wType": "FlexContainer"
            }
        },
        "EditGeneralInfo.flxRiskStatus": {
            "__events__": {},
            "__info__": {
                "kuid": "e6a52f158c82427aaed8011a5e22fc45",
                "srcKUID": "ad8fa2a8cd384970a5c51839786c52ba",
                "wType": "FlexContainer"
            }
        },
        "EditGeneralInfo.flxRow1": {
            "__events__": {},
            "__info__": {
                "kuid": "c9270dd2c59841ed95d310cd1de57282",
                "srcKUID": "defee016e3dc4cd2908ecf71666a0432",
                "wType": "FlexContainer"
            }
        },
        "EditGeneralInfo.flxRow2": {
            "__events__": {},
            "__info__": {
                "kuid": "c35d191f9ec0468c9e565b4bfb2068e9",
                "srcKUID": "fe5f0bf6789d49d08a81315850a04e9c",
                "wType": "FlexContainer"
            }
        },
        "EditGeneralInfo.flxRow3": {
            "__events__": {},
            "__info__": {
                "kuid": "a9817c389de7420097d7f012340d9f67",
                "srcKUID": "a5b7d0760aef4c8fa67a17e567910358",
                "wType": "FlexContainer"
            }
        },
        "EditGeneralInfo.flxSelectFlags": {
            "__events__": {},
            "__info__": {
                "kuid": "ed2ca7afb9284acea222454deecee31f",
                "srcKUID": "af5f05f057c6479c8d177a21f63a3f13",
                "wType": "FlexContainer"
            }
        },
        "EditGeneralInfo.flxSubDetails8": {
            "__events__": {},
            "__info__": {
                "kuid": "fb01aa27bc6647029fbc103be62ab67b",
                "srcKUID": "b71f36c5cbf64ad488c27bf88e068a16",
                "wType": "FlexContainer"
            }
        },
        "EditGeneralInfo.imgFlag1": {
            "__events__": {},
            "__info__": {
                "kuid": "j7f0122caa0a475c8bc0db0c1657eae4",
                "srcKUID": "ffa8b626833b45bd82c3363e9db4f5f5",
                "wType": "Image"
            },
            "src": "checkbox.png"
        },
        "EditGeneralInfo.imgFlag2": {
            "__events__": {},
            "__info__": {
                "kuid": "e4a831e82de6473aaa050544f868f155",
                "srcKUID": "dd4b7bbe9e454161ada2c13bf06216bb",
                "wType": "Image"
            },
            "src": "checkbox.png"
        },
        "EditGeneralInfo.imgFlag3": {
            "__events__": {},
            "__info__": {
                "kuid": "f58ea54b45164413b4734371ec69d4e4",
                "srcKUID": "f2eed1621849451fbea2438fb102a591",
                "wType": "Image"
            },
            "src": "checkbox.png"
        },
        "EditGeneralInfo.lblContactDetails1": {
            "__events__": {},
            "__info__": {
                "kuid": "a0733d3737184a8cba85bdb4822ed251",
                "srcKUID": "hd2d603c1de3450c841e0e3bd94a1e17",
                "wType": "Label"
            }
        },
        "EditGeneralInfo.lblContactDetails4": {
            "__events__": {},
            "__info__": {
                "kuid": "cc468f4658a54c9fa85009786bc00a27",
                "srcKUID": "f2abcb52654a4014a817520cce9c3d14",
                "wType": "Label"
            }
        },
        "EditGeneralInfo.lblContactDetails5": {
            "__events__": {},
            "__info__": {
                "kuid": "e23536a379ae4eadbae49b01ad3d77b5",
                "srcKUID": "fa8dad744e6e44239ea62291bfd763ab",
                "wType": "Label"
            }
        },
        "EditGeneralInfo.lblContactDetails7": {
            "__events__": {},
            "__info__": {
                "kuid": "f67831b5061c4e3e880257323b75120e",
                "srcKUID": "e058bd3918ad4b9f9e8f81f07c5e2de7",
                "wType": "Label"
            }
        },
        "EditGeneralInfo.lblDetails2": {
            "__events__": {},
            "__info__": {
                "kuid": "f5be72b723d54b1f928760a258e0303e",
                "srcKUID": "ee559ce6b1174cb493141b25f86aab59",
                "wType": "Label"
            }
        },
        "EditGeneralInfo.lblDetails3": {
            "__events__": {},
            "__info__": {
                "kuid": "he4bf50ac9204e25b4e9270cee6d267d",
                "srcKUID": "c3c29b025b6243c9a5b3f79b205578e8",
                "wType": "Label"
            }
        },
        "EditGeneralInfo.lblDetails8": {
            "__events__": {},
            "__info__": {
                "kuid": "e8084d21fd0a45cdb9cc0ad4c08e2387",
                "srcKUID": "e5b4e86dc6744417bd16d0cc52d060d1",
                "wType": "Label"
            }
        },
        "EditGeneralInfo.lblError1": {
            "__events__": {},
            "__info__": {
                "kuid": "e890fe9a1e3c41ee97f23b8f7473a04f",
                "srcKUID": "bce1937c766343d79d734c6c1d859742",
                "wType": "Label"
            }
        },
        "EditGeneralInfo.lblError2": {
            "__events__": {},
            "__info__": {
                "kuid": "e34ae37d33e0451a9a06fec7f72229a0",
                "srcKUID": "e55bda789f5b4b88a0d03ce0febeb30e",
                "wType": "Label"
            }
        },
        "EditGeneralInfo.lblError3": {
            "__events__": {},
            "__info__": {
                "kuid": "i4c216effd0a4cbaa13c667f72a9fd2c",
                "srcKUID": "f19185769a144c90b876ff5cbf6b1333",
                "wType": "Label"
            }
        },
        "EditGeneralInfo.lblError4": {
            "__events__": {},
            "__info__": {
                "kuid": "ab23e713f1074a43936e22fadadeb5f0",
                "srcKUID": "aa2e96f7b7954340b7eedae644961063",
                "wType": "Label"
            }
        },
        "EditGeneralInfo.lblFlag1": {
            "__events__": {},
            "__info__": {
                "kuid": "d3e83f1737a84a5983a252ce10b363d0",
                "srcKUID": "b16b0a8532344056ad9359edd09d38de",
                "wType": "Label"
            }
        },
        "EditGeneralInfo.lblFlag2": {
            "__events__": {},
            "__info__": {
                "kuid": "b29a4c6588924587b4486ff9a07f7b7a",
                "srcKUID": "a844bc76d4b14e3e86dac4d76f74d9f1",
                "wType": "Label"
            }
        },
        "EditGeneralInfo.lblFlag3": {
            "__events__": {},
            "__info__": {
                "kuid": "cdc74a4168454ac4b16a8dd9cde282db",
                "srcKUID": "b7403ebc78e642d59f069eb80069ce73",
                "wType": "Label"
            }
        },
        "EditGeneralInfo.lblRisksHeader": {
            "__events__": {},
            "__info__": {
                "kuid": "i196aea3ffb34ea0ac816d25760187f7",
                "srcKUID": "dbdc89640539454b9df9cf1151926eff",
                "wType": "Label"
            }
        },
        "EditGeneralInfo.lstboxDetails1": {
            "__events__": {},
            "__info__": {
                "kuid": "gaec3fa3d1464ed0a258352e8b5d1440",
                "srcKUID": "a28401ef2cb04e1988f17f85e398a5de",
                "wType": "ListBox"
            }
        },
        "EditGeneralInfo.lstboxDetails2": {
            "__events__": {},
            "__info__": {
                "kuid": "c62c5b44976449aebe4b8e0854e2447e",
                "srcKUID": "d5c0fc7724d44a8db612bd543af64524",
                "wType": "ListBox"
            }
        },
        "EditGeneralInfo.lstboxDetails3": {
            "__events__": {},
            "__info__": {
                "kuid": "fdbd948a86bd45d08cb70d57133191c9",
                "srcKUID": "fe6ace13d38a428fabc22c77c9dbd645",
                "wType": "ListBox"
            }
        },
        "EditGeneralInfo.lstboxDetails4": {
            "__events__": {},
            "__info__": {
                "kuid": "a2be9822e82b4812a610e380dbd74f42",
                "srcKUID": "g6f963c3f0b84019922c7a27360735ef",
                "wType": "ListBox"
            }
        },
        "EditGeneralInfo.lstboxDetails5": {
            "__events__": {},
            "__info__": {
                "kuid": "i56e664ddba14c248114af80b67e988a",
                "srcKUID": "ea453b17554a421b8909c93f1ba66fab",
                "wType": "ListBox"
            }
        },
        "EditGeneralInfo.switchToggle": {
            "__events__": {},
            "__info__": {
                "kuid": "g75ea360f06244dbb29201554b9c33ae",
                "srcKUID": "i9fef754bcc24aa7b16bf078fc6b764e",
                "wType": "Switch"
            }
        },
        "ProfileGeneralInfo": {
            "__events__": {},
            "__info__": {
                "isRoot": true,
                "kuid": "f113311a51bb4bfea565dc8c482744b7",
                "srcKUID": "b1d438f217374b70a3fac2eb0026100f",
                "wType": "FlexContainer"
            }
        },
        "alertMessage": {
            "__events__": {},
            "__info__": {
                "kuid": "ddac5fa10f614788ad32bbee52872a00",
                "srcKUID": "c4d736f3cf564a1ba508f7fe9fe7fc62",
                "wType": "UserWidgetInstance"
            }
        },
        "alertMessage.btnDataLink1": {
            "__events__": {},
            "__info__": {
                "kuid": "a12865f60e8d4713af85ec50adccba7d",
                "srcKUID": "e1008d8a56094dddb6820262f72c2e3f",
                "wType": "Button"
            }
        },
        "alertMessage.btnDataLink2": {
            "__events__": {},
            "__info__": {
                "kuid": "ec6bfb5f146e4e63b9eec07b46bcbb90",
                "srcKUID": "f696125d432f4250b2170635a099183a",
                "wType": "Button"
            }
        },
        "alertMessage.flxLeftImage": {
            "__events__": {},
            "__info__": {
                "kuid": "g338c77c2e3b407e9118dcd0d97005c5",
                "srcKUID": "g80d8509139b4c9883ee4af13a0b03ef",
                "wType": "FlexContainer"
            }
        },
        "alertMessage.flxMessage": {
            "__events__": {},
            "__info__": {
                "kuid": "h911ff75f3fe442fa08291cf8d7f4ed9",
                "srcKUID": "hfb785832b694f0287df17f9d968d6ec",
                "wType": "FlexContainer"
            }
        },
        "alertMessage.flxRow1": {
            "__events__": {},
            "__info__": {
                "kuid": "ha4607c647304d34af8578bbfdd69b97",
                "srcKUID": "d9901300931a41149b0e7f169dd69654",
                "wType": "FlexContainer"
            }
        },
        "alertMessage.flxRow2": {
            "__events__": {},
            "__info__": {
                "kuid": "cd8c366842aa4d778844503f66ef31d1",
                "srcKUID": "c337453825134c458506e75c5a519237",
                "wType": "FlexContainer"
            }
        },
        "alertMessage.fontIconImgLeft": {
            "__events__": {},
            "__info__": {
                "kuid": "bb17e27391974b529f64fcb74d13f1da",
                "srcKUID": "jf3fee98038b4440b927ee8cac8fb945",
                "wType": "Label"
            }
        },
        "alertMessage.fonticonBullet1": {
            "__events__": {},
            "__info__": {
                "kuid": "ddadfebdd9ae4ac09978a80ed01c3e88",
                "srcKUID": "g306ac3e38b24647b3af1e2d15119058",
                "wType": "Label"
            }
        },
        "alertMessage.fonticonBullet2": {
            "__events__": {},
            "__info__": {
                "kuid": "f471140b4e7543eaad5a83f81208be6f",
                "srcKUID": "e64b237a942f47a2be55c433d136c827",
                "wType": "Label"
            }
        },
        "alertMessage.lblData": {
            "__events__": {},
            "__info__": {
                "kuid": "if941257acb0498f93eca65649a15d41",
                "srcKUID": "f79cdd3d064746ab9e1003d939cadecf",
                "wType": "Label"
            }
        },
        "alertMessage.lblData1": {
            "__events__": {},
            "__info__": {
                "kuid": "dc92c840e3af45b3bdf1e08bb794af16",
                "srcKUID": "c529e28a39cf417f900e9597fe1b86a5",
                "wType": "Label"
            }
        },
        "alertMessage.lblData2": {
            "__events__": {},
            "__info__": {
                "kuid": "a3214feaf0eb4804b5977cc845648555",
                "srcKUID": "cecbdcb6f77d449687c3838f4092ee3c",
                "wType": "Label"
            }
        },
        "alertMessage.lblData3": {
            "__events__": {},
            "__info__": {
                "kuid": "a8ccb4dbbf1e4a7dafd03e28f40676fa",
                "srcKUID": "a0e2015b7c534c0e9334f1bac8a5b2aa",
                "wType": "Label"
            }
        },
        "backToGeneralInformation": {
            "__events__": {},
            "__info__": {
                "kuid": "d2249d758aae4074a194acb84ec5a0e2",
                "srcKUID": "d7679008f8414ce9bbcfea1749fb4fbb",
                "wType": "UserWidgetInstance"
            }
        },
        "backToGeneralInformation.btnBack": {
            "__events__": {},
            "__info__": {
                "kuid": "a539d8b29c1b4ab9bb1721340c4d57c3",
                "srcKUID": "f40306e4ac49414580806ef94cdba165",
                "wType": "Button"
            }
        },
        "backToGeneralInformation.flxBack": {
            "__events__": {},
            "__info__": {
                "kuid": "i880c1aac14648b8adb96ccea934a14d",
                "srcKUID": "dd6ece59e1a54098ba4a3712cde65c71",
                "wType": "FlexContainer"
            }
        },
        "backToGeneralInformation.fontIconBack": {
            "__events__": {},
            "__info__": {
                "kuid": "aa937b0ba1684c6cb7a079f1326967d2",
                "srcKUID": "f3b467b5f22f405f82cf99e63b46f3dc",
                "wType": "Label"
            }
        },
        "dashboardCommonTab": {
            "__events__": {},
            "__info__": {
                "kuid": "b929944bb05d4015ae316c02b391191d",
                "srcKUID": "c57912f8effd4469a9b426e01ce9f271",
                "wType": "UserWidgetInstance"
            }
        },
        "dashboardCommonTab.btnBanking": {
            "__events__": {},
            "__info__": {
                "kuid": "d405298d29fd4af197535fe8d6478ac3",
                "srcKUID": "a6cac98df72442e6b8f9e70fe960b1b4",
                "wType": "Button"
            }
        },
        "dashboardCommonTab.btnDeposits": {
            "__events__": {},
            "__info__": {
                "kuid": "g769c2866b4241ffb9752a386dd705a8",
                "srcKUID": "jea07e4743d147c2b1eaef082abe10f8",
                "wType": "Button"
            }
        },
        "dashboardCommonTab.btnLoans": {
            "__events__": {},
            "__info__": {
                "kuid": "ef725b7686ef4a5299d68f700e16e929",
                "srcKUID": "eace1e6959c84e4da63b68e8868c473e",
                "wType": "Button"
            }
        },
        "dashboardCommonTab.btnProfile": {
            "__events__": {},
            "__info__": {
                "kuid": "e4c17b228847452d8b1b7ea2c0e381e7",
                "srcKUID": "e0ab3ce0d97042c5ab97aca111d151d4",
                "wType": "Button"
            }
        },
        "dashboardCommonTab.flxProductsTabsWrapper": {
            "__events__": {},
            "__info__": {
                "kuid": "f7d89230469944c998d464d4de7d6975",
                "srcKUID": "f1ca5286374f4c93bbbd4dbc07d8936d",
                "wType": "FlexContainer"
            }
        },
        "dashboardCommonTab.lblBottomSeperatorCommonTabs": {
            "__events__": {},
            "__info__": {
                "kuid": "i469f4dc702a4252828bedb5fccbf2f4",
                "srcKUID": "c8a40cc47dd04394a49f8582d606b9d4",
                "wType": "Label"
            }
        },
        "editButtons": {
            "__events__": {},
            "__info__": {
                "kuid": "fd0a761b66ae44cb935e85dfb9cd9c7b",
                "srcKUID": "b646dedca1534364b894e4cbd2abb5de",
                "wType": "UserWidgetInstance"
            }
        },
        "editButtons.btnCancel": {
            "__events__": {},
            "__info__": {
                "kuid": "jc21263c55aa45829059861d2631ebc8",
                "srcKUID": "ac40c517e64345e1986e9545365a2fb6",
                "wType": "Button"
            }
        },
        "editButtons.btnNext": {
            "__events__": {},
            "__info__": {
                "kuid": "dd30d092d2244945a2f41a7a5d14fe02",
                "srcKUID": "c6b13e43a0d44a0982f3287c708ea02b",
                "wType": "Button"
            }
        },
        "editButtons.btnSave": {
            "__events__": {},
            "__info__": {
                "kuid": "adcaaf18f64c4b4ab6ffe453878f122f",
                "srcKUID": "bc85a568b9f047e783a64becc0767b20",
                "wType": "Button"
            }
        },
        "editButtons.flxRightButtons": {
            "__events__": {},
            "__info__": {
                "kuid": "gd76aec3482c4e658383eaf56a18941e",
                "srcKUID": "cce236f5111f4363810641d803655181",
                "wType": "FlexContainer"
            }
        },
        "flxArrow": {
            "__events__": {},
            "__info__": {
                "kuid": "j2c60020b07c4ac78f924875d91519f2",
                "srcKUID": "gf5b58b3c47843a394462968f22004fa",
                "wType": "FlexContainer"
            }
        },
        "flxBack": {
            "__events__": {},
            "__info__": {
                "kuid": "a6a8b7047f674d3d8e0d75ded29cd23f",
                "srcKUID": "b577ab69f29e4e5c801030f3dbea67dd",
                "wType": "FlexContainer"
            }
        },
        "flxEditButtons": {
            "__events__": {},
            "__info__": {
                "kuid": "bb09007b46a848d8989c94f50e36acda",
                "srcKUID": "g3eb218a6c91413b8f823620bd7d6625",
                "wType": "FlexContainer"
            }
        },
        "flxEditButtonsWrapper": {
            "__events__": {},
            "__info__": {
                "kuid": "da37ccf9ee26478483ba4e59a984c329",
                "srcKUID": "j537d44121fe4beda10e56d3bb4845f4",
                "wType": "FlexContainer"
            }
        },
        "flxEditGeneralInformation": {
            "__events__": {},
            "__info__": {
                "kuid": "g2d28ab5dc2045b2b489d753e867452d",
                "srcKUID": "b35a5aabe07e4d719369543b50a77acf",
                "wType": "FlexContainer"
            }
        },
        "flxEditGenralInfo": {
            "__events__": {},
            "__info__": {
                "kuid": "c31f8ab80f9a44619624ae3550de9fcd",
                "srcKUID": "aa1ea047004e4662aca5685e5c4bb77f",
                "wType": "FlexContainer"
            }
        },
        "flxEditSeperator": {
            "__events__": {},
            "__info__": {
                "kuid": "ad68e8d04a004bdc9e178070fcdff807",
                "srcKUID": "ba7e8c770fbe4ae9866f71b11c3a7540",
                "wType": "FlexContainer"
            }
        },
        "flxGMHeader": {
            "__events__": {},
            "__info__": {
                "kuid": "cdb7686d6070412292ee5767b9aa52d5",
                "srcKUID": "a06930bc09244188a875d227588f124d",
                "wType": "FlexContainer"
            }
        },
        "flxGeneralInfo": {
            "__events__": {},
            "__info__": {
                "kuid": "hd29755981924740b3d3c4420872fca7",
                "srcKUID": "b880660b487a4d33977f274d6faa3c3c",
                "wType": "FlexContainer"
            }
        },
        "flxGeneralInfoEditButton": {
            "__events__": {},
            "__info__": {
                "kuid": "d786f814745446acbe26a1e1e9aa1a18",
                "srcKUID": "h8bb26be0269487db6a24fb8854b3078",
                "wType": "FlexContainer"
            }
        },
        "flxGeneralInfoEditHeader": {
            "__events__": {},
            "__info__": {
                "kuid": "ad26f99de26e4f51a2d832c04d513294",
                "srcKUID": "jaab80c787a844c9b6749ea834592970",
                "wType": "FlexContainer"
            }
        },
        "flxGeneralInfoHeader": {
            "__events__": {},
            "__info__": {
                "kuid": "d7f82180d5094ec4a829f38e2affc5e4",
                "srcKUID": "d1cdd2296300483ea60188b095a91681",
                "wType": "FlexContainer"
            }
        },
        "flxGeneralInformation": {
            "__events__": {},
            "__info__": {
                "kuid": "e6a6388c2b55428190cd94c774b613c5",
                "srcKUID": "e1a132c09acd4385b316d24f7e1ffc88",
                "wType": "FlexContainer"
            }
        },
        "flxGmInfoDetailWrapper": {
            "__events__": {},
            "__info__": {
                "kuid": "e67416533c884907bba40a598fef3d0d",
                "srcKUID": "b11cd7a654bb4f538764eecce1f5c1d7",
                "wType": "FlexContainer"
            }
        },
        "flxInfoHeader": {
            "__events__": {},
            "__info__": {
                "kuid": "a26bbd5bf28b4651a6c1ecbf66285c8e",
                "srcKUID": "eacecbe4efe94455969cf3d106864517",
                "wType": "FlexContainer"
            }
        },
        "flxTabWrapper": {
            "__events__": {},
            "__info__": {
                "kuid": "f36785c85add45c8af8801c0a723ce6e",
                "srcKUID": "e5ed29735a5e4ab6b92201b8de0a793a",
                "wType": "FlexContainer"
            }
        },
        "flxViewGeneralInformation": {
            "__events__": {},
            "__info__": {
                "kuid": "ee4396cec6cf4b79bc4a25ee0ecaef7c",
                "srcKUID": "d78a696066c243c8a938b10c3870d812",
                "wType": "FlexContainer"
            }
        },
        "fonticonrightarrow": {
            "__events__": {},
            "__info__": {
                "kuid": "e6b7dfe249c041218c74334ac37dceda",
                "srcKUID": "he359d8cad934b6ab0ba2a6e7e37eb39",
                "wType": "Label"
            }
        },
        "generalInfoHeader": {
            "__events__": {},
            "__info__": {
                "kuid": "i8b65081601443c29b0a53d7719c03ae",
                "srcKUID": "fe0306fee1414720ac7b3238ebb7ac87",
                "wType": "UserWidgetInstance"
            }
        },
        "generalInfoHeader.flxActionButtons": {
            "__events__": {},
            "__info__": {
                "kuid": "b4d7a2edf24c4898a92f4db87845cc09",
                "srcKUID": "e5c27540a9254a7d8b4f1c2cb5dba517",
                "wType": "FlexContainer"
            }
        },
        "generalInfoHeader.flxApplicantTag": {
            "__events__": {},
            "__info__": {
                "kuid": "f92f0e2f5afc4323b2c539960b976626",
                "srcKUID": "e479f4b5d7114741abfbc3e4f7001b4f",
                "wType": "FlexContainer"
            }
        },
        "generalInfoHeader.flxCSRAssist": {
            "__events__": {},
            "__info__": {
                "kuid": "e99a88d0087b49169d62838eb91e4767",
                "srcKUID": "f8bbedff4db344f9a45c9c5fb8665986",
                "wType": "FlexContainer"
            }
        },
        "generalInfoHeader.flxCustomerTags": {
            "__events__": {},
            "__info__": {
                "kuid": "ef30764f9b754b4bb5a662723a848879",
                "srcKUID": "b57e7f3b296647ed90b803b4215a5e5b",
                "wType": "FlexContainer"
            }
        },
        "generalInfoHeader.flxDefaultSearchHeader": {
            "__events__": {},
            "__info__": {
                "kuid": "j161dc32bafc4bdfaca874d37ff4a369",
                "srcKUID": "ce9523ece3af45ee8a0d73b678019f89",
                "wType": "FlexContainer"
            }
        },
        "generalInfoHeader.flxHeader": {
            "__events__": {},
            "__info__": {
                "kuid": "df2b9baa3ffb4a4ea9a325afd280d899",
                "srcKUID": "f8c1a718923249c9896a8c7a01bc02cc",
                "wType": "FlexContainer"
            }
        },
        "generalInfoHeader.flxMicroBusinessTag": {
            "__events__": {},
            "__info__": {
                "kuid": "ddaf1b24198544ffa02b14d49314a6fa",
                "srcKUID": "ae90f292427e4e68b3457800a998ce8e",
                "wType": "FlexContainer"
            }
        },
        "generalInfoHeader.flxOptions": {
            "__events__": {},
            "__info__": {
                "kuid": "hb6140e49fa74ebd91a68d1a86075f27",
                "srcKUID": "ce5a7c69be1f4fda967579c6557a4ef0",
                "wType": "FlexContainer"
            }
        },
        "generalInfoHeader.flxRetailTag": {
            "__events__": {},
            "__info__": {
                "kuid": "eb64292672d54b3f8868d70708a9287f",
                "srcKUID": "b9e30b8a023d466eb2c877c66893bad1",
                "wType": "FlexContainer"
            }
        },
        "generalInfoHeader.flxRiskStatus": {
            "__events__": {},
            "__info__": {
                "kuid": "d2b9a486150a4c6fa85e83fba184f832",
                "srcKUID": "b2754023ff184344b9808d8b9f97ced5",
                "wType": "FlexContainer"
            }
        },
        "generalInfoHeader.flxSmallBusinessTag": {
            "__events__": {},
            "__info__": {
                "kuid": "c57b6b1e7e7746688a824ee2fc8d0911",
                "srcKUID": "ge248782c52f4272aae0fe130d6db7ae",
                "wType": "FlexContainer"
            }
        },
        "generalInfoHeader.flxTagsandbuttons": {
            "__events__": {},
            "__info__": {
                "kuid": "d9fad95c3119404aaf47ff7750c58217",
                "srcKUID": "b337fd5802dd480ea02d4adea0ed0aef",
                "wType": "FlexContainer"
            }
        },
        "generalInfoHeader.flxUnlock": {
            "__events__": {},
            "__info__": {
                "kuid": "a528bed70db74378a31aaaff061b56d2",
                "srcKUID": "g454a5666aa844559026bf2c207fc66c",
                "wType": "FlexContainer"
            }
        },
        "generalInfoHeader.fontIconCircle1": {
            "__events__": {},
            "__info__": {
                "kuid": "d897a3c560834cde863c511c69470eef",
                "srcKUID": "dd3809f655ae47e297d02ae9d2391685",
                "wType": "Label"
            }
        },
        "generalInfoHeader.fontIconCircle2": {
            "__events__": {},
            "__info__": {
                "kuid": "b05e2fa256e74578834e8c23a0d2f034",
                "srcKUID": "d510b9fd4a934c40be33ed1ff27731c3",
                "wType": "Label"
            }
        },
        "generalInfoHeader.fontIconCircle3": {
            "__events__": {},
            "__info__": {
                "kuid": "i9be0fb9ff844d8bb3d5bc42e7bbe066",
                "srcKUID": "f1e78f207a334fcfaa804fe0d614edcc",
                "wType": "Label"
            }
        },
        "generalInfoHeader.fontIconCircle4": {
            "__events__": {},
            "__info__": {
                "kuid": "a41f080ee7414c3aac7d3bdce4706771",
                "srcKUID": "be2a0d43dcf646c09da6264b1af67615",
                "wType": "Label"
            }
        },
        "generalInfoHeader.fonticonActive": {
            "__events__": {},
            "__info__": {
                "kuid": "ece3d3009a454c2baae40ba5f0fe166a",
                "srcKUID": "d1c67eabb4ef4ced9de0c808dfb20262",
                "wType": "Label"
            }
        },
        "generalInfoHeader.fonticonCSRAssist": {
            "__events__": {},
            "__info__": {
                "kuid": "j8189fd7ede7401b8b51dc3a6a55bf53",
                "srcKUID": "aae103bef08d4ab9a762aae8970f8415",
                "wType": "Label"
            }
        },
        "generalInfoHeader.fonticonDefaulter": {
            "__events__": {},
            "__info__": {
                "kuid": "ha0a6d2c6bfd42e1ab5abe91739c2cea",
                "srcKUID": "f2721362c49141c698ee275a2ed9e87c",
                "wType": "Label"
            }
        },
        "generalInfoHeader.fonticonFraud": {
            "__events__": {},
            "__info__": {
                "kuid": "d2856afa1e014459bcb846a62b5188d6",
                "srcKUID": "f7f27548fe0b4005ace6b5998fd0431d",
                "wType": "Label"
            }
        },
        "generalInfoHeader.fonticonRisk": {
            "__events__": {},
            "__info__": {
                "kuid": "fc13dc1d997441a5a09b462f88b7c0b9",
                "srcKUID": "ieb7f9ce7ad14d81a4374ec6c8b46c8e",
                "wType": "Label"
            }
        },
        "generalInfoHeader.fonticonUnlock": {
            "__events__": {},
            "__info__": {
                "kuid": "ac8826595f1141ff81346af1f211044d",
                "srcKUID": "eea78788ea7a442da508f482756ffaf1",
                "wType": "Label"
            }
        },
        "generalInfoHeader.lblCSRAssist": {
            "__events__": {},
            "__info__": {
                "kuid": "c9ea595bc4fa4616a66db2e9bb7eb9b9",
                "srcKUID": "c629ce8f627d4e43972204c99710376a",
                "wType": "Label"
            }
        },
        "generalInfoHeader.lblContent1": {
            "__events__": {},
            "__info__": {
                "kuid": "c4887fee53f146a5b6162017fa2d522a",
                "srcKUID": "c4affbbf49f141ccb4a60d616179e9bd",
                "wType": "Label"
            }
        },
        "generalInfoHeader.lblContent2": {
            "__events__": {},
            "__info__": {
                "kuid": "eb8e3d1f98794a69afac43cfc9863998",
                "srcKUID": "ab09d01733d1437ba8bd8e7eaeb4c079",
                "wType": "Label"
            }
        },
        "generalInfoHeader.lblContent3": {
            "__events__": {},
            "__info__": {
                "kuid": "b3d14aaf0fe147b7894e831104d3098e",
                "srcKUID": "ae9af19646b7413a9fd21428c10f2a9e",
                "wType": "Label"
            }
        },
        "generalInfoHeader.lblContent4": {
            "__events__": {},
            "__info__": {
                "kuid": "d05a442835ad46cb97d2f667bf3c507a",
                "srcKUID": "b051ad17dd704b279582ff7dc9e5875e",
                "wType": "Label"
            }
        },
        "generalInfoHeader.lblCustomerName": {
            "__events__": {},
            "__info__": {
                "kuid": "f00e643bacd049eba6ba2b56098c8ed4",
                "srcKUID": "f40efb0406bc46ce81806addfcc3a353",
                "wType": "Label"
            }
        },
        "generalInfoHeader.lblDefaulter": {
            "__events__": {},
            "__info__": {
                "kuid": "h9b53ba9abfb48b3828283ec1c63330d",
                "srcKUID": "cd8c1e7936de4d9fbbe229d43a33d7e4",
                "wType": "Label"
            }
        },
        "generalInfoHeader.lblFraud": {
            "__events__": {},
            "__info__": {
                "kuid": "eb6700276dea4489939d3d8362b325b2",
                "srcKUID": "e3d12dab705e4514a37d01d8b968a22d",
                "wType": "Label"
            }
        },
        "generalInfoHeader.lblIconAlertTypeOptions": {
            "__events__": {},
            "__info__": {
                "kuid": "b77187f3f39742be8d30a9970f4c45d4",
                "srcKUID": "aacec6097255439394110473615c8021",
                "wType": "Label"
            }
        },
        "generalInfoHeader.lblRisk": {
            "__events__": {},
            "__info__": {
                "kuid": "c6ad7844823345f18b84c9f4e40c508f",
                "srcKUID": "d4763613d56b4a6395b5c4776f6d98cb",
                "wType": "Label"
            }
        },
        "generalInfoHeader.lblSeparator": {
            "__events__": {},
            "__info__": {
                "kuid": "a2773e3a22f9497795f410ed1952d186",
                "srcKUID": "h80316faa093484e873a63892112df5f",
                "wType": "Label"
            }
        },
        "generalInfoHeader.lblStatus": {
            "__events__": {},
            "__info__": {
                "kuid": "fac9e4ded52349c589b67b87e417dc44",
                "srcKUID": "ibe4fbb8e5a64bca8d4255150dd63496",
                "wType": "Label"
            }
        },
        "generalInfoHeader.lblUnlock": {
            "__events__": {},
            "__info__": {
                "kuid": "e572241daf11418f9fbf5915c8222fa1",
                "srcKUID": "e1cd486e92894e27890db754c8f62133",
                "wType": "Label"
            }
        },
        "imgArrow": {
            "__events__": {},
            "__info__": {
                "kuid": "i89ea41651344a14a8adcc804e462e10",
                "srcKUID": "a3f8274b3f424331b8b994b30331531a",
                "wType": "Image"
            },
            "src": "img_down_arrow.png"
        },
        "imgGeneralInfoEditButton": {
            "__events__": {},
            "__info__": {
                "kuid": "g9424a5efe8e4659a4f39886be78ee04",
                "srcKUID": "e7bedb386e294f60bad1b065a7d15da6",
                "wType": "Image"
            },
            "src": "img_edit_btn.png"
        },
        "lblGenaralInfoHeader": {
            "__events__": {},
            "__info__": {
                "kuid": "ab93e65a4e20496199b5eb04ae783d56",
                "srcKUID": "de2ff2f6f5b6495faaf93a0a28e7eb57",
                "wType": "Label"
            }
        },
        "lblGeneralInfo": {
            "__events__": {},
            "__info__": {
                "kuid": "e887f54fa3994534b37adfab595f34c0",
                "srcKUID": "adcd3cc5cd324ddfbf280b783c2122de",
                "wType": "Label"
            }
        },
        "lblGeneralInfoEditButton": {
            "__events__": {},
            "__info__": {
                "kuid": "e2136c3cc1f346279abfc4792897f8f5",
                "srcKUID": "ef89fafe078845449a7ed46bbf725365",
                "wType": "Label"
            }
        },
        "row1": {
            "__events__": {},
            "__info__": {
                "kuid": "h9babe7f25fb40f38f9972042fdb41d7",
                "srcKUID": "f47cc0e7b3ae4b22849500ce2d704dba",
                "wType": "UserWidgetInstance"
            }
        },
        "row1.btnLink1": {
            "__events__": {},
            "__info__": {
                "kuid": "ad856fb63abc4965b7a568852bb38931",
                "srcKUID": "f62a9d2dbb21498a9e186c3626aa2a52",
                "wType": "Button"
            }
        },
        "row1.btnLink2": {
            "__events__": {},
            "__info__": {
                "kuid": "ecbcf74d895741e59eb0479ddc42408a",
                "srcKUID": "ia13972f06584db4b43c7280898793f0",
                "wType": "Button"
            }
        },
        "row1.btnLink3": {
            "__events__": {},
            "__info__": {
                "kuid": "h2568ce3c077416aae83d6c95594a657",
                "srcKUID": "e9e535e5986745ba8d562aa6070e7495",
                "wType": "Button"
            }
        },
        "row1.flxColumn1": {
            "__events__": {},
            "__info__": {
                "kuid": "bd36ff5770c64ec98145bc7361f86b30",
                "srcKUID": "e9dd5a98263043b3b2e78f609b56bb9b",
                "wType": "FlexContainer"
            }
        },
        "row1.flxColumn2": {
            "__events__": {},
            "__info__": {
                "kuid": "ff3235ae9bf14b9ba186caa4a5598e36",
                "srcKUID": "aa2cd15ae3674ac7a115ff3335e08058",
                "wType": "FlexContainer"
            }
        },
        "row1.flxColumn3": {
            "__events__": {},
            "__info__": {
                "kuid": "e702207ad19f49d6a00ba92a05211d7a",
                "srcKUID": "cf6654e433cf4427a844b69341cd09ac",
                "wType": "FlexContainer"
            }
        },
        "row1.flxDataAndImage1": {
            "__events__": {},
            "__info__": {
                "kuid": "d39b991a594c4bc8af1b54c27e681f94",
                "srcKUID": "g04579f45f9e4aa6b748cf2650959528",
                "wType": "FlexContainer"
            }
        },
        "row1.flxDataAndImage2": {
            "__events__": {},
            "__info__": {
                "kuid": "baba2b47bc9e493c9db1688d256c6aca",
                "srcKUID": "f82da1393fa3460b9d3ee45aca3f88b8",
                "wType": "FlexContainer"
            }
        },
        "row1.flxDataAndImage3": {
            "__events__": {},
            "__info__": {
                "kuid": "cfebb00edb9a48e0ab376e476fd0234c",
                "srcKUID": "b00344a0ed70498bb65c8d6ed8add1fd",
                "wType": "FlexContainer"
            }
        },
        "row1.imgData1": {
            "__events__": {},
            "__info__": {
                "kuid": "ddbf193fb9764f1383ad3b9d6d0e86df",
                "srcKUID": "f628f2a362234bd5a9b04ad7b7fba672",
                "wType": "Image"
            },
            "src": "active_circle2x.png"
        },
        "row1.imgData2": {
            "__events__": {},
            "__info__": {
                "kuid": "g72c6802ab5f4eaebcee3f4946917320",
                "srcKUID": "dcdd35f9d480424180dd6264d173ce16",
                "wType": "Image"
            },
            "src": "active_circle2x.png"
        },
        "row1.imgData3": {
            "__events__": {},
            "__info__": {
                "kuid": "h803912e87a947d3bd58ad08f132af01",
                "srcKUID": "ee9cfae9af384f9fb4c102051df591f4",
                "wType": "Image"
            },
            "src": "active_circle2x.png"
        },
        "row1.lblData1": {
            "__events__": {},
            "__info__": {
                "kuid": "j6d0f13711fb4413a6fdac9e28522f0b",
                "srcKUID": "d0402b93a8d844e19ba206ae8b20e79a",
                "wType": "Label"
            }
        },
        "row1.lblData2": {
            "__events__": {},
            "__info__": {
                "kuid": "gd0244a3a71948d48432d44d61a928d6",
                "srcKUID": "d4626416d43e4bb09e0ab141d0ce109e",
                "wType": "Label"
            }
        },
        "row1.lblData3": {
            "__events__": {},
            "__info__": {
                "kuid": "f2f9f7dae23d41518af43ccfa00cbb86",
                "srcKUID": "h8fc4b13ea7941a6a8823a220734d03b",
                "wType": "Label"
            }
        },
        "row1.lblHeading1": {
            "__events__": {},
            "__info__": {
                "kuid": "d47c92dd26484ac0be9f4b21c9a1c527",
                "srcKUID": "c77e551cd43540dea850ecc1c4e7629b",
                "wType": "Label"
            }
        },
        "row1.lblHeading2": {
            "__events__": {},
            "__info__": {
                "kuid": "d5dcef433b914a4da313789e434e2a6d",
                "srcKUID": "b50085f510574c1aa8b5e993e8d19150",
                "wType": "Label"
            }
        },
        "row1.lblHeading3": {
            "__events__": {},
            "__info__": {
                "kuid": "h9e2cbbbd618415384cfb8b259afe6f6",
                "srcKUID": "b6f71c9a686542b592f8f1583e257b1b",
                "wType": "Label"
            }
        },
        "row1.lblIconData2": {
            "__events__": {},
            "__info__": {
                "kuid": "da461f7404324c3081566a738a9ebb71",
                "srcKUID": "b99b81a9fba747e6a55dc105c380a42a",
                "wType": "Label"
            }
        },
        "row1.lblSignData2": {
            "__events__": {},
            "__info__": {
                "kuid": "h57eacc22bfc4082a9a0cc80f4b88e3e",
                "srcKUID": "a987ead5231841228a3fa282c137e04c",
                "wType": "Label"
            }
        },
        "row2": {
            "__events__": {},
            "__info__": {
                "kuid": "i9428bc4173a41d3b6a0ec62e09be07f",
                "srcKUID": "d77efdfd623d47adb7f8f93e14878816",
                "wType": "UserWidgetInstance"
            }
        },
        "row2.btnLink1": {
            "__events__": {},
            "__info__": {
                "kuid": "ic0159277ee84de0bec42cf3adde19b8",
                "srcKUID": "f21da2e008594c19824317a483075071",
                "wType": "Button"
            }
        },
        "row2.btnLink2": {
            "__events__": {},
            "__info__": {
                "kuid": "j5e8dbb7e19f43d4be41d141ac473650",
                "srcKUID": "gba40c89568a45ff8ca8fa44d6e305ed",
                "wType": "Button"
            }
        },
        "row2.btnLink3": {
            "__events__": {},
            "__info__": {
                "kuid": "b9c21ff2b52b464980768a4314c26949",
                "srcKUID": "af503eca2b6e4ab48da4c46fd86dc044",
                "wType": "Button"
            }
        },
        "row2.flxColumn1": {
            "__events__": {},
            "__info__": {
                "kuid": "c8441769fde04857ad82ef5fe27cd024",
                "srcKUID": "c3d7735a6a92474d82e9650796ef833c",
                "wType": "FlexContainer"
            }
        },
        "row2.flxColumn2": {
            "__events__": {},
            "__info__": {
                "kuid": "ib080731f0764d779a71149916094e63",
                "srcKUID": "j8308b97eb34441f9e7b0749472697bc",
                "wType": "FlexContainer"
            }
        },
        "row2.flxColumn3": {
            "__events__": {},
            "__info__": {
                "kuid": "ce3e7c026f4e4b8f91121a6879aedac7",
                "srcKUID": "c6f1c1aec6094fbdae47b31fb22ff0a4",
                "wType": "FlexContainer"
            }
        },
        "row2.flxDataAndImage1": {
            "__events__": {},
            "__info__": {
                "kuid": "f4a08e6344bb49eb90125a13a0c84603",
                "srcKUID": "ddb1dbeccf074430b08d5a644c03213e",
                "wType": "FlexContainer"
            }
        },
        "row2.flxDataAndImage2": {
            "__events__": {},
            "__info__": {
                "kuid": "cab70ed48f934b61923bebc2e3546842",
                "srcKUID": "c1b4edc5a8374a10ad36349ba8791af5",
                "wType": "FlexContainer"
            }
        },
        "row2.flxDataAndImage3": {
            "__events__": {},
            "__info__": {
                "kuid": "cba11b106c3645b98bd369dab6b66a26",
                "srcKUID": "bdec6dd0fec749e3a82699e55d6dd4dd",
                "wType": "FlexContainer"
            }
        },
        "row2.imgData1": {
            "__events__": {},
            "__info__": {
                "kuid": "b78ef9070b8145b58122ef87ec186810",
                "srcKUID": "fff2e8d3c14b48899102e53fecb38b39",
                "wType": "Image"
            },
            "src": "active_circle2x.png"
        },
        "row2.imgData2": {
            "__events__": {},
            "__info__": {
                "kuid": "g74b476ac3e24bbeb428b568a9288bf8",
                "srcKUID": "cd3cb034ff1040048d255966d1430abb",
                "wType": "Image"
            },
            "src": "active_circle2x.png"
        },
        "row2.imgData3": {
            "__events__": {},
            "__info__": {
                "kuid": "fe625ea3417b452e923bc7dc974a2e88",
                "srcKUID": "ff6598f3a19645f19f555eb281c460c7",
                "wType": "Image"
            },
            "src": "active_circle2x.png"
        },
        "row2.lblData1": {
            "__events__": {},
            "__info__": {
                "kuid": "f86aaba5010b422bafd68714b5197d34",
                "srcKUID": "e09982f19c6143ccb2e2c0b4122b1231",
                "wType": "Label"
            }
        },
        "row2.lblData2": {
            "__events__": {},
            "__info__": {
                "kuid": "bbf08d3418514a0b93cb6c528c9e3ce1",
                "srcKUID": "a00ce7ad46f747fbb7e6e6e4209761f5",
                "wType": "Label"
            }
        },
        "row2.lblData3": {
            "__events__": {},
            "__info__": {
                "kuid": "fcea08df65b74645a0c69259538cb0f7",
                "srcKUID": "cad3617851b14212ba7d8a1d485f52d8",
                "wType": "Label"
            }
        },
        "row2.lblHeading1": {
            "__events__": {},
            "__info__": {
                "kuid": "hba693fb62e3468abfe3c33c43e90e6d",
                "srcKUID": "ca6fca860d6d4c42a81514ba670c92d9",
                "wType": "Label"
            }
        },
        "row2.lblHeading2": {
            "__events__": {},
            "__info__": {
                "kuid": "c70e6cd150da46b28627eaf415481d2a",
                "srcKUID": "f691f0bf16cf46e48e0ec5971185102a",
                "wType": "Label"
            }
        },
        "row2.lblHeading3": {
            "__events__": {},
            "__info__": {
                "kuid": "b906dee2b4214a6ab5432d08cb1dccc3",
                "srcKUID": "e2365375d13c45c9ab0de026f074ffcd",
                "wType": "Label"
            }
        },
        "row2.lblIconData2": {
            "__events__": {},
            "__info__": {
                "kuid": "d5b13f382acb48fda85f79e96bbd8f86",
                "srcKUID": "c1f8d16442594acc918d173d5d61bf56",
                "wType": "Label"
            }
        },
        "row2.lblSignData2": {
            "__events__": {},
            "__info__": {
                "kuid": "i3e7455ecd544462aa47fbe1eda356c3",
                "srcKUID": "d817fa983dd741eab70d36191fe301ed",
                "wType": "Label"
            }
        },
        "row3": {
            "__events__": {},
            "__info__": {
                "kuid": "edf4899fad804c63a59f6db1cd75b97a",
                "srcKUID": "a569b29775ce4e13a70c5f77cb0c6819",
                "wType": "UserWidgetInstance"
            }
        },
        "row3.btnLink1": {
            "__events__": {},
            "__info__": {
                "kuid": "ba809be0d25a42999b37c65ed29242e8",
                "srcKUID": "h225f68653bd420fa1203f7850177ff2",
                "wType": "Button"
            }
        },
        "row3.btnLink2": {
            "__events__": {},
            "__info__": {
                "kuid": "fa8ff39da14a472589ea6ebb2a49843f",
                "srcKUID": "cd0f1d5f3c9340ffbaddd3cf18a3e2fd",
                "wType": "Button"
            }
        },
        "row3.btnLink3": {
            "__events__": {},
            "__info__": {
                "kuid": "g05dc9aa5c6546b480b225105011921f",
                "srcKUID": "b16c224830424d7d842b018bff9abc25",
                "wType": "Button"
            }
        },
        "row3.flxColumn1": {
            "__events__": {},
            "__info__": {
                "kuid": "jc9a7ee26c484a99893e689e5a0d53cb",
                "srcKUID": "b364315e0e664f4dab55ee78c2e2a4d0",
                "wType": "FlexContainer"
            }
        },
        "row3.flxColumn2": {
            "__events__": {},
            "__info__": {
                "kuid": "adfcccd1c1a84c829550ce87b395fb5d",
                "srcKUID": "i62296a5aa3d45f7a1f97f22455eeeb6",
                "wType": "FlexContainer"
            }
        },
        "row3.flxColumn3": {
            "__events__": {},
            "__info__": {
                "kuid": "a76e094144694b46966e10c87d89a671",
                "srcKUID": "h58f3dfb47fc4648b39f88d660962b05",
                "wType": "FlexContainer"
            }
        },
        "row3.flxDataAndImage1": {
            "__events__": {},
            "__info__": {
                "kuid": "da032a9ba2474868baf6d21df8427bd5",
                "srcKUID": "j4ef038a03a74ee89b7d552a4205a350",
                "wType": "FlexContainer"
            }
        },
        "row3.flxDataAndImage2": {
            "__events__": {},
            "__info__": {
                "kuid": "g00a29b9a60648068351ea659c8be625",
                "srcKUID": "ae9ce019a31f41d9a28367c410be824c",
                "wType": "FlexContainer"
            }
        },
        "row3.flxDataAndImage3": {
            "__events__": {},
            "__info__": {
                "kuid": "i2b96e7c9fc140ada8f623dd888d676d",
                "srcKUID": "a09bf8bbe6dc48299cc8284825527740",
                "wType": "FlexContainer"
            }
        },
        "row3.imgData1": {
            "__events__": {},
            "__info__": {
                "kuid": "if668f006b3e4a4a8589f39de18e2702",
                "srcKUID": "h0c2f9d310984b06b18a9150b710343a",
                "wType": "Image"
            },
            "src": "active_circle2x.png"
        },
        "row3.imgData2": {
            "__events__": {},
            "__info__": {
                "kuid": "hec9218ccbfc42448fa9d368e30da38e",
                "srcKUID": "e75fdab949dd4fabb464d967139ddbf3",
                "wType": "Image"
            },
            "src": "active_circle2x.png"
        },
        "row3.imgData3": {
            "__events__": {},
            "__info__": {
                "kuid": "g629053a32254068b52999dc103b50ad",
                "srcKUID": "d73603c104c6485391c6585b60991fc0",
                "wType": "Image"
            },
            "src": "active_circle2x.png"
        },
        "row3.lblData1": {
            "__events__": {},
            "__info__": {
                "kuid": "a301dccdd8aa442ab6156664784ea331",
                "srcKUID": "ee9a83d9d1904b24a29e24bceafde365",
                "wType": "Label"
            }
        },
        "row3.lblData2": {
            "__events__": {},
            "__info__": {
                "kuid": "a8a169a011584b9fadd60ab12e555cf9",
                "srcKUID": "c06128d74df741ed8b89c2d6a79e642a",
                "wType": "Label"
            }
        },
        "row3.lblData3": {
            "__events__": {},
            "__info__": {
                "kuid": "ec1d4e63e3a64aecbfe3d360efddf402",
                "srcKUID": "c79ee5a0b0b8405bb674f8b660292e86",
                "wType": "Label"
            }
        },
        "row3.lblHeading1": {
            "__events__": {},
            "__info__": {
                "kuid": "fbcb8702be564197810620be68b23f0c",
                "srcKUID": "d223cbfcc02f4e068db7b22cf191dbdc",
                "wType": "Label"
            }
        },
        "row3.lblHeading2": {
            "__events__": {},
            "__info__": {
                "kuid": "jd36ec1cb2974ea3a3d65d4e756ecca9",
                "srcKUID": "je86947e4ff3460084b6f4ff2cc7af78",
                "wType": "Label"
            }
        },
        "row3.lblHeading3": {
            "__events__": {},
            "__info__": {
                "kuid": "b05385640ac94219b8068f26d002f63b",
                "srcKUID": "ab025475fa3f461a90a8166a83c75b9e",
                "wType": "Label"
            }
        },
        "row3.lblIconData2": {
            "__events__": {},
            "__info__": {
                "kuid": "h18fd2bd61524019a2b072ed8fe79055",
                "srcKUID": "a03698c9b5fe44eb93cca7a588a494ef",
                "wType": "Label"
            }
        },
        "row3.lblSignData2": {
            "__events__": {},
            "__info__": {
                "kuid": "f23ce7065c6c46179bb49c6734403559",
                "srcKUID": "fc9d9db4bc914239bf050c07dcd71fef",
                "wType": "Label"
            }
        },
        "row4": {
            "__events__": {},
            "__info__": {
                "kuid": "ffac63475200495fa0dc86b6410da041",
                "srcKUID": "dc0381916eaf4debb34dfc98cd28f5b5",
                "wType": "UserWidgetInstance"
            }
        },
        "row4.btnLink1": {
            "__events__": {},
            "__info__": {
                "kuid": "b24b82796b8a40539d23362dac544101",
                "srcKUID": "e697c05401d04b2781bb2375b6b5e3db",
                "wType": "Button"
            }
        },
        "row4.btnLink2": {
            "__events__": {},
            "__info__": {
                "kuid": "ce3ba62d71434c18b4a0c6da1a2445da",
                "srcKUID": "f7707aaba8be4358bb2fb7ae4f57501f",
                "wType": "Button"
            }
        },
        "row4.btnLink3": {
            "__events__": {},
            "__info__": {
                "kuid": "jc6c11db07374c2d8475eee9fe6f69f4",
                "srcKUID": "ad220d4036cd464ea0abfa9654e54ce5",
                "wType": "Button"
            }
        },
        "row4.flxColumn1": {
            "__events__": {},
            "__info__": {
                "kuid": "c224bf3f072144789f9cb3a81911e526",
                "srcKUID": "e70098289cf648bd8dcd25406fa9a5d6",
                "wType": "FlexContainer"
            }
        },
        "row4.flxColumn2": {
            "__events__": {},
            "__info__": {
                "kuid": "a40fcc5a3c0746c2be169fa63ef7df1a",
                "srcKUID": "bece556db37c4ca68c39eaabe84dc2a3",
                "wType": "FlexContainer"
            }
        },
        "row4.flxColumn3": {
            "__events__": {},
            "__info__": {
                "kuid": "eb4365867a20401fb70c9c2141ef877c",
                "srcKUID": "da08871a0ea349f682e974924cda342c",
                "wType": "FlexContainer"
            }
        },
        "row4.flxDataAndImage1": {
            "__events__": {},
            "__info__": {
                "kuid": "f3102f9c762348c2807a5fa3caf8af35",
                "srcKUID": "b2cefc1e9d134dc2b98347ebbd6704bd",
                "wType": "FlexContainer"
            }
        },
        "row4.flxDataAndImage2": {
            "__events__": {},
            "__info__": {
                "kuid": "cb8bb36277fe4b0a8403172fc6386bea",
                "srcKUID": "cfdbd4ddc52b4e9daa24105fa02d3c92",
                "wType": "FlexContainer"
            }
        },
        "row4.flxDataAndImage3": {
            "__events__": {},
            "__info__": {
                "kuid": "e3af0cea45f446caa8002569f7b040dc",
                "srcKUID": "ac5bb35067524da1ae918bc00911d03a",
                "wType": "FlexContainer"
            }
        },
        "row4.imgData1": {
            "__events__": {},
            "__info__": {
                "kuid": "b99279b6e6514d8c8cf48119caa112e3",
                "srcKUID": "iff0088bf1dc4d54ac62f4182740f47c",
                "wType": "Image"
            },
            "src": "active_circle2x.png"
        },
        "row4.imgData2": {
            "__events__": {},
            "__info__": {
                "kuid": "b64bd46b62f949dab2c8221371e2ad5c",
                "srcKUID": "d2c83e5fd3df45ce9cb23ca0a4cbe632",
                "wType": "Image"
            },
            "src": "active_circle2x.png"
        },
        "row4.imgData3": {
            "__events__": {},
            "__info__": {
                "kuid": "je86fd6142484f109e0fdb6f0ed520b6",
                "srcKUID": "h05e4f3dab4044eb9bf4925cdcd545dc",
                "wType": "Image"
            },
            "src": "active_circle2x.png"
        },
        "row4.lblData1": {
            "__events__": {},
            "__info__": {
                "kuid": "j011dadb57484a679297d2b30b5bb18d",
                "srcKUID": "h886d46e86444287b93601e20cc7bbc9",
                "wType": "Label"
            }
        },
        "row4.lblData2": {
            "__events__": {},
            "__info__": {
                "kuid": "g642cf2688474c8f93b5667a22359792",
                "srcKUID": "e0d92e0911a44024b070ad330f34d297",
                "wType": "Label"
            }
        },
        "row4.lblData3": {
            "__events__": {},
            "__info__": {
                "kuid": "afad64165bd948308038e5e46e31f5b8",
                "srcKUID": "cea9c7ff442947fe90c1f7c1a626dca3",
                "wType": "Label"
            }
        },
        "row4.lblHeading1": {
            "__events__": {},
            "__info__": {
                "kuid": "a1f919433fe24ddeb83b2e907247bf4b",
                "srcKUID": "fca42796db57410bbbad3585fac54c55",
                "wType": "Label"
            }
        },
        "row4.lblHeading2": {
            "__events__": {},
            "__info__": {
                "kuid": "gec34323f811405d8b96a4fe8c1cf6fe",
                "srcKUID": "c7503571c7584f32b4c30f229318dd29",
                "wType": "Label"
            }
        },
        "row4.lblHeading3": {
            "__events__": {},
            "__info__": {
                "kuid": "bceadd2461d9415eb9665beaa7c77c38",
                "srcKUID": "cb1c6495ebed4bd59b8118415e63386b",
                "wType": "Label"
            }
        },
        "row4.lblIconData2": {
            "__events__": {},
            "__info__": {
                "kuid": "eb0ce2c379cf46f2b7cc9f2db926cc26",
                "srcKUID": "jfa0733e96d948b6b701148b99c5df5d",
                "wType": "Label"
            }
        },
        "row4.lblSignData2": {
            "__events__": {},
            "__info__": {
                "kuid": "jd187f9aff0d4e4196193f37899e527c",
                "srcKUID": "e395480933024839b30cf2bbbdc6f39c",
                "wType": "Label"
            }
        }
    },
    "enablescrolling": true,
    "id": "flxGeneralInfoWrapper",
    "info": null,
    "iscustomlayout": false,
    "isdatareferenced": false,
    "issegmentchild": false,
    "isvisible": true,
    "kuid": "f113311a51bb4bfea565dc8c482744b7",
    "layouttype": 4,
    "masterType": 0,
    "maxheight": {
        "type": "string",
        "value": "550px"
    },
    "name": "kony.ui.UserWidgetInstance",
    "parent": "flxGeneralInformationWrapper",
    "pf": "frmCustomerProfileAccounts",
    "retaincontentalignment": false,
    "retainflexpositionproperties": false,
    "snapgridsize": 10,
    "snaptogrid": true,
    "sourceUserWidget": "b1d438f217374b70a3fac2eb0026100f",
    "wType": "UserWidgetInstance",
    "zindex": 1
}