{
    "DNDConfig": null,
    "__parentReadjusting__": false,
    "_bottom_": {
        "type": "string",
        "value": "25px"
    },
    "_height_": {
        "type": "string",
        "value": "250px"
    },
    "_left_": {
        "type": "string",
        "value": "0dp"
    },
    "_margin_": [
        0,
        0,
        0,
        0
    ],
    "_orientation_": 6,
    "_padding_": [
        0,
        0,
        0,
        0
    ],
    "_percent_": true,
    "_right_": {
        "type": "number",
        "value": "0"
    },
    "_skin_": "s8ff24328417401b877c3ceb2a5fa27c",
    "_top_": {
        "type": "string",
        "value": "183dp"
    },
    "_width_": {
        "type": "string",
        "value": "100%"
    },
    "allboxes": [],
    "canUpdateUI": true,
    "children": [
        "segTransactionHistory"
    ],
    "clipbounds": true,
    "containerweight": 100,
    "enablescrolling": true,
    "id": "flxScrollTransctionsSegment",
    "info": null,
    "iscustomlayout": false,
    "isvisible": true,
    "kuid": "j79aa3d51e604ed3ad3a4c487160ca1b",
    "layouttype": 2,
    "maxheight": {
        "type": "string",
        "value": "250px"
    },
    "name": "kony.ui.FlexContainer",
    "parent": "flxTransactionHistory",
    "pf": "frmCustomerProfileAccounts",
    "retaincontentalignment": false,
    "retainflexpositionproperties": false,
    "retainflowhorizontalalignment": false,
    "snapgridsize": 10,
    "snaptogrid": true,
    "vizProps": {},
    "wType": "FlexContainer",
    "widgetalignment": 1,
    "zindex": 1
}