{
    "@class": "com.kony.gen.viz.model.component.KVizUserWidget",
    "DNDConfig": null,
    "__parentReadjusting__": false,
    "_bottom_": {
        "type": "string",
        "value": ""
    },
    "_children_": [],
    "_desktopweb_": {},
    "_height_": {
        "type": "string",
        "value": "60px"
    },
    "_left_": {
        "type": "string",
        "value": "0dp"
    },
    "_margin_": [
        0,
        0,
        0,
        0
    ],
    "_orientation_": 1,
    "_padding_": [
        0,
        0,
        0,
        0
    ],
    "_percent_": true,
    "_render_": true,
    "_responsiveData_": {},
    "_right_": {
        "type": "string",
        "value": ""
    },
    "_skin_": "s8ff24328417401b877c3ceb2a5fa27c",
    "_top_": {
        "type": "string",
        "value": "0dp"
    },
    "_vizProps_": {
        "hidewidgethierarchy": false
    },
    "_width_": {
        "type": "string",
        "value": "100%"
    },
    "areflexpropsreferenced": false,
    "autogrowmode": 0,
    "canUpdateUI": true,
    "centerx": {
        "type": "string",
        "value": ""
    },
    "centery": {
        "type": "string",
        "value": ""
    },
    "clipbounds": true,
    "containerweight": 0,
    "dataDiffs": {
        "btnLink3": {
            "__events__": {},
            "__info__": {
                "kuid": "i50cdfcf11ce4521b2e30470807f339a",
                "srcKUID": "j91288f8e39045aeb5f3470c522ffdf3",
                "wType": "Button"
            }
        },
        "details1": {
            "__events__": {},
            "__info__": {
                "isRoot": true,
                "kuid": "f841ea5899d34ed4b0d7e397cf72e80f",
                "srcKUID": "a5687942358045b5bdbbcaa029b3b303",
                "wType": "FlexContainer"
            },
            "autogrowMode": {
                "Default": 0
            },
            "bottom": {
                "Default": {
                    "type": "string",
                    "value": ""
                }
            },
            "centerX": {
                "Default": {
                    "type": "string",
                    "value": ""
                }
            },
            "centerY": {
                "Default": {
                    "type": "string",
                    "value": ""
                }
            },
            "height": {
                "Default": {
                    "type": "string",
                    "value": "60px"
                }
            },
            "left": {
                "Default": {
                    "type": "string",
                    "value": "0dp"
                }
            },
            "maxHeight": {
                "Default": {
                    "type": "string",
                    "value": ""
                }
            },
            "maxWidth": {
                "Default": {
                    "type": "string",
                    "value": ""
                }
            },
            "minHeight": {
                "Default": {
                    "type": "string",
                    "value": ""
                }
            },
            "minWidth": {
                "Default": {
                    "type": "string",
                    "value": ""
                }
            },
            "right": {
                "Default": {
                    "type": "string",
                    "value": ""
                }
            },
            "top": {
                "Default": {
                    "type": "string",
                    "value": "0dp"
                }
            },
            "width": {
                "Default": {
                    "type": "string",
                    "value": "100%"
                }
            }
        },
        "flxColumn1": {
            "__events__": {},
            "__info__": {
                "kuid": "f8019daac76349a9a64f62d4a9285507",
                "srcKUID": "f9266735f9804d02b7bb2ba75b082a17",
                "wType": "FlexContainer"
            }
        },
        "flxColumn2": {
            "__events__": {},
            "__info__": {
                "kuid": "d52a369c44d34f1b93679b24ac7dae24",
                "srcKUID": "jdabcb30578a454cacf78bef5a56bca9",
                "wType": "FlexContainer"
            },
            "isVisible": false
        },
        "flxColumn3": {
            "__events__": {},
            "__info__": {
                "kuid": "c4dae7850142498f8f88eeefbf5f6a75",
                "srcKUID": "a037402acefd4a5cbe1c15de26d4076c",
                "wType": "FlexContainer"
            },
            "isVisible": false
        },
        "flxDataAndImage1": {
            "__events__": {},
            "__info__": {
                "kuid": "cfeb2c7d8de0416996743bc54719275d",
                "srcKUID": "hf22388c7a8f45248bc8aabf21dc521d",
                "wType": "FlexContainer"
            }
        },
        "flxDataAndImage2": {
            "__events__": {},
            "__info__": {
                "kuid": "c0d2e7dd561a404cbcfefe772c70231d",
                "srcKUID": "a21b6fdbf96049b6975ce0ce7b1238d4",
                "wType": "FlexContainer"
            }
        },
        "flxDataAndImage3": {
            "__events__": {},
            "__info__": {
                "kuid": "e0912b5e6c9b403eaf81ca4d1e9577c2",
                "srcKUID": "a9033ad066744e46a003919cfa9d5fff",
                "wType": "FlexContainer"
            }
        },
        "lblData1": {
            "__events__": {},
            "__info__": {
                "kuid": "j073998f5d4044cd841be96c7f53a4be",
                "srcKUID": "ef0d960be1be466eb2b892680aa746bc",
                "wType": "Label"
            }
        },
        "lblData2": {
            "__events__": {},
            "__info__": {
                "kuid": "a93a4268d8374321bf9b2df593fff637",
                "srcKUID": "i0e8c739ee9242988ae2b5fd2d638655",
                "wType": "Label"
            }
        },
        "lblData3": {
            "__events__": {},
            "__info__": {
                "kuid": "ea0df5945f5b41d0a6595950040d02f1",
                "srcKUID": "ha87a76ec50f4aff909594a579e16024",
                "wType": "Label"
            }
        },
        "lblHeading1": {
            "__events__": {},
            "__info__": {
                "kuid": "cb58ae5134f0437a8e3a908e2c0cf3cc",
                "srcKUID": "b2bb6d40ddca49feaee75332ecc6f75c",
                "wType": "Label"
            },
            "i18n_text": null,
            "text": "BILLING ADDRESS"
        },
        "lblHeading2": {
            "__events__": {},
            "__info__": {
                "kuid": "d1e4f8c8a3114413a0ac6d49fe99240b",
                "srcKUID": "c83f2d58279842ce9056ff80ce128c1d",
                "wType": "Label"
            }
        },
        "lblHeading3": {
            "__events__": {},
            "__info__": {
                "kuid": "h3c462eeccdc451aa10b4d643f57352d",
                "srcKUID": "ebeae01dad974b5d9af2cd3db2a86b62",
                "wType": "Label"
            }
        },
        "lblIconData1": {
            "__events__": {},
            "__info__": {
                "kuid": "b6ffec924ec74cdda57b11105dbedf33",
                "srcKUID": "f358f82e8eb54ba2b9c9cdd65d793fda",
                "wType": "Label"
            }
        },
        "lblIconData2": {
            "__events__": {},
            "__info__": {
                "kuid": "ib8377d29f2141efbc1abdfae5c52237",
                "srcKUID": "cacee834b2db4a96b41a5a4666ddd19a",
                "wType": "Label"
            },
            "isVisible": false
        },
        "lblIconData3": {
            "__events__": {},
            "__info__": {
                "kuid": "d7e44884ab30497badcf540000fb9ea0",
                "srcKUID": "e2546bcd1c4c4033b9eb0f995c437257",
                "wType": "Label"
            },
            "isVisible": false
        }
    },
    "id": "ProductCardRow7",
    "info": null,
    "iscustomlayout": false,
    "isdatareferenced": false,
    "isvisible": true,
    "kuid": "f841ea5899d34ed4b0d7e397cf72e80f",
    "layouttype": 2,
    "masterType": 0,
    "maxheight": {
        "type": "string",
        "value": ""
    },
    "maxwidth": {
        "type": "string",
        "value": ""
    },
    "minheight": {
        "type": "string",
        "value": ""
    },
    "minwidth": {
        "type": "string",
        "value": ""
    },
    "name": "kony.ui.UserWidgetInstance",
    "parent": "flxProductCardDetails",
    "pf": "frmCustomerProfileAccounts",
    "retaincontentalignment": false,
    "retainflexpositionproperties": false,
    "snaptogrid": true,
    "sourceUserWidget": "a5687942358045b5bdbbcaa029b3b303",
    "vizprops": {
        "hidewidgethierarchy": false
    },
    "wType": "UserWidgetInstance"
}