{
    "@class": "com.kony.gen.viz.model.component.KVizUserWidget",
    "DNDConfig": null,
    "__parentReadjusting__": false,
    "_bottom_": {
        "type": "string",
        "value": ""
    },
    "_children_": [],
    "_desktopweb_": {},
    "_height_": {
        "type": "string",
        "value": "60px"
    },
    "_left_": {
        "type": "string",
        "value": "0dp"
    },
    "_margin_": [
        0,
        0,
        0,
        0
    ],
    "_orientation_": 1,
    "_padding_": [
        0,
        0,
        0,
        0
    ],
    "_percent_": true,
    "_render_": true,
    "_responsiveData_": {},
    "_right_": {
        "type": "string",
        "value": ""
    },
    "_skin_": "s8ff24328417401b877c3ceb2a5fa27c",
    "_top_": {
        "type": "string",
        "value": "0dp"
    },
    "_vizProps_": {
        "hidewidgethierarchy": false
    },
    "_width_": {
        "type": "string",
        "value": "100%"
    },
    "areflexpropsreferenced": false,
    "autogrowmode": 0,
    "canUpdateUI": true,
    "centerx": {
        "type": "string",
        "value": ""
    },
    "centery": {
        "type": "string",
        "value": ""
    },
    "clipbounds": true,
    "containerweight": 0,
    "dataDiffs": {
        "btnLink1": {
            "__events__": {},
            "__info__": {
                "kuid": "ja8ee602038b44518800455b1d42439f",
                "srcKUID": "e4c2a403c69c477fa2e3bbc692fd4424",
                "wType": "Button"
            },
            "isVisible": false
        },
        "btnLink2": {
            "__events__": {},
            "__info__": {
                "kuid": "b2b60ec175d048aa97c76c4da480c5ff",
                "srcKUID": "babe900debbb401ca8bbaeb7ceef92a0",
                "wType": "Button"
            },
            "i18n_text": null,
            "text": "(View Primary Card Holder)"
        },
        "btnLink3": {
            "__events__": {},
            "__info__": {
                "kuid": "be222dd9a38c4011ae18fd6d274744fc",
                "srcKUID": "h6ec2bba3e98468cb82e61c3949acfd1",
                "wType": "Button"
            },
            "isVisible": false
        },
        "detailsWithLink": {
            "__events__": {},
            "__info__": {
                "isRoot": true,
                "kuid": "d091d1a4e9c34c4f8d7cb38d657a7ea1",
                "srcKUID": "d9ec424b39384776a88625ff1cfea574",
                "wType": "FlexContainer"
            },
            "autogrowMode": {
                "Default": 0
            },
            "bottom": {
                "Default": {
                    "type": "string",
                    "value": ""
                }
            },
            "centerX": {
                "Default": {
                    "type": "string",
                    "value": ""
                }
            },
            "centerY": {
                "Default": {
                    "type": "string",
                    "value": ""
                }
            },
            "height": {
                "Default": {
                    "type": "string",
                    "value": "60px"
                }
            },
            "left": {
                "Default": {
                    "type": "string",
                    "value": "0dp"
                }
            },
            "maxHeight": {
                "Default": {
                    "type": "string",
                    "value": ""
                }
            },
            "maxWidth": {
                "Default": {
                    "type": "string",
                    "value": ""
                }
            },
            "minHeight": {
                "Default": {
                    "type": "string",
                    "value": ""
                }
            },
            "minWidth": {
                "Default": {
                    "type": "string",
                    "value": ""
                }
            },
            "right": {
                "Default": {
                    "type": "string",
                    "value": ""
                }
            },
            "top": {
                "Default": {
                    "type": "string",
                    "value": "0dp"
                }
            },
            "width": {
                "Default": {
                    "type": "string",
                    "value": "100%"
                }
            }
        },
        "flxColumn1": {
            "__events__": {},
            "__info__": {
                "kuid": "e95df5acbd14421aa7470d8ad4d3b850",
                "srcKUID": "a807e351271f49a9a574c3d927bac6ae",
                "wType": "FlexContainer"
            }
        },
        "flxColumn2": {
            "__events__": {},
            "__info__": {
                "kuid": "d6d1d5505fd74a5483706674d9d0eccf",
                "srcKUID": "c3d2f6ea8a0645ae900561b16e90d283",
                "wType": "FlexContainer"
            }
        },
        "flxColumn3": {
            "__events__": {},
            "__info__": {
                "kuid": "d5a44ed31f49458c9897bc6d3b5d4179",
                "srcKUID": "gbc62a59e705499aa31262487aac3b2e",
                "wType": "FlexContainer"
            }
        },
        "flxDataAndImage1": {
            "__events__": {},
            "__info__": {
                "kuid": "b95f44e4d69f418d87dbb3eea8efe188",
                "srcKUID": "h72f2d2b5c1645918fcad89a2ffbab22",
                "wType": "FlexContainer"
            }
        },
        "flxDataAndImage2": {
            "__events__": {},
            "__info__": {
                "kuid": "hc84bbb097ed4a9a813b809d601e19d9",
                "srcKUID": "g700831f320d4c32933dc8817fea2546",
                "wType": "FlexContainer"
            }
        },
        "flxDataAndImage3": {
            "__events__": {},
            "__info__": {
                "kuid": "j6ac323ec1e24a59812e8375ad0ea65d",
                "srcKUID": "f8d71775280348ef91a9a7e8501b4226",
                "wType": "FlexContainer"
            }
        },
        "lblData1": {
            "__events__": {},
            "__info__": {
                "kuid": "d6d57352602241e2b98d52113d0239ec",
                "srcKUID": "f2320ef1096541b68f8f7078083b44d3",
                "wType": "Label"
            }
        },
        "lblData2": {
            "__events__": {},
            "__info__": {
                "kuid": "c94993640f2149f9acf9290cfcd62d12",
                "srcKUID": "b3420730b9894d7c83953915867620bb",
                "wType": "Label"
            }
        },
        "lblData3": {
            "__events__": {},
            "__info__": {
                "kuid": "c97e901c00a24279b30538c479f2a4e6",
                "srcKUID": "aa6d4eba899b4426b24ec1d4aabc1432",
                "wType": "Label"
            }
        },
        "lblHeading1": {
            "__events__": {},
            "__info__": {
                "kuid": "f0eec67bebe24272b70464c0eb42fddf",
                "srcKUID": "fc0df62d09934b20b2ffee4f8d93f6c7",
                "wType": "Label"
            },
            "i18n_text": null,
            "text": "CARD NETWORK"
        },
        "lblHeading2": {
            "__events__": {},
            "__info__": {
                "kuid": "i21b9df1efb44d2080837261c5089b76",
                "srcKUID": "dabb828ee2e048b6bed9e5c2afaee404",
                "wType": "Label"
            },
            "i18n_text": null,
            "text": "CARD HOLDER"
        },
        "lblHeading3": {
            "__events__": {},
            "__info__": {
                "kuid": "c5968ce89f9d47c19a57855c8ca288a2",
                "srcKUID": "h55384a2585b41f990a37992eb18559f",
                "wType": "Label"
            },
            "i18n_text": null,
            "text": "INTEREST RATE"
        },
        "lblIconData1": {
            "__events__": {},
            "__info__": {
                "kuid": "h372a75cec1444999dd5749fb429ba06",
                "srcKUID": "g9d693fdbf144d99999630188da6f90c",
                "wType": "Label"
            }
        },
        "lblIconData2": {
            "__events__": {},
            "__info__": {
                "kuid": "eb549900de974b0ebaeaab2ad2c857bf",
                "srcKUID": "bdc8f92881db464ca3ea85816a42e6b6",
                "wType": "Label"
            }
        },
        "lblIconData3": {
            "__events__": {},
            "__info__": {
                "kuid": "dc736b23ddfc442cb4c30f614a683738",
                "srcKUID": "bad5502dcb7c499abd3c6efe9370dd0b",
                "wType": "Label"
            }
        }
    },
    "id": "ProductCardRow2",
    "info": null,
    "iscustomlayout": false,
    "isdatareferenced": false,
    "isvisible": true,
    "kuid": "d091d1a4e9c34c4f8d7cb38d657a7ea1",
    "layouttype": 2,
    "masterType": 0,
    "maxheight": {
        "type": "string",
        "value": ""
    },
    "maxwidth": {
        "type": "string",
        "value": ""
    },
    "minheight": {
        "type": "string",
        "value": ""
    },
    "minwidth": {
        "type": "string",
        "value": ""
    },
    "name": "kony.ui.UserWidgetInstance",
    "parent": "flxProductCardDetails",
    "pf": "frmCustomerProfileAccounts",
    "retaincontentalignment": false,
    "retainflexpositionproperties": false,
    "snaptogrid": true,
    "sourceUserWidget": "d9ec424b39384776a88625ff1cfea574",
    "vizprops": {
        "hidewidgethierarchy": false
    },
    "wType": "UserWidgetInstance"
}