{
    "@class": "com.kony.gen.viz.model.component.KVizUserWidget",
    "DNDConfig": null,
    "__parentReadjusting__": false,
    "_bottom_": {
        "type": "string",
        "value": ""
    },
    "_children_": [],
    "_desktopweb_": {},
    "_height_": {
        "type": "string",
        "value": "60px"
    },
    "_left_": {
        "type": "string",
        "value": "0dp"
    },
    "_margin_": [
        0,
        0,
        0,
        0
    ],
    "_orientation_": 1,
    "_padding_": [
        0,
        0,
        0,
        0
    ],
    "_percent_": true,
    "_render_": true,
    "_responsiveData_": {},
    "_right_": {
        "type": "string",
        "value": ""
    },
    "_skin_": "s8ff24328417401b877c3ceb2a5fa27c",
    "_top_": {
        "type": "string",
        "value": "0dp"
    },
    "_vizProps_": {
        "hidewidgethierarchy": false
    },
    "_width_": {
        "type": "string",
        "value": "100%"
    },
    "areflexpropsreferenced": false,
    "autogrowmode": 0,
    "canUpdateUI": true,
    "centerx": {
        "type": "string",
        "value": ""
    },
    "centery": {
        "type": "string",
        "value": ""
    },
    "clipbounds": true,
    "containerweight": 0,
    "dataDiffs": {
        "btnLink3": {
            "__events__": {},
            "__info__": {
                "kuid": "i3fb3a38ce1c4915810d3d6e18c1b27c",
                "srcKUID": "j91288f8e39045aeb5f3470c522ffdf3",
                "wType": "Button"
            }
        },
        "details1": {
            "__events__": {},
            "__info__": {
                "isRoot": true,
                "kuid": "e5b8466c03c84d0db37240e4eea0f284",
                "srcKUID": "a5687942358045b5bdbbcaa029b3b303",
                "wType": "FlexContainer"
            },
            "autogrowMode": {
                "Default": 0
            },
            "bottom": {
                "Default": {
                    "type": "string",
                    "value": ""
                }
            },
            "centerX": {
                "Default": {
                    "type": "string",
                    "value": ""
                }
            },
            "centerY": {
                "Default": {
                    "type": "string",
                    "value": ""
                }
            },
            "height": {
                "Default": {
                    "type": "string",
                    "value": "60px"
                }
            },
            "left": {
                "Default": {
                    "type": "string",
                    "value": "0dp"
                }
            },
            "maxHeight": {
                "Default": {
                    "type": "string",
                    "value": ""
                }
            },
            "maxWidth": {
                "Default": {
                    "type": "string",
                    "value": ""
                }
            },
            "minHeight": {
                "Default": {
                    "type": "string",
                    "value": ""
                }
            },
            "minWidth": {
                "Default": {
                    "type": "string",
                    "value": ""
                }
            },
            "right": {
                "Default": {
                    "type": "string",
                    "value": ""
                }
            },
            "top": {
                "Default": {
                    "type": "string",
                    "value": "0dp"
                }
            },
            "width": {
                "Default": {
                    "type": "string",
                    "value": "100%"
                }
            }
        },
        "flxColumn1": {
            "__events__": {},
            "__info__": {
                "kuid": "gff1039a43e04f5ea4d1c99c73d49430",
                "srcKUID": "f9266735f9804d02b7bb2ba75b082a17",
                "wType": "FlexContainer"
            }
        },
        "flxColumn2": {
            "__events__": {},
            "__info__": {
                "kuid": "a0ebc77857b2449dbc77682aca3ae85d",
                "srcKUID": "jdabcb30578a454cacf78bef5a56bca9",
                "wType": "FlexContainer"
            }
        },
        "flxColumn3": {
            "__events__": {},
            "__info__": {
                "kuid": "d8bc61c8bc1f4378aaad7b984a4161f9",
                "srcKUID": "a037402acefd4a5cbe1c15de26d4076c",
                "wType": "FlexContainer"
            }
        },
        "flxDataAndImage1": {
            "__events__": {},
            "__info__": {
                "kuid": "h48177aebd09434692baeb5054917667",
                "srcKUID": "hf22388c7a8f45248bc8aabf21dc521d",
                "wType": "FlexContainer"
            }
        },
        "flxDataAndImage2": {
            "__events__": {},
            "__info__": {
                "kuid": "b9bb08ac155f4defa4ce41354194a4ac",
                "srcKUID": "a21b6fdbf96049b6975ce0ce7b1238d4",
                "wType": "FlexContainer"
            }
        },
        "flxDataAndImage3": {
            "__events__": {},
            "__info__": {
                "kuid": "c1fe4bcf1a4f441cb5cbfea63649956b",
                "srcKUID": "a9033ad066744e46a003919cfa9d5fff",
                "wType": "FlexContainer"
            }
        },
        "lblData1": {
            "__events__": {},
            "__info__": {
                "kuid": "bb0e84121e344c15a05a337a0db7a713",
                "srcKUID": "ef0d960be1be466eb2b892680aa746bc",
                "wType": "Label"
            }
        },
        "lblData2": {
            "__events__": {},
            "__info__": {
                "kuid": "f7a2d2aa98f740ad919fd1cb9741b966",
                "srcKUID": "i0e8c739ee9242988ae2b5fd2d638655",
                "wType": "Label"
            }
        },
        "lblData3": {
            "__events__": {},
            "__info__": {
                "kuid": "a210cbff5020434f90fb085233072280",
                "srcKUID": "ha87a76ec50f4aff909594a579e16024",
                "wType": "Label"
            }
        },
        "lblHeading1": {
            "__events__": {},
            "__info__": {
                "kuid": "c80bf4da2fe14459bd5570c02c76fffb",
                "srcKUID": "b2bb6d40ddca49feaee75332ecc6f75c",
                "wType": "Label"
            },
            "i18n_text": null,
            "text": "ISSUED ON"
        },
        "lblHeading2": {
            "__events__": {},
            "__info__": {
                "kuid": "cbcf4fd6f4aa452f8f74604bb8ff37ed",
                "srcKUID": "c83f2d58279842ce9056ff80ce128c1d",
                "wType": "Label"
            },
            "i18n_text": null,
            "text": "EXPIRES ON"
        },
        "lblHeading3": {
            "__events__": {},
            "__info__": {
                "kuid": "i9e2204701a7435699e9c731b20c0094",
                "srcKUID": "ebeae01dad974b5d9af2cd3db2a86b62",
                "wType": "Label"
            },
            "i18n_text": null,
            "text": "CURRENT BALANCE"
        },
        "lblIconData1": {
            "__events__": {},
            "__info__": {
                "kuid": "f34971de55c24b228cae1dcfe8b8ed26",
                "srcKUID": "f358f82e8eb54ba2b9c9cdd65d793fda",
                "wType": "Label"
            }
        },
        "lblIconData2": {
            "__events__": {},
            "__info__": {
                "kuid": "deb79406053e420ebf9a7157085f25b9",
                "srcKUID": "cacee834b2db4a96b41a5a4666ddd19a",
                "wType": "Label"
            },
            "isVisible": false
        },
        "lblIconData3": {
            "__events__": {},
            "__info__": {
                "kuid": "c2685675440a42af90c204185eed4a9d",
                "srcKUID": "e2546bcd1c4c4033b9eb0f995c437257",
                "wType": "Label"
            },
            "isVisible": false
        }
    },
    "id": "ProductCardRow3",
    "info": null,
    "iscustomlayout": false,
    "isdatareferenced": false,
    "isvisible": true,
    "kuid": "e5b8466c03c84d0db37240e4eea0f284",
    "layouttype": 2,
    "masterType": 0,
    "maxheight": {
        "type": "string",
        "value": ""
    },
    "maxwidth": {
        "type": "string",
        "value": ""
    },
    "minheight": {
        "type": "string",
        "value": ""
    },
    "minwidth": {
        "type": "string",
        "value": ""
    },
    "name": "kony.ui.UserWidgetInstance",
    "parent": "flxProductCardDetails",
    "pf": "frmCustomerProfileAccounts",
    "retaincontentalignment": false,
    "retainflexpositionproperties": false,
    "snaptogrid": true,
    "sourceUserWidget": "a5687942358045b5bdbbcaa029b3b303",
    "vizprops": {
        "hidewidgethierarchy": false
    },
    "wType": "UserWidgetInstance"
}