{
    "@class": "com.kony.gen.viz.model.component.KVizUserWidget",
    "DNDConfig": null,
    "__parentReadjusting__": false,
    "_bottom_": {
        "type": "string",
        "value": ""
    },
    "_children_": [],
    "_desktopweb_": {},
    "_height_": {
        "type": "string",
        "value": "60px"
    },
    "_left_": {
        "type": "string",
        "value": "0dp"
    },
    "_margin_": [
        0,
        0,
        0,
        0
    ],
    "_orientation_": 1,
    "_padding_": [
        0,
        0,
        0,
        0
    ],
    "_percent_": true,
    "_render_": true,
    "_responsiveData_": {},
    "_right_": {
        "type": "string",
        "value": ""
    },
    "_skin_": "s8ff24328417401b877c3ceb2a5fa27c",
    "_top_": {
        "type": "string",
        "value": "0dp"
    },
    "_vizProps_": {
        "hidewidgethierarchy": false
    },
    "_width_": {
        "type": "string",
        "value": "100%"
    },
    "areflexpropsreferenced": false,
    "autogrowmode": 0,
    "canUpdateUI": true,
    "centerx": {
        "type": "string",
        "value": ""
    },
    "centery": {
        "type": "string",
        "value": ""
    },
    "clipbounds": true,
    "containerweight": 0,
    "dataDiffs": {
        "btnLink3": {
            "__events__": {},
            "__info__": {
                "kuid": "ia7b0030e6b047b38670086ff9dfb848",
                "srcKUID": "j91288f8e39045aeb5f3470c522ffdf3",
                "wType": "Button"
            }
        },
        "details1": {
            "__events__": {},
            "__info__": {
                "isRoot": true,
                "kuid": "e1b34a94669b4d4e935da3a09b0519a7",
                "srcKUID": "a5687942358045b5bdbbcaa029b3b303",
                "wType": "FlexContainer"
            },
            "autogrowMode": {
                "Default": 0
            },
            "bottom": {
                "Default": {
                    "type": "string",
                    "value": ""
                }
            },
            "centerX": {
                "Default": {
                    "type": "string",
                    "value": ""
                }
            },
            "centerY": {
                "Default": {
                    "type": "string",
                    "value": ""
                }
            },
            "height": {
                "Default": {
                    "type": "string",
                    "value": "60px"
                }
            },
            "left": {
                "Default": {
                    "type": "string",
                    "value": "0dp"
                }
            },
            "maxHeight": {
                "Default": {
                    "type": "string",
                    "value": ""
                }
            },
            "maxWidth": {
                "Default": {
                    "type": "string",
                    "value": ""
                }
            },
            "minHeight": {
                "Default": {
                    "type": "string",
                    "value": ""
                }
            },
            "minWidth": {
                "Default": {
                    "type": "string",
                    "value": ""
                }
            },
            "right": {
                "Default": {
                    "type": "string",
                    "value": ""
                }
            },
            "top": {
                "Default": {
                    "type": "string",
                    "value": "0dp"
                }
            },
            "width": {
                "Default": {
                    "type": "string",
                    "value": "100%"
                }
            }
        },
        "flxColumn1": {
            "__events__": {},
            "__info__": {
                "kuid": "bae827c288654c1091de3a109cfe94a6",
                "srcKUID": "f9266735f9804d02b7bb2ba75b082a17",
                "wType": "FlexContainer"
            }
        },
        "flxColumn2": {
            "__events__": {},
            "__info__": {
                "kuid": "d9d43081389e4d71b4871663f3f8878b",
                "srcKUID": "jdabcb30578a454cacf78bef5a56bca9",
                "wType": "FlexContainer"
            }
        },
        "flxColumn3": {
            "__events__": {},
            "__info__": {
                "kuid": "j47ba2f1cd3d4a0aa01bf3d178f1e80b",
                "srcKUID": "a037402acefd4a5cbe1c15de26d4076c",
                "wType": "FlexContainer"
            }
        },
        "flxDataAndImage1": {
            "__events__": {},
            "__info__": {
                "kuid": "ia5be7bc457c40a0a63c1be1f2c7642c",
                "srcKUID": "hf22388c7a8f45248bc8aabf21dc521d",
                "wType": "FlexContainer"
            }
        },
        "flxDataAndImage2": {
            "__events__": {},
            "__info__": {
                "kuid": "eb8858c566d34053a0407070d5f7bd03",
                "srcKUID": "a21b6fdbf96049b6975ce0ce7b1238d4",
                "wType": "FlexContainer"
            }
        },
        "flxDataAndImage3": {
            "__events__": {},
            "__info__": {
                "kuid": "bbbfd903948d447ca96d73569a1e0c44",
                "srcKUID": "a9033ad066744e46a003919cfa9d5fff",
                "wType": "FlexContainer"
            }
        },
        "lblData1": {
            "__events__": {},
            "__info__": {
                "kuid": "ecba5fc8563b441faf9e865769b19ecf",
                "srcKUID": "ef0d960be1be466eb2b892680aa746bc",
                "wType": "Label"
            }
        },
        "lblData2": {
            "__events__": {},
            "__info__": {
                "kuid": "e18d1cca870545b5808d29c185e6b36d",
                "srcKUID": "i0e8c739ee9242988ae2b5fd2d638655",
                "wType": "Label"
            }
        },
        "lblData3": {
            "__events__": {},
            "__info__": {
                "kuid": "e05fc946c6ed4ce2aab911123aaeb311",
                "srcKUID": "ha87a76ec50f4aff909594a579e16024",
                "wType": "Label"
            }
        },
        "lblHeading1": {
            "__events__": {},
            "__info__": {
                "kuid": "g167da6556ac4024bced7ed6af9e086c",
                "srcKUID": "b2bb6d40ddca49feaee75332ecc6f75c",
                "wType": "Label"
            },
            "i18n_text": "i18n.frmCustomerManagement.lblProductType"
        },
        "lblHeading2": {
            "__events__": {},
            "__info__": {
                "kuid": "cdfce3e59e9146248eb046f930814394",
                "srcKUID": "c83f2d58279842ce9056ff80ce128c1d",
                "wType": "Label"
            },
            "i18n_text": null,
            "text": "CARD TYPE"
        },
        "lblHeading3": {
            "__events__": {},
            "__info__": {
                "kuid": "i2daf91fc00f438499435e58c4c9215d",
                "srcKUID": "ebeae01dad974b5d9af2cd3db2a86b62",
                "wType": "Label"
            },
            "i18n_text": null,
            "text": "PRIMARY NUMBER"
        },
        "lblIconData1": {
            "__events__": {},
            "__info__": {
                "kuid": "h00f4f178f074d668e5a459488b60d7b",
                "srcKUID": "f358f82e8eb54ba2b9c9cdd65d793fda",
                "wType": "Label"
            }
        },
        "lblIconData2": {
            "__events__": {},
            "__info__": {
                "kuid": "fccbf7e4f48341c7af4778bb1d5b34ad",
                "srcKUID": "cacee834b2db4a96b41a5a4666ddd19a",
                "wType": "Label"
            },
            "isVisible": false
        },
        "lblIconData3": {
            "__events__": {},
            "__info__": {
                "kuid": "e58a4dcc7dbc40e3b24ba69793fed62c",
                "srcKUID": "e2546bcd1c4c4033b9eb0f995c437257",
                "wType": "Label"
            },
            "isVisible": false
        }
    },
    "id": "ProductCardRow1",
    "info": null,
    "iscustomlayout": false,
    "isdatareferenced": false,
    "isvisible": true,
    "kuid": "e1b34a94669b4d4e935da3a09b0519a7",
    "layouttype": 2,
    "masterType": 0,
    "maxheight": {
        "type": "string",
        "value": ""
    },
    "maxwidth": {
        "type": "string",
        "value": ""
    },
    "minheight": {
        "type": "string",
        "value": ""
    },
    "minwidth": {
        "type": "string",
        "value": ""
    },
    "name": "kony.ui.UserWidgetInstance",
    "parent": "flxProductCardDetails",
    "pf": "frmCustomerProfileAccounts",
    "retaincontentalignment": false,
    "retainflexpositionproperties": false,
    "snaptogrid": true,
    "sourceUserWidget": "a5687942358045b5bdbbcaa029b3b303",
    "vizprops": {
        "hidewidgethierarchy": false
    },
    "wType": "UserWidgetInstance"
}