{
    "@class": "com.kony.gen.viz.model.component.KVizBrowser",
    "DNDConfig": null,
    "__parentReadjusting__": false,
    "_height_": {
        "type": "string",
        "value": "100%"
    },
    "_left_": {
        "type": "string",
        "value": "0px"
    },
    "_margin_": [
        0,
        0,
        0,
        0
    ],
    "_padding_": [
        0,
        0,
        0,
        0
    ],
    "_top_": {
        "type": "string",
        "value": "0px"
    },
    "_type_": 5,
    "_width_": {
        "type": "string",
        "value": "100%"
    },
    "androidwearos": {
        "render": false
    },
    "canUpdateUI": true,
    "containerweight": 69,
    "detecttelnumber": true,
    "htmlstring": "Browser",
    "id": "rtxViewer",
    "info": null,
    "iscustomlayout": false,
    "isvisible": false,
    "kuid": "f8c9a54499c940f3adbf77f79c4cb99c",
    "localurl": "w7cf009f01ca4b59a9287137a811b5a8",
    "margininpixel": false,
    "method": "get",
    "name": "kony.ui.Browser",
    "paddinginpixel": false,
    "parent": "flxTemplatePreviewBody",
    "pf": "frmCustomerProfileAccounts",
    "requesturlconfig": {
        "URL": "",
        "requestMethod": "get"
    },
    "retaincontentalignment": false,
    "retainflexpositionproperties": false,
    "screenlevelwidget": false,
    "url": "",
    "wType": "Browser",
    "zindex": 1
}