{
    "@class": "com.kony.gen.viz.model.component.KVizUserWidget",
    "DNDConfig": null,
    "__parentReadjusting__": false,
    "_android_": {},
    "_androidwearos_": {},
    "_bottom_": {
        "type": "string",
        "value": "0px"
    },
    "_children_": [],
    "_desktopweb_": {},
    "_height_": {
        "type": "string",
        "value": "100%"
    },
    "_ipad_": {},
    "_iphone_": {},
    "_kiosk_": {},
    "_left_": {
        "type": "string",
        "value": "0dp"
    },
    "_margin_": [
        0,
        0,
        0,
        0
    ],
    "_orientation_": 1,
    "_padding_": [
        0,
        0,
        0,
        0
    ],
    "_percent_": true,
    "_skin_": "s8ff24328417401b877c3ceb2a5fa27c",
    "_spa_": {},
    "_spaan_": {},
    "_spaandroidtablet_": {},
    "_spabb_": {},
    "_spaip_": {},
    "_spaipad_": {},
    "_spamobile_": {},
    "_spatablet_": {},
    "_spawindowstablet_": {},
    "_spawinphone8_": {},
    "_tabrcandroid_": {},
    "_top_": {
        "type": "string",
        "value": ""
    },
    "_vizProps_": {
        "hidewidgethierarchy": false
    },
    "_width_": {
        "type": "string",
        "value": "80%"
    },
    "_windows10_": {},
    "_windows8_": {},
    "_winphone10_": {},
    "_winphone8_": {},
    "areflexpropsreferenced": false,
    "canUpdateUI": true,
    "clipbounds": true,
    "containerweight": 0,
    "dataDiffs": {
        "contactNumber": {
            "__events__": {},
            "__info__": {
                "isRoot": true,
                "kuid": "fe7962ecddad454ea3545350ed255ef5",
                "srcKUID": "ibc3e5b3edb84d259fd2067931a782e9",
                "wType": "FlexContainer"
            },
            "autogrowMode": {
                "Default": 0
            },
            "bottom": {
                "Default": {
                    "type": "string",
                    "value": "0px"
                }
            },
            "height": {
                "Default": {
                    "type": "string",
                    "value": "100%"
                }
            },
            "isVisible": false,
            "top": {
                "Default": {
                    "type": "string",
                    "value": ""
                }
            },
            "width": {
                "Default": {
                    "type": "string",
                    "value": "80%"
                }
            }
        },
        "flxContactNumberWrapper": {
            "__events__": {},
            "__info__": {
                "kuid": "cf2d731690dd4ac6913e76db75d52c4b",
                "srcKUID": "b758e1a12339403aa650221ca965e0a3",
                "wType": "FlexContainer"
            },
            "bottom": {
                "Default": {
                    "type": "string",
                    "value": "0px"
                }
            },
            "top": {
                "Default": {
                    "type": "number",
                    "value": "50"
                }
            }
        },
        "flxError": {
            "__events__": {},
            "__info__": {
                "kuid": "bd326ab1374148a5b560cf6db16fcdba",
                "srcKUID": "d82fbddca9a54c57af6370deb63a1b7b",
                "wType": "FlexContainer"
            },
            "isVisible": false
        },
        "lblDash": {
            "__events__": {},
            "__info__": {
                "kuid": "feb2034e9f0e4a0f827e1abcc990cb93",
                "srcKUID": "e219e548a8294d4ca5a93959705c8968",
                "wType": "Label"
            }
        },
        "lblErrorIcon": {
            "__events__": {},
            "__info__": {
                "kuid": "h612c2245ac34229b03bf9afeacbfc80",
                "srcKUID": "ead8fe02893644c58598435384cbeebd",
                "wType": "Label"
            }
        },
        "lblErrorText": {
            "__events__": {},
            "__info__": {
                "kuid": "c0eaa072de55443d92331e9e7cb9753b",
                "srcKUID": "ab774d00a69e4ee9985202f915601945",
                "wType": "Label"
            }
        },
        "txtContactNumber": {
            "__events__": {},
            "__info__": {
                "kuid": "f98489b7f5404512858acbab97474d73",
                "srcKUID": "a248bc5d195649d9ba617e4df7f1da81",
                "wType": "TextField"
            }
        },
        "txtISDCode": {
            "__events__": {},
            "__info__": {
                "kuid": "b7411b6443b147038ca46da282a469d6",
                "srcKUID": "b0b9033e30e247db83facee8c2040959",
                "wType": "TextField"
            }
        }
    },
    "enablescrolling": true,
    "id": "contactNumber2",
    "info": null,
    "iscustomlayout": false,
    "isdatareferenced": false,
    "isvisible": true,
    "kuid": "fe7962ecddad454ea3545350ed255ef5",
    "layouttype": 2,
    "masterType": 0,
    "name": "kony.ui.UserWidgetInstance",
    "parent": "flxContactDetails2",
    "pf": "userwidgetmodel",
    "retaincontentalignment": false,
    "retainflexpositionproperties": false,
    "snapgridsize": 10,
    "snaptogrid": true,
    "sourceUserWidget": "ibc3e5b3edb84d259fd2067931a782e9",
    "wType": "UserWidgetInstance"
}