{
    "DNDConfig": null,
    "__parentReadjusting__": false,
    "_height_": {
        "type": "string",
        "value": "100%"
    },
    "_left_": {
        "type": "string",
        "value": "35px"
    },
    "_margin_": [
        0,
        0,
        0,
        0
    ],
    "_orientation_": 6,
    "_padding_": [
        0,
        0,
        0,
        0
    ],
    "_percent_": true,
    "_right_": {
        "type": "string",
        "value": "51%"
    },
    "_skin_": "s8ff24328417401b877c3ceb2a5fa27c",
    "allboxes": [],
    "autogrowmode": 0,
    "canUpdateUI": true,
    "centery": {
        "type": "string",
        "value": "50%"
    },
    "children": [
        "txtfldContactNum3",
        "flxRadioButtons3",
        "lblContactType3",
        "lblErrorContact3",
        "contactNumber3"
    ],
    "clipbounds": true,
    "containerweight": 100,
    "enablescrolling": true,
    "id": "flxContactDetails3",
    "info": null,
    "isvisible": true,
    "kuid": "6416d99564314927ab4dde42fac9f341",
    "layouttype": 2,
    "name": "kony.ui.FlexContainer",
    "parent": "flxContactRow2",
    "pf": "userwidgetmodel",
    "snapgridsize": 10,
    "snaptogrid": true,
    "wType": "FlexContainer",
    "widgetalignment": 1,
    "zindex": 1
}