{
    "@class": "com.kony.gen.viz.model.component.KVizDateField",
    "DNDConfig": null,
    "Image": "calbtn.png",
    "__id": "uwuc671690ec4645e286662d8261225125_calUpdatedDate",
    "__input": "calUpdatedDate",
    "__parentReadjusting__": false,
    "_data_": null,
    "_date_": [
        27,
        10,
        2017
    ],
    "_height_": {
        "type": "string",
        "value": "40dp"
    },
    "_left_": {
        "type": "string",
        "value": "450dp"
    },
    "_margin_": [
        0,
        0,
        0,
        0
    ],
    "_padding_": [
        0,
        0,
        5,
        0
    ],
    "_placeholder_": "Created Date",
    "_skin_": "s9ee5ada236049248033a7cecafe79ae",
    "_width_": {
        "type": "string",
        "value": "160dp"
    },
    "advview": "default",
    "calendaricon": "calbtn.png",
    "canUpdateUI": true,
    "centery": {
        "type": "string",
        "value": "50%"
    },
    "containerweight": 100,
    "contentalignment": 5,
    "datecomponents": [
        27,
        10,
        2017
    ],
    "dateeditable": true,
    "dateformat": "MM/dd/yyyy",
    "datesGroup": [],
    "datesState": 0,
    "day": 27,
    "daytextalignmentincell": 5,
    "displayedMonths": [
        10,
        2017
    ],
    "entereddate": [
        27,
        10,
        2017
    ],
    "format": "MM/dd/yyyy",
    "formatteddate": "10/27/2017",
    "hidedaysheader": false,
    "hidemonthsheader": false,
    "hour": 0,
    "id": "calCreateDate",
    "info": null,
    "isvisible": false,
    "kuid": "fb44e547dac948f8b3a6306fca96d50b",
    "luadate": [
        27,
        10,
        2017
    ],
    "minutes": 0,
    "month": 10,
    "monthsinrow": 3,
    "name": "kony.ui.Calendar",
    "navigatorAlert": "Invalid Selection",
    "noofmonths": 1,
    "paddinginpixel": false,
    "pagedate": "/2017",
    "parent": "flxNames",
    "pf": "userwidgetmodel",
    "popupHeight": "auto",
    "popupWidth": "auto",
    "seconds": 0,
    "selectdate": "//2017",
    "startDay": 0,
    "viewtype": "default",
    "wType": "Calendar",
    "widgetalignment": 5,
    "widths": [
        "14.2857%;",
        "14.2857%;",
        "14.2857%;",
        "14.2857%;",
        "14.2857%;",
        "14.2857%;",
        "14.2857%;"
    ],
    "year": 2017,
    "zindex": 1
}