{
    "DNDConfig": null,
    "_height_": {
        "type": "string",
        "value": "50dp"
    },
    "_left_": {
        "type": "string",
        "value": "0dp"
    },
    "_margin_": [
        0,
        0,
        0,
        0
    ],
    "_orientation_": 6,
    "_padding_": [
        0,
        0,
        0,
        0
    ],
    "_percent_": true,
    "_skin_": "se452a8165c24e76b1290f32aff21ce9",
    "_top_": {
        "type": "string",
        "value": "0dp"
    },
    "_width_": {
        "type": "string",
        "value": "100%"
    },
    "allboxes": [],
    "autogrowmode": 0,
    "canUpdateUI": true,
    "children": [
        "flxListOfLeadsInner",
        "lblSeparatorListOfLeads"
    ],
    "clipbounds": true,
    "containerId": true,
    "containerweight": 100,
    "controllerInfo": {
        "default": {
            "channel": "desktop",
            "name": "flxListOfLeadsController"
        }
    },
    "desktopweb": {
        "psp": {
            "hoverSkin": "sdee8d84fe434c018ff2dc7705d1760d"
        }
    },
    "disabledSkins": {
        "focusSkin": "s540b73d68d74c299b4fc6aa0273f6e6"
    },
    "enablescrolling": true,
    "id": "flxListOfLeads",
    "info": null,
    "isTemplate": true,
    "iscustomlayout": false,
    "isvisible": true,
    "kuid": "b5c3afaf20d743e6ae82faf3c9f3b711",
    "layouttype": 2,
    "name": "kony.ui.FlexContainer",
    "parent": "segListOfLeads",
    "pf": "segListOfLeads",
    "retaincontentalignment": false,
    "retainflexpositionproperties": false,
    "snapgridsize": 10,
    "snaptogrid": true,
    "wType": "FlexContainer",
    "widgetalignment": 1
}