{
    "@class": "com.kony.gen.viz.model.component.KVizRichText",
    "DNDConfig": null,
    "__parentReadjusting__": false,
    "_height_": {
        "type": "ref",
        "value": "preferred"
    },
    "_margin_": [
        0,
        0,
        0,
        0
    ],
    "_padding_": [
        0,
        0,
        0,
        0
    ],
    "_skin_": "s3ffd2c66e5248c1aeb5430fa3380ad3",
    "_text_": "No Results Found",
    "_width_": {
        "type": "ref",
        "value": "preferred"
    },
    "_wrapping_": 2,
    "canUpdateUI": true,
    "centerx": {
        "type": "string",
        "value": "50%"
    },
    "centery": {
        "type": "string",
        "value": "50%"
    },
    "containerweight": 100,
    "contentalignment": 4,
    "id": "rtxNoNotification",
    "info": null,
    "iscustomlayout": false,
    "isvisible": true,
    "kuid": "c10919a501f446309b993c76c96a8536",
    "linkskin": "s622ed90a9dd418c93d0f39c84be2ec7",
    "name": "kony.ui.RichText",
    "parent": "flxNotificationNoResults",
    "pf": "userwidgetmodel",
    "retaincontentalignment": false,
    "retainflexpositionproperties": false,
    "texti18n": "i18n.frmCustomerManagementController.NO_RECORDS_FOUND",
    "wType": "RichText",
    "widgetalignment": 5,
    "zindex": 1
}