{
    "@class": "com.kony.gen.viz.model.container.KVizSegment2",
    "DNDConfig": null,
    "__parentReadjusting__": false,
    "_data_": [
        {},
        {},
        {}
    ],
    "_height_": {
        "type": "ref",
        "value": "preferred"
    },
    "_indicator_": "none",
    "_left_": {
        "type": "string",
        "value": "0dp"
    },
    "_margin_": [
        0,
        0,
        0,
        0
    ],
    "_orientation_": 2,
    "_padding_": [
        0,
        0,
        0,
        0
    ],
    "_top_": {
        "type": "string",
        "value": "0dp"
    },
    "_width_": {
        "type": "string",
        "value": "100%"
    },
    "autogrowmode": 1,
    "canUpdateUI": true,
    "containerweight": 100,
    "counter": "00",
    "desktop": {
        "_data_": [
            {
                "lblDetails": {
                    "@class": "com.viz.ide.model.segment.SimpleTextSegmentData",
                    "text": ""
                },
                "lblIconAction": {
                    "@class": "com.viz.ide.model.segment.SimpleTextSegmentData",
                    "text": ""
                },
                "lblIconStatus": {
                    "@class": "com.viz.ide.model.segment.SimpleTextSegmentData",
                    "text": ""
                },
                "lblNotificationId": {
                    "@class": "com.viz.ide.model.segment.SimpleTextSegmentData",
                    "text": ""
                },
                "lblSelectedCards": {
                    "@class": "com.viz.ide.model.segment.SimpleTextSegmentData",
                    "text": ""
                },
                "lblStatus": {
                    "@class": "com.viz.ide.model.segment.SimpleTextSegmentData",
                    "text": ""
                }
            }
        ],
        "rowTemplateId": "fd33562ba7844ede921ad20e4ec8931c",
        "rowtemplate": "flxNotificationsOuter",
        "widgetdatamap": {
            "flxNotificationRow": "flxNotificationRow",
            "flxNotificationsOuter": "flxNotificationsOuter",
            "flxRowLine": "flxRowLine",
            "flxStatusCont": "flxStatusCont",
            "lblDetails": "lblDetails",
            "lblIconAction": "lblIconAction",
            "lblIconStatus": "lblIconStatus",
            "lblNotificationId": "lblNotificationId",
            "lblSelectedCards": "lblSelectedCards",
            "lblStatus": "lblStatus"
        }
    },
    "focusedindex": null,
    "focuseditem": null,
    "groupcells": false,
    "hasSections": false,
    "id": "segNotificationsHC",
    "info": null,
    "ipad": {
        "psp": {
            "indicator": "rowselect"
        }
    },
    "iphone": {
        "psp": {
            "indicator": "rowselect"
        }
    },
    "iscustomlayout": false,
    "isvisible": true,
    "kuid": "ha84f9b76682418d916f6e666f727f45",
    "masterdata": {},
    "name": "kony.ui.SegmentedUI2",
    "needpageindicator": true,
    "pageoffdotimage": "pageoffdot.png",
    "pageondotimage": "pageondot.png",
    "paginationconfig": {
        "position": "bottom"
    },
    "parent": "flxNotificationSegHC",
    "pf": "userwidgetmodel",
    "retaincontentalignment": false,
    "retainflexpositionproperties": false,
    "retainselection": false,
    "rowcounter": 0,
    "rowfocusskin": "se901dcdd2ae4a58a81f21c009edf99e",
    "rowskin": "s54014e0d4204ce9acd27107655ded87",
    "rowtemplate": "flxRequestsOuter",
    "screenlevelwidget": false,
    "seccounter": 0,
    "sectionheaderskin": "sffa0c1a0560403189088e98f7b4f498",
    "selectedRows": null,
    "selectedState": false,
    "selectedindex": null,
    "selectedindices": null,
    "selecteditems": null,
    "selectedsectionindex": 0,
    "selectionbehavior": "default",
    "separatorcolor": "e1e5ed14",
    "separatorrequired": true,
    "separatorthickness": 1,
    "showscrollbars": false,
    "viewtype": "tableview",
    "wType": "Segment",
    "widgetalignment": 5,
    "widgetdatamap": {
        "flxNotificationRow": "flxNotificationRow",
        "flxNotificationsOuter": "flxNotificationsOuter",
        "flxRowLine": "flxRowLine",
        "flxStatusCont": "flxStatusCont",
        "lblDetails": "lblDetails",
        "lblIconAction": "lblIconAction",
        "lblIconStatus": "lblIconStatus",
        "lblNotificationId": "lblNotificationId",
        "lblSelectedCards": "lblSelectedCards",
        "lblStatus": "lblStatus"
    },
    "zindex": 1
}