{
    "DNDConfig": null,
    "__parentReadjusting__": false,
    "_height_": {
        "type": "string",
        "value": "40dp"
    },
    "_left_": {
        "type": "string",
        "value": "0dp"
    },
    "_margin_": [
        0,
        0,
        0,
        0
    ],
    "_orientation_": 6,
    "_padding_": [
        0,
        0,
        0,
        0
    ],
    "_percent_": true,
    "_skin_": "s8ff24328417401b877c3ceb2a5fa27c",
    "_top_": {
        "type": "string",
        "value": "15px"
    },
    "_width_": {
        "type": "ref",
        "value": "preferred"
    },
    "allboxes": [],
    "autogrowmode": 0,
    "canUpdateUI": true,
    "children": [
        "flxIndividualVL",
        "flxIndividualWithCoApplicantVL",
        "flxJointWithCoApplicantVL"
    ],
    "clipbounds": true,
    "containerweight": 100,
    "disabledSkins": {
        "focusSkin": "sd55fb56226742d1bd6d1cee7acb3619"
    },
    "enablescrolling": true,
    "focusskin": null,
    "id": "flxApplicationTypeSelectionVL",
    "info": null,
    "isvisible": false,
    "kuid": "g5439b0c3963464099826c88d33c0c4c",
    "layouttype": 3,
    "name": "kony.ui.FlexContainer",
    "parent": "flxApplicationTypeVL",
    "pf": "userwidgetmodel",
    "snapgridsize": 10,
    "snaptogrid": true,
    "wType": "FlexContainer",
    "widgetalignment": 1,
    "zindex": 1
}