{
    "@class": "com.kony.gen.viz.model.component.KVizTextBox2",
    "DNDConfig": null,
    "__parentReadjusting__": false,
    "_height_": {
        "type": "ref",
        "value": "preferred"
    },
    "_left_": {
        "type": "string",
        "value": "0"
    },
    "_margin_": [
        0,
        0,
        0,
        0
    ],
    "_padding_": [
        4,
        0,
        0,
        0
    ],
    "_placeholder_": "",
    "_skin_": "s199e31ba0754258944efda3ae980b93",
    "_text_": "",
    "_top_": {
        "type": "string",
        "value": "0"
    },
    "_width_": {
        "type": "string",
        "value": "79%"
    },
    "autocapitalize": "none",
    "autocomplete": false,
    "autocorrect": false,
    "autofilter": false,
    "canUpdateUI": true,
    "containerheight": "",
    "containerheightmode": 1,
    "containerweight": 100,
    "contentalignment": 4,
    "disabledSkins": {},
    "focusskin": "s710a2e958044588a0969ddceec6aaa3",
    "id": "txtLoanTermAmountVL",
    "info": null,
    "iscustomlayout": false,
    "isvisible": true,
    "keyboardstyle": "telpad",
    "keyboardtype": "A",
    "kuid": "d777e0951071433998ec61cce7c98b0c",
    "mode": "N",
    "name": "kony.ui.TextBox2",
    "paddinginpixel": false,
    "parent": "flxLoanTermValueVL",
    "pf": "userwidgetmodel",
    "placeholderi18n": "i18n.frmLogs.blSearchParam3",
    "placeholderskin": "s1ad35988e124d51b6fc33c20681b05c",
    "retaincontentalignment": false,
    "retainflexpositionproperties": false,
    "securetextentry": false,
    "textinputmode": "N",
    "tooltip": "",
    "viewtype": "default",
    "wType": "TextField",
    "zindex": 1
}