{
    "DNDConfig": null,
    "__parentReadjusting__": false,
    "_height_": {
        "type": "string",
        "value": "30px"
    },
    "_left_": {
        "type": "string",
        "value": "8.3%"
    },
    "_margin_": [
        0,
        0,
        0,
        0
    ],
    "_orientation_": 6,
    "_padding_": [
        0,
        0,
        0,
        0
    ],
    "_percent_": true,
    "_right_": {
        "type": "string",
        "value": "11.50%"
    },
    "_skin_": "s7353afeb3fb4a3abfaa7be273caa39e",
    "_top_": {
        "type": "string",
        "value": "0%"
    },
    "allboxes": [],
    "autogrowmode": 0,
    "canUpdateUI": true,
    "children": [
        "lblMyQueue",
        "lblMyQueueCount",
        "flxlMyQueueViewAllContaner"
    ],
    "clipbounds": true,
    "containerweight": 100,
    "enablescrolling": true,
    "id": "flxMyQueue",
    "info": null,
    "iscustomlayout": false,
    "isvisible": true,
    "kuid": "d0cf2c656eff4497a5da8546db4b8be9",
    "layouttype": 2,
    "name": "kony.ui.FlexContainer",
    "parent": "flxTabs",
    "pf": "frmDashboard",
    "retaincontentalignment": false,
    "retainflexpositionproperties": false,
    "snapgridsize": 10,
    "snaptogrid": true,
    "wType": "FlexContainer",
    "widgetalignment": 1,
    "zindex": 1
}