{
    "@class": "com.kony.gen.viz.model.component.KVizListBox",
    "DNDConfig": null,
    "__parentReadjusting__": false,
    "_height_": {
        "type": "string",
        "value": "40dp"
    },
    "_left_": {
        "type": "string",
        "value": "0dp"
    },
    "_margin_": [
        0,
        0,
        0,
        0
    ],
    "_padding_": [
        2,
        0,
        1,
        0
    ],
    "_placeholder_": "Please Select",
    "_skin_": "se6c1e83ba2043e68215b93ea71d4f3a",
    "_top_": {
        "type": "string",
        "value": "25dp"
    },
    "_width_": {
        "type": "string",
        "value": "40%"
    },
    "canUpdateUI": true,
    "containerweight": 100,
    "contentalignment": 4,
    "disabledSkins": {
        "focusSkin": "s8e2b9bc59214798999099f19e4148ae"
    },
    "dropdownimage": "listboxarw.png",
    "focusskin": null,
    "groupcells": false,
    "id": "listboxSearchParam5",
    "info": null,
    "iscustomlayout": false,
    "isvisible": true,
    "kuid": "e3f56dc7ad5f45c2978837e553bf9ddd",
    "masterdata": [
        [
            "ID_DRIVING_LICENSE",
            "Placeholder One",
            "i18n.frmCustomerManagementController.DriversLicense"
        ],
        [
            "ID_SSN",
            "Placeholder Two",
            "i18n.frmCustomerManagementController.SSN_HEADER"
        ],
        [
            "ID_PASSPORT",
            "Placeholder Three",
            "i18n.frmCustomerManagementController.Passport"
        ],
        [
            "ID_TIN",
            "TIN",
            "i18n.frmCustomerManagement.TIN"
        ]
    ],
    "name": "kony.ui.ListBox",
    "parent": "FlexGroupCriteria5",
    "pf": "userwidgetmodel",
    "retaincontentalignment": false,
    "retainflexpositionproperties": false,
    "selectedkeys": null,
    "selectedkeyvalue": null,
    "selectedkeyvalues": null,
    "size": 18,
    "viewconfig": {
        "toggleViewConfig": {
            "viewStyle": 0
        }
    },
    "viewtype": 0,
    "wType": "ListBox",
    "zindex": 10
}