{
    "@class": "com.kony.gen.viz.model.component.KVizUserWidget",
    "DNDConfig": null,
    "__parentReadjusting__": false,
    "_android_": {},
    "_androidwearos_": {},
    "_children_": [],
    "_desktopweb_": {},
    "_height_": {
        "type": "ref",
        "value": "preferred"
    },
    "_ipad_": {},
    "_iphone_": {},
    "_kiosk_": {},
    "_left_": {
        "type": "string",
        "value": "0dp"
    },
    "_margin_": [
        0,
        0,
        0,
        0
    ],
    "_orientation_": 1,
    "_padding_": [
        0,
        0,
        0,
        0
    ],
    "_percent_": true,
    "_skin_": "s8ff24328417401b877c3ceb2a5fa27c",
    "_spa_": {},
    "_spaan_": {},
    "_spaandroidtablet_": {},
    "_spabb_": {},
    "_spaip_": {},
    "_spaipad_": {},
    "_spamobile_": {},
    "_spatablet_": {},
    "_spawindowstablet_": {},
    "_spawinphone8_": {},
    "_tabrcandroid_": {},
    "_top_": {
        "type": "string",
        "value": "0dp"
    },
    "_vizProps_": {
        "hidewidgethierarchy": false
    },
    "_width_": {
        "type": "string",
        "value": "100%"
    },
    "_windows10_": {},
    "_windows8_": {},
    "_winphone10_": {},
    "_winphone8_": {},
    "areflexpropsreferenced": false,
    "autogrowmode": 1,
    "canUpdateUI": true,
    "clipbounds": true,
    "containerweight": 0,
    "dataDiffs": {
        "btnEdit": {
            "__events__": {},
            "__info__": {
                "kuid": "d01fc83b8218405cb416f1d3ed090730",
                "srcKUID": "d4dcfae996024b42bcc011d56742fdba",
                "wType": "Button"
            }
        },
        "flxSectionHeader": {
            "__events__": {},
            "__info__": {
                "kuid": "h3d978d1c08a4d3e857cfb8a94187f59",
                "srcKUID": "cccd38c0b8364293b40ce983dd9c8a24",
                "wType": "FlexContainer"
            }
        },
        "lblSectionHeader": {
            "__events__": {},
            "__info__": {
                "kuid": "jbd053aaf99b4870a3f6ed686e7049c9",
                "srcKUID": "f19d2d5f5b794f0d9d33564cb7d192e5",
                "wType": "Label"
            },
            "i18n_text": null,
            "text": "Authorized User"
        },
        "lblSeparator": {
            "__events__": {},
            "__info__": {
                "kuid": "d599efb2eada4f74931c76315eae6523",
                "srcKUID": "d4788e9bb4f34df3a638466a8e41ae49",
                "wType": "Label"
            }
        },
        "loansSectionHeader": {
            "__events__": {},
            "__info__": {
                "isRoot": true,
                "kuid": "f4432e75b42946f894518c188cd385e2",
                "srcKUID": "j00dc876d0f042169ae7bffaa6ef6538",
                "wType": "FlexContainer"
            }
        }
    },
    "enablescrolling": true,
    "id": "loansSectionHeader",
    "info": null,
    "iscustomlayout": false,
    "isdatareferenced": false,
    "isvisible": true,
    "kuid": "f4432e75b42946f894518c188cd385e2",
    "layouttype": 2,
    "masterType": 0,
    "name": "kony.ui.UserWidgetInstance",
    "parent": "viewAUDetails",
    "pf": "userwidgetmodel",
    "retaincontentalignment": false,
    "retainflexpositionproperties": false,
    "snapgridsize": 10,
    "snaptogrid": true,
    "sourceUserWidget": "j00dc876d0f042169ae7bffaa6ef6538",
    "wType": "UserWidgetInstance"
}