{
    "DNDConfig": null,
    "_height_": {
        "type": "ref",
        "value": "preferred"
    },
    "_margin_": [
        0,
        0,
        0,
        0
    ],
    "_orientation_": 6,
    "_padding_": [
        0,
        0,
        0,
        0
    ],
    "_percent_": true,
    "_skin_": "s094cf034ba74d778fe9c91095115ace",
    "allboxes": [],
    "autogrowmode": 1,
    "canUpdateUI": true,
    "children": [
        "flxServicesAndFaqLeft",
        "lblDescription",
        "lblCategory",
        "flxStatus",
        "flxOptions",
        "lblSeparator"
    ],
    "clipbounds": true,
    "containerId": true,
    "containerweight": 100,
    "controllerInfo": {
        "default": {
            "channel": "desktop",
            "name": "flxServicesAndFaqController"
        }
    },
    "desktopweb": {
        "psp": {
            "hoverSkin": "s512ca636f844ef4aa81b2647c08ce24"
        }
    },
    "enablescrolling": true,
    "focusskin": "s094cf034ba74d778fe9c91095115ace",
    "id": "flxServicesAndFaq",
    "info": null,
    "isTemplate": true,
    "isvisible": true,
    "kuid": "d29ee977dea14385a6061fa27b9c5f92",
    "layouttype": 2,
    "name": "kony.ui.FlexContainer",
    "parent": "segServiceAndFaq",
    "pf": "segServiceAndFaq",
    "snapgridsize": 10,
    "snaptogrid": true,
    "wType": "FlexContainer",
    "widgetalignment": 1
}