{
    "@class": "com.kony.gen.viz.model.component.KVizUserWidget",
    "DNDConfig": null,
    "__parentReadjusting__": false,
    "_android_": {},
    "_androidwearos_": {},
    "_bottom_": {
        "type": "string",
        "value": "0px"
    },
    "_children_": [],
    "_desktopweb_": {},
    "_height_": {
        "type": "string",
        "value": "20px"
    },
    "_ipad_": {},
    "_iphone_": {},
    "_kiosk_": {},
    "_left_": {
        "type": "string",
        "value": "35px"
    },
    "_margin_": [
        0,
        0,
        0,
        0
    ],
    "_orientation_": 1,
    "_padding_": [
        0,
        0,
        0,
        0
    ],
    "_percent_": true,
    "_render_": true,
    "_responsiveData_": {},
    "_right_": {
        "type": "string",
        "value": "35px"
    },
    "_skin_": "s18e2ced6ee54b75a5ba66f8d41070d5",
    "_spa_": {},
    "_spaan_": {},
    "_spaandroidtablet_": {},
    "_spabb_": {},
    "_spaip_": {},
    "_spaipad_": {},
    "_spamobile_": {},
    "_spatablet_": {},
    "_spawindowstablet_": {},
    "_spawinphone8_": {},
    "_tabrcandroid_": {},
    "_top_": {
        "type": "string",
        "value": "0px"
    },
    "_vizProps_": {
        "hidewidgethierarchy": false
    },
    "_width_": {
        "type": "string",
        "value": ""
    },
    "_windows10_": {},
    "_windows8_": {},
    "_winphone10_": {},
    "_winphone8_": {},
    "areflexpropsreferenced": false,
    "autogrowmode": 0,
    "canUpdateUI": true,
    "clipbounds": true,
    "containerweight": 0,
    "dataDiffs": {
        "breadcrumbs": {
            "__events__": {},
            "__info__": {
                "isRoot": true,
                "kuid": "ef90377349fe4d79bebf1dcfebc9df03",
                "srcKUID": "e57b9ec944d34c8b834fa7fb78b60de9",
                "wType": "FlexContainer"
            },
            "bottom": {
                "Default": {
                    "type": "string",
                    "value": "0px"
                }
            },
            "left": {
                "Default": {
                    "type": "string",
                    "value": "35px"
                }
            },
            "right": {
                "Default": {
                    "type": "string",
                    "value": "35px"
                }
            },
            "top": {
                "Default": {
                    "type": "string",
                    "value": "0px"
                }
            },
            "width": {
                "Default": {
                    "type": "string",
                    "value": ""
                }
            },
            "zIndex": {
                "Default": 1
            }
        },
        "btnBackToMain": {
            "__events__": {},
            "__info__": {
                "kuid": "d34c41e88a344a029b94cb6c71709dbe",
                "srcKUID": "ea97f85c5977457f93b8d984e28d4872",
                "wType": "Button"
            },
            "i18n_text": null,
            "left": {
                "Default": {
                    "type": "string",
                    "value": "0px"
                }
            },
            "text": "ALERTS"
        },
        "btnPreviousPage": {
            "__events__": {},
            "__info__": {
                "kuid": "g60c4b2e04f14727b30ba894c1b1c0c6",
                "srcKUID": "d0676390dcb747fa9849bbc49f0a18d9",
                "wType": "Button"
            },
            "isVisible": false
        },
        "btnPreviousPage1": {
            "__events__": {},
            "__info__": {
                "kuid": "ec9a4bcb2dd64decacdfedb851a6b418",
                "srcKUID": "e7552a460536429580737450bf7c813b",
                "wType": "Button"
            },
            "isVisible": false
        },
        "fontIconBreadcrumbsDown": {
            "__events__": {},
            "__info__": {
                "kuid": "abcbfb9ceaa0424d8873f92589bc5d41",
                "srcKUID": "c2a443f3c4ba44668b78d4abbd727ece",
                "wType": "Label"
            },
            "isVisible": false
        },
        "fontIconBreadcrumbsRight": {
            "__events__": {},
            "__info__": {
                "kuid": "d4c5fa7909a9445d9ecb4464967b3d23",
                "srcKUID": "ida459e61e8d4663bacfa34ff30f7ad6",
                "wType": "Label"
            }
        },
        "fontIconBreadcrumbsRight2": {
            "__events__": {},
            "__info__": {
                "kuid": "fcd7eb42dcbd44279de761bd20d84551",
                "srcKUID": "g785f1639b154e7aa5df9fac346a200a",
                "wType": "Label"
            },
            "isVisible": false
        },
        "fontIconBreadcrumbsRight3": {
            "__events__": {},
            "__info__": {
                "kuid": "d192a51c613442ab81036f784675319f",
                "srcKUID": "ce04b87b0fe04c46acac3385cd5c792b",
                "wType": "Label"
            }
        },
        "imgBreadcrumbsDown": {
            "__events__": {},
            "__info__": {
                "kuid": "db70951e54344cb784dff124dd37c898",
                "srcKUID": "efceab0102014e18b0fcbd4ee7f2f412",
                "wType": "Image"
            },
            "src": "img_down_arrow.png"
        },
        "imgBreadcrumbsRight": {
            "__events__": {},
            "__info__": {
                "kuid": "e42a62c288a949bea9be70e638fa8228",
                "srcKUID": "b1756ce4f6d744438bad7c9f5f4fd700",
                "wType": "Image"
            },
            "src": "img_breadcrumb_arrow.png"
        },
        "imgBreadcrumbsRight2": {
            "__events__": {},
            "__info__": {
                "kuid": "ff35567aaf0b486f8de190ad01c0a5bd",
                "srcKUID": "d720d60d37e04d74a8e019d046a402bd",
                "wType": "Image"
            },
            "isVisible": false,
            "src": "img_breadcrumb_arrow.png"
        },
        "imgBreadcrumbsRight3": {
            "__events__": {},
            "__info__": {
                "kuid": "be2005a47f074a239a95c7816bc9b5ea",
                "srcKUID": "dd44e3ff9a4b45fea146e20150e225d2",
                "wType": "Image"
            },
            "src": "img_breadcrumb_arrow.png"
        },
        "lblCurrentScreen": {
            "__events__": {},
            "__info__": {
                "kuid": "dba743b5320745aa8ae48742df9aa781",
                "srcKUID": "d57a137ddf1a4ab19dd36fbb4e55c040",
                "wType": "Label"
            },
            "i18n_text": "i18n.frmUpgradeUser.companyInfo",
            "isVisible": true,
            "text": "COMPANY INFO",
            "width": {
                "Default": {
                    "type": "ref",
                    "value": "preferred"
                }
            }
        }
    },
    "id": "breadcrumbs",
    "info": null,
    "isdatareferenced": false,
    "isvisible": true,
    "kuid": "ef90377349fe4d79bebf1dcfebc9df03",
    "layouttype": 3,
    "masterType": 0,
    "name": "kony.ui.UserWidgetInstance",
    "parent": "flxBreadCrumb",
    "pf": "frmUpgradeUser",
    "snaptogrid": true,
    "sourceUserWidget": "e57b9ec944d34c8b834fa7fb78b60de9",
    "wType": "UserWidgetInstance",
    "zindex": 1
}