{
    "@class": "com.kony.gen.viz.model.component.KVizUserWidget",
    "DNDConfig": null,
    "__parentReadjusting__": false,
    "_android_": {},
    "_androidwearos_": {},
    "_children_": [],
    "_desktopweb_": {},
    "_height_": {
        "type": "string",
        "value": "170dp"
    },
    "_ipad_": {},
    "_iphone_": {},
    "_kiosk_": {},
    "_left_": {
        "type": "string",
        "value": "0dp"
    },
    "_margin_": [
        0,
        0,
        0,
        0
    ],
    "_orientation_": 1,
    "_padding_": [
        0,
        0,
        0,
        0
    ],
    "_percent_": true,
    "_responsiveData_": {},
    "_skin_": "s8ff24328417401b877c3ceb2a5fa27c",
    "_spa_": {},
    "_spaan_": {},
    "_spaandroidtablet_": {},
    "_spabb_": {},
    "_spaip_": {},
    "_spaipad_": {},
    "_spamobile_": {},
    "_spatablet_": {},
    "_spawindowstablet_": {},
    "_spawinphone8_": {},
    "_tabrcandroid_": {},
    "_top_": {
        "type": "string",
        "value": "0dp"
    },
    "_vizProps_": {
        "hidewidgethierarchy": false
    },
    "_width_": {
        "type": "string",
        "value": "100%"
    },
    "_windows10_": {},
    "_windows8_": {},
    "_winphone10_": {},
    "_winphone8_": {},
    "areflexpropsreferenced": false,
    "canUpdateUI": true,
    "clipbounds": true,
    "containerweight": 0,
    "dataDiffs": {
        "flxNoResultFound": {
            "__events__": {},
            "__info__": {
                "kuid": "df99255326504d98b836753979aba6e9",
                "srcKUID": "baebd8fd576c4460b41496457db586fa",
                "wType": "FlexContainer"
            }
        },
        "lblNoResultFound": {
            "__events__": {},
            "__info__": {
                "kuid": "c048077ba485432b8abe00697e0cddde",
                "srcKUID": "a3ba6c92228f4cd58d3132c08968c548",
                "wType": "Label"
            }
        },
        "segSearchResult": {
            "__events__": {},
            "__info__": {
                "kuid": "d956a581041b4439a5acd9ac8e76327d",
                "srcKUID": "a65f0e798f084d15a42ed8041c67549f",
                "wType": "Segment"
            },
            "isVisible": false
        },
        "tbxSearchKey": {
            "__events__": {},
            "__info__": {
                "kuid": "h4ed758a31cb4db68f018bb71947e3b5",
                "srcKUID": "h96215b7e9c44004baa3db82b06cefbc",
                "wType": "TextField"
            },
            "i18n_placeholder": "i18n.frmGroupsController.city",
            "placeholder": ""
        },
        "typeHead": {
            "__events__": {},
            "__info__": {
                "isRoot": true,
                "kuid": "b88113e09a46496ba72be6480ca3c12b",
                "srcKUID": "ea5bdcd02045417faad25b2c67648730",
                "wType": "FlexContainer"
            },
            "autogrowMode": {
                "Default": 0
            },
            "height": {
                "Default": {
                    "type": "string",
                    "value": "170dp"
                }
            }
        }
    },
    "enablescrolling": true,
    "id": "typeHeadCity",
    "info": null,
    "iscustomlayout": false,
    "isdatareferenced": false,
    "issegmentchild": false,
    "isvisible": true,
    "kuid": "b88113e09a46496ba72be6480ca3c12b",
    "layouttype": 2,
    "masterType": 0,
    "name": "kony.ui.UserWidgetInstance",
    "parent": "flxCityTypeHead",
    "pf": "frmUpgradeUser",
    "retaincontentalignment": false,
    "retainflexpositionproperties": false,
    "snapgridsize": 10,
    "snaptogrid": true,
    "sourceUserWidget": "ea5bdcd02045417faad25b2c67648730",
    "wType": "UserWidgetInstance"
}