{
    "@class": "com.kony.gen.viz.model.component.KVizButton",
    "DNDConfig": null,
    "__parentReadjusting__": false,
    "_bottom_": {
        "type": "string",
        "value": "0px"
    },
    "_height_": {
        "type": "string",
        "value": "22px"
    },
    "_margin_": [
        6,
        6,
        6,
        6
    ],
    "_padding_": [
        0,
        0,
        0,
        0
    ],
    "_right_": {
        "type": "string",
        "value": "0px"
    },
    "_skin_": "sf855fbbb0b64b99b049f0282a1e49ba",
    "_text_": "Edit",
    "_width_": {
        "type": "string",
        "value": "50px"
    },
    "canUpdateUI": true,
    "containerweight": 100,
    "contentalignment": 5,
    "desktopweb": {
        "psp": {
            "hoverSkin": "sbb6d769463643e8b84b0ddb613ea19d"
        }
    },
    "displaytext": true,
    "focusskin": "sf855fbbb0b64b99b049f0282a1e49ba",
    "id": "btnEdit",
    "info": null,
    "isvisible": true,
    "kuid": "e0b5121ad0f346cb83c78256feda91c4",
    "name": "kony.ui.Button",
    "parent": "flxButtons",
    "pf": "userwidgetmodel",
    "texti18n": "i18n.roles.Edit",
    "wType": "Button",
    "zindex": 1
}