{
    "@class": "com.kony.gen.viz.model.component.KVizLabel",
    "DNDConfig": null,
    "__parentReadjusting__": false,
    "_bottom_": 30,
    "_height_": {
        "type": "ref",
        "value": "preferred"
    },
    "_left_": {
        "type": "string",
        "value": "62px"
    },
    "_margin_": [
        1,
        1,
        1,
        1
    ],
    "_padding_": [
        0,
        0,
        0,
        0
    ],
    "_right_": {
        "type": "string",
        "value": "35px"
    },
    "_skin_": "sf6cae3244334c7ab54b2fa0c8517592",
    "_text_": "Lorem ipsum dolor sit amet, consectetur adipiscing elitLorem ipsum dolor sit amet, consectetur adipiscing elit",
    "_top_": {
        "type": "string",
        "value": "82px"
    },
    "_wrapping_": 2,
    "android": {
        "textStyle": {
            "letterSpacing": 0,
            "strikeThrough": false
        }
    },
    "canUpdateUI": true,
    "containerweight": 100,
    "contentalignment": 1,
    "id": "lblLogDesc",
    "info": null,
    "ipad": {
        "psp": {
            "wrapping": 2
        }
    },
    "iphone": {
        "psp": {
            "wrapping": 2
        }
    },
    "iscustomlayout": false,
    "isvisible": true,
    "kuid": "gb067134c4fe4721ad1628bf56f82a3e",
    "name": "kony.ui.Label",
    "parent": "LogCustomTabs",
    "pf": "userwidgetmodel",
    "retaincontentalignment": false,
    "retainflexpositionproperties": false,
    "texti18n": "i18n.frmLogsController.TempText",
    "tooltip": "",
    "wType": "Label",
    "zindex": 1
}