{
    "DNDConfig": null,
    "__parentReadjusting__": false,
    "_height_": {
        "type": "string",
        "value": "100%"
    },
    "_margin_": [
        0,
        0,
        0,
        0
    ],
    "_orientation_": 6,
    "_padding_": [
        0,
        0,
        0,
        0
    ],
    "_percent_": true,
    "_right_": {
        "type": "string",
        "value": "90px"
    },
    "_skin_": "s54b03ed0af548f4b10ba6e76cf19723",
    "_top_": {
        "type": "string",
        "value": "0dp"
    },
    "_width_": {
        "type": "string",
        "value": "100px"
    },
    "allboxes": [],
    "autogrowmode": 0,
    "canUpdateUI": true,
    "centery": {
        "type": "string",
        "value": "50%"
    },
    "children": [
        "lblStatus",
        "imgSortStatus",
        "fontIconFilterStatus"
    ],
    "clipbounds": true,
    "containerId": true,
    "containerweight": 100,
    "enablescrolling": true,
    "id": "flxHeaderStatus",
    "info": null,
    "isvisible": true,
    "kuid": "d094cfbd9cb140d48fde8f4c7339c2f9",
    "layouttype": 3,
    "masterType": 1,
    "name": "kony.ui.FlexContainer",
    "parent": "flxImageUploadListHeader",
    "pf": "segImageUploadListHeader",
    "snapgridsize": 10,
    "snaptogrid": true,
    "wType": "FlexContainer",
    "widgetalignment": 1,
    "zindex": 1
}