{
    "@class": "com.kony.gen.viz.model.component.KVizButton",
    "DNDConfig": null,
    "__parentReadjusting__": false,
    "_height_": {
        "type": "string",
        "value": "40dp"
    },
    "_left_": {
        "type": "string",
        "value": "36dp"
    },
    "_margin_": [
        6,
        6,
        6,
        6
    ],
    "_padding_": [
        0,
        0,
        0,
        0
    ],
    "_skin_": "s78ae40295b14751891c1da8db3255dd",
    "_text_": "RESET PASSWORD",
    "_top_": {
        "type": "string",
        "value": "355px"
    },
    "_width_": {
        "type": "string",
        "value": "271dp"
    },
    "canUpdateUI": true,
    "centerx": {
        "type": "string",
        "value": "50%"
    },
    "containerweight": 100,
    "contentalignment": 5,
    "desktopweb": {
        "psp": {
            "hoverSkin": "s52e458dd8c3434e9fbdb15195c72457"
        }
    },
    "displaytext": true,
    "focusskin": "s52e458dd8c3434e9fbdb15195c72457",
    "id": "btnResetPassword1",
    "info": null,
    "isvisible": true,
    "kuid": "da169b4110ee48e9b4ef82e2bc7694bf",
    "name": "kony.ui.Button",
    "parent": "flxForgotPassword",
    "pf": "frmErrorLogin",
    "texti18n": "i18n.frmErrorLogin.btnResetPassword",
    "tooltip": "Reset password",
    "wType": "Button",
    "zindex": 1
}