{
    "@class": "com.kony.gen.viz.model.component.KVizButton",
    "DNDConfig": null,
    "__parentReadjusting__": false,
    "_height_": {
        "type": "string",
        "value": "40dp"
    },
    "_left_": {
        "type": "string",
        "value": "36dp"
    },
    "_margin_": [
        6,
        6,
        6,
        6
    ],
    "_padding_": [
        0,
        0,
        0,
        0
    ],
    "_skin_": "s78ae40295b14751891c1da8db3255dd",
    "_text_": "RE - SIGN IN",
    "_top_": {
        "type": "string",
        "value": "320dp"
    },
    "_width_": {
        "type": "string",
        "value": "271dp"
    },
    "canUpdateUI": true,
    "centerx": {
        "type": "string",
        "value": "50%"
    },
    "containerweight": 100,
    "contentalignment": 5,
    "desktopweb": {
        "psp": {
            "hoverSkin": "s52e458dd8c3434e9fbdb15195c72457"
        },
        "toolTip": "Re-Sign in"
    },
    "displaytext": true,
    "focusskin": "s52e458dd8c3434e9fbdb15195c72457",
    "id": "btnRelogin",
    "ide_onClick": "AS_Button_fcd23acf92dc4eb48b87832870f60bcc",
    "info": null,
    "isvisible": true,
    "kiosk": {
        "toolTip": "Re-sign"
    },
    "kuid": "ae5c53ae5c7c461abd7b9f9ba06d7b2f",
    "name": "kony.ui.Button",
    "parent": "flxResetPasswordConfirm",
    "pf": "frmErrorLogin",
    "texti18n": "i18n.frmErrorLogin.btnRelogin",
    "tooltip": "Re-Sign in",
    "wType": "Button",
    "zindex": 1
}