{
    "@class": "com.kony.gen.viz.model.component.KVizButton",
    "DNDConfig": null,
    "__parentReadjusting__": false,
    "_height_": {
        "type": "string",
        "value": "40dp"
    },
    "_left_": {
        "type": "string",
        "value": "43dp"
    },
    "_margin_": [
        6,
        6,
        6,
        6
    ],
    "_padding_": [
        0,
        0,
        0,
        0
    ],
    "_skin_": "s78ae40295b14751891c1da8db3255dd",
    "_text_": "CONTINUE",
    "_top_": {
        "type": "string",
        "value": "250px"
    },
    "_width_": {
        "type": "string",
        "value": "271dp"
    },
    "canUpdateUI": true,
    "centerx": {
        "type": "string",
        "value": "50%"
    },
    "containerweight": 100,
    "contentalignment": 5,
    "desktopweb": {
        "psp": {
            "hoverSkin": "s52e458dd8c3434e9fbdb15195c72457"
        }
    },
    "displaytext": true,
    "focusskin": "s52e458dd8c3434e9fbdb15195c72457",
    "id": "ContinueButton",
    "ide_onClick": "AS_Button_c373839f16154bbb9a1222ca80dbb1ef",
    "info": null,
    "isvisible": true,
    "kuid": "je46621e0baa4a228fcb0ba4bd68f693",
    "name": "kony.ui.Button",
    "parent": "flxForgotEmail",
    "pf": "frmErrorLogin",
    "texti18n": "i18n.frmErrorLogin.ContinueButton",
    "tooltip": "CONTINUE",
    "wType": "Button",
    "zindex": 1
}