{
    "DNDConfig": null,
    "__parentReadjusting__": false,
    "_height_": {
        "type": "string",
        "value": "440dp"
    },
    "_left_": {
        "type": "string",
        "value": "0dp"
    },
    "_margin_": [
        0,
        0,
        0,
        0
    ],
    "_orientation_": 6,
    "_padding_": [
        0,
        0,
        0,
        0
    ],
    "_percent_": true,
    "_skin_": "s02c7db5eafa4b129c22cf217c5a6139",
    "_top_": {
        "type": "string",
        "value": "0dp"
    },
    "_width_": {
        "type": "string",
        "value": "350dp"
    },
    "allboxes": [],
    "autogrowmode": 0,
    "canUpdateUI": true,
    "children": [
        "lblTimeForNewPassword",
        "lblPasswordExpired",
        "lblCurrentPassword",
        "txtCurrentPassword",
        "lblIncorrectCurrentPassword",
        "lblNewPassword",
        "txtNewPassword",
        "lblPasswordNotValid",
        "lblReenterPassword",
        "txtReenterPassword",
        "lblPasswordDontMatch",
        "flxRules",
        "btnResetPassword",
        "btnCancel",
        "flxCancelText",
        "flxToastContainer",
        "flxRichTextRules",
        "flxEyeiconCPCurrent",
        "flxEyecrossCPCurrent",
        "flxEyeiconCPNew",
        "flxEyecrossCPNew",
        "flxEyeiconCPReEnter",
        "flxEyecrossCPReEnter"
    ],
    "clipbounds": true,
    "containerweight": 100,
    "enablescrolling": true,
    "id": "flxChangePassword",
    "info": null,
    "isvisible": false,
    "kuid": "aeadf83b44764b4f9cbdcb1950f64c10",
    "layouttype": 2,
    "masterType": 1,
    "name": "kony.ui.FlexContainer",
    "parent": "flxMainError",
    "pf": "frmErrorLogin",
    "snapgridsize": 10,
    "snaptogrid": true,
    "wType": "FlexContainer",
    "widgetalignment": 1,
    "zindex": 1
}