{
    "@class": "com.kony.gen.viz.model.component.KVizLabel",
    "DNDConfig": null,
    "__parentReadjusting__": false,
    "_height_": {
        "type": "ref",
        "value": "preferred"
    },
    "_left_": {
        "type": "string",
        "value": "10%"
    },
    "_margin_": [
        1,
        1,
        1,
        1
    ],
    "_padding_": [
        0,
        0,
        0,
        0
    ],
    "_skin_": "see1d45827a0463ca9ba5cf46520a685",
    "_text_": "Didn't get it?",
    "_top_": {
        "type": "string",
        "value": "52%"
    },
    "_width_": {
        "type": "ref",
        "value": "preferred"
    },
    "_wrapping_": 2,
    "android": {
        "textStyle": {
            "letterSpacing": 0,
            "strikeThrough": false
        }
    },
    "canUpdateUI": true,
    "containerweight": 100,
    "contentalignment": 4,
    "id": "lbl3",
    "info": null,
    "ipad": {
        "psp": {
            "wrapping": 2
        }
    },
    "iphone": {
        "psp": {
            "wrapping": 2
        }
    },
    "isvisible": false,
    "kuid": "f3aa811651994fee8be20bc4047c2840",
    "name": "kony.ui.Label",
    "parent": "flxMail",
    "pf": "frmErrorLogin",
    "texti18n": "i18n.frmErrorLogin.lbl3",
    "tooltip": "",
    "wType": "Label",
    "zindex": 10
}