{
    "@class": "com.kony.gen.viz.model.component.KVizLabel",
    "DNDConfig": null,
    "__parentReadjusting__": false,
    "_height_": {
        "type": "ref",
        "value": "preferred"
    },
    "_margin_": [
        1,
        1,
        1,
        1
    ],
    "_padding_": [
        0,
        0,
        0,
        0
    ],
    "_skin_": "s74a4dbea63848c5ba6bfcdb50a31a9b",
    "_text_": "CANCEL",
    "_width_": {
        "type": "ref",
        "value": "preferred"
    },
    "_wrapping_": 2,
    "android": {
        "textStyle": {
            "letterSpacing": 0,
            "strikeThrough": false
        }
    },
    "canUpdateUI": true,
    "centerx": {
        "type": "string",
        "value": "50%"
    },
    "centery": {
        "type": "string",
        "value": "50%"
    },
    "containerweight": 100,
    "contentalignment": 5,
    "desktopweb": {
        "psp": {}
    },
    "disabledSkins": {
        "hoverSkin": "s2b5de5b6bbd404fb9123f1994819aae"
    },
    "id": "lblCancelText",
    "ide_onTouchStart": "AS_Label_j53a331fdcaf4816ab30f8f05ffce42c",
    "info": null,
    "ipad": {
        "psp": {
            "wrapping": 2
        }
    },
    "iphone": {
        "psp": {
            "wrapping": 2
        }
    },
    "isvisible": true,
    "kuid": "ee6ad4e987c34e31a68d9efd14f6c65a",
    "name": "kony.ui.Label",
    "parent": "flxCancelText",
    "pf": "frmErrorLogin",
    "texti18n": "i18n.frmCustomers.CANCEL",
    "tooltip": "",
    "wType": "Label",
    "zindex": 10
}