{
    "@class": "com.kony.gen.viz.model.component.KVizLabel",
    "DNDConfig": null,
    "__parentReadjusting__": false,
    "_height_": {
        "type": "ref",
        "value": "preferred"
    },
    "_margin_": [
        1,
        1,
        1,
        1
    ],
    "_padding_": [
        0,
        0,
        0,
        0
    ],
    "_skin_": "s6cf0c12f2cf4a789dc8c18998dcb65d",
    "_text_": "2018 Kony Banking Inc. All rights reserved.",
    "_width_": {
        "type": "ref",
        "value": "preferred"
    },
    "_wrapping_": 2,
    "android": {
        "textStyle": {
            "letterSpacing": 0,
            "strikeThrough": false
        }
    },
    "canUpdateUI": true,
    "centerx": {
        "type": "string",
        "value": "51%"
    },
    "centery": {
        "type": "string",
        "value": "50%"
    },
    "containerweight": 100,
    "contentalignment": 5,
    "id": "lblFooterText",
    "info": null,
    "ipad": {
        "psp": {
            "wrapping": 2
        }
    },
    "iphone": {
        "psp": {
            "wrapping": 2
        }
    },
    "isvisible": true,
    "kuid": "e69eff130969488a88d1d6f37f2a2ae1",
    "masterType": 1,
    "name": "kony.ui.Label",
    "parent": "flxFooter",
    "pf": "frmErrorLogin",
    "texti18n": "i18n.frmErrorLogin.lblFooterText",
    "tooltip": "",
    "wType": "Label",
    "zindex": 1
}