{
    "@class": "com.kony.gen.viz.model.component.KVizLabel",
    "DNDConfig": null,
    "__parentReadjusting__": false,
    "_height_": {
        "type": "ref",
        "value": "preferred"
    },
    "_left_": {
        "type": "string",
        "value": "35px"
    },
    "_margin_": [
        1,
        1,
        1,
        1
    ],
    "_padding_": [
        0,
        0,
        0,
        0
    ],
    "_skin_": "s72770e424884b7e84d252f640be1054",
    "_text_": "You can not choose your username as password.",
    "_top_": {
        "type": "string",
        "value": "118px"
    },
    "_width_": {
        "type": "string",
        "value": "275px"
    },
    "_wrapping_": 2,
    "android": {
        "textStyle": {
            "letterSpacing": 0,
            "strikeThrough": false
        }
    },
    "canUpdateUI": true,
    "containerweight": 100,
    "contentalignment": 4,
    "desktopweb": {},
    "id": "lblRulesC",
    "info": null,
    "ipad": {
        "psp": {
            "wrapping": 2
        }
    },
    "iphone": {
        "psp": {
            "wrapping": 2
        }
    },
    "isvisible": true,
    "kuid": "ec6e95f0500743ca8de2649a0b87b0c6",
    "name": "kony.ui.Label",
    "parent": "flxRules",
    "pf": "frmErrorLogin",
    "texti18n": "i18n.frmErrorLogin.lblRulesC",
    "tooltip": "",
    "wType": "Label",
    "zindex": 1
}