{
    "@class": "com.kony.gen.viz.model.component.KVizLabel",
    "DNDConfig": null,
    "__parentReadjusting__": false,
    "_height_": {
        "type": "string",
        "value": "5dp"
    },
    "_left_": {
        "type": "string",
        "value": "20dp"
    },
    "_margin_": [
        1,
        1,
        1,
        1
    ],
    "_padding_": [
        0,
        0,
        0,
        0
    ],
    "_skin_": "sc85d20986df44aa8db74580a70d7778",
    "_text_": ".",
    "_top_": {
        "type": "string",
        "value": "68px"
    },
    "_width_": {
        "type": "string",
        "value": "5dp"
    },
    "_wrapping_": 2,
    "android": {
        "textStyle": {
            "letterSpacing": 0,
            "strikeThrough": false
        }
    },
    "canUpdateUI": true,
    "containerweight": 100,
    "contentalignment": 4,
    "id": "lblRulesG",
    "info": null,
    "ipad": {
        "psp": {
            "wrapping": 2
        }
    },
    "iphone": {
        "psp": {
            "wrapping": 2
        }
    },
    "isvisible": true,
    "kuid": "i8b32b7e3368408e989b09efb25e85f1",
    "name": "kony.ui.Label",
    "parent": "flxRules",
    "pf": "frmErrorLogin",
    "texti18n": "i18n.frmCSR.lblSeperator",
    "tooltip": "",
    "wType": "Label",
    "zindex": 1
}