{
    "@class": "com.kony.gen.viz.model.component.KVizRichText",
    "DNDConfig": null,
    "__parentReadjusting__": false,
    "_height_": {
        "type": "ref",
        "value": "preferred"
    },
    "_margin_": [
        0,
        0,
        0,
        0
    ],
    "_padding_": [
        0,
        0,
        0,
        0
    ],
    "_right_": {
        "type": "string",
        "value": "11%"
    },
    "_skin_": "sdbce2e2fa4242ff9b4923e7fd5dbe52",
    "_text_": "Rules",
    "_top_": {
        "type": "string",
        "value": "182px"
    },
    "_width_": {
        "type": "ref",
        "value": "preferred"
    },
    "_wrapping_": 2,
    "canUpdateUI": true,
    "containerweight": 100,
    "contentalignment": 4,
    "desktopweb": {
        "linkFocusSkin": "sc94e5ab10af4ec2b61caf4411925931"
    },
    "id": "Rulestxt",
    "info": null,
    "isvisible": true,
    "kuid": "aa95a932d6624173aac864bb9bcad779",
    "name": "kony.ui.RichText",
    "parent": "flxForgotPassword",
    "pf": "frmErrorLogin",
    "texti18n": "i18n.frmErrorLogin.Rulestxt",
    "wType": "RichText",
    "widgetalignment": 5,
    "zindex": 10
}