{
    "@class": "com.kony.gen.viz.model.component.KVizLabel",
    "DNDConfig": null,
    "__parentReadjusting__": false,
    "_height_": {
        "type": "ref",
        "value": "preferred"
    },
    "_left_": {
        "type": "string",
        "value": "13%"
    },
    "_margin_": [
        1,
        1,
        1,
        1
    ],
    "_padding_": [
        0,
        0,
        0,
        0
    ],
    "_skin_": "see1d45827a0463ca9ba5cf46520a685",
    "_text_": "You have exceeded no. of permitted sign in attempts.",
    "_top_": {
        "type": "string",
        "value": "184px"
    },
    "_width_": {
        "type": "string",
        "value": "60%"
    },
    "_wrapping_": 2,
    "android": {
        "textStyle": {
            "letterSpacing": 0,
            "strikeThrough": false
        }
    },
    "canUpdateUI": true,
    "centerx": {
        "type": "string",
        "value": "50%"
    },
    "containerweight": 100,
    "contentalignment": 5,
    "id": "successmsg",
    "info": null,
    "ipad": {
        "psp": {
            "wrapping": 2
        }
    },
    "iphone": {
        "psp": {
            "wrapping": 2
        }
    },
    "isvisible": true,
    "kuid": "j4b8ab0673704f72b546fe86c94e51a9",
    "name": "kony.ui.Label",
    "parent": "flxExcededAttempts",
    "pf": "frmErrorLogin",
    "texti18n": "i18n.frmErrorLogin.successmsg",
    "tooltip": "",
    "wType": "Label",
    "zindex": 10
}