{
    "@class": "com.kony.gen.viz.model.component.KVizTextBox2",
    "DNDConfig": null,
    "__parentReadjusting__": false,
    "_height_": {
        "type": "string",
        "value": "40dp"
    },
    "_left_": {
        "type": "string",
        "value": "131dp"
    },
    "_margin_": [
        0,
        0,
        0,
        0
    ],
    "_padding_": [
        3,
        0,
        0,
        0
    ],
    "_placeholder_": "",
    "_skin_": "s2491e377d8b4447b5a64bf16bd90830",
    "_text_": "admin@konybank.com",
    "_top_": {
        "type": "string",
        "value": "215dp"
    },
    "_width_": {
        "type": "string",
        "value": "260dp"
    },
    "autocapitalize": "none",
    "autocomplete": false,
    "autocorrect": false,
    "autofilter": false,
    "canUpdateUI": true,
    "containerheight": "",
    "containerheightmode": 1,
    "containerweight": 100,
    "contentalignment": 4,
    "id": "tbxwrongTextboxKA",
    "info": null,
    "isvisible": false,
    "keyboardtype": "A",
    "kuid": "i560a6cd87bd4b5188dc1859dd5e4f2c",
    "mode": "A",
    "name": "kony.ui.TextBox2",
    "parent": "flxForgotEmail",
    "pf": "frmErrorLogin",
    "securetextentry": false,
    "textinputmode": "A",
    "tooltip": "",
    "viewtype": "default",
    "wType": "TextField",
    "zindex": 1
}