{
    "@class": "com.kony.gen.viz.model.component.KVizButton",
    "DNDConfig": null,
    "__parentReadjusting__": false,
    "_height_": {
        "type": "string",
        "value": "30px"
    },
    "_margin_": [
        6,
        6,
        6,
        6
    ],
    "_padding_": [
        0,
        0,
        0,
        0
    ],
    "_right_": {
        "type": "string",
        "value": "3px"
    },
    "_skin_": "s126287541e94f43b25cc1473962087b",
    "_text_": "",
    "_top_": {
        "type": "string",
        "value": "0px"
    },
    "_width_": {
        "type": "string",
        "value": "30px"
    },
    "canUpdateUI": true,
    "centery": {
        "type": "string",
        "value": "50%"
    },
    "containerweight": 100,
    "contentalignment": 5,
    "displaytext": true,
    "focusskin": "s5aa06a3b1364ab0afbadc12fdfdfd50",
    "id": "btnLeadSearch",
    "info": null,
    "iscustomlayout": false,
    "isvisible": true,
    "kuid": "h7c27890e7e0432ea1f4d0b601e9b54e",
    "name": "kony.ui.Button",
    "parent": "flxIconLeadSearch",
    "pf": "frmLeadManagement",
    "retaincontentalignment": false,
    "retainflexpositionproperties": false,
    "wType": "Button",
    "zindex": 1
}