{
    "@class": "com.kony.gen.viz.model.component.KVizButton",
    "DNDConfig": null,
    "__parentReadjusting__": false,
    "_height_": {
        "type": "string",
        "value": "30px"
    },
    "_margin_": [
        6,
        6,
        6,
        6
    ],
    "_padding_": [
        2,
        0,
        2,
        0
    ],
    "_right_": {
        "type": "string",
        "value": "15px"
    },
    "_skin_": "sf855fbbb0b64b99b049f0282a1e49ba",
    "_text_": "",
    "_width_": {
        "type": "string",
        "value": "113px"
    },
    "canUpdateUI": true,
    "centery": {
        "type": "string",
        "value": "50%"
    },
    "containerweight": 100,
    "contentalignment": 5,
    "desktopweb": {
        "psp": {
            "hoverSkin": "sbb6d769463643e8b84b0ddb613ea19d"
        }
    },
    "displaytext": true,
    "focusskin": "sf855fbbb0b64b99b049f0282a1e49ba",
    "id": "btnMoveToNew",
    "info": null,
    "isvisible": true,
    "kuid": "abfc33d3b35d494f850e08f24ad35cd1",
    "name": "kony.ui.Button",
    "paddingLocked": false,
    "paddinginpixel": false,
    "parent": "flxOptions2",
    "pf": "frmLeadManagement",
    "texti18n": "i18n.LeadManagement.buttonMoveToNew",
    "wType": "Button",
    "zindex": 1
}