{
    "@class": "com.kony.gen.viz.model.component.KVizButton",
    "DNDConfig": null,
    "__parentReadjusting__": false,
    "_height_": {
        "type": "string",
        "value": "30px"
    },
    "_margin_": [
        6,
        6,
        6,
        6
    ],
    "_padding_": [
        2,
        0,
        2,
        0
    ],
    "_right_": {
        "type": "string",
        "value": "15px"
    },
    "_skin_": "s62a16cf28884ea096274ee16d11bf55",
    "_text_": "Start an Application",
    "_width_": {
        "type": "ref",
        "value": "preferred"
    },
    "canUpdateUI": true,
    "centery": {
        "type": "string",
        "value": "50%"
    },
    "containerweight": 100,
    "contentalignment": 5,
    "desktopweb": {
        "psp": {
            "hoverSkin": "sa0a214e6979469ebf190bb69eae8def"
        }
    },
    "disabledSkins": {},
    "displaytext": true,
    "focusskin": "s68f239b5bef4ddda93b35d84ab737ae",
    "id": "btnStartAnApplication",
    "info": null,
    "isvisible": false,
    "kuid": "ae1f2f6436a84a2d9c03aabbf6643883",
    "name": "kony.ui.Button",
    "paddinginpixel": false,
    "parent": "flxOptions2",
    "pf": "frmLeadManagement",
    "wType": "Button",
    "zindex": 1
}