{
    "@class": "com.kony.gen.viz.model.component.KVizCustom",
    "DNDConfig": null,
    "__parentReadjusting__": false,
    "_height_": {
        "type": "string",
        "value": "26px"
    },
    "_left_": {
        "type": "string",
        "value": "2px"
    },
    "_margin_": [
        0,
        0,
        0,
        0
    ],
    "_padding_": [
        0,
        0,
        0,
        0
    ],
    "_top_": {
        "type": "string",
        "value": "2px"
    },
    "_width_": {
        "type": "string",
        "value": "99%"
    },
    "android": {
        "render": false
    },
    "androidwearos": {
        "render": false
    },
    "canUpdateUI": true,
    "containerweight": 0,
    "customProperties": {
        "drops": "left",
        "event": null,
        "opens": "left",
        "rangeType": "",
        "resetData": null,
        "type": "list",
        "value": ""
    },
    "cwEvents": [],
    "cwid": "jsSPACustomWidget2716357291",
    "id": "datePicker",
    "info": null,
    "ipad": {
        "render": false
    },
    "iphone": {
        "render": false
    },
    "iscustomlayout": false,
    "isvisible": true,
    "kiosk": {
        "render": false
    },
    "kuid": "e4b696907c65456daca802c06a66c0f9",
    "name": "dateRangePicker-kony.ui",
    "nameSpaceIndex": 0,
    "parent": "flxDatePicker",
    "pf": "frmLeadManagement",
    "platformKey": "spa",
    "retaincontentalignment": false,
    "retainflexpositionproperties": false,
    "tabrcandroid": {
        "render": false
    },
    "wType": "TPW",
    "watchos": {
        "render": false
    },
    "widgetIndex": 1,
    "windows10": {
        "render": false
    },
    "windows8": {
        "render": false
    },
    "winphone10": {
        "render": false
    },
    "winphone8": {
        "render": false
    },
    "zindex": 10
}