{
    "@class": "com.kony.gen.viz.model.component.KVizUserWidget",
    "DNDConfig": null,
    "__parentReadjusting__": false,
    "_android_": {},
    "_androidwearos_": {},
    "_children_": [],
    "_desktopweb_": {},
    "_height_": {
        "type": "ref",
        "value": "preferred"
    },
    "_ipad_": {},
    "_iphone_": {},
    "_kiosk_": {},
    "_left_": {
        "type": "string",
        "value": ""
    },
    "_margin_": [
        0,
        0,
        0,
        0
    ],
    "_orientation_": 1,
    "_padding_": [
        0,
        0,
        0,
        0
    ],
    "_percent_": true,
    "_responsiveData_": {},
    "_right_": {
        "type": "string",
        "value": "40px"
    },
    "_skin_": "s88cc708170d4e3e8fed2490fd5e632e",
    "_spa_": {},
    "_spaan_": {},
    "_spaandroidtablet_": {},
    "_spabb_": {},
    "_spaip_": {},
    "_spaipad_": {},
    "_spamobile_": {},
    "_spatablet_": {},
    "_spawindowstablet_": {},
    "_spawinphone8_": {},
    "_tabrcandroid_": {},
    "_top_": {
        "type": "string",
        "value": "120px"
    },
    "_vizProps_": {
        "hidewidgethierarchy": false
    },
    "_width_": {
        "type": "string",
        "value": "180px"
    },
    "_windows10_": {},
    "_windows8_": {},
    "_winphone10_": {},
    "_winphone8_": {},
    "areflexpropsreferenced": false,
    "autogrowmode": 1,
    "canUpdateUI": true,
    "clipbounds": true,
    "containerweight": 0,
    "dataDiffs": {
        "flxAssign": {
            "__events__": {},
            "__info__": {
                "kuid": "icdfe6b4a76f469eb7e677f70f57fdc3",
                "srcKUID": "a9a935e5ee4c435d9acb4628bf8c31ab",
                "wType": "FlexContainer"
            }
        },
        "flxClose": {
            "__events__": {},
            "__info__": {
                "kuid": "fecedcafae554fdd8d3ec79c372530b0",
                "srcKUID": "b9c08d6e8d7f4bf0a85756f4b4dc17dc",
                "wType": "FlexContainer"
            },
            "isVisible": false
        },
        "flxEdit": {
            "__events__": {},
            "__info__": {
                "kuid": "hc717469ca8143d6a869e2ad0c47c3b2",
                "srcKUID": "fc5728878e5a4010b0c4fdb6e8bd7d0d",
                "wType": "FlexContainer"
            }
        },
        "flxMoveToInProgress": {
            "__events__": {},
            "__info__": {
                "kuid": "a80797710c884dc0913ef71458e01245",
                "srcKUID": "d012769e52db42028f713e562113a7e0",
                "wType": "FlexContainer"
            }
        },
        "flxMoveToNew": {
            "__events__": {},
            "__info__": {
                "kuid": "aec161b87b3a4c76a62d9d8d5c3fff56",
                "srcKUID": "f3b1d7a4220d481284e7eede3de7bfe3",
                "wType": "FlexContainer"
            },
            "isVisible": false
        },
        "flxStartAnApplication": {
            "__events__": {},
            "__info__": {
                "kuid": "d63f25cfe28d4cbc8b5197a4bff70a24",
                "srcKUID": "faf36dcab354483baa2fbac4e89ed393",
                "wType": "FlexContainer"
            }
        },
        "lblAssign": {
            "__events__": {},
            "__info__": {
                "kuid": "e0850c4ea5344bd7babdf049210bf211",
                "srcKUID": "b9bd6305aaa94c1a85f512255adb870d",
                "wType": "Label"
            }
        },
        "lblClose": {
            "__events__": {},
            "__info__": {
                "kuid": "gc8b614122244f3f9c00c25c82fde6ad",
                "srcKUID": "f697c677398840348e7a9f0a29ac316e",
                "wType": "Label"
            }
        },
        "lblEdit": {
            "__events__": {},
            "__info__": {
                "kuid": "b95293bbd3f04aa68875a7a81add09f1",
                "srcKUID": "g6bd8a066855496aa8f0698ac62ee7cf",
                "wType": "Label"
            }
        },
        "lblIconAssign": {
            "__events__": {},
            "__info__": {
                "kuid": "d4787df9583249d5a3902f131628dd14",
                "srcKUID": "b50d1dbe70944bdc97b9a00c889fdf63",
                "wType": "Label"
            }
        },
        "lblIconClose": {
            "__events__": {},
            "__info__": {
                "kuid": "e54e1f7fc66d4b59a75b5ba838eeae89",
                "srcKUID": "e31739517c6c48d68bbcf5380fa806f4",
                "wType": "Label"
            }
        },
        "lblIconEdit": {
            "__events__": {},
            "__info__": {
                "kuid": "fdb478ba4fc64193b38b67734d0b7e2b",
                "srcKUID": "a9c224a6eb514138adec3750146db5ba",
                "wType": "Label"
            }
        },
        "lblIconMoveToInProgress": {
            "__events__": {},
            "__info__": {
                "kuid": "i5cbd8ef52ef422cb73e4cb2873a2a12",
                "srcKUID": "b7eb5cc565114a91a84dc38bc61c1c0f",
                "wType": "Label"
            }
        },
        "lblIconMoveToNew": {
            "__events__": {},
            "__info__": {
                "kuid": "f10d807524d7479687ffca8ca2f2e55c",
                "srcKUID": "dc94c70a346c4a7da037bbba61bdfaa6",
                "wType": "Label"
            }
        },
        "lblIconStartAnApplication": {
            "__events__": {},
            "__info__": {
                "kuid": "f72dac71adce4f4e87731ae31dc6c855",
                "srcKUID": "ee7578f328914b5dba1b54325c1dd6bb",
                "wType": "Label"
            }
        },
        "lblMoveToInProgress": {
            "__events__": {},
            "__info__": {
                "kuid": "d88bb8f2b9fc4d7e888ccf95771f7af5",
                "srcKUID": "ce82137ff53a48f7a6946f5647b5d122",
                "wType": "Label"
            }
        },
        "lblMoveToNew": {
            "__events__": {},
            "__info__": {
                "kuid": "i7045e52d732493f95cc49728223f08c",
                "srcKUID": "e37688103411404bbcbbc6dc2de2be16",
                "wType": "Label"
            }
        },
        "lblStartAnApplication": {
            "__events__": {},
            "__info__": {
                "kuid": "fc54a2fc419c4f56a3efa72d9853b9dd",
                "srcKUID": "d997c2b93eab443784de891169a1d36e",
                "wType": "Label"
            }
        },
        "leadContextualMenu": {
            "__events__": {},
            "__info__": {
                "isRoot": true,
                "kuid": "ef3a27bbcde64955ad9403bcaadade00",
                "srcKUID": "fc9e8043352445ae8ae48bb9d99b576b",
                "wType": "FlexContainer"
            },
            "isVisible": false,
            "left": {
                "Default": {
                    "type": "string",
                    "value": ""
                }
            },
            "right": {
                "Default": {
                    "type": "string",
                    "value": "40px"
                }
            },
            "top": {
                "Default": {
                    "type": "string",
                    "value": "120px"
                }
            },
            "width": {
                "Default": {
                    "type": "string",
                    "value": "180px"
                }
            }
        }
    },
    "enablescrolling": true,
    "id": "leadContextualMenu",
    "info": null,
    "iscustomlayout": false,
    "isdatareferenced": false,
    "isvisible": false,
    "kuid": "ef3a27bbcde64955ad9403bcaadade00",
    "layouttype": 4,
    "masterType": 0,
    "name": "kony.ui.UserWidgetInstance",
    "parent": "flxViewLeadsList",
    "pf": "frmLeadManagement",
    "retaincontentalignment": false,
    "retainflexpositionproperties": false,
    "snapgridsize": 10,
    "snaptogrid": true,
    "sourceUserWidget": "fc9e8043352445ae8ae48bb9d99b576b",
    "wType": "UserWidgetInstance"
}