{
    "@class": "com.kony.gen.viz.model.component.KVizUserWidget",
    "DNDConfig": null,
    "__parentReadjusting__": false,
    "_android_": {},
    "_androidwearos_": {},
    "_children_": [],
    "_desktopweb_": {},
    "_height_": {
        "type": "ref",
        "value": "preferred"
    },
    "_ipad_": {},
    "_iphone_": {},
    "_kiosk_": {},
    "_left_": {
        "type": "string",
        "value": ""
    },
    "_margin_": [
        0,
        0,
        0,
        0
    ],
    "_orientation_": 1,
    "_padding_": [
        0,
        0,
        0,
        0
    ],
    "_percent_": true,
    "_responsiveData_": {},
    "_right_": {
        "type": "string",
        "value": "0px"
    },
    "_skin_": "s88cc708170d4e3e8fed2490fd5e632e",
    "_spa_": {},
    "_spaan_": {},
    "_spaandroidtablet_": {},
    "_spabb_": {},
    "_spaip_": {},
    "_spaipad_": {},
    "_spamobile_": {},
    "_spatablet_": {},
    "_spawindowstablet_": {},
    "_spawinphone8_": {},
    "_tabrcandroid_": {},
    "_top_": {
        "type": "string",
        "value": "62px"
    },
    "_vizProps_": {
        "hidewidgethierarchy": false
    },
    "_width_": {
        "type": "string",
        "value": "180px"
    },
    "_windows10_": {},
    "_windows8_": {},
    "_winphone10_": {},
    "_winphone8_": {},
    "areflexpropsreferenced": false,
    "autogrowmode": 1,
    "canUpdateUI": true,
    "clipbounds": true,
    "containerweight": 0,
    "dataDiffs": {
        "flxAssign": {
            "__events__": {},
            "__info__": {
                "kuid": "ff9eeb02d5754a2bb8b17aa445a7cfe2",
                "srcKUID": "a9a935e5ee4c435d9acb4628bf8c31ab",
                "wType": "FlexContainer"
            }
        },
        "flxClose": {
            "__events__": {},
            "__info__": {
                "kuid": "ecb2172c75754c848a30d05d0935b479",
                "srcKUID": "b9c08d6e8d7f4bf0a85756f4b4dc17dc",
                "wType": "FlexContainer"
            },
            "isVisible": false
        },
        "flxEdit": {
            "__events__": {},
            "__info__": {
                "kuid": "e4148b2f47b246a08412e653692d6bc4",
                "srcKUID": "fc5728878e5a4010b0c4fdb6e8bd7d0d",
                "wType": "FlexContainer"
            }
        },
        "flxMoveToInProgress": {
            "__events__": {},
            "__info__": {
                "kuid": "b13e46dc408348db96b70624ffef3360",
                "srcKUID": "d012769e52db42028f713e562113a7e0",
                "wType": "FlexContainer"
            },
            "isVisible": false
        },
        "flxMoveToNew": {
            "__events__": {},
            "__info__": {
                "kuid": "b2193b2d1a294c38b355783627640f01",
                "srcKUID": "f3b1d7a4220d481284e7eede3de7bfe3",
                "wType": "FlexContainer"
            },
            "isVisible": false
        },
        "flxStartAnApplication": {
            "__events__": {},
            "__info__": {
                "kuid": "b769cb0c4e3f4bd8b49a3ced967f6fc6",
                "srcKUID": "faf36dcab354483baa2fbac4e89ed393",
                "wType": "FlexContainer"
            }
        },
        "lblAssign": {
            "__events__": {},
            "__info__": {
                "kuid": "d045c5a023a64fb0af7abf655be484c8",
                "srcKUID": "b9bd6305aaa94c1a85f512255adb870d",
                "wType": "Label"
            }
        },
        "lblClose": {
            "__events__": {},
            "__info__": {
                "kuid": "h1cba9f98a2d433eaf350dbdffeb7dcf",
                "srcKUID": "f697c677398840348e7a9f0a29ac316e",
                "wType": "Label"
            }
        },
        "lblEdit": {
            "__events__": {},
            "__info__": {
                "kuid": "g6275360ba014c0fb058cb04a49e507c",
                "srcKUID": "g6bd8a066855496aa8f0698ac62ee7cf",
                "wType": "Label"
            }
        },
        "lblIconAssign": {
            "__events__": {},
            "__info__": {
                "kuid": "de7067d96e164bb4986b006a7719ed02",
                "srcKUID": "b50d1dbe70944bdc97b9a00c889fdf63",
                "wType": "Label"
            }
        },
        "lblIconClose": {
            "__events__": {},
            "__info__": {
                "kuid": "j22af2535a8144bdbcb39d3c849e1040",
                "srcKUID": "e31739517c6c48d68bbcf5380fa806f4",
                "wType": "Label"
            }
        },
        "lblIconEdit": {
            "__events__": {},
            "__info__": {
                "kuid": "i0e407c429a749ec941e3afd411a2e4d",
                "srcKUID": "a9c224a6eb514138adec3750146db5ba",
                "wType": "Label"
            }
        },
        "lblIconMoveToInProgress": {
            "__events__": {},
            "__info__": {
                "kuid": "a9f213c73a5744338d917794e8c58a94",
                "srcKUID": "b7eb5cc565114a91a84dc38bc61c1c0f",
                "wType": "Label"
            }
        },
        "lblIconMoveToNew": {
            "__events__": {},
            "__info__": {
                "kuid": "haeba3b3ffcc4afb8c41f55d68d30bd3",
                "srcKUID": "dc94c70a346c4a7da037bbba61bdfaa6",
                "wType": "Label"
            }
        },
        "lblIconStartAnApplication": {
            "__events__": {},
            "__info__": {
                "kuid": "bd1f50113f7f4ef4a2d1effaeb66c5c9",
                "srcKUID": "ee7578f328914b5dba1b54325c1dd6bb",
                "wType": "Label"
            }
        },
        "lblMoveToInProgress": {
            "__events__": {},
            "__info__": {
                "kuid": "cd12d0e9d7974694989e4c0c583fc435",
                "srcKUID": "ce82137ff53a48f7a6946f5647b5d122",
                "wType": "Label"
            }
        },
        "lblMoveToNew": {
            "__events__": {},
            "__info__": {
                "kuid": "h51d75719acb4b769c177dca10ddcbf9",
                "srcKUID": "e37688103411404bbcbbc6dc2de2be16",
                "wType": "Label"
            }
        },
        "lblStartAnApplication": {
            "__events__": {},
            "__info__": {
                "kuid": "e8ce6b0f249a4b7eb5f81444ccc22e31",
                "srcKUID": "d997c2b93eab443784de891169a1d36e",
                "wType": "Label"
            }
        },
        "leadContextualMenu": {
            "__events__": {},
            "__info__": {
                "isRoot": true,
                "kuid": "hea9c9724c4a45418d54cd97a73d9666",
                "srcKUID": "fc9e8043352445ae8ae48bb9d99b576b",
                "wType": "FlexContainer"
            },
            "isVisible": false,
            "left": {
                "Default": {
                    "type": "string",
                    "value": ""
                }
            },
            "right": {
                "Default": {
                    "type": "string",
                    "value": "0px"
                }
            },
            "top": {
                "Default": {
                    "type": "string",
                    "value": "62px"
                }
            },
            "width": {
                "Default": {
                    "type": "string",
                    "value": "180px"
                }
            }
        }
    },
    "enablescrolling": true,
    "id": "leadDetailsContextualMenu",
    "info": null,
    "iscustomlayout": false,
    "isdatareferenced": false,
    "isvisible": false,
    "kuid": "hea9c9724c4a45418d54cd97a73d9666",
    "layouttype": 4,
    "masterType": 0,
    "name": "kony.ui.UserWidgetInstance",
    "parent": "flxLeadsDetails",
    "pf": "frmLeadManagement",
    "retaincontentalignment": false,
    "retainflexpositionproperties": false,
    "snapgridsize": 10,
    "snaptogrid": true,
    "sourceUserWidget": "fc9e8043352445ae8ae48bb9d99b576b",
    "wType": "UserWidgetInstance"
}