{
    "@class": "com.kony.gen.viz.model.component.KVizUserWidget",
    "DNDConfig": null,
    "__parentReadjusting__": false,
    "_android_": {},
    "_androidwearos_": {},
    "_children_": [],
    "_desktopweb_": {},
    "_height_": {
        "type": "string",
        "value": "340px"
    },
    "_ipad_": {},
    "_iphone_": {},
    "_kiosk_": {},
    "_left_": {
        "type": "string",
        "value": "35px"
    },
    "_margin_": [
        0,
        0,
        0,
        0
    ],
    "_orientation_": 1,
    "_padding_": [
        0,
        0,
        0,
        0
    ],
    "_percent_": true,
    "_responsiveData_": {},
    "_right_": {
        "type": "string",
        "value": "35px"
    },
    "_skin_": "s8ff24328417401b877c3ceb2a5fa27c",
    "_spa_": {},
    "_spaan_": {},
    "_spaandroidtablet_": {},
    "_spabb_": {},
    "_spaip_": {},
    "_spaipad_": {},
    "_spamobile_": {},
    "_spatablet_": {},
    "_spawindowstablet_": {},
    "_spawinphone8_": {},
    "_tabrcandroid_": {},
    "_top_": {
        "type": "string",
        "value": "0dp"
    },
    "_vizProps_": {
        "hidewidgethierarchy": false
    },
    "_windows10_": {},
    "_windows8_": {},
    "_winphone10_": {},
    "_winphone8_": {},
    "areflexpropsreferenced": false,
    "autogrowmode": 0,
    "canUpdateUI": true,
    "clipbounds": true,
    "containerweight": 0,
    "dataDiffs": {
        "btnAddStaticContent": {
            "__events__": {},
            "__info__": {
                "kuid": "f6b8b969ab77462ba4a830cbca0823a8",
                "srcKUID": "j24176242c1b4f7fbef17f07d6486049",
                "wType": "Button"
            },
            "i18n_text": "i18n.LeadManagement.buttonCreateLead",
            "text": "CREATE LEAD",
            "width": {
                "Default": {
                    "type": "string",
                    "value": "150px"
                }
            }
        },
        "flxNoStaticDataWrapper": {
            "__events__": {},
            "__info__": {
                "kuid": "c46f84209bd64ee2aad17d15a46c4353",
                "srcKUID": "a7f59a72832a41c8888846c2b5581ea7",
                "wType": "FlexContainer"
            }
        },
        "lblNoStaticContentCreated": {
            "__events__": {},
            "__info__": {
                "kuid": "e8404b0580f04f6894d5b0cb088ffce2",
                "srcKUID": "ab61866727a446249178b71b03f1bf21",
                "wType": "Label"
            },
            "i18n_text": "i18n.LeadManagement.labelNoLeadHasBeenCreatedYet",
            "text": "No lead has been created yet."
        },
        "lblNoStaticContentMsg": {
            "__events__": {},
            "__info__": {
                "kuid": "d77532a323944f58a1ffb68d02f5b03e",
                "srcKUID": "c3f02a02fb284c35a7458c5fd292e4b5",
                "wType": "Label"
            },
            "i18n_text": "i18n.LeadManagement.labelClickOnCreateLeadToContinue",
            "text": "Click on \"Create Lead\" to continue"
        },
        "noStaticData": {
            "__events__": {},
            "__info__": {
                "isRoot": true,
                "kuid": "h14d327d72ee4bd094ee80a9f27d1326",
                "srcKUID": "b024275959924fadb6e3c95560d50400",
                "wType": "FlexContainer"
            }
        }
    },
    "enablescrolling": true,
    "id": "noStaticData",
    "info": null,
    "iscustomlayout": false,
    "isdatareferenced": false,
    "isvisible": true,
    "kuid": "h14d327d72ee4bd094ee80a9f27d1326",
    "layouttype": 2,
    "masterType": 0,
    "name": "kony.ui.UserWidgetInstance",
    "onclick": "AS_FlexContainer_j1a6b556b4e842839c809061c5560949",
    "parent": "flxLeadsUnavailable",
    "pf": "frmLeadManagement",
    "retaincontentalignment": false,
    "retainflexpositionproperties": false,
    "snapgridsize": 10,
    "snaptogrid": true,
    "sourceUserWidget": "b024275959924fadb6e3c95560d50400",
    "wType": "UserWidgetInstance",
    "zindex": 1
}