{
    "@class": "com.kony.gen.viz.model.component.KVizRichText",
    "DNDConfig": null,
    "__parentReadjusting__": false,
    "_bottom_": {
        "type": "string",
        "value": "50px"
    },
    "_height_": {
        "type": "string",
        "value": "15dp"
    },
    "_left_": {
        "type": "string",
        "value": "0"
    },
    "_margin_": [
        0,
        0,
        0,
        0
    ],
    "_padding_": [
        0,
        0,
        0,
        0
    ],
    "_skin_": "s53dc044bbca444d9db68eee3dc9c9eb",
    "_text_": "No associated sub-alerts",
    "_width_": {
        "type": "string",
        "value": "80%"
    },
    "_wrapping_": 2,
    "canUpdateUI": true,
    "centerx": {
        "type": "string",
        "value": "50%"
    },
    "centery": {
        "type": "string",
        "value": "50%"
    },
    "containerweight": 100,
    "contentalignment": 5,
    "id": "txtNoResultFoundInner",
    "info": null,
    "isvisible": true,
    "kuid": "h62c5991a6d448ccb9c21a8674cd9c98",
    "name": "kony.ui.RichText",
    "parent": "flxNoResultFoundinner",
    "pf": "frmLeadManagement",
    "texti18n": "i18n.frmAlertsManagementController.No_result_found",
    "wType": "RichText",
    "widgetalignment": 5,
    "zindex": 1
}