{
    "DNDConfig": null,
    "__parentReadjusting__": false,
    "_height_": {
        "type": "ref",
        "value": "preferred"
    },
    "_left_": {
        "type": "string",
        "value": "20px"
    },
    "_margin_": [
        0,
        0,
        0,
        0
    ],
    "_orientation_": 6,
    "_padding_": [
        0,
        0,
        0,
        0
    ],
    "_percent_": true,
    "_right_": {
        "type": "string",
        "value": "0px"
    },
    "_skin_": "s8ff24328417401b877c3ceb2a5fa27c",
    "_top_": {
        "type": "string",
        "value": "0dp"
    },
    "_width_": {
        "type": "string",
        "value": "1400px"
    },
    "allboxes": [],
    "autogrowmode": 1,
    "canUpdateUI": true,
    "children": [
        "lblDateAndTime",
        "lblModuleName",
        "lblActivityType",
        "lblActivityDescription",
        "flxStatus",
        "lblReferenceID",
        "lblErrorCode"
    ],
    "clipbounds": true,
    "containerId": true,
    "containerweight": 100,
    "enablescrolling": true,
    "id": "flxCloumns",
    "info": null,
    "iscustomlayout": false,
    "isvisible": true,
    "kuid": "j1f800f9d4254e12b6dd11f4ae79a0cc",
    "layouttype": 3,
    "name": "kony.ui.FlexContainer",
    "parent": "flxCustMangActivityHistoryDetails",
    "pf": "segCustMangActivityHistoryDetails",
    "retaincontentalignment": false,
    "retainflexpositionproperties": false,
    "snapgridsize": 10,
    "snaptogrid": true,
    "wType": "FlexContainer",
    "widgetalignment": 1
}