{
    "DNDConfig": null,
    "_height_": {
        "type": "string",
        "value": "20dp"
    },
    "_left_": {
        "type": "string",
        "value": "0dp"
    },
    "_margin_": [
        0,
        0,
        0,
        0
    ],
    "_orientation_": 6,
    "_padding_": [
        0,
        0,
        0,
        0
    ],
    "_percent_": true,
    "_skin_": "s8ff24328417401b877c3ceb2a5fa27c",
    "_top_": {
        "type": "string",
        "value": "0dp"
    },
    "_width_": {
        "type": "string",
        "value": "100%"
    },
    "allboxes": [],
    "autogrowmode": 0,
    "canUpdateUI": true,
    "children": [
        "lblMenuItem",
        "imgSelectionArrow",
        "fontIconimgSelectionArrow"
    ],
    "clipbounds": true,
    "containerId": true,
    "containerweight": 100,
    "controllerInfo": {
        "default": {
            "channel": "desktop",
            "name": "flxLeftMenuSectionItemController"
        }
    },
    "enablescrolling": true,
    "id": "flxLeftMenuSectionItem",
    "info": null,
    "iscustomlayout": false,
    "isvisible": true,
    "kuid": "g3b86bf5a9aa4d0aae5f698b076edb89",
    "layouttype": 2,
    "name": "kony.ui.FlexContainer",
    "parent": "segLeftMenuSectionItem",
    "pf": "segLeftMenuSectionItem",
    "retaincontentalignment": false,
    "retainflexpositionproperties": false,
    "snapgridsize": 10,
    "snaptogrid": true,
    "wType": "FlexContainer",
    "widgetalignment": 1
}