{
    "@class": "com.kony.gen.viz.model.component.KVizLabel",
    "DNDConfig": null,
    "__parentReadjusting__": false,
    "_height_": {
        "type": "ref",
        "value": "preferred"
    },
    "_margin_": [
        1,
        1,
        1,
        1
    ],
    "_padding_": [
        0,
        0,
        0,
        0
    ],
    "_skin_": "s985d0c9ec0d445686a6b7d62b69b563",
    "_text_": "Edit",
    "_width_": {
        "type": "ref",
        "value": "preferred"
    },
    "_wrapping_": 2,
    "android": {
        "textStyle": {
            "letterSpacing": 0,
            "strikeThrough": false
        }
    },
    "canUpdateUI": true,
    "centerx": {
        "type": "string",
        "value": "48%"
    },
    "centery": {
        "type": "string",
        "value": "47%"
    },
    "containerId": true,
    "containerweight": 100,
    "contentalignment": 4,
    "id": "lblViewEditButton",
    "info": null,
    "ipad": {
        "psp": {
            "wrapping": 2
        }
    },
    "iphone": {
        "psp": {
            "wrapping": 2
        }
    },
    "isvisible": true,
    "kuid": "bec2baa3ccbc4dc39c252d1b812ba382",
    "name": "kony.ui.Label",
    "parent": "flxViewEditButton",
    "pf": "segMFAConfigsSelected",
    "texti18n": "i18n.permission.Edit",
    "tooltip": "",
    "wType": "Label",
    "zindex": 1
}