{
    "DNDConfig": null,
    "__parentReadjusting__": false,
    "_height_": {
        "type": "string",
        "value": "20px"
    },
    "_left_": {
        "type": "string",
        "value": "0dp"
    },
    "_margin_": [
        0,
        0,
        0,
        0
    ],
    "_orientation_": 6,
    "_padding_": [
        0,
        0,
        0,
        0
    ],
    "_percent_": true,
    "_skin_": "s18e2ced6ee54b75a5ba66f8d41070d5",
    "_top_": {
        "type": "string",
        "value": "0dp"
    },
    "_width_": {
        "type": "string",
        "value": "100%"
    },
    "allboxes": [],
    "autogrowmode": 0,
    "canUpdateUI": true,
    "children": [
        "btnBackToMain",
        "imgBreadcrumbsRight",
        "fontIconBreadcrumbsRight",
        "btnPreviousPage",
        "imgBreadcrumbsRight2",
        "fontIconBreadcrumbsRight2",
        "btnPreviousPage1",
        "fontIconBreadcrumbsRight3",
        "imgBreadcrumbsRight3",
        "lblCurrentScreen",
        "fontIconBreadcrumbsDown",
        "imgBreadcrumbsDown"
    ],
    "clipbounds": true,
    "containerweight": 100,
    "enablescrolling": true,
    "id": "breadcrumbs",
    "info": null,
    "isvisible": true,
    "kuid": "e57b9ec944d34c8b834fa7fb78b60de9",
    "layouttype": 3,
    "name": "kony.ui.FlexContainer",
    "parent": "userwidgetmodel",
    "pf": "userwidgetmodel",
    "snapgridsize": 10,
    "snaptogrid": true,
    "vizProps": {
        "hidewidgethierarchy": false
    },
    "wType": "FlexContainer",
    "widgetalignment": 1
}