{
    "@class": "com.kony.gen.viz.model.component.KVizImage2",
    "DNDConfig": null,
    "__parentReadjusting__": false,
    "_base64_": null,
    "_height_": {
        "type": "string",
        "value": "12dp"
    },
    "_left_": {
        "type": "string",
        "value": "12dp"
    },
    "_margin_": [
        0,
        0,
        0,
        0
    ],
    "_padding_": [
        0,
        0,
        0,
        0
    ],
    "_right_": {
        "type": "number",
        "value": "12"
    },
    "_skin_": "s553d03f29cb43c9a26989454eea9499",
    "_src_": "img_breadcrumb_arrow.png",
    "_width_": {
        "type": "string",
        "value": "12dp"
    },
    "canUpdateUI": true,
    "centery": {
        "type": "string",
        "value": "50%"
    },
    "containerweight": 100,
    "context": {
        "channel": "desktop",
        "formID": "uwub307c7dda2a40279d16df2a8493e8e3",
        "platform": "desktopweb",
        "templateType": "userwidgets",
        "topLevelBox": null
    },
    "id": "imgBreadcrumbsRight2",
    "imagescalemode": 1,
    "info": null,
    "invokedProperty": "src",
    "isvisible": false,
    "kuid": "d720d60d37e04d74a8e019d046a402bd",
    "name": "kony.ui.Image2",
    "paddinginpixel": false,
    "parent": "breadcrumbs",
    "pf": "userwidgetmodel",
    "srcType": 1,
    "wType": "Image",
    "widgetalignment": 5,
    "zindex": 1
}