{
    "@class": "com.kony.gen.viz.model.component.KVizUserWidget",
    "DNDConfig": null,
    "__parentReadjusting__": false,
    "_android_": {},
    "_androidwearos_": {},
    "_children_": [],
    "_desktopweb_": {},
    "_height_": {
        "type": "ref",
        "value": "preferred"
    },
    "_ipad_": {},
    "_iphone_": {},
    "_kiosk_": {},
    "_left_": {
        "type": "string",
        "value": "0dp"
    },
    "_margin_": [
        0,
        0,
        0,
        0
    ],
    "_orientation_": 1,
    "_padding_": [
        0,
        0,
        0,
        0
    ],
    "_percent_": true,
    "_skin_": "s8ff24328417401b877c3ceb2a5fa27c",
    "_spa_": {},
    "_spaan_": {},
    "_spaandroidtablet_": {},
    "_spabb_": {},
    "_spaip_": {},
    "_spaipad_": {},
    "_spamobile_": {},
    "_spatablet_": {},
    "_spawindowstablet_": {},
    "_spawinphone8_": {},
    "_tabrcandroid_": {},
    "_top_": {
        "type": "string",
        "value": "0dp"
    },
    "_vizProps_": {
        "hidewidgethierarchy": false
    },
    "_width_": {
        "type": "string",
        "value": "100%"
    },
    "_windows10_": {},
    "_windows8_": {},
    "_winphone10_": {},
    "_winphone8_": {},
    "areflexpropsreferenced": false,
    "autogrowmode": 1,
    "canUpdateUI": true,
    "clipbounds": true,
    "containerweight": 0,
    "dataDiffs": {
        "btnEdit": {
            "__events__": {},
            "__info__": {
                "kuid": "jf3d497f727045f297063206294ca0c6",
                "srcKUID": "d4dcfae996024b42bcc011d56742fdba",
                "wType": "Button"
            }
        },
        "flxSectionHeader": {
            "__events__": {},
            "__info__": {
                "kuid": "cdd4d8bce8194c6698079f65fa7a97e8",
                "srcKUID": "cccd38c0b8364293b40ce983dd9c8a24",
                "wType": "FlexContainer"
            }
        },
        "lblSectionHeader": {
            "__events__": {},
            "__info__": {
                "kuid": "g35d1adb93054ce98bf2a3cde8ee9f68",
                "srcKUID": "f19d2d5f5b794f0d9d33564cb7d192e5",
                "wType": "Label"
            },
            "i18n_text": "i18n.frmLoansDashboard.Consent",
            "text": ""
        },
        "lblSeparator": {
            "__events__": {},
            "__info__": {
                "kuid": "ie827e1c74984f7baaa5193a0fc2083d",
                "srcKUID": "d4788e9bb4f34df3a638466a8e41ae49",
                "wType": "Label"
            }
        },
        "loansSectionHeader": {
            "__events__": {},
            "__info__": {
                "isRoot": true,
                "kuid": "f1e3264b3712424dbf91dcb8b0f1eb0b",
                "srcKUID": "j00dc876d0f042169ae7bffaa6ef6538",
                "wType": "FlexContainer"
            }
        }
    },
    "enablescrolling": true,
    "id": "loansSectionHeader",
    "info": null,
    "iscustomlayout": false,
    "isdatareferenced": false,
    "issegmentchild": false,
    "isvisible": true,
    "kuid": "f1e3264b3712424dbf91dcb8b0f1eb0b",
    "layouttype": 2,
    "masterType": 0,
    "name": "kony.ui.UserWidgetInstance",
    "parent": "viewConsent",
    "pf": "userwidgetmodel",
    "retaincontentalignment": false,
    "retainflexpositionproperties": false,
    "snapgridsize": 10,
    "snaptogrid": true,
    "sourceUserWidget": "j00dc876d0f042169ae7bffaa6ef6538",
    "wType": "UserWidgetInstance"
}