{
    "DNDConfig": null,
    "__parentReadjusting__": false,
    "_height_": {
        "type": "string",
        "value": "50px"
    },
    "_left_": {
        "type": "string",
        "value": "0"
    },
    "_margin_": [
        0,
        0,
        0,
        0
    ],
    "_orientation_": 6,
    "_padding_": [
        0,
        0,
        0,
        0
    ],
    "_percent_": true,
    "_skin_": "s8ff24328417401b877c3ceb2a5fa27c",
    "_top_": {
        "type": "string",
        "value": "0"
    },
    "_width_": {
        "type": "string",
        "value": "100%"
    },
    "allboxes": [],
    "autogrowmode": 0,
    "canUpdateUI": true,
    "children": [
        "flxCheckbox",
        "lblName",
        "lblUserName",
        "lblCustID",
        "flxStatus",
        "flxDelete",
        "lblRemoved"
    ],
    "clipbounds": true,
    "containerId": true,
    "containerweight": 100,
    "desktopweb": {
        "psp": {}
    },
    "disabledSkins": {
        "hoverSkin": "s512ca636f844ef4aa81b2647c08ce24"
    },
    "enablescrolling": true,
    "id": "flxAssignedCustomers",
    "info": null,
    "isTemplate": true,
    "isvisible": true,
    "kuid": "f5b0f6271c26493db135737bccd1afa9",
    "layouttype": 3,
    "name": "kony.ui.FlexContainer",
    "parent": "flxGroupsAssignedCustomers",
    "pf": "segGroupsAssignedCustomers",
    "snapgridsize": 10,
    "snaptogrid": true,
    "wType": "FlexContainer",
    "widgetalignment": 1
}