{
    "@class": "com.kony.gen.viz.model.component.KVizLabel",
    "DNDConfig": null,
    "__markedForDelete__": true,
    "__parentReadjusting__": false,
    "_height_": {
        "type": "ref",
        "value": "preferred"
    },
    "_left_": {
        "type": "string",
        "value": "20px"
    },
    "_margin_": [
        1,
        1,
        1,
        1
    ],
    "_padding_": [
        0,
        0,
        0,
        0
    ],
    "_skin_": "s7a0f6fa7a934cd2858da893c4d8206a",
    "_text_": "CSR Agent",
    "_top_": {
        "type": "string",
        "value": "15px"
    },
    "_width_": {
        "type": "string",
        "value": "120px"
    },
    "_wrapping_": 2,
    "android": {
        "textStyle": {
            "letterSpacing": 0,
            "strikeThrough": false
        }
    },
    "canUpdateUI": true,
    "containerId": true,
    "containerweight": 100,
    "contentalignment": 4,
    "id": "lblRoleName",
    "info": null,
    "ipad": {
        "psp": {
            "wrapping": 2
        }
    },
    "iphone": {
        "psp": {
            "wrapping": 2
        }
    },
    "isvisible": true,
    "kuid": "b94aa3ed6fd845ebb9920b503f73eb89",
    "name": "kony.ui.Label",
    "parent": "flxAddWrapper",
    "pf": "segAddRole",
    "tooltip": "",
    "wType": "Label",
    "zindex": 1
}