{
    "DNDConfig": null,
    "__parentReadjusting__": false,
    "_height_": {
        "type": "string",
        "value": "155px"
    },
    "_left_": {
        "type": "string",
        "value": "0dp"
    },
    "_margin_": [
        0,
        0,
        0,
        0
    ],
    "_orientation_": 6,
    "_padding_": [
        0,
        0,
        0,
        0
    ],
    "_percent_": true,
    "_skin_": "s5328fb1b2d34387bed59838d21460f2",
    "_top_": {
        "type": "string",
        "value": "72px"
    },
    "_width_": {
        "type": "ref",
        "value": "preferred"
    },
    "allboxes": [],
    "autogrowmode": 0,
    "canUpdateUI": true,
    "children": [
        "AdvancedSearchDropDown12"
    ],
    "clipbounds": true,
    "containerweight": 100,
    "desktopweb": {
        "psp": {
            "hoverSkin": "sd55fb56226742d1bd6d1cee7acb3619"
        }
    },
    "disabledSkins": {},
    "enablescrolling": true,
    "id": "flxDropDownDetail12",
    "info": null,
    "isvisible": false,
    "kuid": "ad94fca047dc43a1b970ba69ee048133",
    "layouttype": 2,
    "name": "kony.ui.FlexContainer",
    "parent": "flxColumn12",
    "pf": "userwidgetmodel",
    "snapgridsize": 10,
    "snaptogrid": true,
    "vizProps": {},
    "wType": "FlexContainer",
    "widgetalignment": 1,
    "zindex": 1
}