{
    "@class": "com.kony.gen.viz.model.component.KVizImage2",
    "DNDConfig": null,
    "__parentReadjusting__": false,
    "_base64_": null,
    "_height_": {
        "type": "string",
        "value": "13dp"
    },
    "_margin_": [
        0,
        0,
        0,
        0
    ],
    "_padding_": [
        0,
        0,
        0,
        0
    ],
    "_skin_": "s553d03f29cb43c9a26989454eea9499",
    "_src_": "radionormal_2x.png",
    "_width_": {
        "type": "string",
        "value": "13dp"
    },
    "canUpdateUI": true,
    "centerx": {
        "type": "string",
        "value": "50%"
    },
    "centery": {
        "type": "string",
        "value": "50%"
    },
    "containerweight": 100,
    "context": {
        "channel": "desktop",
        "formID": "uw902c1eb3fa5c4762ad6ea1e9c254e1f5",
        "platform": "desktopweb",
        "templateType": "userwidgets",
        "topLevelBox": null
    },
    "id": "imgBefore",
    "imagescalemode": 0,
    "info": null,
    "invokedProperty": "src",
    "isvisible": true,
    "kuid": "fab79308bcfc4fae8d436e387d03ad43",
    "name": "kony.ui.Image2",
    "parent": "flxBefore",
    "pf": "userwidgetmodel",
    "srcType": 1,
    "tooltip": "Active",
    "wType": "Image",
    "widgetalignment": 5,
    "zindex": 1
}