{
    "@class": "com.kony.gen.viz.model.component.KVizLabel",
    "DNDConfig": null,
    "__parentReadjusting__": false,
    "_height_": {
        "type": "ref",
        "value": "preferred"
    },
    "_left_": {
        "type": "string",
        "value": "12px"
    },
    "_margin_": [
        1,
        1,
        1,
        1
    ],
    "_padding_": [
        0,
        0,
        0,
        0
    ],
    "_right_": {
        "type": "string",
        "value": "45dp"
    },
    "_skin_": "s50069abbf1d4b06b914ea6d7126cde8",
    "_text_": "Select the Branches",
    "_wrapping_": 2,
    "android": {
        "textStyle": {
            "letterSpacing": 0,
            "strikeThrough": false
        }
    },
    "canUpdateUI": true,
    "centery": {
        "type": "string",
        "value": "49%"
    },
    "containerweight": 100,
    "contentalignment": 4,
    "id": "lblSelectedRows",
    "info": null,
    "ipad": {
        "psp": {
            "wrapping": 2
        }
    },
    "iphone": {
        "psp": {
            "wrapping": 2
        }
    },
    "isvisible": true,
    "kuid": "fb54faaa6c9948158806157b83b84007",
    "name": "kony.ui.Label",
    "parent": "flxDropDown01",
    "pf": "userwidgetmodel",
    "texti18n": "i18n.frmGroupsController.Select_the_Branches",
    "tooltip": "",
    "wType": "Label",
    "zindex": 1
}