{
    "@class": "com.kony.gen.viz.model.component.KVizRichText",
    "DNDConfig": null,
    "__parentReadjusting__": false,
    "_bottom_": {
        "type": "string",
        "value": "20dp"
    },
    "_height_": {
        "type": "ref",
        "value": "preferred"
    },
    "_left_": {
        "type": "string",
        "value": "50dp"
    },
    "_margin_": [
        0,
        0,
        0,
        0
    ],
    "_padding_": [
        0,
        0,
        0,
        0
    ],
    "_right_": {
        "type": "string",
        "value": "100dp"
    },
    "_skin_": "s3ffd2c66e5248c1aeb5430fa3380ad3",
    "_text_": "RichText",
    "_top_": {
        "type": "string",
        "value": "40dp"
    },
    "_wrapping_": 2,
    "canUpdateUI": true,
    "containerId": true,
    "containerweight": 100,
    "contentalignment": 4,
    "id": "rtxDescription",
    "info": null,
    "iscustomlayout": false,
    "isvisible": true,
    "kuid": "d579bde8fc2d4060839ca6f90b239194",
    "linkskin": "s02c26be7ae74f93adc3cca8f5b9de61",
    "name": "kony.ui.RichText",
    "parent": "flxViewConfigureDesc",
    "pf": "segViewConfigureCSR",
    "retaincontentalignment": false,
    "retainflexpositionproperties": false,
    "wType": "RichText",
    "watchos": {
        "render": false
    },
    "widgetalignment": 5,
    "windows10": {
        "render": false
    },
    "winphone10": {
        "render": false
    },
    "zindex": 1
}