{
    "DNDConfig": null,
    "_height_": {
        "type": "ref",
        "value": "preferred"
    },
    "_left_": {
        "type": "string",
        "value": "0dp"
    },
    "_margin_": [
        0,
        0,
        0,
        0
    ],
    "_orientation_": 6,
    "_padding_": [
        0,
        0,
        0,
        0
    ],
    "_percent_": true,
    "_skin_": "s438947e0b124486a93d616f381275f9",
    "_top_": {
        "type": "string",
        "value": "0dp"
    },
    "_width_": {
        "type": "string",
        "value": "100%"
    },
    "allboxes": [],
    "autogrowmode": 1,
    "canUpdateUI": true,
    "children": [
        "flxLanguageRowContainer",
        "lblSeprator"
    ],
    "clipbounds": true,
    "containerId": true,
    "containerweight": 100,
    "controllerInfo": {
        "default": {
            "channel": "desktop",
            "name": "flxAlertsLanguageDataController"
        }
    },
    "desktopweb": {
        "psp": {
            "hoverSkin": "sa246b221aad4260aeea0b47c34308ec"
        }
    },
    "disabledSkins": {},
    "enablescrolling": true,
    "id": "flxAlertsLanguageData",
    "info": null,
    "isTemplate": true,
    "iscustomlayout": false,
    "isvisible": true,
    "kuid": "c8edb0a5e6a34740a08d3d84aac44984",
    "layouttype": 2,
    "name": "kony.ui.FlexContainer",
    "parent": "segAlertsLanguageData",
    "pf": "segAlertsLanguageData",
    "retaincontentalignment": false,
    "retainflexpositionproperties": false,
    "snapgridsize": 10,
    "snaptogrid": true,
    "wType": "FlexContainer",
    "widgetalignment": 1
}