{
    "@class": "com.kony.gen.viz.model.component.KVizUserWidget",
    "DNDConfig": null,
    "__parentReadjusting__": false,
    "_children_": [],
    "_desktopweb_": {},
    "_height_": {
        "type": "string",
        "value": "80px"
    },
    "_left_": {
        "type": "string",
        "value": "0dp"
    },
    "_margin_": [
        0,
        0,
        0,
        0
    ],
    "_orientation_": 1,
    "_padding_": [
        0,
        0,
        0,
        0
    ],
    "_percent_": true,
    "_render_": true,
    "_responsiveData_": {},
    "_right_": {
        "type": "string",
        "value": ""
    },
    "_skin_": "s8ff24328417401b877c3ceb2a5fa27c",
    "_top_": {
        "type": "string",
        "value": "0dp"
    },
    "_vizProps_": {
        "hidewidgethierarchy": false
    },
    "_width_": {
        "type": "string",
        "value": "100%"
    },
    "areflexpropsreferenced": false,
    "canUpdateUI": true,
    "clipbounds": true,
    "containerweight": 0,
    "dataDiffs": {
        "btnCancel": {
            "__events__": {},
            "__info__": {
                "kuid": "i03c4abd313f424f9c5d8ba45191a255",
                "srcKUID": "hb7e8e6dc73a4044aaa1636cb1f70704",
                "wType": "Button"
            },
            "left": {
                "Default": {
                    "type": "string",
                    "value": "2px"
                }
            }
        },
        "btnNext": {
            "__events__": {},
            "__info__": {
                "kuid": "a616da31dde14623b33670918ed34d1a",
                "srcKUID": "if89a3cc957141078b03996441e09d8c",
                "wType": "Button"
            },
            "i18n_text": null,
            "text": "SAVE AND UPDATE"
        },
        "btnSave": {
            "__events__": {},
            "__info__": {
                "kuid": "f35f2d71b9ea40c1a3ce1e654cd65524",
                "srcKUID": "af70c434338f4068a24a87b45c58f9ee",
                "wType": "Button"
            }
        },
        "commonButtons": {
            "__events__": {},
            "__info__": {
                "isRoot": true,
                "kuid": "j0d916a8a8524a6faba83ad89b087d5a",
                "srcKUID": "cc441f293bdb4489aebfc9b06fe5513e",
                "wType": "FlexContainer"
            },
            "right": {
                "Default": {
                    "type": "string",
                    "value": ""
                }
            }
        },
        "flxRightButtons": {
            "__events__": {},
            "__info__": {
                "kuid": "de2666d2b03440e689217e54759108f0",
                "srcKUID": "beae25c502d54e038c70de835ec18eca",
                "wType": "FlexContainer"
            },
            "right": {
                "Default": {
                    "type": "string",
                    "value": "1px"
                }
            },
            "width": {
                "Default": {
                    "type": "string",
                    "value": "270px"
                }
            }
        }
    },
    "id": "commonButtons",
    "info": null,
    "isdatareferenced": false,
    "isvisible": true,
    "kuid": "j0d916a8a8524a6faba83ad89b087d5a",
    "layouttype": 2,
    "masterType": 0,
    "name": "kony.ui.UserWidgetInstance",
    "parent": "flxBtns",
    "pf": "frmFAQ",
    "snaptogrid": true,
    "sourceUserWidget": "cc441f293bdb4489aebfc9b06fe5513e",
    "wType": "UserWidgetInstance"
}