{
    "DNDConfig": null,
    "__parentReadjusting__": false,
    "_height_": {
        "type": "string",
        "value": "250px"
    },
    "_left_": {
        "type": "string",
        "value": "0px"
    },
    "_margin_": [
        0,
        0,
        0,
        0
    ],
    "_orientation_": 6,
    "_padding_": [
        0,
        0,
        0,
        0
    ],
    "_percent_": true,
    "_right_": {
        "type": "string",
        "value": "0px"
    },
    "_skin_": "s8ff24328417401b877c3ceb2a5fa27c",
    "_top_": {
        "type": "string",
        "value": "0dp"
    },
    "allboxes": [],
    "canUpdateUI": true,
    "children": [
        "flxSelectOptions",
        "flxtreeviewContainer",
        "statusFilterMenu"
    ],
    "clipbounds": true,
    "containerweight": 100,
    "enablescrolling": true,
    "id": "FlexUserTable",
    "info": null,
    "iscustomlayout": false,
    "isvisible": true,
    "kuid": "bf17024f9e86433894db111a260b0995",
    "layouttype": 2,
    "name": "kony.ui.FlexContainer",
    "parent": "FlexUsers",
    "pf": "frmFAQ",
    "retaincontentalignment": false,
    "retainflexpositionproperties": false,
    "snapgridsize": 10,
    "snaptogrid": true,
    "vizProps": {},
    "wType": "FlexContainer",
    "widgetalignment": 1,
    "zindex": 1
}