{
    "@class": "com.kony.gen.viz.model.component.KVizImage2",
    "DNDConfig": null,
    "__parentReadjusting__": false,
    "_base64_": null,
    "_height_": {
        "type": "string",
        "value": "15dp"
    },
    "_margin_": [
        0,
        0,
        0,
        0
    ],
    "_padding_": [
        0,
        0,
        0,
        0
    ],
    "_skin_": "s553d03f29cb43c9a26989454eea9499",
    "_src_": "deactive_2x.png",
    "_width_": {
        "type": "string",
        "value": "15dp"
    },
    "canUpdateUI": true,
    "centerx": {
        "type": "string",
        "value": "50%"
    },
    "centery": {
        "type": "string",
        "value": "50%"
    },
    "containerweight": 100,
    "context": {
        "channel": "desktop",
        "formID": "frmFAQ",
        "platform": "desktopweb",
        "templateType": "forms",
        "topLevelBox": null
    },
    "id": "imgDeactivate",
    "imagescalemode": 0,
    "info": null,
    "invokedProperty": "src",
    "isvisible": false,
    "kuid": "c4fd0781804b4a31b06671263b9f5b8d",
    "name": "kony.ui.Image2",
    "parent": "flxDeactivateOption",
    "pf": "frmFAQ",
    "srcType": 1,
    "tooltip": "Deactivate",
    "wType": "Image",
    "widgetalignment": 5,
    "zindex": 1
}