{
    "@class": "com.kony.gen.viz.model.component.KVizButton",
    "DNDConfig": null,
    "__parentReadjusting__": false,
    "_height_": {
        "type": "ref",
        "value": "preferred"
    },
    "_margin_": [
        6,
        6,
        6,
        6
    ],
    "_padding_": [
        0,
        0,
        0,
        0
    ],
    "_right_": {
        "type": "string",
        "value": "0dp"
    },
    "_skin_": "s0f26eac6ca34cdbb6721c41d51961f7",
    "_text_": "Back",
    "_width_": {
        "type": "string",
        "value": "50dp"
    },
    "canUpdateUI": true,
    "centery": {
        "type": "string",
        "value": "50%"
    },
    "containerweight": 100,
    "contentalignment": 5,
    "disabledSkins": {
        "focusSkin": "s152a8ebff2840e2b2942e5ec1abbdb5"
    },
    "displaytext": true,
    "id": "btnBack",
    "info": null,
    "isvisible": true,
    "kuid": "c1c5fafc11334ee5902a990e268086b7",
    "name": "kony.ui.Button",
    "parent": "flxBackBtn",
    "pf": "userwidgetmodel",
    "texti18n": "i18n.userwidgetmodel.btnBack",
    "wType": "Button",
    "zindex": 1
}