{
    "DNDConfig": null,
    "__parentReadjusting__": false,
    "_bottom_": {
        "type": "string",
        "value": "15px"
    },
    "_height_": {
        "type": "string",
        "value": "22dp"
    },
    "_margin_": [
        0,
        0,
        0,
        0
    ],
    "_orientation_": 6,
    "_padding_": [
        0,
        0,
        0,
        0
    ],
    "_percent_": true,
    "_right_": {
        "type": "string",
        "value": "10px"
    },
    "_skin_": "s7a3a8c3b4c047ffb5e502c783696c16",
    "_top_": {
        "type": "string",
        "value": "0dp"
    },
    "_width_": {
        "type": "string",
        "value": "50dp"
    },
    "allboxes": [],
    "autogrowmode": 0,
    "canUpdateUI": true,
    "children": [
        "lblApply"
    ],
    "clipbounds": true,
    "containerweight": 100,
    "desktopweb": {
        "psp": {
            "hoverSkin": "s83181d37d0a4bfaa9b44d746ebf9b7b"
        }
    },
    "enablescrolling": true,
    "id": "flxSelect",
    "info": null,
    "iscustomlayout": false,
    "isvisible": true,
    "kuid": "b627ac00742b49919f47bf51025f405a",
    "layouttype": 4,
    "name": "kony.ui.FlexContainer",
    "parent": "flxAmountpicker",
    "pf": "userwidgetmodel",
    "retaincontentalignment": false,
    "retainflexpositionproperties": false,
    "snapgridsize": 10,
    "snaptogrid": true,
    "wType": "FlexContainer",
    "widgetalignment": 1,
    "zindex": 10
}