{
    "@class": "com.kony.gen.viz.model.component.KVizUserWidget",
    "DNDConfig": null,
    "__parentReadjusting__": false,
    "_bottom_": {
        "type": "string",
        "value": "0px"
    },
    "_children_": [],
    "_desktopweb_": {},
    "_height_": {
        "type": "string",
        "value": "20px"
    },
    "_kiosk_": {},
    "_left_": {
        "type": "string",
        "value": "0px"
    },
    "_margin_": [
        0,
        0,
        0,
        0
    ],
    "_orientation_": 1,
    "_padding_": [
        0,
        0,
        0,
        0
    ],
    "_percent_": true,
    "_render_": true,
    "_responsiveData_": {},
    "_right_": {
        "type": "string",
        "value": "0px"
    },
    "_skin_": "s18e2ced6ee54b75a5ba66f8d41070d5",
    "_top_": {
        "type": "string",
        "value": "0px"
    },
    "_vizProps_": {
        "hidewidgethierarchy": false
    },
    "_width_": {
        "type": "string",
        "value": ""
    },
    "areflexpropsreferenced": false,
    "canUpdateUI": true,
    "clipbounds": true,
    "containerweight": 0,
    "dataDiffs": {
        "breadcrumbs": {
            "__events__": {},
            "__info__": {
                "isRoot": true,
                "kuid": "e16cbc2073174508a64644b6904911f8",
                "srcKUID": "e57b9ec944d34c8b834fa7fb78b60de9",
                "wType": "FlexContainer"
            },
            "bottom": {
                "Default": {
                    "type": "string",
                    "value": "0px"
                }
            },
            "left": {
                "Default": {
                    "type": "string",
                    "value": "0px"
                }
            },
            "right": {
                "Default": {
                    "type": "string",
                    "value": "0px"
                }
            },
            "top": {
                "Default": {
                    "type": "string",
                    "value": "0px"
                }
            },
            "width": {
                "Default": {
                    "type": "string",
                    "value": ""
                }
            },
            "zIndex": {
                "Default": 100
            }
        },
        "btnBackToMain": {
            "__events__": {
                "ide_onClick": "AS_Button_ad742133b6444958bebfbace58ce5e65"
            },
            "__info__": {
                "kuid": "be8db076636f480faef125dd60673a07",
                "srcKUID": "ea97f85c5977457f93b8d984e28d4872",
                "wType": "Button"
            },
            "i18n_text": "i18n.frmLoansDashboard.SearchCustomers",
            "left": {
                "Default": {
                    "type": "string",
                    "value": "35px"
                }
            },
            "text": ""
        },
        "btnPreviousPage": {
            "__events__": {},
            "__info__": {
                "kuid": "i8f407e1dfa845909ecc3f541624149c",
                "srcKUID": "d0676390dcb747fa9849bbc49f0a18d9",
                "wType": "Button"
            }
        },
        "btnPreviousPage1": {
            "__events__": {},
            "__info__": {
                "kuid": "c014a18c7c3e4abb9ccc572ecdf83ad6",
                "srcKUID": "e7552a460536429580737450bf7c813b",
                "wType": "Button"
            }
        },
        "fontIconBreadcrumbsDown": {
            "__events__": {},
            "__info__": {
                "kuid": "j052555769594f6fb6838ac7a9576ac1",
                "srcKUID": "c2a443f3c4ba44668b78d4abbd727ece",
                "wType": "Label"
            }
        },
        "fontIconBreadcrumbsRight": {
            "__events__": {},
            "__info__": {
                "kuid": "d17e1b2f17474729ae677bfabd238d7c",
                "srcKUID": "ida459e61e8d4663bacfa34ff30f7ad6",
                "wType": "Label"
            }
        },
        "fontIconBreadcrumbsRight2": {
            "__events__": {},
            "__info__": {
                "kuid": "af47d64fed5b48748144f183e40559fa",
                "srcKUID": "g785f1639b154e7aa5df9fac346a200a",
                "wType": "Label"
            }
        },
        "fontIconBreadcrumbsRight3": {
            "__events__": {},
            "__info__": {
                "kuid": "d716b8f6ffa749e49fabbd91f9a617cb",
                "srcKUID": "ce04b87b0fe04c46acac3385cd5c792b",
                "wType": "Label"
            }
        },
        "imgBreadcrumbsDown": {
            "__events__": {},
            "__info__": {
                "kuid": "a17abb3c3b75415f90b3c83cf7780889",
                "srcKUID": "efceab0102014e18b0fcbd4ee7f2f412",
                "wType": "Image"
            },
            "src": "img_down_arrow.png"
        },
        "imgBreadcrumbsRight": {
            "__events__": {},
            "__info__": {
                "kuid": "db80c7c63e524c38bc8b2e17b5b10e23",
                "srcKUID": "b1756ce4f6d744438bad7c9f5f4fd700",
                "wType": "Image"
            },
            "src": "img_breadcrumb_arrow.png"
        },
        "imgBreadcrumbsRight2": {
            "__events__": {},
            "__info__": {
                "kuid": "g8d27d03d7584f418f7b911eb1e80644",
                "srcKUID": "d720d60d37e04d74a8e019d046a402bd",
                "wType": "Image"
            },
            "src": "img_breadcrumb_arrow.png"
        },
        "imgBreadcrumbsRight3": {
            "__events__": {},
            "__info__": {
                "kuid": "dc39a96d5075452fb557c0d335df1a48",
                "srcKUID": "dd44e3ff9a4b45fea146e20150e225d2",
                "wType": "Image"
            },
            "src": "img_breadcrumb_arrow.png"
        },
        "lblCurrentScreen": {
            "__events__": {},
            "__info__": {
                "kuid": "cc8b7871e07c42d7bf34b2912eb7caa5",
                "srcKUID": "d57a137ddf1a4ab19dd36fbb4e55c040",
                "wType": "Label"
            },
            "i18n_text": null,
            "text": "BRYAN NASH",
            "width": {
                "Default": {
                    "type": "ref",
                    "value": "preferred"
                }
            }
        }
    },
    "id": "breadcrumbs",
    "info": null,
    "isdatareferenced": false,
    "isvisible": true,
    "kuid": "e16cbc2073174508a64644b6904911f8",
    "layouttype": 3,
    "masterType": 0,
    "name": "kony.ui.UserWidgetInstance",
    "parent": "flxBreadCrumbs",
    "pf": "frmLoansDashboard",
    "snaptogrid": true,
    "sourceUserWidget": "e57b9ec944d34c8b834fa7fb78b60de9",
    "vizprops": {
        "hidewidgethierarchy": false
    },
    "wType": "UserWidgetInstance",
    "zindex": 100
}