{
    "DNDConfig": null,
    "__parentReadjusting__": false,
    "_height_": {
        "type": "string",
        "value": "300px"
    },
    "_margin_": [
        0,
        0,
        0,
        0
    ],
    "_orientation_": 6,
    "_padding_": [
        0,
        0,
        0,
        0
    ],
    "_percent_": true,
    "_skin_": "s58f5aa576da46d5917bc0717b549db1",
    "_width_": {
        "type": "string",
        "value": "600px"
    },
    "allboxes": [],
    "autogrowmode": 0,
    "canUpdateUI": true,
    "centerx": {
        "type": "string",
        "value": "50%"
    },
    "centery": {
        "type": "string",
        "value": "50%"
    },
    "children": [
        "flxCSRLoadingIndicator",
        "lblInitializeAssist"
    ],
    "clipbounds": true,
    "containerweight": 100,
    "enablescrolling": true,
    "id": "flxCSRLoading",
    "info": null,
    "isvisible": true,
    "kuid": "fe70ce0b3a154a178681e9c89a15e380",
    "layouttype": 4,
    "name": "kony.ui.FlexContainer",
    "parent": "flxCSRAssistLoading",
    "pf": "frmLoansDashboard",
    "snapgridsize": 10,
    "snaptogrid": true,
    "wType": "FlexContainer",
    "widgetalignment": 1,
    "zindex": 5
}