{
    "DNDConfig": null,
    "__parentReadjusting__": false,
    "_height_": {
        "type": "string",
        "value": "100dp"
    },
    "_margin_": [
        0,
        0,
        0,
        0
    ],
    "_orientation_": 6,
    "_padding_": [
        0,
        0,
        0,
        0
    ],
    "_percent_": true,
    "_skin_": "s4c0d7eadf7e4e5888ecc4c7ccb768f7",
    "_top_": {
        "type": "string",
        "value": "10dp"
    },
    "_width_": {
        "type": "string",
        "value": "180dp"
    },
    "allboxes": [],
    "autogrowmode": 0,
    "canUpdateUI": true,
    "children": [
        "lblPendingApplicationIcon",
        "lblpendingApplciationNumber",
        "lblpendingApplication"
    ],
    "clipbounds": true,
    "containerweight": 100,
    "desktopweb": {
        "psp": {
            "hoverSkin": "sfc20891dbdc4c25bfa9fa536cf19787"
        }
    },
    "disabledSkins": {},
    "enablescrolling": true,
    "id": "flxPendingApplication",
    "ide_onClick": "AS_FlexContainer_b2cf0804e52642d592da8109353a86f2",
    "info": null,
    "iscustomlayout": false,
    "isvisible": true,
    "kuid": "bff18af640f34990a179eaa1fe03920f",
    "layouttype": 4,
    "name": "kony.ui.FlexContainer",
    "parent": "flxContainingPendingAndSubmittedApplications",
    "pf": "frmLoansDashboard",
    "retaincontentalignment": false,
    "retainflexpositionproperties": false,
    "snapgridsize": 10,
    "snaptogrid": true,
    "wType": "FlexContainer",
    "widgetalignment": 1,
    "zindex": 100
}