{
    "DNDConfig": null,
    "__parentReadjusting__": false,
    "_height_": {
        "type": "ref",
        "value": "preferred"
    },
    "_left_": {
        "type": "string",
        "value": "0dp"
    },
    "_margin_": [
        0,
        0,
        0,
        0
    ],
    "_orientation_": 6,
    "_padding_": [
        0,
        0,
        0,
        0
    ],
    "_percent_": true,
    "_skin_": "s4c0d7eadf7e4e5888ecc4c7ccb768f7",
    "_top_": {
        "type": "string",
        "value": "45dp"
    },
    "_width_": {
        "type": "string",
        "value": "95%"
    },
    "allboxes": [],
    "autogrowmode": 1,
    "canUpdateUI": true,
    "children": [
        "lblSendLinkKA",
        "lblEmailoptionKA",
        "lblSMSOptionKA",
        "lblEmailAndSMSOptionKA"
    ],
    "clipbounds": true,
    "containerweight": 100,
    "desktopweb": {
        "psp": {}
    },
    "enablescrolling": true,
    "id": "flxRegistrationLinkOptionsKA",
    "info": null,
    "iscustomlayout": false,
    "isvisible": false,
    "kuid": "g98dd320bfb54f7c98f4246ed61099c7",
    "layouttype": 4,
    "name": "kony.ui.FlexContainer",
    "parent": "flxRegistrationWrapperKA",
    "pf": "frmLoansDashboard",
    "retaincontentalignment": false,
    "retainflexpositionproperties": false,
    "snapgridsize": 10,
    "snaptogrid": true,
    "wType": "FlexContainer",
    "widgetalignment": 1,
    "zindex": 11
}