{
    "DNDConfig": null,
    "__parentReadjusting__": false,
    "_height_": {
        "type": "ref",
        "value": "preferred"
    },
    "_left_": {
        "type": "string",
        "value": "10dp"
    },
    "_margin_": [
        0,
        0,
        0,
        0
    ],
    "_orientation_": 6,
    "_padding_": [
        0,
        0,
        0,
        0
    ],
    "_percent_": true,
    "_right_": {
        "type": "number",
        "value": "25"
    },
    "_skin_": "s8846f3751664bf3a5062d5d1190b94f",
    "_top_": {
        "type": "string",
        "value": "10dp"
    },
    "allboxes": [],
    "autogrowmode": 1,
    "canUpdateUI": true,
    "children": [
        "lblOption",
        "flxClose"
    ],
    "clipbounds": true,
    "containerId": true,
    "containerweight": 100,
    "desktopweb": {
        "psp": {
            "hoverSkin": "s2d4514994fa46a68074b0fd2f5685bc"
        }
    },
    "disabledSkins": {},
    "enablescrolling": true,
    "id": "flxAddOptionWrapper",
    "info": null,
    "isvisible": true,
    "kuid": "dc353a5f172046098859edc939c1623e",
    "layouttype": 2,
    "name": "kony.ui.FlexContainer",
    "parent": "flxCampaignOptionsSelected",
    "pf": "segCampaignOptionsSelected",
    "snapgridsize": 10,
    "snaptogrid": true,
    "wType": "FlexContainer",
    "widgetalignment": 1,
    "zindex": 1
}