{
    "DNDConfig": null,
    "__parentReadjusting__": false,
    "_height_": {
        "type": "string",
        "value": "25px"
    },
    "_margin_": [
        0,
        0,
        0,
        0
    ],
    "_orientation_": 6,
    "_padding_": [
        0,
        0,
        0,
        0
    ],
    "_percent_": true,
    "_skin_": "s8ff24328417401b877c3ceb2a5fa27c",
    "_width_": {
        "type": "string",
        "value": "35%"
    },
    "allboxes": [],
    "autogrowmode": 0,
    "canUpdateUI": true,
    "centery": {
        "type": "string",
        "value": "50%"
    },
    "children": [
        "lblValue"
    ],
    "clipbounds": true,
    "containerId": true,
    "containerweight": 100,
    "desktopweb": {
        "psp": {}
    },
    "disabledSkins": {
        "hoverSkin": "scd6759b91984d0791be140ca44627a3"
    },
    "enablescrolling": true,
    "id": "flxlastColoumn",
    "ide_onClick": "AS_FlexContainer_b841079c89634eada06d07f145523502",
    "info": null,
    "isvisible": true,
    "kuid": "jf280944501f4f6f8abad686f7410819",
    "layouttype": 2,
    "name": "kony.ui.FlexContainer",
    "parent": "flxMessage",
    "pf": "segReportsMangMessages",
    "snapgridsize": 10,
    "snaptogrid": true,
    "wType": "FlexContainer",
    "widgetalignment": 1,
    "zindex": 10
}