{
    "DNDConfig": null,
    "__parentReadjusting__": false,
    "_height_": {
        "type": "string",
        "value": "50px"
    },
    "_left_": {
        "type": "string",
        "value": "20px"
    },
    "_margin_": [
        0,
        0,
        0,
        0
    ],
    "_orientation_": 6,
    "_padding_": [
        0,
        0,
        0,
        0
    ],
    "_percent_": true,
    "_right_": {
        "type": "string",
        "value": "20px"
    },
    "_skin_": "s8ff24328417401b877c3ceb2a5fa27c",
    "_top_": {
        "type": "string",
        "value": "0"
    },
    "allboxes": [],
    "autogrowmode": 0,
    "canUpdateUI": true,
    "children": [
        "flxFirstColumn",
        "flxlastColoumn"
    ],
    "clipbounds": true,
    "containerId": true,
    "containerweight": 100,
    "desktopweb": {
        "psp": {}
    },
    "disabledSkins": {
        "hoverSkin": "s512ca636f844ef4aa81b2647c08ce24"
    },
    "enablescrolling": true,
    "id": "flxMessage",
    "ide_onClick": "AS_FlexContainer_e553ee3b13fe4973aef70f31c7776c5d",
    "info": null,
    "isTemplate": true,
    "isvisible": true,
    "kuid": "bf2e735dc94a44ff9d2c8e70f0eccdee",
    "layouttype": 3,
    "name": "kony.ui.FlexContainer",
    "parent": "flxReportsMangMessages",
    "pf": "segReportsMangMessages",
    "snapgridsize": 10,
    "snaptogrid": true,
    "wType": "FlexContainer",
    "widgetalignment": 1
}