{
    "@class": "com.kony.gen.viz.model.component.KVizButton",
    "DNDConfig": null,
    "__parentReadjusting__": false,
    "_height_": {
        "type": "string",
        "value": "37px"
    },
    "_left_": {
        "type": "string",
        "value": "10px"
    },
    "_margin_": [
        6,
        6,
        6,
        6
    ],
    "_padding_": [
        0,
        0,
        0,
        0
    ],
    "_skin_": "s2c26b44e560427d834495a365bc2df5",
    "_text_": "PUSH",
    "_top_": {
        "type": "string",
        "value": "13px"
    },
    "_width_": {
        "type": "string",
        "value": "70dp"
    },
    "canUpdateUI": true,
    "containerweight": 100,
    "contentalignment": 5,
    "disabledSkins": {
        "focusSkin": "s152a8ebff2840e2b2942e5ec1abbdb5"
    },
    "displaytext": true,
    "id": "btnPushNoti",
    "info": null,
    "isvisible": true,
    "kuid": "j3960a252a56455e9d7893e2dd910e75",
    "name": "kony.ui.Button",
    "parent": "flxAlertProductsTabsWrapper",
    "pf": "frmCustomerProfileContacts",
    "wType": "Button",
    "zindex": 2
}