{
    "@class": "com.kony.gen.viz.model.component.KVizUserWidget",
    "DNDConfig": null,
    "__parentReadjusting__": false,
    "_children_": [],
    "_desktopweb_": {},
    "_height_": {
        "type": "ref",
        "value": "preferred"
    },
    "_left_": "0dp",
    "_margin_": [
        0,
        0,
        0,
        0
    ],
    "_orientation_": 1,
    "_padding_": [
        0,
        0,
        0,
        0
    ],
    "_percent_": true,
    "_render_": true,
    "_responsiveData_": {},
    "_skin_": "s8ff24328417401b877c3ceb2a5fa27c",
    "_top_": "0dp",
    "_vizProps_": {
        "hidewidgethierarchy": false
    },
    "_width_": {
        "type": "string",
        "value": "100%"
    },
    "areflexpropsreferenced": false,
    "autogrowmode": 1,
    "canUpdateUI": true,
    "clipbounds": true,
    "containerweight": 0,
    "dataDiffs": {
        "ContactNum": {
            "__events__": {},
            "__info__": {
                "isRoot": true,
                "kuid": "a299c6a0a0844e36ad19539a55703481",
                "srcKUID": "2a3f01ada4084b8ba9497e686113df17",
                "wType": "FlexContainer"
            },
            "autogrowMode": {
                "Default": 1
            },
            "height": {
                "Default": {
                    "type": "ref",
                    "value": "preferred"
                }
            }
        },
        "btnAdd": {
            "__events__": {},
            "__info__": {
                "kuid": "dadc2d94910c415ab2b21431f59925c5",
                "srcKUID": "h4f4674faf2d44cc92cba5dec75614df",
                "wType": "Button"
            },
            "left": {
                "Default": {
                    "type": "number",
                    "value": "0"
                }
            },
            "right": {
                "Default": {
                    "type": "string",
                    "value": ""
                }
            }
        },
        "btnDeleteAdditionalDetails1": {
            "__events__": {},
            "__info__": {
                "kuid": "e917f195c9084e0fb3e811b931e28db7",
                "srcKUID": "cf80852a0589423f9de97e2abd843f79",
                "wType": "Button"
            }
        },
        "btnDeleteAdditionalDetails2": {
            "__events__": {},
            "__info__": {
                "kuid": "b40ad5bce0e74b99943e1e145c6b27fe",
                "srcKUID": "dec399262bbe423a80354b1cfbe62b2e",
                "wType": "Button"
            }
        },
        "btnEdit": {
            "__events__": {},
            "__info__": {
                "kuid": "c48d7736a0714e0794095e13b3d4644b",
                "srcKUID": "e0b5121ad0f346cb83c78256feda91c4",
                "wType": "Button"
            },
            "left": {
                "Default": {
                    "type": "string",
                    "value": ""
                }
            }
        },
        "flxAdditionalDetails1": {
            "__events__": {},
            "__info__": {
                "kuid": "j8d36cf8b8a04b9d9af2db87c4b5bcd5",
                "srcKUID": "8f274598a7e748a38ee0cf98f399af04",
                "wType": "FlexContainer"
            }
        },
        "flxAdditionalDetails2": {
            "__events__": {},
            "__info__": {
                "kuid": "a01076e6115b4c99890084192b515134",
                "srcKUID": "a20c2af64e704e42bc1e9f932b8561c6",
                "wType": "FlexContainer"
            }
        },
        "flxAddtionalDetailsHeader1": {
            "__events__": {},
            "__info__": {
                "kuid": "c0a443c4afae4916a7702dd7121f1a02",
                "srcKUID": "d018dc019cbf44f2a92507bb9bc17bc7",
                "wType": "FlexContainer"
            }
        },
        "flxAddtionalDetailsHeader2": {
            "__events__": {},
            "__info__": {
                "kuid": "g6864176228e40fb9424352b29ef864a",
                "srcKUID": "cfedf77ef5e5438cab96490c5ce21432",
                "wType": "FlexContainer"
            }
        },
        "flxButtons": {
            "__events__": {},
            "__info__": {
                "kuid": "a9eafcc91031417e92f6fa3e10e44398",
                "srcKUID": "j888c4d3acc244dc95ecbede67d85944",
                "wType": "FlexContainer"
            },
            "layoutType": 2
        },
        "flxDetails1": {
            "__events__": {},
            "__info__": {
                "kuid": "d3c5687b129a46678b0085ba369f387b",
                "srcKUID": "f4be5f0f6e5e4816b7437b542f4e67b2",
                "wType": "FlexContainer"
            }
        },
        "flxDetailsHeader": {
            "__events__": {},
            "__info__": {
                "kuid": "e9ec3bbf90a14d249a26031cc7a03350",
                "srcKUID": "3dabd45555d64cd8a70bf71a114616c1",
                "wType": "FlexContainer"
            }
        },
        "flxDetailsRow1": {
            "__events__": {},
            "__info__": {
                "kuid": "cff13da76f2b4005abba52c60766c1f2",
                "srcKUID": "34b7e0c82f79458a8490ba6b44ade6bb",
                "wType": "FlexContainer"
            }
        },
        "flxDetailsRow2": {
            "__events__": {},
            "__info__": {
                "kuid": "ce1704d9a7e94c35987b1650f8efb518",
                "srcKUID": "8353fda036f749c3a5cfb8320d146f5f",
                "wType": "FlexContainer"
            }
        },
        "flxPrimaryCommunication": {
            "__events__": {},
            "__info__": {
                "kuid": "ebb326975ee745218451674162d18049",
                "srcKUID": "db55107cdea14194b8e03a72cb8bd6e3",
                "wType": "FlexContainer"
            }
        },
        "flxPrimaryLabelAndTag": {
            "__events__": {},
            "__info__": {
                "kuid": "h72dfc39d2344709a34ee55d81d67e05",
                "srcKUID": "c0b391784d33469e81c22d0fd11f050c",
                "wType": "FlexContainer"
            }
        },
        "lblAdditionalDetailsKey1": {
            "__events__": {},
            "__info__": {
                "kuid": "b3642916da104ecbbee085c90498e78a",
                "srcKUID": "c2e48005d65141b3b0aeeae58ec481c0",
                "wType": "Label"
            }
        },
        "lblAdditionalDetailsKey2": {
            "__events__": {},
            "__info__": {
                "kuid": "e69b3754bca843a49886c708e261ac9b",
                "srcKUID": "463768ff5aca47b196cc411583e794b5",
                "wType": "Label"
            }
        },
        "lblAdditionalDetailsValue1": {
            "__events__": {},
            "__info__": {
                "kuid": "d9a4898bae104680afda6f2d996344de",
                "srcKUID": "e019f53193e048a1aaefe84d1d425f1e",
                "wType": "Label"
            },
            "text": "bryanvnash123@gmail.com"
        },
        "lblAdditionalDetailsValue2": {
            "__events__": {},
            "__info__": {
                "kuid": "a219d2dd942e49bf8f0b4efe3a437e92",
                "srcKUID": "c2a56ec38e464815b7cc59bf912d5593",
                "wType": "Label"
            },
            "text": "bryanvnash123@gmail.com"
        },
        "lblDetailsHeader": {
            "__events__": {},
            "__info__": {
                "kuid": "hd4e6a8afe804b38b46677788caac4c2",
                "srcKUID": "d096056adc7f419aa4cf99e948457ead",
                "wType": "Label"
            }
        },
        "lblPrimaryCommunicationContact": {
            "__events__": {},
            "__info__": {
                "kuid": "ece45014b7c142229c987fddf7d2edee",
                "srcKUID": "j505180465334da98b00cb1c232a2d14",
                "wType": "Label"
            },
            "i18n_text": "i18n.frmCustomerManagementController.Primary_Communication_Email"
        },
        "lblPrimaryKey": {
            "__events__": {},
            "__info__": {
                "kuid": "d85ed33406f64a4a8cef44b28ba3a772",
                "srcKUID": "fe8d00b8a71b4d9dac1ec2aaebca8c6a",
                "wType": "Label"
            }
        },
        "lblPrimaryValue": {
            "__events__": {},
            "__info__": {
                "kuid": "e642a6ad967140ed95dcb7a657901af4",
                "srcKUID": "c464b67daf2c413cb9d0d81d5e874777",
                "wType": "Label"
            },
            "text": "bryanvnash@gmail.com"
        }
    },
    "id": "ContactEmail",
    "info": null,
    "isdatareferenced": false,
    "isvisible": true,
    "kuid": "a299c6a0a0844e36ad19539a55703481",
    "layouttype": 4,
    "masterType": 0,
    "name": "kony.ui.UserWidgetInstance",
    "parent": "flxContactDetails",
    "pf": "frmCustomerProfileContacts",
    "snaptogrid": true,
    "sourceUserWidget": "2a3f01ada4084b8ba9497e686113df17",
    "vizprops": {
        "hidewidgethierarchy": false
    },
    "wType": "UserWidgetInstance"
}