{
    "@class": "com.kony.gen.viz.model.component.KVizUserWidget",
    "DNDConfig": null,
    "__parentReadjusting__": false,
    "_android_": {},
    "_androidwearos_": {},
    "_children_": [],
    "_desktopweb_": {},
    "_height_": {
        "type": "string",
        "value": "100%"
    },
    "_ipad_": {},
    "_iphone_": {},
    "_kiosk_": {},
    "_left_": {
        "type": "string",
        "value": "0dp"
    },
    "_margin_": [
        0,
        0,
        0,
        0
    ],
    "_orientation_": 1,
    "_padding_": [
        0,
        0,
        0,
        0
    ],
    "_percent_": true,
    "_responsiveData_": {},
    "_skin_": "sffd784bea8d4bec8d2ddc591034adfe",
    "_spa_": {},
    "_spaan_": {},
    "_spaandroidtablet_": {},
    "_spabb_": {},
    "_spaip_": {},
    "_spaipad_": {},
    "_spamobile_": {},
    "_spatablet_": {},
    "_spawindowstablet_": {},
    "_spawinphone8_": {},
    "_tabrcandroid_": {},
    "_top_": {
        "type": "string",
        "value": "0dp"
    },
    "_vizProps_": {
        "hidewidgethierarchy": false
    },
    "_width_": {
        "type": "string",
        "value": "100%"
    },
    "_windows10_": {},
    "_windows8_": {},
    "_winphone10_": {},
    "_winphone8_": {},
    "areflexpropsreferenced": false,
    "canUpdateUI": true,
    "clipbounds": true,
    "containerweight": 0,
    "dataDiffs": {
        "CSRAssist": {
            "__events__": {},
            "__info__": {
                "isRoot": true,
                "kuid": "j54eb2b14bff45b2b8cae609ab96f003",
                "srcKUID": "cacab052f68b4c20871994414d8b7c1a",
                "wType": "FlexContainer"
            },
            "isVisible": false
        },
        "CSRBrowser": {
            "__events__": {},
            "__info__": {
                "kuid": "b78648e77a3d4bebb5953ccbd147a5e4",
                "srcKUID": "b79606a43b1141b88c2a2acac8322d3b",
                "wType": "Browser"
            }
        },
        "flxBackground": {
            "__events__": {},
            "__info__": {
                "kuid": "hfb80a14175c4769a2e3a97326a54715",
                "srcKUID": "h46f84d6ac4641fdadd52133b9c2c0ef",
                "wType": "FlexContainer"
            }
        },
        "flxCSRAssistLoading": {
            "__events__": {},
            "__info__": {
                "kuid": "jecffbb43ac540b4987cd7c846ac0bd9",
                "srcKUID": "g88b2c8f7d934f92974c4c0c8eda20d0",
                "wType": "FlexContainer"
            }
        },
        "flxCSRLoading": {
            "__events__": {},
            "__info__": {
                "kuid": "eae057777add4ba0a9127cfb1ed7034e",
                "srcKUID": "b375a999782d4a1289147314d90be890",
                "wType": "FlexContainer"
            }
        },
        "flxCSRLoadingIndicator": {
            "__events__": {},
            "__info__": {
                "kuid": "f8494a9b222b4dc8924a5f0db6d3a046",
                "srcKUID": "f7e2042ade5946faa2c4c960fd9f811c",
                "wType": "FlexContainer"
            }
        },
        "flxClose": {
            "__events__": {},
            "__info__": {
                "kuid": "i2669f494d0241f8a92bdbd828314e1f",
                "srcKUID": "f06ca8cada2444edb173524a56adbe97",
                "wType": "FlexContainer"
            }
        },
        "fonticonClose": {
            "__events__": {},
            "__info__": {
                "kuid": "j4ba6406276b4d638c05e925a9827efd",
                "srcKUID": "f55fcb5fbe974be4b363065008fc5a3d",
                "wType": "Label"
            }
        },
        "imgCSRLoading": {
            "__events__": {},
            "__info__": {
                "kuid": "i304e45ddf7845f0835e440b641b8f77",
                "srcKUID": "b20ab38708144b27ac49adebc70fe1a0",
                "wType": "Image"
            }
        },
        "lblInitializeAssist": {
            "__events__": {},
            "__info__": {
                "kuid": "hb73bb59537d451a956b047c02337e81",
                "srcKUID": "e89f37432f4643e7847502c2be05f81f",
                "wType": "Label"
            }
        }
    },
    "enablescrolling": true,
    "id": "CSRAssist",
    "info": null,
    "iscustomlayout": false,
    "isdatareferenced": false,
    "issegmentchild": false,
    "isvisible": false,
    "kuid": "j54eb2b14bff45b2b8cae609ab96f003",
    "layouttype": 2,
    "masterType": 0,
    "name": "kony.ui.UserWidgetInstance",
    "parent": "frmCustomerProfileContacts",
    "pf": "frmCustomerProfileContacts",
    "retaincontentalignment": false,
    "retainflexpositionproperties": false,
    "snapgridsize": 10,
    "snaptogrid": true,
    "sourceUserWidget": "cacab052f68b4c20871994414d8b7c1a",
    "wType": "UserWidgetInstance",
    "zindex": 50
}