{
    "@class": "com.kony.gen.viz.model.component.KVizUserWidget",
    "DNDConfig": null,
    "__parentReadjusting__": false,
    "_children_": [],
    "_desktopweb_": {},
    "_height_": {
        "type": "string",
        "value": "80px"
    },
    "_left_": {
        "type": "string",
        "value": "0dp"
    },
    "_margin_": [
        0,
        0,
        0,
        0
    ],
    "_orientation_": 1,
    "_padding_": [
        0,
        0,
        0,
        0
    ],
    "_percent_": true,
    "_render_": true,
    "_responsiveData_": {},
    "_skin_": "s8ff24328417401b877c3ceb2a5fa27c",
    "_top_": {
        "type": "string",
        "value": "0dp"
    },
    "_vizProps_": {
        "hidewidgethierarchy": false
    },
    "_width_": {
        "type": "string",
        "value": "100%"
    },
    "areflexpropsreferenced": false,
    "canUpdateUI": true,
    "clipbounds": true,
    "containerweight": 0,
    "dataDiffs": {
        "btnCancel": {
            "__events__": {},
            "__info__": {
                "kuid": "e5fa42a5dc50406ba5504599d44e837e",
                "srcKUID": "hb7e8e6dc73a4044aaa1636cb1f70704",
                "wType": "Button"
            }
        },
        "btnNext": {
            "__events__": {},
            "__info__": {
                "kuid": "a2a46321d8d84869bf9718f2ed04696c",
                "srcKUID": "if89a3cc957141078b03996441e09d8c",
                "wType": "Button"
            },
            "isVisible": false,
            "vizProps": {
                "hide": true
            }
        },
        "btnSave": {
            "__events__": {},
            "__info__": {
                "kuid": "j49bff47bc3a4f948809677ed121359d",
                "srcKUID": "af70c434338f4068a24a87b45c58f9ee",
                "wType": "Button"
            }
        },
        "commonButtons": {
            "__events__": {},
            "__info__": {
                "isRoot": true,
                "kuid": "f42c0d7900f447c2a10caf55238a26be",
                "srcKUID": "cc441f293bdb4489aebfc9b06fe5513e",
                "wType": "FlexContainer"
            }
        },
        "flxRightButtons": {
            "__events__": {},
            "__info__": {
                "kuid": "h8908f9cbbe14aa5bda4e571076bf6ef",
                "srcKUID": "beae25c502d54e038c70de835ec18eca",
                "wType": "FlexContainer"
            }
        }
    },
    "id": "editTimeButtons",
    "info": null,
    "isdatareferenced": false,
    "isvisible": true,
    "kuid": "f42c0d7900f447c2a10caf55238a26be",
    "layouttype": 2,
    "masterType": 0,
    "name": "kony.ui.UserWidgetInstance",
    "parent": "flxEditTimeButtonsWrapper",
    "pf": "frmCustomerProfileContacts",
    "snaptogrid": true,
    "sourceUserWidget": "cc441f293bdb4489aebfc9b06fe5513e",
    "vizprops": {
        "hidewidgethierarchy": false
    },
    "wType": "UserWidgetInstance"
}