{
    "DNDConfig": null,
    "__parentReadjusting__": false,
    "_height_": {
        "type": "ref",
        "value": "preferred"
    },
    "_left_": {
        "type": "string",
        "value": "0px"
    },
    "_margin_": [
        0,
        0,
        0,
        0
    ],
    "_orientation_": 6,
    "_padding_": [
        0,
        0,
        0,
        0
    ],
    "_percent_": true,
    "_right_": {
        "type": "string",
        "value": "0px"
    },
    "_skin_": "sa516ef9f7594cab9cedd65e77444baf",
    "_top_": {
        "type": "string",
        "value": "0px"
    },
    "allboxes": [],
    "autogrowmode": 1,
    "canUpdateUI": true,
    "children": [
        "EditAddress",
        "flxEditAddressSeprator1",
        "EditAddress1",
        "flxEditAddressSeprator2",
        "EditAddress2",
        "flxAddressEditButtons"
    ],
    "clipbounds": true,
    "containerweight": 100,
    "enablescrolling": true,
    "id": "flxEditContactAddress",
    "info": null,
    "isvisible": false,
    "kuid": "a69f7a5c6278465e9f6d3e5c9b74a616",
    "layouttype": 4,
    "name": "kony.ui.FlexContainer",
    "parent": "flxEditContactDetails",
    "pf": "frmCustomerProfileContacts",
    "snapgridsize": 10,
    "snaptogrid": true,
    "wType": "FlexContainer",
    "widgetalignment": 1,
    "zindex": 1
}