{
    "@class": "com.kony.gen.viz.model.component.KVizUserWidget",
    "DNDConfig": null,
    "__parentReadjusting__": false,
    "_android_": {},
    "_androidwearos_": {},
    "_children_": [],
    "_desktopweb_": {},
    "_height_": {
        "type": "ref",
        "value": "preferred"
    },
    "_ipad_": {},
    "_iphone_": {},
    "_kiosk_": {},
    "_left_": {
        "type": "string",
        "value": ""
    },
    "_margin_": [
        0,
        0,
        0,
        0
    ],
    "_orientation_": 1,
    "_padding_": [
        0,
        0,
        0,
        0
    ],
    "_percent_": true,
    "_responsiveData_": {},
    "_right_": {
        "type": "string",
        "value": "55px"
    },
    "_skin_": "s88cc708170d4e3e8fed2490fd5e632e",
    "_spa_": {},
    "_spaan_": {},
    "_spaandroidtablet_": {},
    "_spabb_": {},
    "_spaip_": {},
    "_spaipad_": {},
    "_spamobile_": {},
    "_spatablet_": {},
    "_spawindowstablet_": {},
    "_spawinphone8_": {},
    "_tabrcandroid_": {},
    "_top_": {
        "type": "string",
        "value": "80dp"
    },
    "_vizProps_": {
        "hidewidgethierarchy": false
    },
    "_width_": {
        "type": "string",
        "value": "200px"
    },
    "_windows10_": {},
    "_windows8_": {},
    "_winphone10_": {},
    "_winphone8_": {},
    "areflexpropsreferenced": false,
    "autogrowmode": 1,
    "canUpdateUI": true,
    "clipbounds": true,
    "containerweight": 0,
    "dataDiffs": {
        "flxSuspend": {
            "__events__": {},
            "__info__": {
                "kuid": "c7eca058051640dd8508973bd8666ae9",
                "srcKUID": "fda63a183e544919a7d7f0c7d5711c1b",
                "wType": "FlexContainer"
            }
        },
        "flxUpgrade": {
            "__events__": {},
            "__info__": {
                "kuid": "a4eb53d52f5d42cd8b221100c0f9e6da",
                "srcKUID": "g063a58da74e4d98a0cdd7517e69d824",
                "wType": "FlexContainer"
            }
        },
        "fonticonDeactive": {
            "__events__": {},
            "__info__": {
                "kuid": "jfae6577120e47f2b30eab285a869fc3",
                "srcKUID": "fc697c448ca04a13b9e14b2c4de92917",
                "wType": "Label"
            }
        },
        "fonticonEdit": {
            "__events__": {},
            "__info__": {
                "kuid": "c3d2ed3d589f45ac8f51a7c1a07c2833",
                "srcKUID": "ee52a2219b8d41cd8210f66a9e7fcb13",
                "wType": "Label"
            }
        },
        "lblOption1": {
            "__events__": {},
            "__info__": {
                "kuid": "g06b6b434254446b9828eedf86dcdedd",
                "srcKUID": "c33a76927e06494890d184e41cf17a2f",
                "wType": "Label"
            }
        },
        "lblOption2": {
            "__events__": {},
            "__info__": {
                "kuid": "afc97261e4384cc987710c77b52663b7",
                "srcKUID": "ica7b2cfb53c4d8d9badf0644ca44f75",
                "wType": "Label"
            },
            "i18n_text": "i18n.frmCustomerManagementPersonal.upgradeToMicroBusiness",
            "text": "Upgrade to Micro Business"
        },
        "selectOptions": {
            "__events__": {},
            "__info__": {
                "isRoot": true,
                "kuid": "jb04115ec1094666bfe430e2c1975445",
                "srcKUID": "f6f14409f2d14d7aa162adc5f496666e",
                "wType": "FlexContainer"
            },
            "isVisible": false,
            "left": {
                "Default": {
                    "type": "string",
                    "value": ""
                }
            },
            "right": {
                "Default": {
                    "type": "string",
                    "value": "55px"
                }
            },
            "top": {
                "Default": {
                    "type": "string",
                    "value": "80dp"
                }
            }
        }
    },
    "enablescrolling": true,
    "id": "flxSelectOptions",
    "info": null,
    "iscustomlayout": false,
    "isdatareferenced": false,
    "isvisible": false,
    "kuid": "jb04115ec1094666bfe430e2c1975445",
    "layouttype": 4,
    "masterType": 0,
    "name": "kony.ui.UserWidgetInstance",
    "parent": "flxMainContent",
    "pf": "frmCustomerProfileContacts",
    "retaincontentalignment": false,
    "retainflexpositionproperties": false,
    "snapgridsize": 10,
    "snaptogrid": true,
    "sourceUserWidget": "f6f14409f2d14d7aa162adc5f496666e",
    "wType": "UserWidgetInstance"
}