{
    "@class": "com.kony.gen.viz.model.component.KVizListBox",
    "DNDConfig": null,
    "__parentReadjusting__": false,
    "_bottom_": {
        "type": "string",
        "value": "60px"
    },
    "_height_": {
        "type": "string",
        "value": "30px"
    },
    "_left_": {
        "type": "string",
        "value": "20px"
    },
    "_margin_": [
        0,
        0,
        0,
        0
    ],
    "_padding_": [
        3,
        0,
        0,
        0
    ],
    "_placeholder_": "Please Select",
    "_right_": {
        "type": "string",
        "value": "20px"
    },
    "_skin_": "sf172fb41e5e4367a8dd3a164a2a68b1",
    "_top_": {
        "type": "string",
        "value": "120px"
    },
    "_width_": {
        "type": "string",
        "value": "400px"
    },
    "canUpdateUI": true,
    "centery": {
        "type": "string",
        "value": ""
    },
    "containerweight": 100,
    "contentalignment": 4,
    "context": {
        "channel": "desktop",
        "formID": "frmCustomerManagement",
        "platform": "desktopweb",
        "templateType": "forms",
        "topLevelBox": null
    },
    "desktopweb": {
        "centerY": {
            "type": "string",
            "value": ""
        }
    },
    "focusskin": "s9cde905e070427da6f3c5c1a53dddfd",
    "groupcells": false,
    "id": "lbxEstatementEmail",
    "info": null,
    "iscustomlayout": false,
    "isvisible": true,
    "kuid": "a7e0ce1dd8da4cc29c797133755886b0",
    "masterdata": [
        [
            "lb1",
            "Placeholder One"
        ],
        [
            "lb2",
            "Placeholder Two"
        ],
        [
            "lb3",
            "Placeholder Three"
        ]
    ],
    "name": "kony.ui.ListBox",
    "parent": "flxEstatementInner",
    "pf": "frmCustomerProfileContacts",
    "retaincontentalignment": false,
    "retainflexpositionproperties": false,
    "selectedkey": null,
    "selectedkeys": null,
    "selectedkeyvalue": null,
    "selectedkeyvalues": null,
    "size": 18,
    "viewconfig": {
        "toggleViewConfig": {
            "viewStyle": 0
        }
    },
    "viewtype": 0,
    "wType": "ListBox",
    "zindex": 20
}