{
    "@class": "com.kony.gen.viz.model.component.KVizUserWidget",
    "DNDConfig": null,
    "__parentReadjusting__": false,
    "_children_": [],
    "_desktopweb_": {},
    "_height_": {
        "type": "string",
        "value": "100%"
    },
    "_left_": {
        "type": "string",
        "value": "0dp"
    },
    "_margin_": [
        0,
        0,
        0,
        0
    ],
    "_orientation_": 1,
    "_padding_": [
        0,
        0,
        0,
        0
    ],
    "_percent_": true,
    "_render_": true,
    "_responsiveData_": {},
    "_skin_": "s39233a8d65f40d5b9120e116f6d9ef6",
    "_top_": {
        "type": "string",
        "value": "0dp"
    },
    "_vizProps_": {
        "hidewidgethierarchy": false
    },
    "_width_": {
        "type": "string",
        "value": "100%"
    },
    "areflexpropsreferenced": false,
    "canUpdateUI": true,
    "clipbounds": true,
    "containerweight": 0,
    "dataDiffs": {
        "btnPopUpCancel": {
            "__events__": {},
            "__info__": {
                "kuid": "eb464974c4ab46d9b7e786d47ea8210d",
                "srcKUID": "d4ffebacb2fc450f90f34ff2c512b36f",
                "wType": "Button"
            },
            "i18n_text": null,
            "isVisible": true,
            "right": {
                "Default": {
                    "type": "string",
                    "value": "20px"
                }
            },
            "text": "CLOSE",
            "width": {
                "Default": {
                    "type": "string",
                    "value": "100px"
                }
            }
        },
        "btnPopUpDelete": {
            "__events__": {},
            "__info__": {
                "kuid": "g01659ae51e0435fb296a9d0a902e007",
                "srcKUID": "d74b32688d0448359e725db30e5db9ca",
                "wType": "Button"
            },
            "i18n_text": null,
            "isVisible": false,
            "text": "YES, OFFLINE",
            "width": {
                "Default": {
                    "type": "string",
                    "value": "150px"
                }
            }
        },
        "flxPopUp": {
            "__events__": {},
            "__info__": {
                "kuid": "j218a33079354a97bd0b82ee58748115",
                "srcKUID": "f1999a7df0404922bf7e8acfb6a3780a",
                "wType": "FlexContainer"
            },
            "centerY": {
                "Default": {
                    "type": "string",
                    "value": ""
                }
            },
            "top": {
                "Default": {
                    "type": "string",
                    "value": "220px"
                }
            }
        },
        "flxPopUpButtons": {
            "__events__": {},
            "__info__": {
                "kuid": "g1afde1f9a8543068310c87e013fbdf5",
                "srcKUID": "f009cbfda01245849be265a8e58d3cf3",
                "wType": "FlexContainer"
            },
            "autogrowMode": {
                "Default": 0
            },
            "height": {
                "Default": {
                    "type": "string",
                    "value": "80px"
                }
            },
            "layoutType": 2,
            "width": {
                "Default": {
                    "type": "string",
                    "value": "100%"
                }
            }
        },
        "flxPopUpClose": {
            "__events__": {},
            "__info__": {
                "kuid": "e881b2d77bde4ceb82c8765bc48dfff8",
                "srcKUID": "f9727789f4894508b70f7d5ae8b7a9a2",
                "wType": "FlexContainer"
            }
        },
        "flxPopUpTopColor": {
            "__events__": {},
            "__info__": {
                "kuid": "ebde5e0c3b06474a8975309169f6b356",
                "srcKUID": "d5d6b9f19ae4477b8708d1b775160fb5",
                "wType": "FlexContainer"
            }
        },
        "flxPopupHeader": {
            "__events__": {},
            "__info__": {
                "kuid": "i6ad1003e22043a5a9506997383015ae",
                "srcKUID": "ad64beaac2734a82ad110cd93e7e9838",
                "wType": "FlexContainer"
            }
        },
        "fontIconImgCLose": {
            "__events__": {},
            "__info__": {
                "kuid": "gbf9380208fc40afb6a0989e58eb28af",
                "srcKUID": "hb8853052adb4ceb98482f3b9abdb6b1",
                "wType": "Label"
            }
        },
        "lblPopUpClose": {
            "__events__": {},
            "__info__": {
                "kuid": "e2e930e6b0964872987d7c74ff4e834b",
                "srcKUID": "j726c91d687f4bdea9b61ee15718ea91",
                "wType": "Label"
            }
        },
        "lblPopUpMainMessage": {
            "__events__": {},
            "__info__": {
                "kuid": "b5c56dc2b0f14485bd1e5d9b057b1bda",
                "srcKUID": "cf94c2324e174d609ee2a12b7557d0a5",
                "wType": "Label"
            },
            "i18n_text": null,
            "text": "Set the Branch Offline?"
        },
        "popUp": {
            "__events__": {},
            "__info__": {
                "isRoot": true,
                "kuid": "h3d5a572715444eaafd4bf7f7611b065",
                "srcKUID": "bf3aac0ddc8b47a0b463a18207905574",
                "wType": "FlexContainer"
            }
        },
        "rtxPopUpDisclaimer": {
            "__events__": {},
            "__info__": {
                "kuid": "fcb5ebd5c1704b01a0a9a71d71049515",
                "srcKUID": "j4d87455f6ec44dbacababd4bf714b40",
                "wType": "RichText"
            },
            "text": "Are you sure to set the Branch to Offline mode?<br><br>\n\nIf you set it offline, the Branch does not show operational to the customer."
        }
    },
    "id": "popUpError",
    "info": null,
    "isdatareferenced": false,
    "isvisible": true,
    "kuid": "h3d5a572715444eaafd4bf7f7611b065",
    "layouttype": 2,
    "masterType": 0,
    "name": "kony.ui.UserWidgetInstance",
    "parent": "flxPopUpError",
    "pf": "frmCustomerProfileContacts",
    "snaptogrid": true,
    "sourceUserWidget": "bf3aac0ddc8b47a0b463a18207905574",
    "vizprops": {
        "hidewidgethierarchy": false
    },
    "wType": "UserWidgetInstance",
    "zindex": 1
}