{
    "DNDConfig": null,
    "__parentReadjusting__": false,
    "_height_": {
        "type": "ref",
        "value": "preferred"
    },
    "_left_": {
        "type": "string",
        "value": "35px"
    },
    "_margin_": [
        0,
        0,
        0,
        0
    ],
    "_orientation_": 6,
    "_padding_": [
        0,
        0,
        0,
        0
    ],
    "_percent_": true,
    "_right_": {
        "type": "string",
        "value": "35px"
    },
    "_skin_": "s306ceff489a42faa96cee4112b9839b",
    "_top_": {
        "type": "string",
        "value": "100px"
    },
    "allboxes": [],
    "autogrowmode": 1,
    "canUpdateUI": true,
    "children": [
        "MessageFilter",
        "datePicker",
        "flxCloseCal1"
    ],
    "clipbounds": true,
    "containerweight": 100,
    "enablescrolling": true,
    "id": "flxNewMessagePage",
    "info": null,
    "isvisible": true,
    "kuid": "cc034fa0804140669ab385fb869af0b9",
    "layouttype": 2,
    "name": "kony.ui.FlexContainer",
    "parent": "flxScrollMainContent",
    "pf": "frmCSR",
    "snapgridsize": 10,
    "snaptogrid": true,
    "wType": "FlexContainer",
    "widgetalignment": 1,
    "zindex": 1
}