{
    "DNDConfig": null,
    "__parentReadjusting__": false,
    "_height_": {
        "type": "string",
        "value": "250px"
    },
    "_margin_": [
        0,
        0,
        0,
        0
    ],
    "_orientation_": 6,
    "_padding_": [
        0,
        0,
        0,
        0
    ],
    "_percent_": true,
    "_skin_": "sc74bbd9c30247728d3dabf5547c0feb",
    "_top_": {
        "type": "string",
        "value": "250px"
    },
    "_width_": {
        "type": "string",
        "value": "600px"
    },
    "allboxes": [],
    "autogrowmode": 0,
    "canUpdateUI": true,
    "centerx": {
        "type": "string",
        "value": "50%"
    },
    "centery": {
        "type": "string",
        "value": ""
    },
    "children": [
        "flxPopUpTopColor",
        "flxPopupHeader",
        "flxPopUpButtons",
        "flxAssignDropdown"
    ],
    "clipbounds": false,
    "containerweight": 100,
    "enablescrolling": true,
    "id": "flxPopUp",
    "info": null,
    "isvisible": true,
    "kuid": "d2ee69087b024fcf9816077ac77ad8bd",
    "layouttype": 2,
    "name": "kony.ui.FlexContainer",
    "parent": "flxAssignPopup",
    "pf": "frmCSR",
    "snapgridsize": 10,
    "snaptogrid": true,
    "wType": "FlexContainer",
    "widgetalignment": 1,
    "zindex": 10
}