{
    "DNDConfig": null,
    "__parentReadjusting__": false,
    "_height_": {
        "type": "ref",
        "value": "preferred"
    },
    "_left_": {
        "type": "string",
        "value": "35px"
    },
    "_margin_": [
        0,
        0,
        0,
        0
    ],
    "_orientation_": 6,
    "_padding_": [
        0,
        0,
        0,
        0
    ],
    "_percent_": true,
    "_right_": {
        "type": "string",
        "value": "35px"
    },
    "_skin_": "sfaedc436fbf4bc98b828b7e1f3c11ab",
    "_top_": {
        "type": "string",
        "value": "20px"
    },
    "allboxes": [],
    "autogrowmode": 1,
    "canUpdateUI": true,
    "children": [
        "flxTemplatesAddSpace",
        "flxSeperator",
        "flxScrollAddCommonBtn"
    ],
    "clipbounds": true,
    "containerweight": 100,
    "enablescrolling": true,
    "id": "flxTemplateAddInner",
    "info": null,
    "isvisible": true,
    "kuid": "a38330daf581464c8e4b5b90a712fd4f",
    "layouttype": 4,
    "name": "kony.ui.FlexContainer",
    "parent": "flxCreateTempplate",
    "pf": "frmCSR",
    "snapgridsize": 10,
    "snaptogrid": true,
    "vizProps": {},
    "wType": "FlexContainer",
    "widgetalignment": 1,
    "zindex": 1
}