{
    "@class": "com.kony.gen.viz.model.component.KVizRichText",
    "DNDConfig": null,
    "__parentReadjusting__": false,
    "_height_": {
        "type": "ref",
        "value": "preferred"
    },
    "_left_": {
        "type": "string",
        "value": "0dp"
    },
    "_margin_": [
        0,
        0,
        0,
        0
    ],
    "_padding_": [
        0,
        0,
        0,
        0
    ],
    "_skin_": "sc01e8aa92f346c388fce223f0d1196d",
    "_text_": "No result found with the keyword \"Key Word\". <br>Try with another keyword",
    "_top_": {
        "type": "string",
        "value": "0dp"
    },
    "_width_": {
        "type": "string",
        "value": "100%"
    },
    "_wrapping_": 2,
    "canUpdateUI": true,
    "centerx": {
        "type": "string",
        "value": "50%"
    },
    "centery": {
        "type": "string",
        "value": "50%"
    },
    "containerweight": 100,
    "contentalignment": 5,
    "id": "richtextNoResult",
    "info": null,
    "isvisible": false,
    "kuid": "de912cb401a24108a0fe9ce2159f5ff5",
    "name": "kony.ui.RichText",
    "paddinginpixel": false,
    "parent": "flxAssignDropdown",
    "pf": "frmCSR",
    "texti18n": "i18n.frmCSR.richtextNoResult",
    "wType": "RichText",
    "widgetalignment": 5,
    "zindex": 1
}