{
    "@class": "com.kony.gen.viz.model.container.KVizSegment2",
    "DNDConfig": null,
    "__parentReadjusting__": false,
    "_data_": [
        {
            "lblViewFullName": {
                "@class": "com.viz.ide.model.segment.SimpleTextSegmentData",
                "text": "Edward"
            }
        },
        {
            "lblViewFullName": {
                "@class": "com.viz.ide.model.segment.SimpleTextSegmentData",
                "text": "Edward"
            }
        },
        {
            "lblViewFullName": {
                "@class": "com.viz.ide.model.segment.SimpleTextSegmentData",
                "text": "Edward"
            }
        },
        {
            "lblViewFullName": {
                "@class": "com.viz.ide.model.segment.SimpleTextSegmentData",
                "text": "Edward"
            }
        },
        {
            "lblViewFullName": {
                "@class": "com.viz.ide.model.segment.SimpleTextSegmentData",
                "text": "Edward"
            }
        }
    ],
    "_height_": {
        "type": "ref",
        "value": "preferred"
    },
    "_indicator_": "none",
    "_margin_": [
        0,
        0,
        0,
        0
    ],
    "_orientation_": 2,
    "_padding_": [
        0,
        0,
        0,
        0
    ],
    "_top_": {
        "type": "string",
        "value": "10px"
    },
    "_width_": {
        "type": "string",
        "value": "100%"
    },
    "autogrowmode": 1,
    "canUpdateUI": true,
    "centerx": {
        "type": "string",
        "value": "50%"
    },
    "containerweight": 100,
    "counter": "04",
    "focusedindex": null,
    "focuseditem": null,
    "groupcells": false,
    "hasSections": false,
    "id": "segUsers",
    "info": null,
    "ipad": {
        "psp": {
            "indicator": "rowselect"
        }
    },
    "iphone": {
        "psp": {
            "indicator": "rowselect"
        }
    },
    "isvisible": true,
    "kuid": "jc7b1294db2541a08839137ed86ffff3",
    "masterdata": {},
    "name": "kony.ui.SegmentedUI2",
    "needpageindicator": true,
    "pageoffdotimage": "pageoffdot.png",
    "pageondotimage": "pageondot.png",
    "paginationconfig": {
        "position": "bottom"
    },
    "parent": "flxAssignDropdown",
    "pf": "frmCSR",
    "retainselection": false,
    "rowTemplateId": "edfeb40ec73d473b8085ac4f1d496662",
    "rowcounter": 4,
    "rowfocusskin": "se901dcdd2ae4a58a81f21c009edf99e",
    "rowskin": "s54014e0d4204ce9acd27107655ded87",
    "rowtemplate": "flxAssignUsers",
    "screenlevelwidget": false,
    "seccounter": 0,
    "sectionheaderskin": "sffa0c1a0560403189088e98f7b4f498",
    "selectedRows": null,
    "selectedState": false,
    "selectedindex": null,
    "selectedindices": null,
    "selecteditems": null,
    "selectedsectionindex": 0,
    "selectionbehavior": "default",
    "separatorrequired": false,
    "showscrollbars": false,
    "viewtype": "tableview",
    "vizProps": {},
    "wType": "Segment",
    "widgetalignment": 5,
    "widgetdatamap": {
        "flxAssignUsers": "flxAssignUsers",
        "lblViewFullName": "lblViewFullName"
    },
    "zindex": 20
}