{
    "@class": "com.kony.gen.viz.model.component.KVizButton",
    "DNDConfig": null,
    "__parentReadjusting__": false,
    "_height_": {
        "type": "ref",
        "value": "preferred"
    },
    "_left_": {
        "type": "string",
        "value": "3px"
    },
    "_margin_": [
        6,
        6,
        6,
        6
    ],
    "_padding_": [
        0,
        0,
        0,
        0
    ],
    "_right_": {
        "type": "string",
        "value": "3px"
    },
    "_skin_": "sd8e644729e74cc790805698e1ae7985",
    "_text_": "Click here",
    "_width_": {
        "type": "ref",
        "value": "preferred"
    },
    "canUpdateUI": true,
    "centery": {
        "type": "string",
        "value": "50%"
    },
    "containerweight": 100,
    "contentalignment": 5,
    "displaytext": true,
    "focusskin": "s152a8ebff2840e2b2942e5ec1abbdb5",
    "id": "btnToastLink",
    "info": null,
    "isvisible": false,
    "kuid": "cc8a0746fc764e20b98ace41d19d63bc",
    "name": "kony.ui.Button",
    "parent": "flxMessageWrapper",
    "pf": "userwidgetmodel",
    "texti18n": "i18n.frmLocations.btnClickHere",
    "wType": "Button",
    "zindex": 1
}