{
    "@class": "com.kony.gen.viz.model.component.KVizLabel",
    "DNDConfig": null,
    "__parentReadjusting__": false,
    "_height_": {
        "type": "string",
        "value": "32dp"
    },
    "_left_": {
        "type": "number",
        "value": "0"
    },
    "_margin_": [
        1,
        1,
        1,
        1
    ],
    "_padding_": [
        10,
        4,
        10,
        5
    ],
    "_right_": {
        "type": "number",
        "value": "0"
    },
    "_skin_": "s45433135b954765ac23df7351927114",
    "_text_": "ADD NEW PERMISSION",
    "_top_": {
        "type": "number",
        "value": "0"
    },
    "_width_": {
        "type": "ref",
        "value": "preferred"
    },
    "_wrapping_": 2,
    "android": {
        "textStyle": {
            "letterSpacing": 0,
            "strikeThrough": false
        }
    },
    "canUpdateUI": true,
    "containerweight": 100,
    "contentalignment": 5,
    "id": "lblAddNewOption",
    "info": null,
    "ipad": {
        "psp": {
            "wrapping": 2
        }
    },
    "iphone": {
        "psp": {
            "wrapping": 2
        }
    },
    "isvisible": true,
    "kuid": "b3a6223eaac240c2aec04f4e88d4c9a7",
    "name": "kony.ui.Label",
    "paddinginpixel": false,
    "parent": "flxAddNewOption",
    "pf": "userwidgetmodel",
    "texti18n": "i18n.permission.ADDNEWPERMISSION",
    "tooltip": "",
    "wType": "Label",
    "zindex": 2
}