{
    "@class": "com.kony.gen.viz.model.component.KVizLabel",
    "DNDConfig": null,
    "__parentReadjusting__": false,
    "_height_": {
        "type": "string",
        "value": "20dp"
    },
    "_margin_": [
        1,
        1,
        1,
        1
    ],
    "_padding_": [
        1,
        0,
        1,
        0
    ],
    "_skin_": "s5c23eac458b43048eae0a7a88c5a8e8",
    "_text_": "I forgot my user ID or Password",
    "_top_": {
        "type": "number",
        "value": "0"
    },
    "_width_": {
        "type": "string",
        "value": "100%"
    },
    "_wrapping_": 2,
    "android": {
        "textStyle": {
            "letterSpacing": 0,
            "strikeThrough": false
        }
    },
    "canUpdateUI": true,
    "centerx": {
        "type": "string",
        "value": "50%"
    },
    "centery": {
        "type": "string",
        "value": "50%"
    },
    "containerweight": 100,
    "contentalignment": 5,
    "desktopweb": {
        "psp": {}
    },
    "disabledSkins": {
        "hoverSkin": "s21cc6a5b4a24095a57253fb0f816f55"
    },
    "id": "lblForgotCredentials",
    "info": null,
    "ipad": {
        "psp": {
            "wrapping": 2
        }
    },
    "iphone": {
        "psp": {
            "wrapping": 2
        }
    },
    "isvisible": true,
    "kuid": "b69bfcabc5464f6c8162275ca4ae6ce4",
    "name": "kony.ui.Label",
    "paddinginpixel": false,
    "parent": "flxForgotCredentials",
    "pf": "frmLogin",
    "texti18n": "i18n.frmLogin.flxForgotCredentials",
    "tooltip": "",
    "wType": "Label",
    "zindex": 1
}