{
    "@class": "com.kony.gen.viz.model.component.KVizLabel",
    "DNDConfig": null,
    "__parentReadjusting__": false,
    "_height_": {
        "type": "ref",
        "value": "preferred"
    },
    "_left_": {
        "type": "string",
        "value": "38dp"
    },
    "_margin_": [
        1,
        1,
        1,
        1
    ],
    "_padding_": [
        0,
        0,
        0,
        0
    ],
    "_skin_": "sd5f1ee4b3f5437c8bbb5799b7ab0ed1",
    "_text_": "Welcome Message.",
    "_top_": {
        "type": "string",
        "value": "230dp"
    },
    "_width_": {
        "type": "ref",
        "value": "preferred"
    },
    "_wrapping_": 2,
    "android": {
        "textStyle": {
            "letterSpacing": 0,
            "strikeThrough": false
        }
    },
    "canUpdateUI": true,
    "containerweight": 100,
    "contentalignment": 4,
    "id": "Welcomelbl",
    "info": null,
    "ipad": {
        "psp": {
            "wrapping": 2
        }
    },
    "iphone": {
        "psp": {
            "wrapping": 2
        }
    },
    "isvisible": false,
    "kuid": "gca128772689433997aa55b5447409f6",
    "name": "kony.ui.Label",
    "parent": "flxKonyLogo",
    "pf": "frmLogin",
    "texti18n": "i18n.frmLogin.Welcomelbl",
    "tooltip": "",
    "wType": "Label",
    "zindex": 1
}