{
    "@class": "com.kony.gen.viz.model.component.KVizButton",
    "DNDConfig": null,
    "__parentReadjusting__": false,
    "_bottom_": {
        "type": "string",
        "value": "2px"
    },
    "_height_": {
        "type": "string",
        "value": "30px"
    },
    "_margin_": [
        6,
        6,
        6,
        6
    ],
    "_padding_": [
        0,
        0,
        0,
        0
    ],
    "_right_": {
        "type": "string",
        "value": "5px"
    },
    "_skin_": "s68f239b5bef4ddda93b35d84ab737ae",
    "_text_": "Add",
    "_top_": {
        "type": "string",
        "value": "100px"
    },
    "_width_": {
        "type": "string",
        "value": "70px"
    },
    "canUpdateUI": true,
    "containerweight": 100,
    "contentalignment": 5,
    "desktopweb": {
        "psp": {
            "hoverSkin": "sa0a214e6979469ebf190bb69eae8def"
        }
    },
    "displaytext": true,
    "focusskin": "s68f239b5bef4ddda93b35d84ab737ae",
    "id": "addBtn",
    "info": null,
    "isvisible": true,
    "kuid": "bb297ee6d8f14666b71d4bbfff875bb7",
    "name": "kony.ui.Button",
    "parent": "flxNotes",
    "pf": "userwidgetmodel",
    "wType": "Button",
    "zindex": 1,
    "texti18n": "i18n.frmPermissionsController.Add"
}