{
    "@class": "com.kony.gen.viz.model.component.KVizBrowser",
    "DNDConfig": null,
    "__parentReadjusting__": false,
    "_bottom_": {
        "type": "string",
        "value": "10px"
    },
    "_left_": {
        "type": "string",
        "value": "13px"
    },
    "_margin_": [
        0,
        0,
        0,
        0
    ],
    "_padding_": [
        0,
        0,
        0,
        0
    ],
    "_right_": {
        "type": "string",
        "value": "15px"
    },
    "_top_": {
        "type": "string",
        "value": "20px"
    },
    "_type_": 3,
    "androidwearos": {
        "render": false
    },
    "canUpdateUI": true,
    "containerweight": 69,
    "detecttelnumber": true,
    "htmlstring": "<!DOCTYPE html>\n<html>\n<body>\n  <p>CSR Assist</p>\n</body>\n</html>",
    "id": "CSRBrowser",
    "info": null,
    "iscustomlayout": false,
    "isvisible": true,
    "kuid": "b79606a43b1141b88c2a2acac8322d3b",
    "margininpixel": false,
    "method": "get",
    "name": "kony.ui.Browser",
    "paddinginpixel": false,
    "parent": "CSRAssist",
    "pf": "userwidgetmodel",
    "requesturlconfig": {
        "URL": "",
        "requestMethod": "get"
    },
    "retaincontentalignment": false,
    "retainflexpositionproperties": false,
    "screenlevelwidget": false,
    "url": "",
    "wType": "Browser",
    "zindex": 1
}