{
    "@class": "com.kony.gen.viz.model.component.KVizRichText",
    "DNDConfig": null,
    "__parentReadjusting__": false,
    "_bottom_": {
        "type": "string",
        "value": "10px"
    },
    "_height_": {
        "type": "ref",
        "value": "preferred"
    },
    "_left_": {
        "type": "string",
        "value": "15px"
    },
    "_margin_": [
        0,
        0,
        0,
        0
    ],
    "_padding_": [
        0,
        0,
        0,
        0
    ],
    "_skin_": "s3ffd2c66e5248c1aeb5430fa3380ad3",
    "_text_": "Lorem ipsum dolor sit amet, consectetur adipiscing elit, sed do incididunt ut labore et dolore magna aliqua.",
    "_top_": {
        "type": "string",
        "value": "5px"
    },
    "_width_": {
        "type": "string",
        "value": "80%"
    },
    "_wrapping_": 2,
    "canUpdateUI": true,
    "containerweight": 100,
    "contentalignment": 1,
    "id": "rtxDescription",
    "info": null,
    "isvisible": true,
    "kuid": "c8beafc72c5443c78a202427e4d7e08f",
    "name": "kony.ui.RichText",
    "parent": "flxNameDesc",
    "pf": "segGrpAddOption",
    "wType": "RichText",
    "watchos": {
        "render": false
    },
    "widgetalignment": 5,
    "windows10": {
        "render": false
    },
    "winphone10": {
        "render": false
    },
    "zindex": 1
}