{
    "DNDConfig": null,
    "__parentReadjusting__": false,
    "_height_": {
        "type": "string",
        "value": "30px"
    },
    "_left_": {
        "type": "string",
        "value": "0px"
    },
    "_margin_": [
        0,
        0,
        0,
        0
    ],
    "_orientation_": 6,
    "_padding_": [
        0,
        0,
        0,
        0
    ],
    "_percent_": true,
    "_skin_": "s8ff24328417401b877c3ceb2a5fa27c",
    "_width_": {
        "type": "string",
        "value": "30px"
    },
    "allboxes": [],
    "autogrowmode": 0,
    "canUpdateUI": true,
    "centery": {
        "type": "string",
        "value": "50%"
    },
    "children": [
        "lblIconOptions"
    ],
    "clipbounds": true,
    "containerId": true,
    "containerweight": 100,
    "desktopweb": {
        "psp": {
            "hoverSkin": "scd6759b91984d0791be140ca44627a3"
        }
    },
    "enablescrolling": true,
    "id": "flxOptions",
    "ide_onClick": "AS_FlexContainer_e46c0024c34f42c5a0ea750a84ed1be9",
    "info": null,
    "isvisible": true,
    "kuid": "fdf780ed14a54d9fa1adf394001f0391",
    "layouttype": 2,
    "name": "kony.ui.FlexContainer",
    "parent": "flxConfigurationContextualMenu",
    "pf": "segConfiguration",
    "snapgridsize": 10,
    "snaptogrid": true,
    "wType": "FlexContainer",
    "widgetalignment": 1,
    "zindex": 1
}