{
    "DNDConfig": null,
    "_height_": {
        "type": "ref",
        "value": "preferred"
    },
    "_margin_": [
        0,
        0,
        0,
        0
    ],
    "_orientation_": 6,
    "_padding_": [
        0,
        0,
        0,
        0
    ],
    "_percent_": true,
    "_skin_": "s512ca636f844ef4aa81b2647c08ce24",
    "allboxes": [],
    "autogrowmode": 1,
    "canUpdateUI": true,
    "children": [
        "flxMessage",
        "flxAttatchments"
    ],
    "clipbounds": true,
    "containerId": true,
    "containerweight": 100,
    "controllerInfo": {
        "default": {
            "channel": "desktop",
            "name": "flxEmailMainLeftPaddingController"
        }
    },
    "enablescrolling": true,
    "id": "flxEmailMainLeftPadding",
    "info": null,
    "isTemplate": true,
    "isvisible": true,
    "kuid": "bbb4bf8b3a084cfc8b57fdd7687b1dcc",
    "layouttype": 4,
    "name": "kony.ui.FlexContainer",
    "parent": "segEmailDetailsLeftPadding",
    "pf": "segEmailDetailsLeftPadding",
    "snapgridsize": 10,
    "snaptogrid": true,
    "wType": "FlexContainer",
    "widgetalignment": 1
}