{
    "@class": "com.kony.gen.viz.model.component.KVizUserWidget",
    "DNDConfig": null,
    "__parentReadjusting__": false,
    "_children_": [],
    "_desktopweb_": {},
    "_height_": {
        "type": "string",
        "value": "85px"
    },
    "_left_": {
        "type": "string",
        "value": "0dp"
    },
    "_margin_": [
        0,
        0,
        0,
        0
    ],
    "_orientation_": 1,
    "_padding_": [
        0,
        0,
        0,
        0
    ],
    "_percent_": true,
    "_render_": true,
    "_responsiveData_": {},
    "_skin_": "s6fded45b1d247708b676f7d4e9fb8ef",
    "_top_": {
        "type": "string",
        "value": "0dp"
    },
    "_vizProps_": {
        "hidewidgethierarchy": false
    },
    "_width_": {
        "type": "string",
        "value": "100%"
    },
    "areflexpropsreferenced": false,
    "canUpdateUI": true,
    "clipbounds": true,
    "containerweight": 0,
    "dataDiffs": {
        "advancedSearch": {
            "__events__": {},
            "__info__": {
                "isRoot": true,
                "kuid": "dfdb575d9849486599b37d673303ed52",
                "srcKUID": "c15aec9f98504392898a6da4dd808a53",
                "wType": "FlexContainer"
            }
        },
        "calCreateDate": {
            "__events__": {},
            "__info__": {
                "kuid": "h71378b975f04184b21aaa1d6faee25b",
                "srcKUID": "fb44e547dac948f8b3a6306fca96d50b",
                "wType": "Calendar"
            }
        },
        "calUpdatedDate": {
            "__events__": {},
            "__info__": {
                "kuid": "bcb23bb832ce4f438d9de49cda175ee2",
                "srcKUID": "fd2b31c8508d49fb94f902123e0fcf93",
                "wType": "Calendar"
            }
        },
        "flxLine": {
            "__events__": {},
            "__info__": {
                "kuid": "h296372d07e94622bfe7497a77bd6f90",
                "srcKUID": "ee242195d5c94fa2a47f64483ee3561a",
                "wType": "FlexContainer"
            }
        },
        "flxNames": {
            "__events__": {},
            "__info__": {
                "kuid": "beeaa88cdfce46a4abd93ed7c9d21397",
                "srcKUID": "i6f0a710b9704f54af71132d91e84063",
                "wType": "FlexContainer"
            }
        },
        "flxSearch": {
            "__events__": {},
            "__info__": {
                "kuid": "c15ab6357013423e9d9690507765928a",
                "srcKUID": "e3530e6f697f4ad6972cd1b55b6f739a",
                "wType": "FlexContainer"
            }
        },
        "imgDownArrow": {
            "__events__": {},
            "__info__": {
                "kuid": "f4a212c0a7f74f6eb391f4b409fccc71",
                "srcKUID": "f7af1fbc47f7455aba0e927592f0b67b",
                "wType": "Image"
            }
        },
        "imgDownArrow1": {
            "__events__": {},
            "__info__": {
                "kuid": "dad9f97edb204c7b915a2b2988b323b7",
                "srcKUID": "b2e9d8ace6a740239f4da69ed4fa1bcc",
                "wType": "Image"
            }
        },
        "lblFilter": {
            "__events__": {},
            "__info__": {
                "kuid": "f54a84d96711422aa70a962648fb2600",
                "srcKUID": "ee88e01bd71c4092a44095d2b3f649f4",
                "wType": "Label"
            }
        },
        "lblRole": {
            "__events__": {},
            "__info__": {
                "kuid": "c3439d0ef83e48a8b0f106fbf279e865",
                "srcKUID": "f3f4efca9eb24204bbb2cd2eb8d9ce8b",
                "wType": "Label"
            }
        },
        "lblShowingResults": {
            "__events__": {},
            "__info__": {
                "kuid": "a2dc7d47e34b4bf881662d2c27795944",
                "srcKUID": "i4d2c1a0fddf4ceeb5722c241dc4a5eb",
                "wType": "Label"
            }
        },
        "lblStatus": {
            "__events__": {},
            "__info__": {
                "kuid": "db7104686b8c4ecf93a8bd44ae3200b5",
                "srcKUID": "j30b1d5f3d274467a8476505b95bb09b",
                "wType": "Label"
            }
        }
    },
    "id": "advancedSearch",
    "info": null,
    "isdatareferenced": false,
    "isvisible": true,
    "kuid": "c459f91e81384a9a9e1a908f17300432",
    "layouttype": 2,
    "masterType": 0,
    "name": "kony.ui.UserWidgetInstance",
    "parent": "flxSearchHeading",
    "pf": "frmCustomerCare",
    "snaptogrid": true,
    "sourceUserWidget": "c15aec9f98504392898a6da4dd808a53",
    "wType": "UserWidgetInstance"
}