{
    "@class": "com.kony.gen.viz.model.component.KVizButton",
    "DNDConfig": null,
    "__parentReadjusting__": false,
    "_height_": {
        "type": "ref",
        "value": "preferred"
    },
    "_margin_": [
        6,
        6,
        6,
        6
    ],
    "_padding_": [
        0,
        0,
        0,
        0
    ],
    "_skin_": "s7c929aedf75483cad0e6fd64426a5a5",
    "_text_": "Add More",
    "_width_": {
        "type": "ref",
        "value": "preferred"
    },
    "canUpdateUI": true,
    "centerx": {
        "type": "string",
        "value": "50%"
    },
    "centery": {
        "type": "string",
        "value": "50%"
    },
    "containerweight": 100,
    "contentalignment": 5,
    "desktopweb": {
        "psp": {}
    },
    "disabledSkins": {
        "focusSkin": "s12ffc4115eb40bab37f0f87264f662f",
        "hoverSkin": "s12ffc4115eb40bab37f0f87264f662f"
    },
    "displaytext": true,
    "id": "btnAddMore",
    "info": null,
    "isvisible": true,
    "kuid": "d055fbc468b5498d958c5b34f5f22e42",
    "name": "kony.ui.Button",
    "parent": "flxViewEditButton",
    "pf": "frmCustomerCare",
    "texti18n": "i18n.frmCustomerCare.btnAddMore",
    "wType": "Button",
    "zindex": 1
}