{
    "@class": "com.kony.gen.viz.model.component.KVizLabel",
    "DNDConfig": null,
    "__parentReadjusting__": false,
    "_height_": {
        "type": "string",
        "value": "40px"
    },
    "_left_": {
        "type": "string",
        "value": "15px"
    },
    "_margin_": [
        1,
        1,
        1,
        1
    ],
    "_padding_": [
        0,
        6,
        0,
        0
    ],
    "_skin_": "sbe8844072184526a7df33e6ec5ad4b7",
    "_text_": "A S S I G N",
    "_width_": {
        "type": "ref",
        "value": "preferred"
    },
    "_wrapping_": 2,
    "android": {
        "textStyle": {
            "letterSpacing": 0,
            "strikeThrough": false
        }
    },
    "canUpdateUI": true,
    "containerweight": 100,
    "contentalignment": 4,
    "id": "CopylblDescription0a252259b5c5b47",
    "info": null,
    "ipad": {
        "psp": {
            "wrapping": 2
        }
    },
    "iphone": {
        "psp": {
            "wrapping": 2
        }
    },
    "isvisible": true,
    "kuid": "j8a28bc174b341c5b7566c18adec7bc6",
    "name": "kony.ui.Label",
    "paddinginpixel": false,
    "parent": "flexOptions",
    "pf": "frmCustomerCare",
    "texti18n": "i18n.roles.ASSIGN",
    "tooltip": "",
    "wType": "Label",
    "zindex": 1
}