{
    "@class": "com.kony.gen.viz.model.component.KVizUserWidget",
    "DNDConfig": null,
    "__parentReadjusting__": false,
    "_android_": {},
    "_androidwearos_": {},
    "_children_": [],
    "_desktopweb_": {},
    "_height_": {
        "type": "ref",
        "value": "preferred"
    },
    "_ipad_": {},
    "_iphone_": {},
    "_kiosk_": {},
    "_left_": {
        "type": "string",
        "value": "0dp"
    },
    "_margin_": [
        0,
        0,
        0,
        0
    ],
    "_orientation_": 1,
    "_padding_": [
        0,
        0,
        0,
        0
    ],
    "_percent_": true,
    "_responsiveData_": {},
    "_skin_": "s8ff24328417401b877c3ceb2a5fa27c",
    "_spa_": {},
    "_spaan_": {},
    "_spaandroidtablet_": {},
    "_spabb_": {},
    "_spaip_": {},
    "_spaipad_": {},
    "_spamobile_": {},
    "_spatablet_": {},
    "_spawindowstablet_": {},
    "_spawinphone8_": {},
    "_tabrcandroid_": {},
    "_top_": {
        "type": "string",
        "value": "0dp"
    },
    "_vizProps_": {
        "hidewidgethierarchy": false
    },
    "_width_": {
        "type": "string",
        "value": "100%"
    },
    "_windows10_": {},
    "_windows8_": {},
    "_winphone10_": {},
    "_winphone8_": {},
    "areflexpropsreferenced": false,
    "autogrowmode": 1,
    "canUpdateUI": true,
    "clipbounds": true,
    "containerweight": 0,
    "dataDiffs": {
        "dropdownMainHeader": {
            "__events__": {},
            "__info__": {
                "isRoot": true,
                "kuid": "h6c5dbabae6a456ab8bebc819d32be06",
                "srcKUID": "e9ecd1a954fe449f933d74d4475ecb2c",
                "wType": "FlexContainer"
            }
        },
        "flxArrowImage": {
            "__events__": {},
            "__info__": {
                "kuid": "ec0ce74d8a754db58dd25ecb94f8616c",
                "srcKUID": "a0654fb367434863a3dd04394f488963",
                "wType": "FlexContainer"
            }
        },
        "flxChangePassword": {
            "__events__": {},
            "__info__": {
                "kuid": "f722ce60d4ba488fa02d4c4f0409d583",
                "srcKUID": "b9f5aa1dec1945e8a4fc706963151525",
                "wType": "FlexContainer"
            }
        },
        "flxDropdown": {
            "__events__": {},
            "__info__": {
                "kuid": "ccdbd7ec716641a698390ad80c48a8ef",
                "srcKUID": "e3ae96d2ab8e4053a060a40d0b51b0f7",
                "wType": "FlexContainer"
            },
            "isVisible": false
        },
        "flxHeaderUserOptions": {
            "__events__": {},
            "__info__": {
                "kuid": "d4e0c44aaea1409ba098cf211786030a",
                "srcKUID": "d725df1665b84f33adf91d068d28c92d",
                "wType": "FlexContainer"
            }
        },
        "flxIconChangePswd": {
            "__events__": {},
            "__info__": {
                "kuid": "ac97d8717b314451a998b93baadcd375",
                "srcKUID": "a81662e8e3404d93b7def6cc521c34d3",
                "wType": "FlexContainer"
            }
        },
        "flxIconSignOut": {
            "__events__": {},
            "__info__": {
                "kuid": "fd802222f1ad45d695814663cde99530",
                "srcKUID": "d868d38e0d244a4394c73cb0e36d80f5",
                "wType": "FlexContainer"
            }
        },
        "flxOuterActions": {
            "__events__": {},
            "__info__": {
                "kuid": "i9cd60ee08b14a568eb517d6dc151865",
                "srcKUID": "a995670c56484d68bb9ce2e772b37ca1",
                "wType": "FlexContainer"
            }
        },
        "flxSignOut": {
            "__events__": {},
            "__info__": {
                "kuid": "b42f010c2bfd49098b92329ebb77e9db",
                "srcKUID": "b5b4e89312864aba9b92703592a93bdc",
                "wType": "FlexContainer"
            }
        },
        "imgUpArrow": {
            "__events__": {},
            "__info__": {
                "kuid": "gc7071cfff364a01a77491880ddf735c",
                "srcKUID": "ia67f325a5bd440980ffbdd6113c1ed9",
                "wType": "Image"
            },
            "src": "uparrow_2x.png"
        },
        "lblChangePswd": {
            "__events__": {},
            "__info__": {
                "kuid": "h4ad62fcc27d49d1b3dfab674c4f5262",
                "srcKUID": "h6ef861927f14067a6e24571afbf3ac8",
                "wType": "Label"
            }
        },
        "lblIconChangePswrd": {
            "__events__": {},
            "__info__": {
                "kuid": "d979fcbf2e3b4f61bd08a305205fd493",
                "srcKUID": "c7e885b835f144349ee945acf74dc742",
                "wType": "Label"
            }
        },
        "lblIconDownArrow": {
            "__events__": {},
            "__info__": {
                "kuid": "f5b41b43086d4d728152ba2deac495ab",
                "srcKUID": "ecb7499ea0ed400b85fb02d23bdca2cd",
                "wType": "Label"
            }
        },
        "lblIconSignOut": {
            "__events__": {},
            "__info__": {
                "kuid": "g5350b616ea54c919c385ac125265cb5",
                "srcKUID": "cef5bc51d7cc4302bb12ff0d453a0843",
                "wType": "Label"
            }
        },
        "lblSignOut": {
            "__events__": {},
            "__info__": {
                "kuid": "ff68d91100454826b256f22372aa56a6",
                "srcKUID": "a5a8860442564f66b1446440e5b757ea",
                "wType": "Label"
            }
        },
        "lblUserName": {
            "__events__": {},
            "__info__": {
                "kuid": "g752f2b772ca4be28d1604e80d33d4e7",
                "srcKUID": "h86662bbad8b4d65b161e0756ea7b35d",
                "wType": "Label"
            }
        }
    },
    "enablescrolling": true,
    "id": "dropdownMainHeader",
    "info": null,
    "iscustomlayout": false,
    "isdatareferenced": false,
    "issegmentchild": false,
    "isvisible": true,
    "kuid": "h6c5dbabae6a456ab8bebc819d32be06",
    "layouttype": 2,
    "masterType": 0,
    "name": "kony.ui.UserWidgetInstance",
    "parent": "flxHeaderDropdown",
    "pf": "frmCustomerCare",
    "retaincontentalignment": false,
    "retainflexpositionproperties": false,
    "retainflowhorizontalalignment": false,
    "snapgridsize": 10,
    "snaptogrid": true,
    "sourceUserWidget": "e9ecd1a954fe449f933d74d4475ecb2c",
    "wType": "UserWidgetInstance"
}