{
    "@class": "com.kony.gen.viz.model.component.KVizLabel",
    "DNDConfig": null,
    "__parentReadjusting__": false,
    "_height_": {
        "type": "ref",
        "value": "preferred"
    },
    "_margin_": [
        1,
        1,
        1,
        1
    ],
    "_padding_": [
        0,
        0,
        0,
        0
    ],
    "_right_": {
        "type": "string",
        "value": "40px"
    },
    "_skin_": "s7bc8a15549243fc9db0cc84d955a474",
    "_text_": "0/150",
    "_top_": {
        "type": "string",
        "value": "45px"
    },
    "_width_": {
        "type": "ref",
        "value": "preferred"
    },
    "_wrapping_": 2,
    "android": {
        "textStyle": {
            "letterSpacing": 0,
            "strikeThrough": false
        }
    },
    "canUpdateUI": true,
    "containerweight": 100,
    "contentalignment": 4,
    "id": "lblCharCount",
    "info": null,
    "ipad": {
        "psp": {
            "wrapping": 2
        }
    },
    "iphone": {
        "psp": {
            "wrapping": 2
        }
    },
    "isvisible": false,
    "kuid": "acd28656970445c385e80bd4858597a2",
    "name": "kony.ui.Label",
    "parent": "flxInformationWrapper",
    "pf": "frmCustomerCare",
    "texti18n": "i18n.frmCustomerCare.lblCharCount",
    "tooltip": "",
    "wType": "Label",
    "zindex": 5
}