{
    "@class": "com.kony.gen.viz.model.component.KVizLabel",
    "DNDConfig": null,
    "__parentReadjusting__": false,
    "_height_": {
        "type": "ref",
        "value": "preferred"
    },
    "_left_": {
        "type": "string",
        "value": "40dp"
    },
    "_margin_": [
        1,
        1,
        1,
        1
    ],
    "_padding_": [
        0,
        0,
        0,
        0
    ],
    "_skin_": "s6d5c4d7f0d340a883d98d441f507e03",
    "_text_": "Contact Details",
    "_top_": {
        "type": "string",
        "value": "176dp"
    },
    "_width_": {
        "type": "ref",
        "value": "preferred"
    },
    "_wrapping_": 2,
    "android": {
        "textStyle": {
            "letterSpacing": 0,
            "strikeThrough": false
        }
    },
    "canUpdateUI": true,
    "containerweight": 100,
    "contentalignment": 4,
    "id": "lblDetails",
    "info": null,
    "ipad": {
        "psp": {
            "wrapping": 2
        }
    },
    "iphone": {
        "psp": {
            "wrapping": 2
        }
    },
    "isvisible": true,
    "kuid": "cb6d9d5f74b342409d5499d478cf4524",
    "name": "kony.ui.Label",
    "parent": "flxInformationWrapper",
    "pf": "frmCustomerCare",
    "texti18n": "i18n.frmCustomerCare.lblDetails",
    "tooltip": "",
    "wType": "Label",
    "zindex": 1
}