{
    "@class": "com.kony.gen.viz.model.component.KVizUserWidget",
    "DNDConfig": null,
    "__parentReadjusting__": false,
    "_children_": [],
    "_desktopweb_": {},
    "_height_": {
        "type": "string",
        "value": "48dp"
    },
    "_left_": {
        "type": "string",
        "value": "0dp"
    },
    "_margin_": [
        0,
        0,
        0,
        0
    ],
    "_orientation_": 1,
    "_padding_": [
        0,
        0,
        0,
        0
    ],
    "_percent_": true,
    "_render_": true,
    "_responsiveData_": {},
    "_skin_": "s236cef409fb42b8a9690344e37ac553",
    "_top_": {
        "type": "string",
        "value": "0dp"
    },
    "_vizProps_": {
        "hidewidgethierarchy": false
    },
    "_width_": {
        "type": "string",
        "value": "100%"
    },
    "areflexpropsreferenced": false,
    "canUpdateUI": true,
    "clipbounds": true,
    "containerweight": 0,
    "dataDiffs": {
        "flxClearSearchImage": {
            "__events__": {},
            "__info__": {
                "kuid": "hf0fe52b804840a8b636a7a21852a508",
                "srcKUID": "d5fa1fe0b8df4dc88da1fb9c1cc109d4",
                "wType": "FlexContainer"
            }
        },
        "flxMenu": {
            "__events__": {},
            "__info__": {
                "kuid": "a97d0bde91dc48ab84c3492dd72f21bd",
                "srcKUID": "d69af681a5b043b59258497c8bf4de80",
                "wType": "FlexContainer"
            },
            "vizProps": {
                "hide": true
            }
        },
        "flxSearch": {
            "__events__": {},
            "__info__": {
                "kuid": "i1640f08bb5b4319a0ec36c1e0e0f523",
                "srcKUID": "c8397c48f8fe4b758a72e50699c1383e",
                "wType": "FlexContainer"
            }
        },
        "flxSearchContainer": {
            "__events__": {},
            "__info__": {
                "kuid": "c1ccd42ccba24cf1b4e9e8adb0f1f6f1",
                "srcKUID": "f2c45a126e844667bda14ad3d83009e4",
                "wType": "FlexContainer"
            }
        },
        "flxSubHeader": {
            "__events__": {},
            "__info__": {
                "kuid": "d06af97197b6481daa1a3b41ee0e58e0",
                "srcKUID": "h9164354ac8d4fdba73c54494c3ca15c",
                "wType": "FlexContainer"
            }
        },
        "fontIconCross": {
            "__events__": {},
            "__info__": {
                "kuid": "i3a854009a474958a64dfc08ad33910d",
                "srcKUID": "c00fcb7c57884242a6b19f90da4fc926",
                "wType": "Label"
            }
        },
        "fontIconSearchImg": {
            "__events__": {},
            "__info__": {
                "kuid": "ab49d8b3355744a0b48cdcf7eb5b44be",
                "srcKUID": "e0cab33f475f4edc80682504e43f6456",
                "wType": "Label"
            }
        },
        "lblRecords": {
            "__events__": {},
            "__info__": {
                "kuid": "bd38867029074129be1cbb047443e48f",
                "srcKUID": "b2c0b2ef982f466296ffcc5e6c27bdba",
                "wType": "Label"
            }
        },
        "lbxPageNumbers": {
            "__events__": {},
            "__info__": {
                "kuid": "e4e0888b44a34ec2a06af14c0bf2430f",
                "srcKUID": "e740cc4c33bc4c159a021bebd5f76924",
                "wType": "ListBox"
            }
        },
        "subHeader": {
            "__events__": {},
            "__info__": {
                "isRoot": true,
                "kuid": "f81999b4e6db4850bb056af63ba4bdca",
                "srcKUID": "d58a9887d7c34a8b81ed6f04b08810ea",
                "wType": "FlexContainer"
            }
        },
        "tbxSearchBox": {
            "__events__": {},
            "__info__": {
                "kuid": "f807723fc5ca466690166313e239835b",
                "srcKUID": "ced686da45754d2e859a31b958148437",
                "wType": "TextField"
            },
            "placeholder": "Search by Service Name"
        }
    },
    "id": "subHeader",
    "info": null,
    "isdatareferenced": false,
    "isvisible": true,
    "kuid": "f81999b4e6db4850bb056af63ba4bdca",
    "layouttype": 2,
    "masterType": 0,
    "name": "kony.ui.UserWidgetInstance",
    "parent": "flxMainSubHeader",
    "pf": "frmCustomerCare",
    "snaptogrid": true,
    "sourceUserWidget": "d58a9887d7c34a8b81ed6f04b08810ea",
    "wType": "UserWidgetInstance"
}