{
    "@class": "com.kony.gen.viz.model.component.KVizUserWidget",
    "DNDConfig": null,
    "__parentReadjusting__": false,
    "_android_": {},
    "_androidwearos_": {},
    "_children_": [],
    "_desktopweb_": {},
    "_height_": {
        "type": "string",
        "value": "40px"
    },
    "_ipad_": {},
    "_iphone_": {},
    "_kiosk_": {},
    "_left_": {
        "type": "string",
        "value": "0dp"
    },
    "_margin_": [
        0,
        0,
        0,
        0
    ],
    "_orientation_": 1,
    "_padding_": [
        0,
        0,
        0,
        0
    ],
    "_percent_": true,
    "_responsiveData_": {},
    "_skin_": "s8ff24328417401b877c3ceb2a5fa27c",
    "_spa_": {},
    "_spaan_": {},
    "_spaandroidtablet_": {},
    "_spabb_": {},
    "_spaip_": {},
    "_spaipad_": {},
    "_spamobile_": {},
    "_spatablet_": {},
    "_spawindowstablet_": {},
    "_spawinphone8_": {},
    "_tabrcandroid_": {},
    "_top_": {
        "type": "string",
        "value": "5dp"
    },
    "_vizProps_": {
        "hidewidgethierarchy": false
    },
    "_width_": {
        "type": "string",
        "value": "100%"
    },
    "_windows10_": {},
    "_windows8_": {},
    "_winphone10_": {},
    "_winphone8_": {},
    "areflexpropsreferenced": false,
    "canUpdateUI": true,
    "clipbounds": true,
    "containerweight": 0,
    "dataDiffs": {
        "contactNumber": {
            "__events__": {},
            "__info__": {
                "isRoot": true,
                "kuid": "f18dba7c068349679dcc30fd974da374",
                "srcKUID": "ibc3e5b3edb84d259fd2067931a782e9",
                "wType": "FlexContainer"
            },
            "autogrowMode": {
                "Default": 0
            },
            "height": {
                "Default": {
                    "type": "string",
                    "value": "40px"
                }
            },
            "left": {
                "Default": {
                    "type": "string",
                    "value": "0dp"
                }
            },
            "top": {
                "Default": {
                    "type": "string",
                    "value": "5dp"
                }
            },
            "width": {
                "Default": {
                    "type": "string",
                    "value": "100%"
                }
            }
        },
        "flxContactNumberWrapper": {
            "__events__": {},
            "__info__": {
                "kuid": "g867458211344ba8a638acb6f1ce535a",
                "srcKUID": "b758e1a12339403aa650221ca965e0a3",
                "wType": "FlexContainer"
            },
            "autogrowMode": {
                "Default": 0
            },
            "height": {
                "Default": {
                    "type": "string",
                    "value": "40px"
                }
            },
            "width": {
                "Default": {
                    "type": "string",
                    "value": "100%"
                }
            }
        },
        "flxError": {
            "__events__": {},
            "__info__": {
                "kuid": "b78249307b444e61973c4a2874e515d6",
                "srcKUID": "d82fbddca9a54c57af6370deb63a1b7b",
                "wType": "FlexContainer"
            },
            "isVisible": false,
            "top": {
                "Default": {
                    "type": "string",
                    "value": "45dp"
                }
            }
        },
        "lblDash": {
            "__events__": {},
            "__info__": {
                "kuid": "e5c2de893da946b8a4b47c7b5a2024a6",
                "srcKUID": "e219e548a8294d4ca5a93959705c8968",
                "wType": "Label"
            }
        },
        "lblErrorIcon": {
            "__events__": {},
            "__info__": {
                "kuid": "c6670c491eb744a58629ea13e8b5d2c7",
                "srcKUID": "ead8fe02893644c58598435384cbeebd",
                "wType": "Label"
            }
        },
        "lblErrorText": {
            "__events__": {},
            "__info__": {
                "kuid": "b22fc178bf7f4cfe8cbd88b9de68b958",
                "srcKUID": "ab774d00a69e4ee9985202f915601945",
                "wType": "Label"
            }
        },
        "txtContactNumber": {
            "__events__": {},
            "__info__": {
                "kuid": "ga95fed7f1a04b28a3e34983e3ffe1c0",
                "srcKUID": "a248bc5d195649d9ba617e4df7f1da81",
                "wType": "TextField"
            },
            "i18n_placeholder": "i18n.frmCustomerCareController.Phone_Number",
            "placeholder": "Number",
            "right": {
                "Default": {
                    "type": "string",
                    "value": "0dp"
                }
            },
            "textInputMode": "A",
            "width": {
                "Default": {
                    "type": "string",
                    "value": ""
                }
            }
        },
        "txtISDCode": {
            "__events__": {},
            "__info__": {
                "kuid": "a5d36a875f9848fbb7095a69950aeea4",
                "srcKUID": "b0b9033e30e247db83facee8c2040959",
                "wType": "TextField"
            },
            "i18n_placeholder": null,
            "placeholder": " ",
            "text": "",
            "top": {
                "Default": {
                    "type": "string",
                    "value": "0dp"
                }
            },
            "width": {
                "Default": {
                    "type": "string",
                    "value": "70dp"
                }
            }
        }
    },
    "enablescrolling": true,
    "id": "leadPhoneNumber",
    "info": null,
    "iscustomlayout": false,
    "isdatareferenced": false,
    "issegmentchild": false,
    "isvisible": true,
    "kuid": "f18dba7c068349679dcc30fd974da374",
    "layouttype": 2,
    "masterType": 0,
    "name": "kony.ui.UserWidgetInstance",
    "parent": "flxLeadPhoneNumber",
    "pf": "userwidgetmodel",
    "retaincontentalignment": false,
    "retainflexpositionproperties": false,
    "snapgridsize": 10,
    "snaptogrid": true,
    "sourceUserWidget": "ibc3e5b3edb84d259fd2067931a782e9",
    "wType": "UserWidgetInstance"
}