{
    "DNDConfig": null,
    "__parentReadjusting__": false,
    "_height_": {
        "type": "string",
        "value": "50px"
    },
    "_left_": {
        "type": "string",
        "value": "0px"
    },
    "_margin_": [
        0,
        0,
        0,
        0
    ],
    "_orientation_": 6,
    "_padding_": [
        0,
        0,
        0,
        0
    ],
    "_percent_": true,
    "_right_": {
        "type": "string",
        "value": "35px"
    },
    "_skin_": "s8ff24328417401b877c3ceb2a5fa27c",
    "_top_": {
        "type": "string",
        "value": "0"
    },
    "_width_": {
        "type": "string",
        "value": "1568dp"
    },
    "allboxes": [],
    "autogrowmode": 0,
    "canUpdateUI": true,
    "children": [
        "lblModuleName",
        "lblLogType",
        "lblActivityType",
        "lblDescription",
        "lblDateAndTime",
        "flxStatus",
        "lblChannel",
        "lblIPAddress",
        "lblDevice",
        "lblOS",
        "lblReferenceId",
        "lblErrorCode",
        "lblMFAType"
    ],
    "clipbounds": false,
    "containerId": true,
    "containerweight": 100,
    "desktopweb": {
        "psp": {}
    },
    "disabledSkins": {
        "hoverSkin": "s512ca636f844ef4aa81b2647c08ce24"
    },
    "enablescrolling": true,
    "id": "flxCustomerActivityLogWrapper",
    "info": null,
    "isTemplate": true,
    "isvisible": true,
    "kuid": "dea8e14fbd22497088fae95d2db3ad8e",
    "layouttype": 3,
    "name": "kony.ui.FlexContainer",
    "parent": "flxCustomerActivityLog",
    "pf": "segCustomerActivityLog",
    "snapgridsize": 10,
    "snaptogrid": true,
    "wType": "FlexContainer",
    "widgetalignment": 1
}