{
    "@class": "com.kony.gen.viz.model.component.KVizUserWidget",
    "DNDConfig": null,
    "__parentReadjusting__": false,
    "_children_": [],
    "_desktopweb_": {},
    "_height_": {
        "type": "string",
        "value": "80px"
    },
    "_left_": {
        "type": "string",
        "value": "0dp"
    },
    "_margin_": [
        0,
        0,
        0,
        0
    ],
    "_orientation_": 1,
    "_padding_": [
        0,
        0,
        0,
        0
    ],
    "_percent_": true,
    "_render_": true,
    "_responsiveData_": {},
    "_skin_": "s8ff24328417401b877c3ceb2a5fa27c",
    "_top_": {
        "type": "string",
        "value": "0dp"
    },
    "_vizProps_": {
        "hidewidgethierarchy": false
    },
    "_width_": {
        "type": "string",
        "value": "100%"
    },
    "areflexpropsreferenced": false,
    "canUpdateUI": true,
    "clipbounds": true,
    "containerweight": 0,
    "dataDiffs": {
        "btnCancel": {
            "__events__": {},
            "__info__": {
                "kuid": "cb2856cdc7584a0fa094546b76a4293c",
                "srcKUID": "hb7e8e6dc73a4044aaa1636cb1f70704",
                "wType": "Button"
            }
        },
        "btnNext": {
            "__events__": {},
            "__info__": {
                "kuid": "fab1aa19e45a4e4a9ca03efad6bf4803",
                "srcKUID": "if89a3cc957141078b03996441e09d8c",
                "wType": "Button"
            },
            "i18n_text": null,
            "left": {
                "Default": {
                    "type": "string",
                    "value": ""
                }
            },
            "right": {
                "Default": {
                    "type": "string",
                    "value": "115px"
                }
            },
            "text": "SAVE AND UPDATE"
        },
        "btnSave": {
            "__events__": {},
            "__info__": {
                "kuid": "df173b85d50f4c59b002b0f36a17907b",
                "srcKUID": "af70c434338f4068a24a87b45c58f9ee",
                "wType": "Button"
            }
        },
        "commonButtons": {
            "__events__": {},
            "__info__": {
                "isRoot": true,
                "kuid": "f68eaa5d39934c1b887f952ee1477863",
                "srcKUID": "cc441f293bdb4489aebfc9b06fe5513e",
                "wType": "FlexContainer"
            }
        },
        "flxRightButtons": {
            "__events__": {},
            "__info__": {
                "kuid": "b1d60cefad9d47ab8b4bf76cddf28bb3",
                "srcKUID": "beae25c502d54e038c70de835ec18eca",
                "wType": "FlexContainer"
            },
            "width": {
                "Default": {
                    "type": "string",
                    "value": "325px"
                }
            }
        }
    },
    "id": "commonButtons",
    "info": null,
    "isdatareferenced": false,
    "isvisible": true,
    "kuid": "f68eaa5d39934c1b887f952ee1477863",
    "layouttype": 2,
    "masterType": 0,
    "name": "kony.ui.UserWidgetInstance",
    "parent": "flxBtns",
    "pf": "frmOutageMessage",
    "snaptogrid": true,
    "sourceUserWidget": "cc441f293bdb4489aebfc9b06fe5513e",
    "wType": "UserWidgetInstance"
}