{
    "@class": "com.kony.gen.viz.model.component.KVizListBox",
    "DNDConfig": null,
    "__parentReadjusting__": false,
    "_height_": {
        "type": "string",
        "value": "40dp"
    },
    "_left_": {
        "type": "string",
        "value": "35dp"
    },
    "_margin_": [
        0,
        0,
        0,
        0
    ],
    "_padding_": [
        2,
        0,
        0,
        0
    ],
    "_skin_": "sf172fb41e5e4367a8dd3a164a2a68b1",
    "_top_": {
        "type": "string",
        "value": "10dp"
    },
    "_width_": {
        "type": "string",
        "value": "30%"
    },
    "canUpdateUI": true,
    "containerweight": 100,
    "contentalignment": 4,
    "context": {
        "channel": "desktop",
        "formID": "frmOutageMessage",
        "platform": "desktopweb",
        "templateType": "forms",
        "topLevelBox": null
    },
    "desktopweb": {
        "psp": {
            "hoverSkin": "s44124b03793406484d400c989c8ec4f"
        }
    },
    "groupcells": false,
    "id": "lbxOutageMsg",
    "info": null,
    "isvisible": true,
    "kuid": "i4d8e5d1fa8e4f9b92629d2f90ab8853",
    "masterdata": [
        [
            "lb1",
            "Jompay"
        ],
        [
            "lb2",
            "IBG"
        ],
        [
            "lb3",
            "JHDV"
        ],
        [
            "placeholder",
            "Select Service"
        ]
    ],
    "name": "kony.ui.ListBox",
    "paddinginpixel": false,
    "parent": "flxAddOutageData",
    "pf": "frmOutageMessage",
    "selectedkey": "placeholder",
    "selectedkeys": null,
    "selectedkeyvalue": [
        "placeholder",
        "Select Service"
    ],
    "selectedkeyvalues": null,
    "size": 18,
    "viewconfig": {
        "toggleViewConfig": {
            "viewStyle": 0
        }
    },
    "viewtype": 0,
    "wType": "ListBox",
    "zindex": 1
}