{
    "@class": "com.kony.gen.viz.model.component.KVizUserWidget",
    "DNDConfig": null,
    "__parentReadjusting__": false,
    "_bottom_": {
        "type": "string",
        "value": ""
    },
    "_children_": [],
    "_desktopweb_": {},
    "_height_": {
        "type": "string",
        "value": "100%"
    },
    "_left_": {
        "type": "string",
        "value": "0dp"
    },
    "_margin_": [
        0,
        0,
        0,
        0
    ],
    "_orientation_": 1,
    "_padding_": [
        0,
        0,
        0,
        0
    ],
    "_percent_": true,
    "_render_": true,
    "_responsiveData_": {},
    "_right_": {
        "type": "string",
        "value": ""
    },
    "_skin_": "sbb664738a5e43538434561ad8e0941e",
    "_top_": {
        "type": "string",
        "value": "0dp"
    },
    "_vizProps_": {
        "hidewidgethierarchy": false
    },
    "_width_": {
        "type": "string",
        "value": "100%"
    },
    "areflexpropsreferenced": false,
    "autogrowmode": 0,
    "canUpdateUI": true,
    "centerx": {
        "type": "string",
        "value": ""
    },
    "centery": {
        "type": "string",
        "value": ""
    },
    "clipbounds": true,
    "containerweight": 0,
    "dataDiffs": {
        "brandLogo": {
            "__events__": {},
            "__info__": {
                "kuid": "hfc0f820331c4e7a90cfd1516fa3848e",
                "srcKUID": "c6191f3300704dffab544f92ee10fa69",
                "wType": "Image"
            }
        },
        "flxBottomLogo": {
            "__events__": {},
            "__info__": {
                "kuid": "a5f1c40d9c5843eb8572d5ff83540964",
                "srcKUID": "g5d6356e86ea4ba4bcffaa05885ec752",
                "wType": "FlexContainer"
            }
        },
        "flxBottomTitle": {
            "__events__": {},
            "__info__": {
                "kuid": "a35b2e206ce94d56bd0b6ab8e2f89272",
                "srcKUID": "e497473dc83b4af0833bdb410bf330b9",
                "wType": "FlexContainer"
            }
        },
        "flxBrandLogo": {
            "__events__": {},
            "__info__": {
                "kuid": "ef67a8937c414c738c5eda6cb20ca3d4",
                "srcKUID": "c8d5429e9e6544e2aa7ed5a03faa883d",
                "wType": "FlexContainer"
            }
        },
        "flxScrollMenu": {
            "__events__": {},
            "__info__": {
                "kuid": "c78b495877514001aa4588faf35548ad",
                "srcKUID": "b3afa892d340444daf2bb640fd50164a",
                "wType": "FlexScrollContainer"
            }
        },
        "imgBottomLogo": {
            "__events__": {},
            "__info__": {
                "kuid": "e69f79ad158c4696bb06f3fa97c7cbbd",
                "srcKUID": "ecc4ab3ba715461b8e130f71b31ed055",
                "wType": "Image"
            }
        },
        "lblBottomTitle": {
            "__events__": {},
            "__info__": {
                "kuid": "h65bddc17c4d47a4a40fbec6d5c69e5d",
                "srcKUID": "e685023961af47458ec81490ecb06a0c",
                "wType": "Label"
            }
        },
        "leftMenuNew": {
            "__events__": {},
            "__info__": {
                "isRoot": true,
                "kuid": "d22b92a5854c4357859ad8558e5d09db",
                "srcKUID": "ia23071299ea471785b0967b2bc5a3b2",
                "wType": "FlexContainer"
            },
            "autogrowMode": {
                "Default": 0
            },
            "bottom": {
                "Default": {
                    "type": "string",
                    "value": ""
                }
            },
            "centerX": {
                "Default": {
                    "type": "string",
                    "value": ""
                }
            },
            "centerY": {
                "Default": {
                    "type": "string",
                    "value": ""
                }
            },
            "height": {
                "Default": {
                    "type": "string",
                    "value": "100%"
                }
            },
            "left": {
                "Default": {
                    "type": "string",
                    "value": "0dp"
                }
            },
            "maxHeight": {
                "Default": {
                    "type": "string",
                    "value": ""
                }
            },
            "maxWidth": {
                "Default": {
                    "type": "string",
                    "value": ""
                }
            },
            "minHeight": {
                "Default": {
                    "type": "string",
                    "value": ""
                }
            },
            "minWidth": {
                "Default": {
                    "type": "string",
                    "value": ""
                }
            },
            "right": {
                "Default": {
                    "type": "string",
                    "value": ""
                }
            },
            "top": {
                "Default": {
                    "type": "string",
                    "value": "0dp"
                }
            },
            "width": {
                "Default": {
                    "type": "string",
                    "value": "100%"
                }
            }
        },
        "segMenu": {
            "__events__": {},
            "__info__": {
                "kuid": "fb2cfc6a23034c829743e5fd1427ef8e",
                "srcKUID": "deb5cfd7d7f343bf84579d6abf668d63",
                "wType": "Segment"
            }
        }
    },
    "id": "leftMenuNew",
    "info": null,
    "iscustomlayout": false,
    "isdatareferenced": false,
    "isvisible": true,
    "kuid": "d22b92a5854c4357859ad8558e5d09db",
    "layouttype": 2,
    "masterType": 0,
    "maxheight": {
        "type": "string",
        "value": ""
    },
    "maxwidth": {
        "type": "string",
        "value": ""
    },
    "minheight": {
        "type": "string",
        "value": ""
    },
    "minwidth": {
        "type": "string",
        "value": ""
    },
    "name": "kony.ui.UserWidgetInstance",
    "parent": "flxLeftPannel",
    "pf": "frmOutageMessage",
    "retaincontentalignment": false,
    "retainflexpositionproperties": false,
    "sourceUserWidget": "ia23071299ea471785b0967b2bc5a3b2",
    "wType": "UserWidgetInstance"
}