{
    "@class": "com.kony.gen.viz.model.component.KVizUserWidget",
    "DNDConfig": null,
    "__parentReadjusting__": false,
    "_android_": {},
    "_androidwearos_": {},
    "_children_": [],
    "_desktopweb_": {},
    "_height_": {
        "type": "ref",
        "value": "preferred"
    },
    "_ipad_": {},
    "_iphone_": {},
    "_kiosk_": {},
    "_left_": {
        "type": "string",
        "value": "0dp"
    },
    "_margin_": [
        0,
        0,
        0,
        0
    ],
    "_orientation_": 1,
    "_padding_": [
        0,
        0,
        0,
        0
    ],
    "_percent_": true,
    "_responsiveData_": {},
    "_skin_": "s8ff24328417401b877c3ceb2a5fa27c",
    "_spa_": {},
    "_spaan_": {},
    "_spaandroidtablet_": {},
    "_spabb_": {},
    "_spaip_": {},
    "_spaipad_": {},
    "_spamobile_": {},
    "_spatablet_": {},
    "_spawindowstablet_": {},
    "_spawinphone8_": {},
    "_tabrcandroid_": {},
    "_top_": {
        "type": "string",
        "value": "0dp"
    },
    "_vizProps_": {
        "hidewidgethierarchy": false
    },
    "_width_": {
        "type": "string",
        "value": "100%"
    },
    "_windows10_": {},
    "_windows8_": {},
    "_winphone10_": {},
    "_winphone8_": {},
    "areflexpropsreferenced": false,
    "autogrowmode": 1,
    "canUpdateUI": true,
    "clipbounds": true,
    "containerweight": 0,
    "dataDiffs": {
        "dropdownMainHeader": {
            "__events__": {},
            "__info__": {
                "isRoot": true,
                "kuid": "c2e60b9d559642d9b8c0ce18e03b06a1",
                "srcKUID": "e9ecd1a954fe449f933d74d4475ecb2c",
                "wType": "FlexContainer"
            }
        },
        "flxArrowImage": {
            "__events__": {},
            "__info__": {
                "kuid": "fe76c60d0d9e4a259e206244027141c9",
                "srcKUID": "a0654fb367434863a3dd04394f488963",
                "wType": "FlexContainer"
            }
        },
        "flxChangePassword": {
            "__events__": {},
            "__info__": {
                "kuid": "bdce3030af0c434ca4ab6fcc03c4fb1e",
                "srcKUID": "b9f5aa1dec1945e8a4fc706963151525",
                "wType": "FlexContainer"
            }
        },
        "flxDropdown": {
            "__events__": {},
            "__info__": {
                "kuid": "b60b989ece8140f0acbd17f3594bdaf4",
                "srcKUID": "e3ae96d2ab8e4053a060a40d0b51b0f7",
                "wType": "FlexContainer"
            },
            "isVisible": false
        },
        "flxHeaderUserOptions": {
            "__events__": {},
            "__info__": {
                "kuid": "d2e71505764644ebb2c63f5f4739f4ed",
                "srcKUID": "d725df1665b84f33adf91d068d28c92d",
                "wType": "FlexContainer"
            }
        },
        "flxIconChangePswd": {
            "__events__": {},
            "__info__": {
                "kuid": "d93f5a4fb5974656bd441016b55149b2",
                "srcKUID": "a81662e8e3404d93b7def6cc521c34d3",
                "wType": "FlexContainer"
            }
        },
        "flxIconSignOut": {
            "__events__": {},
            "__info__": {
                "kuid": "h455e9b1e6de4be680453ef833a3e37d",
                "srcKUID": "d868d38e0d244a4394c73cb0e36d80f5",
                "wType": "FlexContainer"
            }
        },
        "flxOuterActions": {
            "__events__": {},
            "__info__": {
                "kuid": "ed27baed9e3943e1b8d06a9c7d661fbf",
                "srcKUID": "a995670c56484d68bb9ce2e772b37ca1",
                "wType": "FlexContainer"
            }
        },
        "flxSignOut": {
            "__events__": {},
            "__info__": {
                "kuid": "f805ce800d8549f0a77d86bd25acaad1",
                "srcKUID": "b5b4e89312864aba9b92703592a93bdc",
                "wType": "FlexContainer"
            }
        },
        "imgUpArrow": {
            "__events__": {},
            "__info__": {
                "kuid": "ea1e4f6b52d24b018291826aaee1336e",
                "srcKUID": "ia67f325a5bd440980ffbdd6113c1ed9",
                "wType": "Image"
            },
            "src": "uparrow_2x.png"
        },
        "lblChangePswd": {
            "__events__": {},
            "__info__": {
                "kuid": "j6c541a64ee6466a919e55b3f5ecb7b4",
                "srcKUID": "h6ef861927f14067a6e24571afbf3ac8",
                "wType": "Label"
            }
        },
        "lblIconChangePswrd": {
            "__events__": {},
            "__info__": {
                "kuid": "j1632da1e5da4bd4aea86a32cfeec94d",
                "srcKUID": "c7e885b835f144349ee945acf74dc742",
                "wType": "Label"
            }
        },
        "lblIconDownArrow": {
            "__events__": {},
            "__info__": {
                "kuid": "j42bfe433e7d47479fe3633208ef5854",
                "srcKUID": "ecb7499ea0ed400b85fb02d23bdca2cd",
                "wType": "Label"
            }
        },
        "lblIconSignOut": {
            "__events__": {},
            "__info__": {
                "kuid": "c5e2fcae003842b5ba14bf529c5d3568",
                "srcKUID": "cef5bc51d7cc4302bb12ff0d453a0843",
                "wType": "Label"
            }
        },
        "lblSignOut": {
            "__events__": {},
            "__info__": {
                "kuid": "affb10921a9e45f495234e2ccacd138f",
                "srcKUID": "a5a8860442564f66b1446440e5b757ea",
                "wType": "Label"
            }
        },
        "lblUserName": {
            "__events__": {},
            "__info__": {
                "kuid": "e7e58e97f5ef428d8eb15698d9d9c2bd",
                "srcKUID": "h86662bbad8b4d65b161e0756ea7b35d",
                "wType": "Label"
            }
        }
    },
    "enablescrolling": true,
    "id": "dropdownMainHeader",
    "info": null,
    "iscustomlayout": false,
    "isdatareferenced": false,
    "issegmentchild": false,
    "isvisible": true,
    "kuid": "c2e60b9d559642d9b8c0ce18e03b06a1",
    "layouttype": 2,
    "masterType": 0,
    "name": "kony.ui.UserWidgetInstance",
    "parent": "flxHeaderDropdown",
    "pf": "frmCustomerCreate",
    "retaincontentalignment": false,
    "retainflexpositionproperties": false,
    "retainflowhorizontalalignment": false,
    "snapgridsize": 10,
    "snaptogrid": true,
    "sourceUserWidget": "e9ecd1a954fe449f933d74d4475ecb2c",
    "wType": "UserWidgetInstance"
}