{
    "@class": "com.kony.gen.viz.model.component.KVizRichText",
    "DNDConfig": null,
    "__parentReadjusting__": false,
    "_height_": {
        "type": "ref",
        "value": "preferred"
    },
    "_margin_": [
        0,
        0,
        0,
        0
    ],
    "_padding_": [
        0,
        0,
        0,
        0
    ],
    "_right_": {
        "type": "string",
        "value": "0px"
    },
    "_skin_": "sdbce2e2fa4242ff9b4923e7fd5dbe52",
    "_text_": "Rules",
    "_top_": {
        "type": "string",
        "value": "0px"
    },
    "_width_": {
        "type": "ref",
        "value": "preferred"
    },
    "_wrapping_": 2,
    "canUpdateUI": true,
    "containerweight": 100,
    "contentalignment": 4,
    "desktopweb": {},
    "disabledSkins": {
        "linkFocusSkin": "s9a51c0a66ff405a9f331612dd5e0e7f",
        "linkSkin": "s9a51c0a66ff405a9f331612dd5e0e7f"
    },
    "id": "lblRules",
    "ide_onClick": "AS_RichText_bd35a9814af54de48c78a578bdfcf027",
    "info": null,
    "isvisible": true,
    "kuid": "eab2eda0ad5e4ebb85e67ad743d4b41b",
    "name": "kony.ui.RichText",
    "parent": "flxRulesLabel",
    "pf": "frmCustomerCreate",
    "texti18n": "i18n.frmErrorLogin.Rulestxt",
    "wType": "RichText",
    "widgetalignment": 5,
    "zindex": 10
}