{
    "@class": "com.kony.gen.viz.model.component.KVizRichText",
    "DNDConfig": null,
    "__parentReadjusting__": false,
    "_height_": {
        "type": "string",
        "value": "40dp"
    },
    "_margin_": [
        0,
        0,
        0,
        0
    ],
    "_padding_": [
        0,
        0,
        0,
        0
    ],
    "_skin_": "s3ffd2c66e5248c1aeb5430fa3380ad3",
    "_text_": "No limits found. Select a role to view limits.",
    "_width_": {
        "type": "string",
        "value": "80%"
    },
    "_wrapping_": 2,
    "canUpdateUI": true,
    "centerx": {
        "type": "string",
        "value": "50%"
    },
    "centery": {
        "type": "string",
        "value": "50%"
    },
    "containerweight": 100,
    "contentalignment": 5,
    "id": "rtxNoResults",
    "info": null,
    "iscustomlayout": false,
    "isvisible": true,
    "kuid": "c75e7804d07b4517983e4790876f7f08",
    "linkskin": "s67b40eec9524df3a22e43e6c88b00f1",
    "name": "kony.ui.RichText",
    "parent": "flxNoResults",
    "pf": "frmCustomerCreate",
    "retaincontentalignment": false,
    "retainflexpositionproperties": false,
    "texti18n": "i18n.frmCompanies.No_limits_found_Select_role_to_view_limits",
    "wType": "RichText",
    "widgetalignment": 5,
    "zindex": 1
}