{
    "@class": "com.kony.gen.viz.model.container.KVizSegment2",
    "DNDConfig": null,
    "__parentReadjusting__": false,
    "_bottom_": {
        "type": "string",
        "value": "0dp"
    },
    "_data_": [
        {
            "lblCurrencyValue": {
                "@class": "com.viz.ide.model.segment.SimpleTextSegmentData",
                "text": ""
            },
            "lblDailyLimit": {
                "@class": "com.viz.ide.model.segment.SimpleTextSegmentData",
                "text": ""
            },
            "lblErrorIconDaily": {
                "@class": "com.viz.ide.model.segment.SimpleTextSegmentData",
                "text": ""
            },
            "lblErrorIconTransaction": {
                "@class": "com.viz.ide.model.segment.SimpleTextSegmentData",
                "text": ""
            },
            "lblErrorTextDaily": {
                "@class": "com.viz.ide.model.segment.SimpleTextSegmentData",
                "text": ""
            },
            "lblErrorTextTransaction": {
                "@class": "com.viz.ide.model.segment.SimpleTextSegmentData",
                "text": ""
            },
            "lblPermissionName": {
                "@class": "com.viz.ide.model.segment.SimpleTextSegmentData",
                "text": ""
            },
            "lblTransactionCurrency": {
                "@class": "com.viz.ide.model.segment.SimpleTextSegmentData",
                "text": ""
            },
            "lblTransactionLimit": {
                "@class": "com.viz.ide.model.segment.SimpleTextSegmentData",
                "text": ""
            },
            "tbxMaxDailyLimit": {
                "@class": "com.viz.ide.model.segment.ComplexTextSegmentData",
                "placeholder": "",
                "text": ""
            },
            "tbxTransactionLimit": {
                "@class": "com.viz.ide.model.segment.ComplexTextSegmentData",
                "placeholder": "",
                "text": ""
            }
        }
    ],
    "_indicator_": "none",
    "_left_": {
        "type": "string",
        "value": "0dp"
    },
    "_margin_": [
        0,
        0,
        0,
        0
    ],
    "_orientation_": 2,
    "_padding_": [
        0,
        0,
        0,
        0
    ],
    "_top_": {
        "type": "string",
        "value": "0dp"
    },
    "_width_": {
        "type": "string",
        "value": "100%"
    },
    "autogrowmode": 0,
    "canUpdateUI": true,
    "containerweight": 100,
    "counter": "00",
    "focusedindex": null,
    "focuseditem": null,
    "groupcells": false,
    "hasSections": false,
    "id": "segLimits",
    "info": null,
    "ipad": {
        "psp": {
            "indicator": "rowselect"
        }
    },
    "iphone": {
        "psp": {
            "indicator": "rowselect"
        }
    },
    "iscustomlayout": false,
    "isvisible": true,
    "kuid": "e439171e77714cec932266c385489d00",
    "masterdata": {},
    "name": "kony.ui.SegmentedUI2",
    "needpageindicator": true,
    "pageoffdotimage": "pageoffdot.png",
    "pageondotimage": "pageondot.png",
    "paginationconfig": {
        "position": "bottom"
    },
    "parent": "flxSegLimits",
    "pf": "frmCustomerCreate",
    "retaincontentalignment": false,
    "retainflexpositionproperties": false,
    "retainselection": false,
    "rowTemplateId": "de55097cd5fb4bcf8ca003d59b30f1dc",
    "rowcounter": 0,
    "rowfocusskin": "se901dcdd2ae4a58a81f21c009edf99e",
    "rowskin": "s54014e0d4204ce9acd27107655ded87",
    "rowtemplate": "flxLimitsCustomer",
    "screenlevelwidget": false,
    "seccounter": 0,
    "sectionheaderskin": "sffa0c1a0560403189088e98f7b4f498",
    "selectedRows": null,
    "selectedState": false,
    "selectedindex": null,
    "selectedindices": null,
    "selecteditems": null,
    "selectedsectionindex": 0,
    "selectionbehavior": "default",
    "separatorcolor": "e1e5ed00",
    "separatorrequired": true,
    "separatorthickness": 1,
    "showscrollbars": true,
    "viewtype": "tableview",
    "vizProps": {},
    "wType": "Segment",
    "widgetalignment": 5,
    "widgetdatamap": {
        "flxCurrency": "flxCurrency",
        "flxCurrencyTransactional": "flxCurrencyTransactional",
        "flxDailyLimit": "flxDailyLimit",
        "flxErrorDailyLimit": "flxErrorDailyLimit",
        "flxErrorTransaction": "flxErrorTransaction",
        "flxLimitsCustomer": "flxLimitsCustomer",
        "flxLine": "flxLine",
        "flxLineVertical": "flxLineVertical",
        "flxTransactionLimit": "flxTransactionLimit",
        "lblCurrencyValue": "lblCurrencyValue",
        "lblDailyLimit": "lblDailyLimit",
        "lblErrorIconDaily": "lblErrorIconDaily",
        "lblErrorIconTransaction": "lblErrorIconTransaction",
        "lblErrorTextDaily": "lblErrorTextDaily",
        "lblErrorTextTransaction": "lblErrorTextTransaction",
        "lblPermissionName": "lblPermissionName",
        "lblTransactionCurrency": "lblTransactionCurrency",
        "lblTransactionLimit": "lblTransactionLimit",
        "tbxMaxDailyLimit": "tbxMaxDailyLimit",
        "tbxTransactionLimit": "tbxTransactionLimit"
    },
    "zindex": 1
}