{
    "@class": "com.kony.gen.viz.model.component.KVizRichText",
    "DNDConfig": null,
    "__parentReadjusting__": false,
    "_height_": {
        "type": "ref",
        "value": "preferred"
    },
    "_left_": {
        "type": "string",
        "value": "0px"
    },
    "_margin_": [
        0,
        0,
        0,
        0
    ],
    "_padding_": [
        0,
        0,
        0,
        0
    ],
    "_skin_": "s3ffd2c66e5248c1aeb5430fa3380ad3",
    "_text_": "123 6th Street Austin TX <BR>\n78701  Unite 24",
    "_top_": {
        "type": "string",
        "value": "30dp"
    },
    "_width_": {
        "type": "string",
        "value": "60%"
    },
    "_wrapping_": 2,
    "canUpdateUI": true,
    "containerweight": 100,
    "contentalignment": 4,
    "id": "rtxAddressAdditional2",
    "info": null,
    "isvisible": true,
    "kuid": "e7d12a8624b04dc6b5a5595902635fbb",
    "name": "kony.ui.RichText",
    "parent": "flxAddressAdditional2",
    "pf": "userwidgetmodel",
    "texti18n": "i18n.userwidgetmodel.rtxAddressAdditional1",
    "wType": "RichText",
    "widgetalignment": 5,
    "zindex": 3
}