{
    "@class": "com.kony.gen.viz.model.component.KVizUserWidget",
    "DNDConfig": null,
    "__parentReadjusting__": false,
    "_android_": {},
    "_androidwearos_": {},
    "_children_": [],
    "_desktopweb_": {},
    "_height_": {
        "type": "string",
        "value": "100%"
    },
    "_ipad_": {},
    "_iphone_": {},
    "_kiosk_": {},
    "_left_": {
        "type": "string",
        "value": "0dp"
    },
    "_margin_": [
        0,
        0,
        0,
        0
    ],
    "_orientation_": 1,
    "_padding_": [
        0,
        0,
        0,
        0
    ],
    "_percent_": true,
    "_responsiveData_": {},
    "_skin_": "sffd784bea8d4bec8d2ddc591034adfe",
    "_spa_": {},
    "_spaan_": {},
    "_spaandroidtablet_": {},
    "_spabb_": {},
    "_spaip_": {},
    "_spaipad_": {},
    "_spamobile_": {},
    "_spatablet_": {},
    "_spawindowstablet_": {},
    "_spawinphone8_": {},
    "_tabrcandroid_": {},
    "_top_": {
        "type": "string",
        "value": "0dp"
    },
    "_vizProps_": {
        "hidewidgethierarchy": false
    },
    "_width_": {
        "type": "string",
        "value": "100%"
    },
    "_windows10_": {},
    "_windows8_": {},
    "_winphone10_": {},
    "_winphone8_": {},
    "areflexpropsreferenced": false,
    "canUpdateUI": true,
    "clipbounds": true,
    "containerweight": 0,
    "dataDiffs": {
        "CSRAssist": {
            "__events__": {},
            "__info__": {
                "isRoot": true,
                "kuid": "cbee6c2ffe3c45359ea7dfc1d86b9929",
                "srcKUID": "cacab052f68b4c20871994414d8b7c1a",
                "wType": "FlexContainer"
            },
            "isVisible": false
        },
        "CSRBrowser": {
            "__events__": {},
            "__info__": {
                "kuid": "h9b7394eefb84f4698909ff5cb56e138",
                "srcKUID": "b79606a43b1141b88c2a2acac8322d3b",
                "wType": "Browser"
            }
        },
        "flxBackground": {
            "__events__": {},
            "__info__": {
                "kuid": "ece3195727494c648ee488cbe2d125c1",
                "srcKUID": "h46f84d6ac4641fdadd52133b9c2c0ef",
                "wType": "FlexContainer"
            }
        },
        "flxCSRAssistLoading": {
            "__events__": {},
            "__info__": {
                "kuid": "ie3fc118460546e0a66dbe0eda641b85",
                "srcKUID": "g88b2c8f7d934f92974c4c0c8eda20d0",
                "wType": "FlexContainer"
            }
        },
        "flxCSRLoading": {
            "__events__": {},
            "__info__": {
                "kuid": "a65c47ce711045e7b2ab7cef25cb15a8",
                "srcKUID": "b375a999782d4a1289147314d90be890",
                "wType": "FlexContainer"
            }
        },
        "flxCSRLoadingIndicator": {
            "__events__": {},
            "__info__": {
                "kuid": "c76facb96c5240a5bab56ffdf5cf9193",
                "srcKUID": "f7e2042ade5946faa2c4c960fd9f811c",
                "wType": "FlexContainer"
            }
        },
        "flxClose": {
            "__events__": {},
            "__info__": {
                "kuid": "e878b6979bfd4e139023ff3b40e9f847",
                "srcKUID": "f06ca8cada2444edb173524a56adbe97",
                "wType": "FlexContainer"
            }
        },
        "fonticonClose": {
            "__events__": {},
            "__info__": {
                "kuid": "def67c80a0454ad09c30be87f003a11c",
                "srcKUID": "f55fcb5fbe974be4b363065008fc5a3d",
                "wType": "Label"
            }
        },
        "imgCSRLoading": {
            "__events__": {},
            "__info__": {
                "kuid": "d7c8aba70cef40feb4bad95de9188347",
                "srcKUID": "b20ab38708144b27ac49adebc70fe1a0",
                "wType": "Image"
            }
        },
        "lblInitializeAssist": {
            "__events__": {},
            "__info__": {
                "kuid": "ea8462aaa78b4df1b56f863f87709913",
                "srcKUID": "e89f37432f4643e7847502c2be05f81f",
                "wType": "Label"
            }
        }
    },
    "enablescrolling": true,
    "id": "CSRAssist",
    "info": null,
    "iscustomlayout": false,
    "isdatareferenced": false,
    "isvisible": false,
    "kuid": "cbee6c2ffe3c45359ea7dfc1d86b9929",
    "layouttype": 2,
    "masterType": 0,
    "name": "kony.ui.UserWidgetInstance",
    "parent": "flxMain",
    "pf": "frmNewCustomer",
    "retaincontentalignment": false,
    "retainflexpositionproperties": false,
    "snapgridsize": 10,
    "snaptogrid": true,
    "sourceUserWidget": "cacab052f68b4c20871994414d8b7c1a",
    "wType": "UserWidgetInstance",
    "zindex": 50
}