{
    "@class": "com.kony.gen.viz.model.component.KVizLabel",
    "DNDConfig": null,
    "__parentReadjusting__": false,
    "_height_": {
        "type": "string",
        "value": "15px"
    },
    "_margin_": [
        1,
        1,
        1,
        1
    ],
    "_padding_": [
        0,
        0,
        0,
        0
    ],
    "_skin_": "sbb8a134ced84b54a1351e3d9ddafd79",
    "_text_": "Initiating assist...",
    "_top_": {
        "type": "string",
        "value": "15px"
    },
    "_width_": {
        "type": "string",
        "value": "40%"
    },
    "_wrapping_": 2,
    "android": {
        "textStyle": {
            "letterSpacing": 0,
            "strikeThrough": false
        }
    },
    "canUpdateUI": true,
    "centerx": {
        "type": "string",
        "value": "51%"
    },
    "containerweight": 100,
    "contentalignment": 5,
    "id": "lblInitializeAssist",
    "info": null,
    "ipad": {
        "psp": {
            "wrapping": 2
        }
    },
    "iphone": {
        "psp": {
            "wrapping": 2
        }
    },
    "isvisible": true,
    "kuid": "fec166636c414e99bc9b1a86cac9518f",
    "name": "kony.ui.Label",
    "parent": "flxCSRLoading",
    "pf": "frmNewCustomer",
    "texti18n": "i18n.frmCustomerManagementController.Initiating_assist",
    "tooltip": "",
    "wType": "Label",
    "zindex": 1
}