{
    "DNDConfig": null,
    "__parentReadjusting__": false,
    "_height_": {
        "type": "string",
        "value": "60px"
    },
    "_left_": {
        "type": "string",
        "value": "0px"
    },
    "_margin_": [
        0,
        0,
        0,
        0
    ],
    "_orientation_": 6,
    "_padding_": [
        0,
        0,
        0,
        0
    ],
    "_percent_": true,
    "_skin_": "sfdca6eac1ee4d128677a5c34a9462d7",
    "_top_": {
        "type": "string",
        "value": "9px"
    },
    "_width_": {
        "type": "string",
        "value": "100%"
    },
    "allboxes": [],
    "autogrowmode": 0,
    "canUpdateUI": true,
    "centerx": {
        "type": "string",
        "value": "50%"
    },
    "children": [
        "lblNoConcentToolTip"
    ],
    "clipbounds": true,
    "containerweight": 100,
    "desktopweb": {
        "psp": {}
    },
    "disabledSkins": {
        "hoverSkin": "s25335df3a454bfa98c36dfa59c9a833"
    },
    "enablescrolling": true,
    "id": "flxToolTipMessage",
    "info": null,
    "iscustomlayout": false,
    "isvisible": true,
    "kuid": "cd78a1e8c5f4485887810951944b2775",
    "layouttype": 3,
    "name": "kony.ui.FlexContainer",
    "parent": "ToolTip",
    "pf": "userwidgetmodel",
    "retaincontentalignment": false,
    "retainflexpositionproperties": false,
    "snapgridsize": 10,
    "snaptogrid": true,
    "wType": "FlexContainer",
    "widgetalignment": 1,
    "zindex": 1
}