{
    "@class": "com.kony.gen.viz.model.component.KVizButton",
    "DNDConfig": null,
    "__parentReadjusting__": false,
    "_height_": {
        "type": "ref",
        "value": "preferred"
    },
    "_left_": {
        "type": "number",
        "value": "0"
    },
    "_margin_": [
        6,
        6,
        6,
        6
    ],
    "_padding_": [
        0,
        0,
        0,
        0
    ],
    "_skin_": "s0f26eac6ca34cdbb6721c41d51961f7",
    "_text_": "John",
    "_width_": {
        "type": "ref",
        "value": "preferred"
    },
    "canUpdateUI": true,
    "centery": {
        "type": "string",
        "value": "50%"
    },
    "containerweight": 100,
    "contentalignment": 5,
    "disabledSkins": {
        "focusSkin": "s152a8ebff2840e2b2942e5ec1abbdb5"
    },
    "displaytext": true,
    "id": "btnData21",
    "info": null,
    "isvisible": true,
    "kuid": "a1031336d7af42fcaf920bda3972dbed",
    "name": "kony.ui.Button",
    "parent": "flxDataRow2",
    "pf": "userwidgetmodel",
    "wType": "Button",
    "zindex": 1
}