{
    "@class": "com.kony.gen.viz.model.component.KVizUserWidget",
    "DNDConfig": null,
    "__parentReadjusting__": false,
    "_children_": [],
    "_desktopweb_": {},
    "_height_": {
        "type": "string",
        "value": "85px"
    },
    "_left_": {
        "type": "string",
        "value": "0dp"
    },
    "_margin_": [
        0,
        0,
        0,
        0
    ],
    "_orientation_": 1,
    "_padding_": [
        0,
        0,
        0,
        0
    ],
    "_percent_": true,
    "_render_": true,
    "_responsiveData_": {},
    "_skin_": "s6fded45b1d247708b676f7d4e9fb8ef",
    "_top_": {
        "type": "string",
        "value": "0dp"
    },
    "_vizProps_": {
        "hidewidgethierarchy": false
    },
    "_width_": {
        "type": "string",
        "value": "100%"
    },
    "areflexpropsreferenced": false,
    "canUpdateUI": true,
    "clipbounds": true,
    "containerweight": 0,
    "dataDiffs": {
        "advancedSearch": {
            "__events__": {},
            "__info__": {
                "isRoot": true,
                "kuid": "bd8f2f2be6604682bfff2557473bcb84",
                "srcKUID": "c15aec9f98504392898a6da4dd808a53",
                "wType": "FlexContainer"
            }
        },
        "calCreateDate": {
            "__events__": {},
            "__info__": {
                "kuid": "h2676da522de47b7b7d9fabe9d7a98ce",
                "srcKUID": "fb44e547dac948f8b3a6306fca96d50b",
                "wType": "Calendar"
            }
        },
        "calUpdatedDate": {
            "__events__": {},
            "__info__": {
                "kuid": "aec5ff0df2984eeb81bab44cf1857025",
                "srcKUID": "fd2b31c8508d49fb94f902123e0fcf93",
                "wType": "Calendar"
            }
        },
        "flxLine": {
            "__events__": {},
            "__info__": {
                "kuid": "ceb774f23f174857a974eb847aa9d0f8",
                "srcKUID": "ee242195d5c94fa2a47f64483ee3561a",
                "wType": "FlexContainer"
            }
        },
        "flxNames": {
            "__events__": {},
            "__info__": {
                "kuid": "abcd021f6a4f4b9db3b9aff0bc18f648",
                "srcKUID": "i6f0a710b9704f54af71132d91e84063",
                "wType": "FlexContainer"
            }
        },
        "flxSearch": {
            "__events__": {},
            "__info__": {
                "kuid": "da24cfbbb6f34da38155e9f5c38cd7f2",
                "srcKUID": "e3530e6f697f4ad6972cd1b55b6f739a",
                "wType": "FlexContainer"
            }
        },
        "imgDownArrow": {
            "__events__": {},
            "__info__": {
                "kuid": "e4eb7cf8efa64c4cbcd30e98cdfd6f3e",
                "srcKUID": "f7af1fbc47f7455aba0e927592f0b67b",
                "wType": "Image"
            }
        },
        "imgDownArrow1": {
            "__events__": {},
            "__info__": {
                "kuid": "deecd1c2d87e4907844935862e89a061",
                "srcKUID": "b2e9d8ace6a740239f4da69ed4fa1bcc",
                "wType": "Image"
            }
        },
        "lblFilter": {
            "__events__": {},
            "__info__": {
                "kuid": "d19f5daace6f48e0a0a21c3716ac8a49",
                "srcKUID": "ee88e01bd71c4092a44095d2b3f649f4",
                "wType": "Label"
            }
        },
        "lblRole": {
            "__events__": {},
            "__info__": {
                "kuid": "ec3e4a49fca344c6b1551801d6fdb8d2",
                "srcKUID": "f3f4efca9eb24204bbb2cd2eb8d9ce8b",
                "wType": "Label"
            }
        },
        "lblShowingResults": {
            "__events__": {},
            "__info__": {
                "kuid": "ada527d2a18b4ba98dda0a801a3132be",
                "srcKUID": "i4d2c1a0fddf4ceeb5722c241dc4a5eb",
                "wType": "Label"
            }
        },
        "lblStatus": {
            "__events__": {},
            "__info__": {
                "kuid": "ifa3c5102e4645ad9e3e0b0a94941e6c",
                "srcKUID": "j30b1d5f3d274467a8476505b95bb09b",
                "wType": "Label"
            }
        }
    },
    "id": "advancedSearch",
    "info": null,
    "isdatareferenced": false,
    "isvisible": true,
    "kuid": "bd8f2f2be6604682bfff2557473bcb84",
    "layouttype": 2,
    "masterType": 0,
    "name": "kony.ui.UserWidgetInstance",
    "parent": "flxSearchHeading",
    "pf": "frmUsers",
    "snaptogrid": true,
    "sourceUserWidget": "c15aec9f98504392898a6da4dd808a53",
    "wType": "UserWidgetInstance"
}