{
    "@class": "com.kony.gen.viz.model.component.KVizButton",
    "DNDConfig": null,
    "__parentReadjusting__": false,
    "_height_": {
        "type": "string",
        "value": "40dp"
    },
    "_margin_": [
        6,
        6,
        6,
        6
    ],
    "_padding_": [
        0,
        0,
        0,
        0
    ],
    "_right_": {
        "type": "string",
        "value": "10px"
    },
    "_skin_": "s78ae40295b14751891c1da8db3255dd",
    "_text_": "SAVE",
    "_top_": {
        "type": "string",
        "value": "0%"
    },
    "_width_": {
        "type": "string",
        "value": "100px"
    },
    "canUpdateUI": true,
    "centery": {
        "type": "string",
        "value": "50%"
    },
    "containerweight": 100,
    "contentalignment": 5,
    "desktopweb": {
        "psp": {
            "hoverSkin": "s52e458dd8c3434e9fbdb15195c72457"
        }
    },
    "displaytext": true,
    "focusskin": "sa0a214e6979469ebf190bb69eae8def",
    "id": "btnAddUsersSave",
    "info": null,
    "isvisible": true,
    "kuid": "jb3c0f1ca0ea4c1588fbc3d001666ee3",
    "name": "kony.ui.Button",
    "parent": "flxAddPermissionRightButtons",
    "pf": "frmUsers",
    "texti18n": "i18n.permission.SAVE",
    "wType": "Button",
    "zindex": 1
}