{
    "@class": "com.kony.gen.viz.model.component.KVizButton",
    "DNDConfig": null,
    "__parentReadjusting__": false,
    "_height_": {
        "type": "string",
        "value": "40dp"
    },
    "_left_": {
        "type": "number",
        "value": "0"
    },
    "_margin_": [
        6,
        6,
        6,
        6
    ],
    "_padding_": [
        0,
        0,
        0,
        0
    ],
    "_right_": {
        "type": "string",
        "value": "29.50%"
    },
    "_skin_": "s3fead79081947b1b06e45ac20ca46d4",
    "_text_": "CANCEL",
    "_top_": {
        "type": "string",
        "value": "0%"
    },
    "_width_": {
        "type": "string",
        "value": "100px"
    },
    "canUpdateUI": true,
    "centery": {
        "type": "string",
        "value": "50%"
    },
    "containerweight": 100,
    "contentalignment": 5,
    "desktopweb": {
        "psp": {
            "hoverSkin": "sf0607ed109940678312f918794b5975"
        }
    },
    "displaytext": true,
    "focusskin": "s3fead79081947b1b06e45ac20ca46d4",
    "id": "btnCancel",
    "info": null,
    "isvisible": true,
    "kuid": "b4ee9e97b57c43578e4c06ea7cc3b852",
    "name": "kony.ui.Button",
    "parent": "flxButtons",
    "pf": "frmUsers",
    "texti18n": "i18n.permission.CANCEL",
    "wType": "Button",
    "zindex": 1
}