{
    "@class": "com.kony.gen.viz.model.component.KVizButton",
    "DNDConfig": null,
    "__parentReadjusting__": false,
    "_height_": {
        "type": "string",
        "value": "40dp"
    },
    "_left_": {
        "type": "number",
        "value": "0"
    },
    "_margin_": [
        6,
        6,
        6,
        6
    ],
    "_padding_": [
        0,
        0,
        0,
        0
    ],
    "_skin_": "s4f3316742e34ba28e423744fe3b3628",
    "_text_": "NEXT",
    "_top_": {
        "type": "string",
        "value": "0%"
    },
    "_width_": {
        "type": "string",
        "value": "100dp"
    },
    "canUpdateUI": true,
    "centery": {
        "type": "string",
        "value": "50%"
    },
    "containerweight": 100,
    "contentalignment": 5,
    "desktopweb": {
        "psp": {
            "hoverSkin": "s45fdecfe9034a018a418bc53bd8161d"
        }
    },
    "displaytext": true,
    "focusskin": "sa0a214e6979469ebf190bb69eae8def",
    "id": "btnNext",
    "info": null,
    "isvisible": true,
    "kuid": "c27a84b1661c49a8bfe801a332f77ff1",
    "name": "kony.ui.Button",
    "parent": "flxRightButtons",
    "pf": "frmUsers",
    "texti18n": "i18n.permission.NEXT",
    "wType": "Button",
    "zindex": 1
}