{
    "@class": "com.kony.gen.viz.model.component.KVizButton",
    "DNDConfig": null,
    "__parentReadjusting__": false,
    "_bottom_": {
        "type": "string",
        "value": "15dp"
    },
    "_height_": {
        "type": "ref",
        "value": "preferred"
    },
    "_left_": {
        "type": "string",
        "value": "16dp"
    },
    "_margin_": [
        6,
        6,
        6,
        6
    ],
    "_padding_": [
        0,
        0,
        0,
        0
    ],
    "_skin_": "s243b9e3ae60426789fdf2ba1dda2973",
    "_text_": "Permissions",
    "_top_": {
        "type": "string",
        "value": "15dp"
    },
    "_width_": {
        "type": "ref",
        "value": "preferred"
    },
    "canUpdateUI": true,
    "containerweight": 100,
    "contentalignment": 5,
    "disabledSkins": {
        "focusSkin": "s152a8ebff2840e2b2942e5ec1abbdb5"
    },
    "displaytext": true,
    "id": "btnPermissions",
    "info": null,
    "isvisible": true,
    "kuid": "e5218ac12c3b453eae150e0b2013a579",
    "name": "kony.ui.Button",
    "parent": "flxSelectOptions",
    "pf": "frmUsers",
    "texti18n": "i18n.users.Permissions",
    "wType": "Button",
    "zindex": 1
}