{
    "DNDConfig": null,
    "__parentReadjusting__": false,
    "_height_": {
        "type": "ref",
        "value": "preferred"
    },
    "_margin_": [
        0,
        0,
        0,
        0
    ],
    "_orientation_": 6,
    "_padding_": [
        0,
        0,
        0,
        0
    ],
    "_percent_": true,
    "_right_": {
        "type": "string",
        "value": "2%"
    },
    "_skin_": "s88cc708170d4e3e8fed2490fd5e632e",
    "_top_": {
        "type": "string",
        "value": "100px"
    },
    "_width_": {
        "type": "string",
        "value": "18.39%"
    },
    "allboxes": [],
    "autogrowmode": 1,
    "canUpdateUI": true,
    "children": [
        "CopylblDescription0a252259b5c5b47",
        "CopylblRoles0f4ed925d516743",
        "CopylblPremissions0f8ff66e806ad46",
        "CopyflxSeperator0f47be42d7a5845",
        "CopyflxOption0f482b0cd04b74b",
        "CopyflxOption0bc20c8a8030749",
        "CopyflxOption0a3abb187c4704d",
        "CopyflxOption0e8d2e0a8b51446"
    ],
    "clipbounds": false,
    "containerweight": 100,
    "enablescrolling": true,
    "id": "flexOptions",
    "info": null,
    "isvisible": false,
    "kuid": "c5f8d2b05ca44758be512628bfa33c81",
    "layouttype": 4,
    "name": "kony.ui.FlexContainer",
    "parent": "flxSegmentUsers1",
    "pf": "frmUsers",
    "snapgridsize": 10,
    "snaptogrid": true,
    "wType": "FlexContainer",
    "widgetalignment": 1,
    "zindex": 100
}