{
    "DNDConfig": null,
    "__parentReadjusting__": false,
    "_bottom_": {
        "type": "number",
        "value": "20"
    },
    "_height_": {
        "type": "string",
        "value": "30px"
    },
    "_margin_": [
        0,
        0,
        0,
        0
    ],
    "_orientation_": 6,
    "_padding_": [
        0,
        0,
        0,
        0
    ],
    "_percent_": true,
    "_right_": {
        "type": "string",
        "value": "35dp"
    },
    "_skin_": "sd89a921ecc34c6382fc233008f56a43",
    "_top_": {
        "type": "string",
        "value": "90px"
    },
    "_width_": {
        "type": "string",
        "value": "222px"
    },
    "allboxes": [],
    "autogrowmode": 0,
    "canUpdateUI": true,
    "children": [
        "lbxPaginationKA",
        "flxPaginationSeperatorKA",
        "flxPrevious2",
        "flxNext2",
        "imgPreviousArrow1",
        "imgNextArrow1"
    ],
    "clipbounds": true,
    "containerweight": 100,
    "enablescrolling": true,
    "id": "flxPagination1",
    "info": null,
    "isvisible": false,
    "kuid": "h28c0c24f46743beaba5f673acdaa7dd",
    "layouttype": 3,
    "name": "kony.ui.FlexContainer",
    "parent": "flxViewContainer2",
    "pf": "frmUsers",
    "snapgridsize": 10,
    "snaptogrid": true,
    "wType": "FlexContainer",
    "widgetalignment": 1,
    "zindex": 1
}