{
    "DNDConfig": null,
    "__parentReadjusting__": false,
    "_height_": {
        "type": "string",
        "value": "100%"
    },
    "_left_": {
        "type": "string",
        "value": "0px"
    },
    "_margin_": [
        0,
        0,
        0,
        0
    ],
    "_orientation_": 6,
    "_padding_": [
        0,
        0,
        0,
        0
    ],
    "_percent_": true,
    "_right_": {
        "type": "string",
        "value": "0px"
    },
    "_skin_": "saf02e10feeb4a7991dd113673c6b1bd",
    "_top_": {
        "type": "string",
        "value": "0px"
    },
    "allboxes": [],
    "allowhorizontalbounce": false,
    "allowverticalbounce": true,
    "bounces": true,
    "canUpdateUI": true,
    "children": [
        "flxUsersContainer",
        "flxFilterDropdown",
        "flxStatusFilterDropdown",
        "flxSelectOptions"
    ],
    "clipbounds": false,
    "containerweight": 100,
    "decelerat": false,
    "dragg": false,
    "enablescrolling": true,
    "horizontalscrollindicator": true,
    "id": "flxPermissions",
    "info": null,
    "iscustomlayout": false,
    "isvisible": true,
    "kuid": "bd170c6cc9094f9bb99b4f08ef0dbf1b",
    "layouttype": 2,
    "name": "kony.ui.FlexContainer",
    "pagingenabled": false,
    "parent": "flxScrollMainContent",
    "pf": "frmUsers",
    "retaincontentalignment": false,
    "retainflexpositionproperties": false,
    "snapgridsize": 10,
    "snaptogrid": true,
    "vizProps": {},
    "wType": "FlexContainer",
    "widgetalignment": 1,
    "zindex": 1
}