{
    "DNDConfig": null,
    "__parentReadjusting__": false,
    "_height_": {
        "type": "ref",
        "value": "preferred"
    },
    "_left_": {
        "type": "string",
        "value": "810px"
    },
    "_margin_": [
        0,
        0,
        0,
        0
    ],
    "_orientation_": 6,
    "_padding_": [
        0,
        0,
        0,
        0
    ],
    "_percent_": true,
    "_skin_": "s88cc708170d4e3e8fed2490fd5e632e",
    "_top_": {
        "type": "string",
        "value": "100px"
    },
    "_width_": {
        "type": "string",
        "value": "200px"
    },
    "allboxes": [],
    "autogrowmode": 1,
    "canUpdateUI": true,
    "children": [
        "lblDescription",
        "btnRoles",
        "btnPermissions",
        "flxSeperator",
        "flxOption1",
        "flxOption2",
        "flxOption3",
        "flxOption4"
    ],
    "clipbounds": false,
    "containerweight": 100,
    "enablescrolling": true,
    "id": "flxSelectOptions",
    "info": null,
    "isvisible": false,
    "kuid": "e72e6126c85049db9c7130b71597584d",
    "layouttype": 4,
    "name": "kony.ui.FlexContainer",
    "parent": "flxPermissions",
    "pf": "frmUsers",
    "snapgridsize": 10,
    "snaptogrid": true,
    "wType": "FlexContainer",
    "widgetalignment": 1,
    "zindex": 100
}