{
    "@class": "com.kony.gen.viz.model.component.KVizLabel",
    "DNDConfig": null,
    "__parentReadjusting__": false,
    "_bottom_": {
        "type": "string",
        "value": "1%"
    },
    "_height_": {
        "type": "ref",
        "value": "preferred"
    },
    "_left_": {
        "type": "number",
        "value": "0"
    },
    "_margin_": [
        1,
        1,
        1,
        1
    ],
    "_padding_": [
        0,
        0,
        0,
        0
    ],
    "_skin_": "s5c249bbab594de988e993b2d8343a2b",
    "_text_": "",
    "_width_": {
        "type": "string",
        "value": "89%"
    },
    "_wrapping_": 2,
    "android": {
        "textStyle": {
            "letterSpacing": 0,
            "strikeThrough": false
        }
    },
    "canUpdateUI": true,
    "containerweight": 100,
    "contentalignment": 4,
    "desktopweb": {
        "psp": {
            "hoverSkin": "sffdce076bb646aa98573b469c99f946"
        }
    },
    "id": "lblCheckAvailabilityPwd",
    "info": null,
    "ipad": {
        "psp": {
            "wrapping": 2
        }
    },
    "iphone": {
        "psp": {
            "wrapping": 2
        }
    },
    "isvisible": true,
    "kuid": "a585bf96c9b8410ebfc985f14f17942e",
    "name": "kony.ui.Label",
    "parent": "flxPasswordUser",
    "pf": "frmUsers",
    "texti18n": "i18n.frmAlertsManagement.lblAlertTypeDescriptionCount",
    "tooltip": "",
    "wType": "Label",
    "zindex": 1
}