{
    "@class": "com.kony.gen.viz.model.component.KVizUserWidget",
    "DNDConfig": null,
    "__parentReadjusting__": false,
    "_bottom_": {
        "type": "string",
        "value": ""
    },
    "_children_": [],
    "_desktopweb_": {},
    "_height_": {
        "type": "string",
        "value": "100%"
    },
    "_left_": {
        "type": "string",
        "value": "0dp"
    },
    "_margin_": [
        0,
        0,
        0,
        0
    ],
    "_orientation_": 1,
    "_padding_": [
        0,
        0,
        0,
        0
    ],
    "_percent_": true,
    "_render_": true,
    "_responsiveData_": {},
    "_right_": {
        "type": "string",
        "value": ""
    },
    "_skin_": "s39233a8d65f40d5b9120e116f6d9ef6",
    "_top_": {
        "type": "string",
        "value": "0dp"
    },
    "_vizProps_": {
        "hidewidgethierarchy": false
    },
    "_width_": {
        "type": "string",
        "value": "100%"
    },
    "areflexpropsreferenced": false,
    "autogrowmode": 0,
    "canUpdateUI": true,
    "centerx": {
        "type": "string",
        "value": ""
    },
    "centery": {
        "type": "string",
        "value": ""
    },
    "clipbounds": true,
    "containerweight": 0,
    "dataDiffs": {
        "btnPopUpCancel": {
            "__events__": {},
            "__info__": {
                "kuid": "cf612cdcd18d418bac97a986cf79cf62",
                "srcKUID": "g552e00534a64c94b7e8432ae19e32be",
                "wType": "Button"
            },
            "i18n_text": "i8n.navigation.cancelButton"
        },
        "btnPopUpDelete": {
            "__events__": {},
            "__info__": {
                "kuid": "fbc04660d4e8493d94dc845a768f53a2",
                "srcKUID": "j21d83290bfc4cc29a0b48797cce32dc",
                "wType": "Button"
            },
            "i18n_text": "i8n.navigation.okButton"
        },
        "flxPopUp": {
            "__events__": {},
            "__info__": {
                "kuid": "d9731276407d45459628bd6ae46f18a8",
                "srcKUID": "b3b6c1b67bec40aeb9afec3da3aa0d8e",
                "wType": "FlexContainer"
            }
        },
        "flxPopUpButtons": {
            "__events__": {},
            "__info__": {
                "kuid": "a1a88f6df6a3433dba21633f9622689f",
                "srcKUID": "g2892d3bb666464291b179abd349e4f8",
                "wType": "FlexContainer"
            }
        },
        "flxPopUpClose": {
            "__events__": {},
            "__info__": {
                "kuid": "i0260724095a4c1cb6bdb4a283449805",
                "srcKUID": "cb66f68b3c0845eea5e6ef874da0a3a2",
                "wType": "FlexContainer"
            }
        },
        "flxPopUpTopColor": {
            "__events__": {},
            "__info__": {
                "kuid": "d529595de96540e0aac3aab19ef11077",
                "srcKUID": "b5d4c1101ef948938dccd5d65d4e9080",
                "wType": "FlexContainer"
            }
        },
        "flxPopupHeader": {
            "__events__": {},
            "__info__": {
                "kuid": "bb899c1b0bee4c0b8c67c5004b1f63c4",
                "srcKUID": "e0e28c5127b244c389162777b8d82974",
                "wType": "FlexContainer"
            }
        },
        "imgPopUpClose": {
            "__events__": {},
            "__info__": {
                "kuid": "e2e61d7724bf494d886925061528aceb",
                "srcKUID": "h3d585875d654994ae06962f33750f41",
                "wType": "Image"
            }
        },
        "lblPopUpMainMessage": {
            "__events__": {},
            "__info__": {
                "kuid": "b8e63769006a43d990605ca10be35261",
                "srcKUID": "fd9f14b724e84619bddaf7f31975c1de",
                "wType": "Label"
            },
            "i18n_text": "i8n.navigation.cancelChanges"
        },
        "lblPopupClose": {
            "__events__": {},
            "__info__": {
                "kuid": "ee2ed033179441ef98ccb1185ca6d9ed",
                "srcKUID": "i85a6cf8cb4b418a865a8fd2df968f9e",
                "wType": "Label"
            }
        },
        "popUpCancelEdits": {
            "__events__": {},
            "__info__": {
                "isRoot": true,
                "kuid": "d1be7fb48b194e59ac17bd79bd1844f0",
                "srcKUID": "a51dfb83d74844df8f40080c6b140c04",
                "wType": "FlexContainer"
            },
            "autogrowMode": {
                "Default": 0
            },
            "bottom": {
                "Default": {
                    "type": "string",
                    "value": ""
                }
            },
            "centerX": {
                "Default": {
                    "type": "string",
                    "value": ""
                }
            },
            "centerY": {
                "Default": {
                    "type": "string",
                    "value": ""
                }
            },
            "height": {
                "Default": {
                    "type": "string",
                    "value": "100%"
                }
            },
            "left": {
                "Default": {
                    "type": "string",
                    "value": "0dp"
                }
            },
            "maxHeight": {
                "Default": {
                    "type": "string",
                    "value": ""
                }
            },
            "maxWidth": {
                "Default": {
                    "type": "string",
                    "value": ""
                }
            },
            "minHeight": {
                "Default": {
                    "type": "string",
                    "value": ""
                }
            },
            "minWidth": {
                "Default": {
                    "type": "string",
                    "value": ""
                }
            },
            "right": {
                "Default": {
                    "type": "string",
                    "value": ""
                }
            },
            "top": {
                "Default": {
                    "type": "string",
                    "value": "0dp"
                }
            },
            "width": {
                "Default": {
                    "type": "string",
                    "value": "100%"
                }
            }
        },
        "rtxPopUpDisclaimer": {
            "__events__": {},
            "__info__": {
                "kuid": "hdfa4ebef32a42b2a47ec07fe93c2320",
                "srcKUID": "j6a3a55c67394eeabf87473139845f70",
                "wType": "RichText"
            },
            "i18n_text": "i8n.navigation.cancelChangesBody"
        }
    },
    "id": "popUpCancelEdits",
    "info": null,
    "iscustomlayout": false,
    "isdatareferenced": false,
    "isvisible": true,
    "kuid": "j6949c163f484b96b101b94a31f4d5a9",
    "layouttype": 2,
    "masterType": 0,
    "maxheight": {
        "type": "string",
        "value": ""
    },
    "maxwidth": {
        "type": "string",
        "value": ""
    },
    "minheight": {
        "type": "string",
        "value": ""
    },
    "minwidth": {
        "type": "string",
        "value": ""
    },
    "name": "kony.ui.UserWidgetInstance",
    "parent": "flxEditCancelConfirmation",
    "pf": "frmUsers",
    "retaincontentalignment": false,
    "retainflexpositionproperties": false,
    "snaptogrid": true,
    "sourceUserWidget": "a51dfb83d74844df8f40080c6b140c04",
    "wType": "UserWidgetInstance",
    "zindex": 1
}