{
    "@class": "com.kony.gen.viz.model.component.KVizRichText",
    "DNDConfig": null,
    "__parentReadjusting__": false,
    "_bottom_": {
        "type": "string",
        "value": "50px"
    },
    "_height_": {
        "type": "ref",
        "value": "preferred"
    },
    "_margin_": [
        0,
        0,
        0,
        0
    ],
    "_padding_": [
        0,
        0,
        0,
        0
    ],
    "_skin_": "s53dc044bbca444d9db68eee3dc9c9eb",
    "_text_": "No  Roles/Permissions  are available",
    "_top_": {
        "type": "string",
        "value": "50px"
    },
    "_width_": {
        "type": "string",
        "value": "80%"
    },
    "_wrapping_": 2,
    "canUpdateUI": true,
    "centerx": {
        "type": "string",
        "value": "50%"
    },
    "containerweight": 100,
    "contentalignment": 5,
    "id": "rtxAvailabletxt",
    "info": null,
    "isvisible": false,
    "kuid": "i6408208240c4624a1e907a9d02e11e3",
    "name": "kony.ui.RichText",
    "parent": "flxViewSegmentAndHeaders",
    "pf": "frmUsers",
    "texti18n": "i18n.frmUsers.rtxAvailabletxt",
    "wType": "RichText",
    "widgetalignment": 5,
    "zindex": 1
}