{
    "@class": "com.kony.gen.viz.model.component.KVizTextBox2",
    "DNDConfig": null,
    "__parentReadjusting__": false,
    "_height_": {
        "type": "string",
        "value": "100%"
    },
    "_left_": {
        "type": "string",
        "value": "35dp"
    },
    "_margin_": [
        0,
        0,
        0,
        0
    ],
    "_padding_": [
        3,
        0,
        0,
        0
    ],
    "_placeholder_": "Search",
    "_skin_": "sbeade505ae44d5981ad831f6bbca092",
    "_text_": "",
    "_width_": {
        "type": "string",
        "value": "88%"
    },
    "autocapitalize": "none",
    "autocomplete": false,
    "autocorrect": false,
    "autofilter": false,
    "canUpdateUI": true,
    "centery": {
        "type": "string",
        "value": "50%"
    },
    "containerheight": "",
    "containerheightmode": 1,
    "containerweight": 100,
    "contentalignment": 4,
    "desktopweb": {
        "psp": {}
    },
    "disabledSkins": {
        "focusSkin": "sd5d9f2f9f9a4eb4a885e2a0f597f79b",
        "hoverSkin": "se5abcf5912c4d6f91d091b897714d1f"
    },
    "id": "tbxSearchBox",
    "ide_onTouchStart": "AS_TextField_f138c9e0665245388949c737ff9374da",
    "info": null,
    "isvisible": true,
    "keyboardtype": "A",
    "kuid": "h0d9c0aaa2a648aeaf0fba81ec5f54c3",
    "mode": "A",
    "name": "kony.ui.TextBox2",
    "parent": "flxSearchContainer",
    "pf": "frmUsers",
    "placeholderi18n": "i18n.permission.search",
    "securetextentry": false,
    "textinputmode": "A",
    "viewtype": "default",
    "wType": "TextField",
    "zindex": 1
}