{
    "@class": "com.kony.gen.viz.model.component.KVizUserWidget",
    "DNDConfig": null,
    "__parentReadjusting__": false,
    "_children_": [],
    "_desktopweb_": {},
    "_height_": {
        "type": "ref",
        "value": "preferred"
    },
    "_left_": {
        "type": "string",
        "value": "0dp"
    },
    "_margin_": [
        0,
        0,
        0,
        0
    ],
    "_orientation_": 1,
    "_padding_": [
        0,
        0,
        0,
        0
    ],
    "_percent_": true,
    "_render_": true,
    "_responsiveData_": {},
    "_skin_": "s8ff24328417401b877c3ceb2a5fa27c",
    "_top_": {
        "type": "string",
        "value": "0dp"
    },
    "_vizProps_": {
        "hidewidgethierarchy": false
    },
    "_width_": {
        "type": "string",
        "value": "100%"
    },
    "areflexpropsreferenced": false,
    "autogrowmode": 1,
    "canUpdateUI": true,
    "clipbounds": true,
    "containerweight": 0,
    "dataDiffs": {
        "backToPageHeader": {
            "__events__": {},
            "__info__": {
                "kuid": "g8bd4f75a02b4ba8991f459cef856deb",
                "srcKUID": "i5f1c0bc1ce54f42bacc8b0b7665e222",
                "wType": "UserWidgetInstance"
            }
        },
        "backToPageHeader.btnBack": {
            "__events__": {},
            "__info__": {
                "kuid": "h359569b4d1f4621a8b24573471ca7a7",
                "srcKUID": "g98dd0fee7f44300b921df00699d8a27",
                "wType": "Button"
            }
        },
        "backToPageHeader.flxBack": {
            "__events__": {},
            "__info__": {
                "kuid": "ed2791b0b139496888d8ff58a1cde5c8",
                "srcKUID": "jaade176be984086b925c02c9b82ca8d",
                "wType": "FlexContainer"
            }
        },
        "backToPageHeader.fontIconBack": {
            "__events__": {},
            "__info__": {
                "kuid": "c4560819f7f443fe88ad5e1128ecb3a8",
                "srcKUID": "cfe8704182924f19b19937571619df1e",
                "wType": "Label"
            }
        },
        "flxBackToPermmissionBtn": {
            "__events__": {},
            "__info__": {
                "kuid": "a8ffefa036834202a93c4d6117d50f1c",
                "srcKUID": "ib6c3dbe953840ed99a284b9e6950b57",
                "wType": "FlexContainer"
            }
        },
        "flxCSRSegContainer": {
            "__events__": {},
            "__info__": {
                "kuid": "ca6721dceeeb4ba0839a5c4088d29df8",
                "srcKUID": "j0afa49ddce04f6c8e76551e84456cae",
                "wType": "FlexContainer"
            }
        },
        "flxHeading": {
            "__events__": {},
            "__info__": {
                "kuid": "g99b31c71dec473eb2d8c03480fa0ecf",
                "srcKUID": "c77f17d7771f47d19c35f80b3a592b44",
                "wType": "FlexContainer"
            }
        },
        "flxHeadingSegment": {
            "__events__": {},
            "__info__": {
                "kuid": "ad16017e17524c83a80ec2cea1b6387b",
                "srcKUID": "dd32eefe69a94c2fba0c0144d9fe473b",
                "wType": "FlexContainer"
            }
        },
        "lblHeading": {
            "__events__": {},
            "__info__": {
                "kuid": "g5e153d864324799aed9efecc0007e01",
                "srcKUID": "ae369eb2c52a478b93b5f3c2a969deab",
                "wType": "Label"
            }
        },
        "lblTopLine": {
            "__events__": {},
            "__info__": {
                "kuid": "de4c00ca0f154412bd141e576fb4693b",
                "srcKUID": "e802fcadb6e746a9831ac0e9eaa1be37",
                "wType": "Label"
            }
        },
        "segViewConfigureCSR": {
            "__events__": {},
            "__info__": {
                "kuid": "j1a25403ef694cd69f812b85d083d60f",
                "srcKUID": "f7371f8191b947eb879c16280de5df7a",
                "wType": "Segment"
            }
        },
        "viewConfigureCSRAssist": {
            "__events__": {},
            "__info__": {
                "isRoot": true,
                "kuid": "cb750d6d278347e68e27fa8d533581f4",
                "srcKUID": "ce37290691ee403bb90672ebec7ee7a8",
                "wType": "FlexContainer"
            }
        }
    },
    "id": "viewConfigureCSRAssist",
    "info": null,
    "iscustomlayout": false,
    "isdatareferenced": false,
    "isvisible": true,
    "kuid": "cb750d6d278347e68e27fa8d533581f4",
    "layouttype": 2,
    "masterType": 0,
    "name": "kony.ui.UserWidgetInstance",
    "parent": "flxViewConfigureCSRPermissions",
    "pf": "frmUsers",
    "retaincontentalignment": false,
    "retainflexpositionproperties": false,
    "snaptogrid": true,
    "sourceUserWidget": "ce37290691ee403bb90672ebec7ee7a8",
    "wType": "UserWidgetInstance"
}