{
    "DNDConfig": null,
    "__parentReadjusting__": false,
    "_height_": {
        "type": "ref",
        "value": "preferred"
    },
    "_left_": {
        "type": "string",
        "value": "0dp"
    },
    "_margin_": [
        0,
        0,
        0,
        0
    ],
    "_orientation_": 6,
    "_padding_": [
        0,
        0,
        0,
        0
    ],
    "_percent_": true,
    "_right_": {
        "type": "string",
        "value": "0dp"
    },
    "_skin_": "s0f0c2dabf9241bbacf5dfa38e4f4321",
    "_top_": {
        "type": "string",
        "value": "0dp"
    },
    "_width_": {
        "type": "string",
        "value": "460px"
    },
    "allboxes": [],
    "autogrowmode": 1,
    "canUpdateUI": true,
    "children": [
        "flxCustomerHeader",
        "flxUsernamePolicies",
        "flxPasswordPolicies"
    ],
    "clipbounds": true,
    "containerweight": 100,
    "desktopweb": {
        "psp": {}
    },
    "disabledSkins": {
        "focusSkin": "s0f0c2dabf9241bbacf5dfa38e4f4321",
        "hoverSkin": "s98c388a41a44dd4b6890f88f307f69f"
    },
    "enablescrolling": true,
    "id": "flxPoliciesWrapper",
    "info": null,
    "isvisible": true,
    "kuid": "c99b6e6ea7154aef929c6ce3c871984f",
    "layouttype": 4,
    "name": "kony.ui.FlexContainer",
    "parent": "policies",
    "pf": "userwidgetmodel",
    "snapgridsize": 10,
    "snaptogrid": true,
    "wType": "FlexContainer",
    "widgetalignment": 1,
    "zindex": 1
}