{
    "DNDConfig": null,
    "__parentReadjusting__": false,
    "_height_": {
        "type": "string",
        "value": "100%"
    },
    "_margin_": [
        0,
        0,
        0,
        0
    ],
    "_orientation_": 6,
    "_padding_": [
        0,
        0,
        0,
        0
    ],
    "_percent_": true,
    "_right_": {
        "type": "string",
        "value": "100px"
    },
    "_skin_": "s8ff24328417401b877c3ceb2a5fa27c",
    "_top_": "0dp",
    "_width_": {
        "type": "string",
        "value": "57px"
    },
    "allboxes": [],
    "autogrowmode": 0,
    "canUpdateUI": true,
    "centery": {
        "type": "string",
        "value": "50%"
    },
    "children": [
        "lblstaticContentStatus",
        "fontIconImgStaticContentStatus"
    ],
    "clipbounds": true,
    "containerweight": 100,
    "enablescrolling": true,
    "id": "flxStatus",
    "info": null,
    "isvisible": true,
    "kuid": "h229fef9008c4c86bd74cb9b62752fa2",
    "layouttype": 2,
    "name": "kony.ui.FlexContainer",
    "parent": "flxStaticContantHeader",
    "pf": "userwidgetmodel",
    "snapgridsize": 10,
    "snaptogrid": true,
    "wType": "FlexContainer",
    "widgetalignment": 1,
    "zindex": 1
}