{
    "@class": "com.kony.gen.viz.model.component.KVizUserWidget",
    "DNDConfig": null,
    "__parentReadjusting__": false,
    "_bottom_": {
        "type": "string",
        "value": ""
    },
    "_children_": [],
    "_desktopweb_": {},
    "_height_": {
        "type": "string",
        "value": "35px"
    },
    "_left_": {
        "type": "string",
        "value": "0dp"
    },
    "_margin_": [
        0,
        0,
        0,
        0
    ],
    "_orientation_": 1,
    "_padding_": [
        0,
        0,
        0,
        0
    ],
    "_percent_": true,
    "_render_": true,
    "_responsiveData_": {},
    "_skin_": "s88cc708170d4e3e8fed2490fd5e632e",
    "_top_": {
        "type": "string",
        "value": "0dp"
    },
    "_vizProps_": {
        "hidewidgethierarchy": false
    },
    "_width_": {
        "type": "string",
        "value": "100%"
    },
    "areflexpropsreferenced": false,
    "autogrowmode": 0,
    "canUpdateUI": true,
    "clipbounds": true,
    "containerweight": 0,
    "dataDiffs": {
        "btnLink1": {
            "__events__": {},
            "__info__": {
                "kuid": "iab8c9a33c08422e8afc821d79579095",
                "srcKUID": "b2dffe3cd0fb410e8f690e9fb3ad5953",
                "wType": "Button"
            },
            "vizProps": {
                "hide": true
            }
        },
        "btnLink2": {
            "__events__": {},
            "__info__": {
                "kuid": "b0ee4f4ca03e4fb3bb7537c6d0c7b724",
                "srcKUID": "cb921ce1a035484fa460dfaa5ada2ca9",
                "wType": "Button"
            },
            "vizProps": {
                "hide": true
            }
        },
        "contextualMenu": {
            "__events__": {},
            "__info__": {
                "isRoot": true,
                "kuid": "af03744c6d5947099b10460a4c67b0bb",
                "srcKUID": "h84df633b3e34c54b519c4d39ada4563",
                "wType": "FlexContainer"
            },
            "autogrowMode": {
                "Default": 0
            },
            "bottom": {
                "Default": {
                    "type": "string",
                    "value": ""
                }
            },
            "height": {
                "Default": {
                    "type": "string",
                    "value": "35px"
                }
            },
            "maxHeight": {
                "Default": {
                    "type": "string",
                    "value": ""
                }
            },
            "top": {
                "Default": {
                    "type": "string",
                    "value": "0dp"
                }
            }
        },
        "flxOption1": {
            "__events__": {},
            "__info__": {
                "kuid": "f21e8790d1b94f05970adc6b0e756f66",
                "srcKUID": "d7e840b25b224bf6850c2ea3d0e7c171",
                "wType": "FlexContainer"
            }
        },
        "flxOption2": {
            "__events__": {},
            "__info__": {
                "kuid": "f050c7166cba4c54b099c62b77018d0d",
                "srcKUID": "f9c3727a31ec4119bceb505a3b6f475d",
                "wType": "FlexContainer"
            }
        },
        "flxOption3": {
            "__events__": {},
            "__info__": {
                "kuid": "d57a336f48524b55880840b4fe8d1695",
                "srcKUID": "d29efa2603aa41e2928949f7c6aa2a02",
                "wType": "FlexContainer"
            },
            "vizProps": {
                "hide": true
            }
        },
        "flxOption4": {
            "__events__": {},
            "__info__": {
                "kuid": "f75c9d0f17ef4cf28b3596c195ffc454",
                "srcKUID": "c302ecd40e914e8c82f341ac83e81f8a",
                "wType": "FlexContainer"
            },
            "vizProps": {
                "hide": true
            }
        },
        "flxOptionsSeperator": {
            "__events__": {},
            "__info__": {
                "kuid": "dfd616e4c7fc4916996106da24925ed1",
                "srcKUID": "e9554e60ff154693aee05156beb04bfa",
                "wType": "FlexContainer"
            },
            "vizProps": {
                "hide": true
            }
        },
        "imgOption1": {
            "__events__": {},
            "__info__": {
                "kuid": "e8ebe9b0d01047fc81a866902db58f44",
                "srcKUID": "hf7e0a6fa705411396408387d1f1c21d",
                "wType": "Image"
            },
            "src": "configure2x.png"
        },
        "imgOption2": {
            "__events__": {},
            "__info__": {
                "kuid": "fbefe75bb5e3441d8d156daf6d32dde2",
                "srcKUID": "jd64eac721ef4dcd8fc81b92c970fee1",
                "wType": "Image"
            },
            "src": "delete_2x.png"
        },
        "imgOption3": {
            "__events__": {},
            "__info__": {
                "kuid": "b8e6b93495fd4f46819b109efb7d4839",
                "srcKUID": "d8c7d01cd0f94b1193c0dadb7452e5ec",
                "wType": "Image"
            },
            "src": "imagedrag.png"
        },
        "imgOption4": {
            "__events__": {},
            "__info__": {
                "kuid": "c3b857cd3bc04359a6f1242580d6b89c",
                "srcKUID": "ce04eeeb13144a09829f61a14b3687fb",
                "wType": "Image"
            },
            "src": "deactive_2x.png"
        },
        "lblHeader": {
            "__events__": {},
            "__info__": {
                "kuid": "e26eb0953f92458487456100385d98ab",
                "srcKUID": "jefa00f14b4c402dabc4d704de1ee7ef",
                "wType": "Label"
            },
            "vizProps": {
                "hide": true
            }
        },
        "lblOption1": {
            "__events__": {},
            "__info__": {
                "kuid": "fc62476c2f1946328904a919fd463d6a",
                "srcKUID": "ga90f19b3a064bcb8a96ee038b790d10",
                "wType": "Label"
            },
            "i18n_text": null,
            "text": "Configure"
        },
        "lblOption2": {
            "__events__": {},
            "__info__": {
                "kuid": "c47e5df7946a481c8921188d2e197133",
                "srcKUID": "g85bb13b58ea4f5bb33f98be3ffd8576",
                "wType": "Label"
            },
            "i18n_text": null,
            "text": "Remove"
        },
        "lblOption3": {
            "__events__": {},
            "__info__": {
                "kuid": "fe77de39ded04f5aa84986d98819e5f9",
                "srcKUID": "de60382efd64494ca8729fdecddf8fb3",
                "wType": "Label"
            }
        },
        "lblOption4": {
            "__events__": {},
            "__info__": {
                "kuid": "ef6c6847d4224c3db7c281d83d2fe8e0",
                "srcKUID": "f6b4c8383b3a4a9590acb462a5f9bb31",
                "wType": "Label"
            }
        }
    },
    "id": "entitlementsContextualMenu",
    "info": null,
    "isdatareferenced": false,
    "isvisible": true,
    "kuid": "af03744c6d5947099b10460a4c67b0bb",
    "layouttype": 4,
    "masterType": 0,
    "maxheight": {
        "type": "string",
        "value": ""
    },
    "name": "kony.ui.UserWidgetInstance",
    "parent": "flxEntitlementsContextualMenu",
    "pf": "frmCustomerProfileActivityHistory",
    "snaptogrid": true,
    "sourceUserWidget": "h84df633b3e34c54b519c4d39ada4563",
    "vizprops": {
        "hidewidgethierarchy": false
    },
    "wType": "UserWidgetInstance"
}