{
    "DNDConfig": null,
    "__parentReadjusting__": false,
    "_bottom_": {
        "type": "string",
        "value": "20px"
    },
    "_height_": {
        "type": "ref",
        "value": "preferred"
    },
    "_left_": {
        "type": "string",
        "value": "20px"
    },
    "_margin_": [
        0,
        0,
        0,
        0
    ],
    "_orientation_": 6,
    "_padding_": [
        0,
        0,
        0,
        0
    ],
    "_percent_": true,
    "_right_": {
        "type": "string",
        "value": "35dp"
    },
    "_skin_": "s1ff7cd2af534a52acf5e58bda41f5df",
    "_top_": {
        "type": "string",
        "value": "60px"
    },
    "allboxes": [],
    "allowhorizontalbounce": false,
    "allowverticalbounce": true,
    "bounces": true,
    "canUpdateUI": true,
    "children": [
        "flxActivityHistorySegmentHeader",
        "lblActivityHistoryHeaderSeperator",
        "segActivityHistory",
        "rtxMsgActivityHistory",
        "flxFilter"
    ],
    "clipbounds": true,
    "containerweight": 100,
    "decelerat": false,
    "dragg": false,
    "enablescrolling": false,
    "horizontalscrollindicator": true,
    "id": "flxActivityHistorySegment",
    "info": null,
    "iscustomlayout": false,
    "isvisible": true,
    "kiosk": {
        "psp": {
            "horizontalScrollIndicator": false
        }
    },
    "kuid": "cd7add142e144337a9a5d7ed1b40c63d",
    "layouttype": 2,
    "name": "kony.ui.FlexScrollContainer",
    "pagingenabled": false,
    "parent": "flxActivityHistoryListing",
    "pf": "frmCustomerProfileActivityHistory",
    "retaincontentalignment": false,
    "retainflexpositionproperties": false,
    "scrolldirection": 4,
    "snapgridsize": 10,
    "snaptogrid": true,
    "track": false,
    "verticalscrollindicator": true,
    "vizProps": {},
    "wType": "FlexScrollContainer",
    "widgetalignment": 1
}