{
    "@class": "com.kony.gen.viz.model.component.KVizUserWidget",
    "DNDConfig": null,
    "__parentReadjusting__": false,
    "_children_": [],
    "_desktopweb_": {},
    "_height_": {
        "type": "string",
        "value": "20px"
    },
    "_left_": {
        "type": "string",
        "value": "0dp"
    },
    "_margin_": [
        0,
        0,
        0,
        0
    ],
    "_orientation_": 1,
    "_padding_": [
        0,
        0,
        0,
        0
    ],
    "_percent_": true,
    "_render_": true,
    "_responsiveData_": {},
    "_skin_": "s8ff24328417401b877c3ceb2a5fa27c",
    "_top_": {
        "type": "string",
        "value": "0dp"
    },
    "_vizProps_": {
        "hidewidgethierarchy": false
    },
    "_width_": {
        "type": "string",
        "value": "100%"
    },
    "areflexpropsreferenced": false,
    "autogrowmode": 0,
    "canUpdateUI": true,
    "clipbounds": true,
    "containerweight": 0,
    "dataDiffs": {
        "btnBackToMain": {
            "__events__": {},
            "__info__": {
                "kuid": "e377c0215271445a8fe213748dbf4695",
                "srcKUID": "ge7fb3e19804479c87da39622891c6da",
                "wType": "Button"
            }
        },
        "lblCurrentScreen": {
            "__events__": {},
            "__info__": {
                "kuid": "f18f50d23dcd45e3be849cf4417d82b0",
                "srcKUID": "febdd40ec254484eb2f5759186182011",
                "wType": "Label"
            }
        },
        "lblName": {
            "__events__": {},
            "__info__": {
                "kuid": "da62bb23461041c0b720e3b6e9dfc9bd",
                "srcKUID": "d8a23db8bc6943bb868d0a2791ed56de",
                "wType": "Label"
            }
        },
        "modifySearch": {
            "__events__": {},
            "__info__": {
                "isRoot": true,
                "kuid": "f4c809e96572497b9f0ac85130b0ffe0",
                "srcKUID": "e35827d994c3497aa9c4ff09afc99990",
                "wType": "FlexContainer"
            }
        }
    },
    "id": "modifySearch",
    "info": null,
    "isdatareferenced": false,
    "isvisible": true,
    "kuid": "f4c809e96572497b9f0ac85130b0ffe0",
    "layouttype": 3,
    "masterType": 0,
    "name": "kony.ui.UserWidgetInstance",
    "parent": "flxModifySearch",
    "pf": "frmCustomerProfileActivityHistory",
    "snaptogrid": true,
    "sourceUserWidget": "e35827d994c3497aa9c4ff09afc99990",
    "vizprops": {
        "hidewidgethierarchy": false
    },
    "wType": "UserWidgetInstance"
}