{
    "@class": "com.kony.gen.viz.model.component.KVizButton",
    "DNDConfig": null,
    "__parentReadjusting__": false,
    "_height_": {
        "type": "ref",
        "value": "preferred"
    },
    "_left_": {
        "type": "string",
        "value": "35px"
    },
    "_margin_": [
        6,
        6,
        6,
        6
    ],
    "_padding_": [
        0,
        0,
        0,
        0
    ],
    "_skin_": "s096a1b49b2f4b5993c57923f94bb0da",
    "_text_": "ASSIGN USERS",
    "_top_": {
        "type": "string",
        "value": "15dp"
    },
    "_width_": {
        "type": "ref",
        "value": "preferred"
    },
    "canUpdateUI": true,
    "containerweight": 100,
    "contentalignment": 5,
    "disabledSkins": {
        "focusSkin": "s152a8ebff2840e2b2942e5ec1abbdb5"
    },
    "displaytext": true,
    "id": "btnAddUsers",
    "info": null,
    "isvisible": true,
    "kuid": "h0a9187be6e44b1ba719626d1f758031",
    "name": "kony.ui.Button",
    "parent": "flxAddUsers",
    "pf": "frmRoles",
    "texti18n": "i18n.permission.ASSIGNUSERS",
    "wType": "Button",
    "zindex": 1
}