{
    "@class": "com.kony.gen.viz.model.component.KVizButton",
    "DNDConfig": null,
    "__parentReadjusting__": false,
    "_height_": {
        "type": "ref",
        "value": "preferred"
    },
    "_left_": {
        "type": "string",
        "value": "45px"
    },
    "_margin_": [
        6,
        6,
        6,
        6
    ],
    "_padding_": [
        0,
        0,
        0,
        0
    ],
    "_skin_": "s096a1b49b2f4b5993c57923f94bb0da",
    "_text_": "System Permissions",
    "_top_": {
        "type": "string",
        "value": "10dp"
    },
    "_width_": {
        "type": "ref",
        "value": "preferred"
    },
    "canUpdateUI": true,
    "containerweight": 100,
    "contentalignment": 5,
    "disabledSkins": {
        "focusSkin": "s152a8ebff2840e2b2942e5ec1abbdb5"
    },
    "displaytext": true,
    "id": "btnAddSysPermissions",
    "info": null,
    "isvisible": true,
    "kuid": "g9ce7c7e81884925b8e401f2a4ec6b75",
    "name": "kony.ui.Button",
    "parent": "flxAddSystemPermission",
    "pf": "frmRoles",
    "texti18n": "i18n.roles.SystemPermissions_LC",
    "wType": "Button",
    "zindex": 1
}