{
    "@class": "com.kony.gen.viz.model.component.KVizButton",
    "DNDConfig": null,
    "__parentReadjusting__": false,
    "_height_": {
        "type": "string",
        "value": "40dp"
    },
    "_margin_": [
        6,
        6,
        6,
        6
    ],
    "_padding_": [
        0,
        0,
        0,
        0
    ],
    "_right_": {
        "type": "string",
        "value": "0px"
    },
    "_skin_": "s3c60f327c994b9595aae04de642fdbe",
    "_text_": "SAVE",
    "_top_": {
        "type": "string",
        "value": "0%"
    },
    "_width_": {
        "type": "string",
        "value": "100px"
    },
    "canUpdateUI": true,
    "centery": {
        "type": "string",
        "value": "50%"
    },
    "containerweight": 100,
    "contentalignment": 5,
    "desktopweb": {
        "psp": {
            "hoverSkin": "s7db9565c1ce4ed8bc9c274c79bb2eca"
        }
    },
    "disabledSkins": {},
    "displaytext": true,
    "focusskin": "s68f239b5bef4ddda93b35d84ab737ae",
    "id": "btnSave",
    "info": null,
    "isvisible": true,
    "kuid": "bcbb300ab6f24f7e86b2566f9e3b4ccb",
    "name": "kony.ui.Button",
    "parent": "flxRightButtons",
    "pf": "frmRoles",
    "texti18n": "i18n.permission.SAVE",
    "wType": "Button",
    "zindex": 1
}