{
    "DNDConfig": null,
    "__parentReadjusting__": false,
    "_height_": {
        "type": "ref",
        "value": "preferred"
    },
    "_left_": {
        "type": "string",
        "value": "30dp"
    },
    "_margin_": [
        0,
        0,
        0,
        0
    ],
    "_orientation_": 6,
    "_padding_": [
        0,
        0,
        0,
        0
    ],
    "_percent_": true,
    "_right_": {
        "type": "number",
        "value": "30"
    },
    "_skin_": "s8ff24328417401b877c3ceb2a5fa27c",
    "_top_": {
        "type": "string",
        "value": "100dp"
    },
    "allboxes": [],
    "autogrowmode": 1,
    "canUpdateUI": true,
    "children": [
        "lblRoleDescription",
        "lblRoleDescriptionSize",
        "txtRoleDescription",
        "flxNoRoleDescriptionError",
        "lblOptional"
    ],
    "clipbounds": true,
    "containerweight": 100,
    "enablescrolling": true,
    "id": "flxDescription",
    "info": null,
    "isvisible": true,
    "kuid": "f1c6a6de8a2543e7a4721f7cd0d29c28",
    "layouttype": 2,
    "name": "kony.ui.FlexContainer",
    "parent": "flxScrollAddRoleDetails",
    "pf": "frmRoles",
    "snapgridsize": 10,
    "snaptogrid": true,
    "wType": "FlexContainer",
    "widgetalignment": 1,
    "zindex": 1
}