{
    "DNDConfig": null,
    "__parentReadjusting__": false,
    "_height_": {
        "type": "string",
        "value": "100%"
    },
    "_left_": {
        "type": "string",
        "value": "71%"
    },
    "_margin_": [
        0,
        0,
        0,
        0
    ],
    "_orientation_": 6,
    "_padding_": [
        0,
        0,
        0,
        0
    ],
    "_percent_": true,
    "_skin_": "s8ff24328417401b877c3ceb2a5fa27c",
    "_top_": {
        "type": "string",
        "value": "0dp"
    },
    "_width_": {
        "type": "string",
        "value": "13%"
    },
    "allboxes": [],
    "autogrowmode": 0,
    "canUpdateUI": true,
    "children": [
        "lblRoleHeaderPermissions",
        "fontIconSortPermissions"
    ],
    "clipbounds": true,
    "containerweight": 100,
    "desktopweb": {
        "psp": {}
    },
    "disabledSkins": {
        "hoverSkin": "s54b03ed0af548f4b10ba6e76cf19723"
    },
    "enablescrolling": true,
    "id": "flxRoleHeaderPermissions",
    "ide_onClick": "AS_FlexContainer_e8c18fc5a3a34ece96d2cc198ff5d25a",
    "info": null,
    "isvisible": true,
    "kuid": "c363f7cc50cb4f31b2a5ea543f8299ee",
    "layouttype": 3,
    "name": "kony.ui.FlexContainer",
    "parent": "flxRolesHeader",
    "pf": "frmRoles",
    "snapgridsize": 10,
    "snaptogrid": true,
    "wType": "FlexContainer",
    "widgetalignment": 1,
    "zindex": 1
}