{
    "DNDConfig": null,
    "__parentReadjusting__": false,
    "_height_": {
        "type": "string",
        "value": "100%"
    },
    "_left_": {
        "type": "string",
        "value": "35px"
    },
    "_margin_": [
        0,
        0,
        0,
        0
    ],
    "_orientation_": 6,
    "_padding_": [
        0,
        0,
        0,
        0
    ],
    "_percent_": true,
    "_skin_": "s8ff24328417401b877c3ceb2a5fa27c",
    "_top_": {
        "type": "string",
        "value": "0dp"
    },
    "_width_": {
        "type": "string",
        "value": "13.85%"
    },
    "allboxes": [],
    "autogrowmode": 0,
    "canUpdateUI": true,
    "children": [
        "lblRoleHeaderName",
        "fontIconSortName"
    ],
    "clipbounds": true,
    "containerweight": 100,
    "desktopweb": {
        "psp": {}
    },
    "disabledSkins": {
        "hoverSkin": "s54b03ed0af548f4b10ba6e76cf19723"
    },
    "enablescrolling": true,
    "id": "flxRoleHeaderName",
    "ide_onClick": "AS_FlexContainer_a43b80cc872f4831807a918bd48f0ac3",
    "info": null,
    "isvisible": true,
    "kuid": "a196d9535b9442aa8962c1fb35e6634f",
    "layouttype": 3,
    "name": "kony.ui.FlexContainer",
    "parent": "flxRolesHeader",
    "pf": "frmRoles",
    "snapgridsize": 10,
    "snaptogrid": true,
    "wType": "FlexContainer",
    "widgetalignment": 1,
    "zindex": 1
}