{
    "DNDConfig": null,
    "__parentReadjusting__": false,
    "_height_": {
        "type": "string",
        "value": "3dp"
    },
    "_left_": {
        "type": "string",
        "value": "-9dp"
    },
    "_margin_": [
        0,
        0,
        0,
        0
    ],
    "_orientation_": 6,
    "_padding_": [
        0,
        0,
        0,
        0
    ],
    "_percent_": true,
    "_skin_": "s9510324778045da9923e02366d464e6",
    "_top_": {
        "type": "string",
        "value": "42dp"
    },
    "_width_": {
        "type": "string",
        "value": "90px"
    },
    "allboxes": [],
    "autogrowmode": 0,
    "canUpdateUI": true,
    "children": [],
    "clipbounds": true,
    "containerweight": 100,
    "enablescrolling": true,
    "id": "flxTabUnderline1",
    "info": null,
    "isvisible": false,
    "kuid": "h33a2441c0404b23abf922bb3b9e3827",
    "layouttype": 2,
    "name": "kony.ui.FlexContainer",
    "parent": "flxViewTab1",
    "pf": "frmRoles",
    "snapgridsize": 10,
    "snaptogrid": true,
    "wType": "FlexContainer",
    "widgetalignment": 1,
    "zindex": 1
}