{
    "DNDConfig": null,
    "__parentReadjusting__": false,
    "_height_": {
        "type": "ref",
        "value": "preferred"
    },
    "_left_": {
        "type": "string",
        "value": "0dp"
    },
    "_margin_": [
        0,
        0,
        0,
        0
    ],
    "_orientation_": 6,
    "_padding_": [
        0,
        0,
        0,
        0
    ],
    "_percent_": true,
    "_skin_": "s18d010592a7449aa3bdd1093f63fab8",
    "_top_": {
        "type": "string",
        "value": "20dp"
    },
    "_width_": {
        "type": "string",
        "value": "100%"
    },
    "allboxes": [],
    "autogrowmode": 1,
    "canUpdateUI": true,
    "children": [
        "flxViewTabs",
        "flxViewDetailsSubTabs",
        "flxViewSegmentAndHeaders",
        "flxViewConfigureCsrCont",
        "flxViewPagination"
    ],
    "clipbounds": true,
    "containerweight": 100,
    "enablescrolling": true,
    "id": "flxViewContainer2",
    "info": null,
    "isvisible": true,
    "kuid": "b1f407d2e8f4464ebe16e2f235a28e5e",
    "layouttype": 2,
    "name": "kony.ui.FlexContainer",
    "parent": "flxViewPermissions",
    "pf": "frmRoles",
    "snapgridsize": 10,
    "snaptogrid": true,
    "wType": "FlexContainer",
    "widgetalignment": 1,
    "zindex": 1
}