{
    "@class": "com.kony.gen.viz.model.component.KVizLabel",
    "DNDConfig": null,
    "__parentReadjusting__": false,
    "_height_": {
        "type": "ref",
        "value": "preferred"
    },
    "_left_": {
        "type": "string",
        "value": "406dp"
    },
    "_margin_": [
        1,
        1,
        1,
        1
    ],
    "_padding_": [
        0,
        0,
        0,
        0
    ],
    "_skin_": "s24908d9e0124a4391cb52f3d856df8a",
    "_text_": "",
    "_top_": {
        "type": "string",
        "value": "51dp"
    },
    "_width_": {
        "type": "ref",
        "value": "preferred"
    },
    "_wrapping_": 2,
    "android": {
        "textStyle": {
            "letterSpacing": 0,
            "strikeThrough": false
        }
    },
    "canUpdateUI": true,
    "containerweight": 100,
    "contentalignment": 4,
    "id": "Label0b4617ed1f1af41",
    "info": null,
    "ipad": {
        "psp": {
            "wrapping": 2
        }
    },
    "iphone": {
        "psp": {
            "wrapping": 2
        }
    },
    "isvisible": true,
    "kuid": "eb91d6a9d8854300ad50db02971cc9c2",
    "name": "kony.ui.Label",
    "parent": "flxValidity",
    "pf": "frmRoles",
    "texti18n": "i18n.frmAlertsManagement.lblAlertTypeDescriptionCount",
    "tooltip": "",
    "wType": "Label",
    "zindex": 1
}