{
    "@class": "com.kony.gen.viz.model.component.KVizUserWidget",
    "DNDConfig": null,
    "__parentReadjusting__": false,
    "_children_": [],
    "_desktopweb_": {},
    "_height_": {
        "type": "string",
        "value": "100%"
    },
    "_left_": {
        "type": "string",
        "value": "0dp"
    },
    "_margin_": [
        0,
        0,
        0,
        0
    ],
    "_orientation_": 1,
    "_padding_": [
        0,
        0,
        0,
        0
    ],
    "_percent_": true,
    "_render_": true,
    "_responsiveData_": {},
    "_skin_": "s39233a8d65f40d5b9120e116f6d9ef6",
    "_top_": {
        "type": "string",
        "value": "0dp"
    },
    "_vizProps_": {
        "hidewidgethierarchy": false
    },
    "_width_": {
        "type": "string",
        "value": "100%"
    },
    "areflexpropsreferenced": false,
    "canUpdateUI": true,
    "clipbounds": true,
    "containerweight": 0,
    "dataDiffs": {
        "btnPopUpCancel": {
            "__events__": {},
            "__info__": {
                "kuid": "e7e027cd532f44228fd6465b82bd6ab3",
                "srcKUID": "d4ffebacb2fc450f90f34ff2c512b36f",
                "wType": "Button"
            }
        },
        "btnPopUpDelete": {
            "__events__": {},
            "__info__": {
                "kuid": "bc5ded2db85c4131ad1c4439fde1b268",
                "srcKUID": "d74b32688d0448359e725db30e5db9ca",
                "wType": "Button"
            }
        },
        "flxPopUp": {
            "__events__": {},
            "__info__": {
                "kuid": "d0aa9493f25e4d81b089305569867877",
                "srcKUID": "f1999a7df0404922bf7e8acfb6a3780a",
                "wType": "FlexContainer"
            }
        },
        "flxPopUpButtons": {
            "__events__": {},
            "__info__": {
                "kuid": "i771e1bf368c4930ad366152ad4103b5",
                "srcKUID": "f009cbfda01245849be265a8e58d3cf3",
                "wType": "FlexContainer"
            }
        },
        "flxPopUpClose": {
            "__events__": {},
            "__info__": {
                "kuid": "fa1324b77ada48fb83efe594b1059122",
                "srcKUID": "f9727789f4894508b70f7d5ae8b7a9a2",
                "wType": "FlexContainer"
            }
        },
        "flxPopUpTopColor": {
            "__events__": {},
            "__info__": {
                "kuid": "d57b2890def84c29987ee7a52c16d06e",
                "srcKUID": "d5d6b9f19ae4477b8708d1b775160fb5",
                "wType": "FlexContainer"
            }
        },
        "flxPopupHeader": {
            "__events__": {},
            "__info__": {
                "kuid": "fc891f105b66423ab3805b9f3ee2b130",
                "srcKUID": "ad64beaac2734a82ad110cd93e7e9838",
                "wType": "FlexContainer"
            }
        },
        "fontIconImgCLose": {
            "__events__": {},
            "__info__": {
                "kuid": "dbff69a2679740828c8b35a03851315e",
                "srcKUID": "hb8853052adb4ceb98482f3b9abdb6b1",
                "wType": "Label"
            }
        },
        "lblPopUpClose": {
            "__events__": {},
            "__info__": {
                "kuid": "j539f03fc9b940ceb30d815f37043882",
                "srcKUID": "j726c91d687f4bdea9b61ee15718ea91",
                "wType": "Label"
            }
        },
        "lblPopUpMainMessage": {
            "__events__": {},
            "__info__": {
                "kuid": "d3becf98d9c648efba0295200e40b936",
                "srcKUID": "cf94c2324e174d609ee2a12b7557d0a5",
                "wType": "Label"
            }
        },
        "popUp": {
            "__events__": {},
            "__info__": {
                "isRoot": true,
                "kuid": "jbd417c827584902815260f8be211a56",
                "srcKUID": "bf3aac0ddc8b47a0b463a18207905574",
                "wType": "FlexContainer"
            }
        },
        "rtxPopUpDisclaimer": {
            "__events__": {},
            "__info__": {
                "kuid": "ja8daa7b62fd4f778a6fe1704c01abfd",
                "srcKUID": "j4d87455f6ec44dbacababd4bf714b40",
                "wType": "RichText"
            }
        }
    },
    "id": "popUp",
    "info": null,
    "isdatareferenced": false,
    "isvisible": true,
    "kuid": "jbd417c827584902815260f8be211a56",
    "layouttype": 2,
    "masterType": 0,
    "name": "kony.ui.UserWidgetInstance",
    "parent": "flxErrorPopup",
    "pf": "frmRoles",
    "sourceUserWidget": "bf3aac0ddc8b47a0b463a18207905574",
    "wType": "UserWidgetInstance",
    "zindex": 1
}