{
    "@class": "com.kony.gen.viz.model.component.KVizRichText",
    "DNDConfig": null,
    "__parentReadjusting__": false,
    "_height_": {
        "type": "ref",
        "value": "preferred"
    },
    "_margin_": [
        0,
        0,
        0,
        0
    ],
    "_padding_": [
        0,
        0,
        0,
        0
    ],
    "_skin_": "s53dc044bbca444d9db68eee3dc9c9eb",
    "_text_": "Click Add to select a user",
    "_width_": {
        "type": "string",
        "value": "80%"
    },
    "_wrapping_": 2,
    "canUpdateUI": true,
    "centerx": {
        "type": "string",
        "value": "50%"
    },
    "centery": {
        "type": "string",
        "value": "50%"
    },
    "containerweight": 100,
    "contentalignment": 5,
    "id": "rtxSelectedOptionsMessage",
    "info": null,
    "isvisible": false,
    "kuid": "a7596a21c16a4b14af349140da985765",
    "name": "kony.ui.RichText",
    "parent": "flxSegSelectedOptions",
    "pf": "frmRoles",
    "texti18n": "i18n.frmPermissionsController.Click_Add_to_select_a_user",
    "wType": "RichText",
    "widgetalignment": 5,
    "zindex": 1
}