{
    "@class": "com.kony.gen.viz.model.component.KVizRichText",
    "DNDConfig": null,
    "__parentReadjusting__": false,
    "_bottom_": {
        "type": "string",
        "value": "50px"
    },
    "_height_": {
        "type": "ref",
        "value": "preferred"
    },
    "_left_": {
        "type": "string",
        "value": "0"
    },
    "_margin_": [
        0,
        0,
        0,
        0
    ],
    "_padding_": [
        0,
        0,
        0,
        0
    ],
    "_skin_": "s53dc044bbca444d9db68eee3dc9c9eb",
    "_text_": "No result found with the keyword \"Key Word\". <br>Try with another keyword",
    "_top_": {
        "type": "string",
        "value": "90px"
    },
    "_width_": {
        "type": "string",
        "value": "80%"
    },
    "_wrapping_": 2,
    "canUpdateUI": true,
    "centerx": {
        "type": "string",
        "value": "52%"
    },
    "containerweight": 100,
    "contentalignment": 5,
    "id": "rtxSearchMesg",
    "info": null,
    "isvisible": true,
    "kuid": "d6ef23111658441dbade3f600e20bd72",
    "name": "kony.ui.RichText",
    "parent": "flxNoResultFound",
    "pf": "frmRoles",
    "texti18n": "i18n.frmCSR.richtextNoResult",
    "wType": "RichText",
    "widgetalignment": 5,
    "zindex": 1
}