{
    "@class": "com.kony.gen.viz.model.container.KVizSegment2",
    "DNDConfig": null,
    "__parentReadjusting__": false,
    "_data_": [
        {
            "imgClose": {
                "@class": "com.viz.ide.model.segment.ImageSegmentData",
                "src": "close_blue.png"
            },
            "lblOption": {
                "@class": "com.viz.ide.model.segment.SimpleTextSegmentData",
                "text": "John Doe"
            }
        },
        {
            "imgClose": {
                "@class": "com.viz.ide.model.segment.ImageSegmentData",
                "src": "close_blue.png"
            },
            "lblOption": {
                "@class": "com.viz.ide.model.segment.SimpleTextSegmentData",
                "text": "John Doe"
            }
        }
    ],
    "_height_": {
        "type": "string",
        "value": "100%"
    },
    "_indicator_": "none",
    "_left_": {
        "type": "string",
        "value": "0px"
    },
    "_margin_": [
        0,
        0,
        0,
        0
    ],
    "_orientation_": 2,
    "_padding_": [
        0,
        0,
        0,
        0
    ],
    "_top_": {
        "type": "string",
        "value": "0px"
    },
    "_width_": {
        "type": "string",
        "value": "100%"
    },
    "autogrowmode": 0,
    "canUpdateUI": true,
    "containerweight": 100,
    "counter": "01",
    "disabledSkins": {
        "rowFocusSkin": "s1f4f08bfc534bd5bef2d6dd45899e65"
    },
    "focusedindex": null,
    "focuseditem": null,
    "generatedtemplate": "h6409635a073435a92280532019b566f",
    "groupcells": false,
    "hasSections": false,
    "id": "segSelectedOptions",
    "info": null,
    "ipad": {
        "psp": {
            "indicator": "rowselect"
        }
    },
    "iphone": {
        "psp": {
            "indicator": "rowselect"
        }
    },
    "isvisible": true,
    "kuid": "e9f9b700b0224a46a714563ba07871e6",
    "masterdata": {},
    "name": "kony.ui.SegmentedUI2",
    "needpageindicator": true,
    "pageoffdotimage": "pageoffdot.png",
    "pageondotimage": "pageondot.png",
    "paginationconfig": {
        "position": "bottom"
    },
    "parent": "flxSegSelectedOptions",
    "pf": "frmRoles",
    "retainselection": false,
    "rowTemplateId": "fd0ef20113544c75ac17068366b68988",
    "rowcounter": 1,
    "rowskin": "s057e66217df432485cdb63bb1bb29c1",
    "rowtemplate": "flxOptionAdded",
    "seccounter": 0,
    "sectionHeaderTemplateId": null,
    "sectionheaderskin": "s72edf21b49149a099230f2604c0815d",
    "selectedRows": null,
    "selectedState": false,
    "selectedindex": null,
    "selectedindices": null,
    "selecteditems": null,
    "selectedsectionindex": 0,
    "selectionbehavior": "default",
    "separatorcolor": "64646400",
    "separatorrequired": true,
    "separatorthickness": 0,
    "showscrollbars": true,
    "viewtype": "tableview",
    "vizProps": {},
    "wType": "Segment",
    "widgetalignment": 5,
    "widgetdatamap": {
        "flxAddOptionWrapper": "flxAddOptionWrapper",
        "flxClose": "flxClose",
        "flxOptionAdded": "flxOptionAdded",
        "imgClose": "imgClose",
        "lblOption": "lblOption"
    },
    "zindex": 1
}