{
    "@class": "com.kony.gen.viz.model.component.KVizUserWidget",
    "DNDConfig": null,
    "__parentReadjusting__": false,
    "_android_": {},
    "_androidwearos_": {},
    "_children_": [],
    "_desktopweb_": {},
    "_height_": {
        "type": "ref",
        "value": "preferred"
    },
    "_ipad_": {},
    "_iphone_": {},
    "_kiosk_": {},
    "_left_": {
        "type": "string",
        "value": "0dp"
    },
    "_margin_": [
        0,
        0,
        0,
        0
    ],
    "_orientation_": 1,
    "_padding_": [
        0,
        0,
        0,
        0
    ],
    "_percent_": true,
    "_skin_": "s8ff24328417401b877c3ceb2a5fa27c",
    "_spa_": {},
    "_spaan_": {},
    "_spaandroidtablet_": {},
    "_spabb_": {},
    "_spaip_": {},
    "_spaipad_": {},
    "_spamobile_": {},
    "_spatablet_": {},
    "_spawindowstablet_": {},
    "_spawinphone8_": {},
    "_tabrcandroid_": {},
    "_top_": {
        "type": "string",
        "value": "10dp"
    },
    "_vizProps_": {
        "hidewidgethierarchy": false
    },
    "_width_": {
        "type": "ref",
        "value": "preferred"
    },
    "_windows10_": {},
    "_windows8_": {},
    "_winphone10_": {},
    "_winphone8_": {},
    "areflexpropsreferenced": false,
    "autogrowmode": 1,
    "canUpdateUI": true,
    "clipbounds": true,
    "containerweight": 0,
    "dataDiffs": {
        "errorMsg": {
            "__events__": {},
            "__info__": {
                "isRoot": true,
                "kuid": "fe4b14dddce54fbea8487f411995e3a4",
                "srcKUID": "a23c55c15b3d49f6ba6a08000114f1cf",
                "wType": "FlexContainer"
            },
            "isVisible": false
        },
        "lblErrorIcon": {
            "__events__": {},
            "__info__": {
                "kuid": "b8212205dbb44a8693cbd787849b01bd",
                "srcKUID": "ec7d71f61f014241a619fd96c59b0435",
                "wType": "Label"
            }
        },
        "lblErrorText": {
            "__events__": {},
            "__info__": {
                "kuid": "d20d054916a2405e9686afd1a2b22603",
                "srcKUID": "ia85a4bdb50f477ebcfd44610c2f56ae",
                "wType": "Label"
            }
        }
    },
    "enablescrolling": true,
    "id": "currentStateError2Msg",
    "info": null,
    "iscustomlayout": false,
    "isdatareferenced": false,
    "isvisible": false,
    "kuid": "fe4b14dddce54fbea8487f411995e3a4",
    "layouttype": 3,
    "masterType": 0,
    "name": "kony.ui.UserWidgetInstance",
    "parent": "flxPrevAddressState",
    "pf": "userwidgetmodel",
    "retaincontentalignment": false,
    "retainflexpositionproperties": false,
    "snapgridsize": 10,
    "snaptogrid": true,
    "sourceUserWidget": "a23c55c15b3d49f6ba6a08000114f1cf",
    "wType": "UserWidgetInstance"
}