{
    "@class": "com.kony.gen.viz.model.component.KVizTextBox2",
    "DNDConfig": null,
    "__parentReadjusting__": false,
    "_height_": {
        "type": "string",
        "value": "40dp"
    },
    "_left_": {
        "type": "string",
        "value": "0dp"
    },
    "_margin_": [
        0,
        0,
        0,
        0
    ],
    "_padding_": [
        1,
        0,
        0,
        0
    ],
    "_placeholder_": "",
    "_right_": {
        "type": "string",
        "value": "0dp"
    },
    "_skin_": "s199e31ba0754258944efda3ae980b93",
    "_text_": "",
    "_top_": {
        "type": "string",
        "value": "15dp"
    },
    "_width_": {
        "type": "string",
        "value": "100%"
    },
    "autocapitalize": "none",
    "autocomplete": false,
    "autocorrect": false,
    "autofilter": false,
    "canUpdateUI": true,
    "containerheight": "",
    "containerheightmode": 1,
    "containerweight": 100,
    "contentalignment": 4,
    "desktopweb": {
        "psp": {}
    },
    "disabledSkins": {
        "hoverSkin": "s860f329d76648689c1283387fb1abff"
    },
    "focusskin": "s9357d21bfa3405db1e4511ef5053cc0",
    "id": "txtAddressLine2Value2",
    "info": null,
    "isvisible": true,
    "keyboardtype": "A",
    "kuid": "c487b02f32174321b32b7f36e0af7494",
    "maxtextlength": 40,
    "mode": "A",
    "name": "kony.ui.TextBox2",
    "parent": "flxPrevAddressLine2",
    "pf": "userwidgetmodel",
    "placeholderi18n": "i18n.frmCreateNewUser.lblAddressLine2User",
    "securetextentry": false,
    "textinputmode": "A",
    "viewtype": "default",
    "wType": "TextField",
    "zindex": 1
}