{
    "DNDConfig": null,
    "__parentReadjusting__": false,
    "_height_": {
        "type": "string",
        "value": "15px"
    },
    "_left_": {
        "type": "string",
        "value": "178px"
    },
    "_margin_": [
        0,
        0,
        0,
        0
    ],
    "_orientation_": 6,
    "_padding_": [
        0,
        0,
        0,
        0
    ],
    "_percent_": true,
    "_right_": {
        "type": "string",
        "value": "15px"
    },
    "_skin_": "s8ff24328417401b877c3ceb2a5fa27c",
    "_top_": {
        "type": "string",
        "value": "52px"
    },
    "_width_": {
        "type": "string",
        "value": "15px"
    },
    "allboxes": [],
    "autogrowmode": 0,
    "canUpdateUI": true,
    "children": [
        "lblCloseCal3"
    ],
    "clipbounds": true,
    "containerweight": 100,
    "desktopweb": {
        "psp": {
            "hoverSkin": "s54b03ed0af548f4b10ba6e76cf19723"
        }
    },
    "disabledSkins": {},
    "enablescrolling": true,
    "id": "flxCloseCal3",
    "info": null,
    "iscustomlayout": false,
    "isvisible": true,
    "kuid": "i8d6bff0575b43d6b17863fcaab2a308",
    "layouttype": 2,
    "name": "kony.ui.FlexContainer",
    "parent": "flxUsersReport",
    "pf": "frmReportsManagement",
    "retaincontentalignment": false,
    "retainflexpositionproperties": false,
    "snapgridsize": 10,
    "snaptogrid": true,
    "wType": "FlexContainer",
    "widgetalignment": 1,
    "zindex": 11
}