{
    "@class": "com.kony.gen.viz.model.component.KVizUserWidget",
    "DNDConfig": null,
    "__parentReadjusting__": false,
    "_children_": [],
    "_desktopweb_": {},
    "_height_": {
        "type": "string",
        "value": "106px"
    },
    "_left_": {
        "type": "string",
        "value": "0"
    },
    "_margin_": [
        0,
        0,
        0,
        0
    ],
    "_orientation_": 1,
    "_padding_": [
        0,
        0,
        0,
        0
    ],
    "_percent_": true,
    "_render_": true,
    "_responsiveData_": {},
    "_skin_": "s4886d30205846ce90dddbeb96d1d6ef",
    "_top_": {
        "type": "string",
        "value": "0"
    },
    "_vizProps_": {
        "hidewidgethierarchy": false
    },
    "_width_": {
        "type": "string",
        "value": "100%"
    },
    "areflexpropsreferenced": false,
    "autogrowmode": 0,
    "canUpdateUI": true,
    "clipbounds": true,
    "containerweight": 0,
    "dataDiffs": {
        "btnAddNewOption": {
            "__events__": {},
            "__info__": {
                "kuid": "d2ca58d2fe304a1ead4f0cb75a7b4deb",
                "srcKUID": "ada5d4a4ecde43cca0304c5882f66bb7",
                "wType": "Button"
            },
            "right": {
                "Default": {
                    "type": "string",
                    "value": "0dp"
                }
            },
            "text": "IMPORT CUSTOMER"
        },
        "btnDropdownList": {
            "__events__": {},
            "__info__": {
                "kuid": "h2995ca36a55496c8b6f3e938b79fa2d",
                "srcKUID": "b43698c27a4f4d988b5a7d3585c0a45b",
                "wType": "Button"
            },
            "vizProps": {
                "hide": false
            }
        },
        "flxAddNewOption": {
            "__events__": {},
            "__info__": {
                "kuid": "bb4641968c5b48249d81ff628970ba31",
                "srcKUID": "gcf4f343946b48eb8cfdddb8ea99ee15",
                "wType": "FlexContainer"
            }
        },
        "flxButtons": {
            "__events__": {},
            "__info__": {
                "kuid": "e4a045300c7c492b8149b626d586c0ef",
                "srcKUID": "ie1e60199eb3482b836d57a31097ad15",
                "wType": "FlexContainer"
            },
            "isVisible": false,
            "top": {
                "Default": {
                    "type": "string",
                    "value": "58px"
                }
            }
        },
        "flxDownloadList": {
            "__events__": {},
            "__info__": {
                "kuid": "db0b31760d2c4bd0a7c95caac5ae928d",
                "srcKUID": "hed9c70306a244ed9913ad2c67adf9b5",
                "wType": "FlexContainer"
            }
        },
        "flxHeaderSeperator": {
            "__events__": {},
            "__info__": {
                "kuid": "c1063180c72a49b98a3f4ca11d88c025",
                "srcKUID": "d5e902ebe40e41059acd4452ef74ee71",
                "wType": "FlexContainer"
            },
            "isVisible": false
        },
        "flxHeaderUserOptions": {
            "__events__": {},
            "__info__": {
                "kuid": "i166a3ec52704fd5a23307918e8c9bfb",
                "srcKUID": "e340add28ee8424ab0f160b52c1c3c49",
                "wType": "FlexContainer"
            }
        },
        "flxMainHeader": {
            "__events__": {},
            "__info__": {
                "kuid": "afb7db92aeaf445299a1528d071f8c2b",
                "srcKUID": "b5acbdce2d1f4b79be60f46a616882ae",
                "wType": "FlexContainer"
            }
        },
        "imgLogout": {
            "__events__": {},
            "__info__": {
                "kuid": "g74b3bd5eeaf4286846bd28d31a92b79",
                "srcKUID": "ff744a337cf24ffa97ecc82ef9964a85",
                "wType": "Image"
            },
            "src": "img_logout.png"
        },
        "lblAddNewOption": {
            "__events__": {},
            "__info__": {
                "kuid": "id9757548b04442f9ca9daa69711d616",
                "srcKUID": "b3a6223eaac240c2aec04f4e88d4c9a7",
                "wType": "Label"
            }
        },
        "lblDownloadList": {
            "__events__": {},
            "__info__": {
                "kuid": "a615760a267f4312b1f68623f311ca53",
                "srcKUID": "b6599b7f52704e498d2f53cc4ab1f6e7",
                "wType": "Label"
            }
        },
        "lblHeading": {
            "__events__": {},
            "__info__": {
                "kuid": "i111ae57b50f415d8c4285f57cddceb1",
                "srcKUID": "a773cdbb83be4b82acfb733f2e46eb06",
                "wType": "Label"
            },
            "i18n_text": "i18n.leftmenu.reports",
            "text": "Reports"
        },
        "lblUserName": {
            "__events__": {},
            "__info__": {
                "kuid": "c3e01e78a0c843279a6c2439ce85d45b",
                "srcKUID": "i605a8166a1941eead62b15cbf43026c",
                "wType": "Label"
            }
        },
        "mainHeader": {
            "__events__": {},
            "__info__": {
                "isRoot": true,
                "kuid": "cc3827f3fad34fd9bb195a4a64d6b270",
                "srcKUID": "a90b792b68af4d448d2757e88c7e1671",
                "wType": "FlexContainer"
            },
            "left": {
                "Default": {
                    "type": "string",
                    "value": "0"
                }
            },
            "top": {
                "Default": {
                    "type": "string",
                    "value": "0"
                }
            }
        }
    },
    "id": "mainHeader",
    "info": null,
    "isdatareferenced": false,
    "isvisible": true,
    "kuid": "h672cf9cc6cb444395a38b3e438d8e0b",
    "layouttype": 2,
    "masterType": 0,
    "name": "kony.ui.UserWidgetInstance",
    "parent": "flxMainHeader",
    "pf": "frmReportsManagement",
    "snaptogrid": true,
    "sourceUserWidget": "a90b792b68af4d448d2757e88c7e1671",
    "wType": "UserWidgetInstance"
}