{
    "@class": "com.kony.gen.viz.model.component.KVizRichText",
    "DNDConfig": null,
    "__parentReadjusting__": false,
    "_bottom_": {
        "type": "string",
        "value": "150px"
    },
    "_height_": {
        "type": "ref",
        "value": "preferred"
    },
    "_margin_": [
        0,
        0,
        0,
        0
    ],
    "_padding_": [
        0,
        0,
        0,
        0
    ],
    "_skin_": "s53dc044bbca444d9db68eee3dc9c9eb",
    "_text_": "No records found.",
    "_top_": {
        "type": "string",
        "value": "150px"
    },
    "_width_": {
        "type": "ref",
        "value": "preferred"
    },
    "_wrapping_": 2,
    "canUpdateUI": true,
    "centerx": {
        "type": "string",
        "value": "50%"
    },
    "containerweight": 100,
    "contentalignment": 5,
    "id": "rtxNoResultsFound",
    "info": null,
    "isvisible": false,
    "kuid": "d9b315df1c4f49d1aca8c10fa2f1fd3c",
    "name": "kony.ui.RichText",
    "parent": "flxUserReport",
    "pf": "frmReportsManagement",
    "texti18n": "i18n.frmLogs.rtxNoResultsFound",
    "wType": "RichText",
    "widgetalignment": 5,
    "zindex": 1
}