{
    "@class": "com.kony.gen.viz.model.component.KVizUserWidget",
    "DNDConfig": null,
    "__parentReadjusting__": false,
    "_children_": [],
    "_desktopweb_": {},
    "_height_": {
        "type": "string",
        "value": "80px"
    },
    "_left_": {
        "type": "string",
        "value": "0dp"
    },
    "_margin_": [
        0,
        0,
        0,
        0
    ],
    "_orientation_": 1,
    "_padding_": [
        0,
        0,
        0,
        0
    ],
    "_percent_": true,
    "_render_": true,
    "_responsiveData_": {},
    "_right_": {
        "type": "string",
        "value": "0px"
    },
    "_skin_": "sb881dd2547e4bd5ac4e0e84b13b9d9a",
    "_top_": {
        "type": "string",
        "value": "0dp"
    },
    "_vizProps_": {
        "hidewidgethierarchy": false
    },
    "_width_": {
        "type": "string",
        "value": ""
    },
    "areflexpropsreferenced": false,
    "autogrowmode": 0,
    "canUpdateUI": true,
    "clipbounds": true,
    "containerweight": 0,
    "dataDiffs": {
        "btnAdd": {
            "__events__": {},
            "__info__": {
                "kuid": "d56265b5bde746969cb85e748085f2e7",
                "srcKUID": "d789aefccac9414d9bb56c1fc47d29a0",
                "wType": "Button"
            },
            "left": {
                "Default": {
                    "type": "string",
                    "value": "220px"
                }
            }
        },
        "flxCSR": {
            "__events__": {},
            "__info__": {
                "kuid": "i607bdb7483e4c639e700221494655fc",
                "srcKUID": "h5a39eede1d4431184d6913ea2411ca8",
                "wType": "FlexContainer"
            },
            "isVisible": false
        },
        "flxCategory": {
            "__events__": {},
            "__info__": {
                "kuid": "jd46e72e95004df48ec046c7fe9eebed",
                "srcKUID": "e415ddbca3fd4de09755cdc63cd5f3e3",
                "wType": "FlexContainer"
            },
            "isVisible": false
        },
        "flxDate": {
            "__events__": {},
            "__info__": {
                "kuid": "d0a54b2f895b4aab811ce6162284eb18",
                "srcKUID": "i29c8c36d579489cb234ad87ac89dd21",
                "wType": "FlexContainer"
            }
        },
        "flxDateContainer": {
            "__events__": {},
            "__info__": {
                "kuid": "h24bc4cba09a467a95a811677a57886a",
                "srcKUID": "b543cd7a363742ddb3b77129501499bc",
                "wType": "FlexContainer"
            }
        },
        "flxDateSelection": {
            "__events__": {},
            "__info__": {
                "kuid": "eef9495ed0644c7693f98334193f33c2",
                "srcKUID": "j3a53f023b29463e91f4da9ab24f789d",
                "wType": "FlexContainer"
            }
        },
        "flxDownload": {
            "__events__": {},
            "__info__": {
                "kuid": "ecc606c5d98d4885a7ccc95b72ecc781",
                "srcKUID": "b463ed73da6948ae8f752eda65f6b332",
                "wType": "FlexContainer"
            }
        },
        "flxSuggestionsClose": {
            "__events__": {},
            "__info__": {
                "kuid": "f0de7fcf99004b7c89fde8772139d570",
                "srcKUID": "f81253232a6049d591545083d6b1ab2a",
                "wType": "FlexContainer"
            }
        },
        "imgClose": {
            "__events__": {},
            "__info__": {
                "kuid": "ja158d3b5c384b62804dcff8f384e3e3",
                "srcKUID": "f3a4ef4a511f4508a350484a64ae03be",
                "wType": "Image"
            },
            "src": "closetags_2x.png"
        },
        "imgDownload": {
            "__events__": {},
            "__info__": {
                "kuid": "d5663df932574e95bccc05aedfda804b",
                "srcKUID": "f611d530583240b98d28416c08be0a85",
                "wType": "Image"
            },
            "src": "download_2x.png"
        },
        "lblCSR": {
            "__events__": {},
            "__info__": {
                "kuid": "c50339e54f6f470ba9bbb3fe41ced1a2",
                "srcKUID": "hab4863af32a4ab4972cc36d675cca92",
                "wType": "Label"
            }
        },
        "lblIconDownload": {
            "__events__": {},
            "__info__": {
                "kuid": "b61029f2315d40b9a35d64eb8fcea5b4",
                "srcKUID": "d867a7f897b64b0b83977b14c4508ebd",
                "wType": "Label"
            }
        },
        "lblSelectCategory": {
            "__events__": {},
            "__info__": {
                "kuid": "dcea241efbec4a72b7e637fb8a49e66d",
                "srcKUID": "dccdd591516f40d5a15aa470fe6166a4",
                "wType": "Label"
            }
        },
        "lblSelectDate": {
            "__events__": {},
            "__info__": {
                "kuid": "b4073587f9b04610a637debc3a97b500",
                "srcKUID": "bbdd6e73bca5437a9c4227b0a765176f",
                "wType": "Label"
            }
        },
        "lstCategory": {
            "__events__": {},
            "__info__": {
                "kuid": "e775eb3f2bfc4bf2abbadcec5a55b16c",
                "srcKUID": "fdd821bfc69649eda5120ae2a702e3a4",
                "wType": "ListBox"
            }
        },
        "search": {
            "__events__": {},
            "__info__": {
                "isRoot": true,
                "kuid": "e2d7b058ea25458bbcd8d22a6de68104",
                "srcKUID": "be6316136d274aa6a05e8c96ea14941d",
                "wType": "FlexContainer"
            },
            "autogrowMode": {
                "Default": 0
            },
            "height": {
                "Default": {
                    "type": "string",
                    "value": "80px"
                }
            },
            "right": {
                "Default": {
                    "type": "string",
                    "value": "0px"
                }
            },
            "width": {
                "Default": {
                    "type": "string",
                    "value": ""
                }
            }
        },
        "tbxCSR": {
            "__events__": {},
            "__info__": {
                "kuid": "aba67a50829c413abc03acdb76d9e48c",
                "srcKUID": "cc1a164f7e9d4993b5fbe33104677d52",
                "wType": "TextField"
            }
        }
    },
    "id": "search1",
    "info": null,
    "iscustomlayout": false,
    "isdatareferenced": false,
    "isvisible": true,
    "kuid": "a218d2eb001b400bbb8f2648ab7e6fa2",
    "layouttype": 2,
    "masterType": 0,
    "name": "kony.ui.UserWidgetInstance",
    "parent": "flxTransactionsReport",
    "pf": "frmReportsManagement",
    "retaincontentalignment": false,
    "retainflexpositionproperties": false,
    "snaptogrid": true,
    "sourceUserWidget": "be6316136d274aa6a05e8c96ea14941d",
    "wType": "UserWidgetInstance"
}