{
    "@class": "com.kony.gen.viz.model.container.KVizSegment2",
    "DNDConfig": null,
    "__parentReadjusting__": false,
    "_bottom_": {
        "type": "string",
        "value": "20px"
    },
    "_data_": [
        {
            "imgOptions": {
                "@class": "com.viz.ide.model.segment.ImageSegmentData",
                "src": "dots3x.png"
            },
            "lblDescription": {
                "@class": "com.viz.ide.model.segment.SimpleTextSegmentData",
                "text": "Users enrolled"
            },
            "lblMobile": {
                "@class": "com.viz.ide.model.segment.SimpleTextSegmentData",
                "text": "2000"
            },
            "lblOnline": {
                "@class": "com.viz.ide.model.segment.SimpleTextSegmentData",
                "text": "3000"
            },
            "lblSeperator": {
                "@class": "com.viz.ide.model.segment.SimpleTextSegmentData",
                "text": "."
            },
            "lblTotal": {
                "@class": "com.viz.ide.model.segment.SimpleTextSegmentData",
                "text": "5000"
            }
        },
        {
            "imgOptions": {
                "@class": "com.viz.ide.model.segment.ImageSegmentData",
                "src": "dots3x.png"
            },
            "lblDescription": {
                "@class": "com.viz.ide.model.segment.SimpleTextSegmentData",
                "text": "Users with the app installed"
            },
            "lblMobile": {
                "@class": "com.viz.ide.model.segment.SimpleTextSegmentData",
                "text": "2000"
            },
            "lblOnline": {
                "@class": "com.viz.ide.model.segment.SimpleTextSegmentData",
                "text": "3000"
            },
            "lblSeperator": {
                "@class": "com.viz.ide.model.segment.SimpleTextSegmentData",
                "text": "."
            },
            "lblTotal": {
                "@class": "com.viz.ide.model.segment.SimpleTextSegmentData",
                "text": "5000"
            }
        },
        {
            "imgOptions": {
                "@class": "com.viz.ide.model.segment.ImageSegmentData",
                "src": "dots3x.png"
            },
            "lblDescription": {
                "@class": "com.viz.ide.model.segment.SimpleTextSegmentData",
                "text": "New enrolments"
            },
            "lblMobile": {
                "@class": "com.viz.ide.model.segment.SimpleTextSegmentData",
                "text": "120"
            },
            "lblOnline": {
                "@class": "com.viz.ide.model.segment.SimpleTextSegmentData",
                "text": "120"
            },
            "lblSeperator": {
                "@class": "com.viz.ide.model.segment.SimpleTextSegmentData",
                "text": "."
            },
            "lblTotal": {
                "@class": "com.viz.ide.model.segment.SimpleTextSegmentData",
                "text": "240"
            }
        },
        {
            "imgOptions": {
                "@class": "com.viz.ide.model.segment.ImageSegmentData",
                "src": ""
            },
            "lblDescription": {
                "@class": "com.viz.ide.model.segment.SimpleTextSegmentData",
                "text": "New installs"
            },
            "lblMobile": {
                "@class": "com.viz.ide.model.segment.SimpleTextSegmentData",
                "text": "300"
            },
            "lblOnline": {
                "@class": "com.viz.ide.model.segment.SimpleTextSegmentData",
                "text": "NA"
            },
            "lblSeperator": {
                "@class": "com.viz.ide.model.segment.SimpleTextSegmentData",
                "text": ""
            },
            "lblTotal": {
                "@class": "com.viz.ide.model.segment.SimpleTextSegmentData",
                "text": "300"
            }
        },
        {
            "imgOptions": {
                "@class": "com.viz.ide.model.segment.ImageSegmentData",
                "src": ""
            },
            "lblDescription": {
                "@class": "com.viz.ide.model.segment.SimpleTextSegmentData",
                "text": "New uninstalls"
            },
            "lblMobile": {
                "@class": "com.viz.ide.model.segment.SimpleTextSegmentData",
                "text": "20"
            },
            "lblOnline": {
                "@class": "com.viz.ide.model.segment.SimpleTextSegmentData",
                "text": "NA"
            },
            "lblSeperator": {
                "@class": "com.viz.ide.model.segment.SimpleTextSegmentData",
                "text": ""
            },
            "lblTotal": {
                "@class": "com.viz.ide.model.segment.SimpleTextSegmentData",
                "text": "20"
            }
        }
    ],
    "_height_": {
        "type": "ref",
        "value": "preferred"
    },
    "_indicator_": "none",
    "_left_": {
        "type": "string",
        "value": "0px"
    },
    "_margin_": [
        0,
        0,
        0,
        0
    ],
    "_orientation_": 2,
    "_padding_": [
        0,
        0,
        0,
        0
    ],
    "_top_": {
        "type": "string",
        "value": "61px"
    },
    "_width_": {
        "type": "string",
        "value": "100%"
    },
    "autogrowmode": 1,
    "canUpdateUI": true,
    "containerweight": 100,
    "counter": "04",
    "desktop": {
        "_data_": [
            [
                {
                    "imgSortCstomers": {
                        "@class": "com.viz.ide.model.segment.ImageSegmentData",
                        "src": "sorting3x.png"
                    },
                    "imgSortEntitlements": {
                        "@class": "com.viz.ide.model.segment.ImageSegmentData",
                        "src": "sorting3x.png"
                    },
                    "imgSortGroupRoles": {
                        "@class": "com.viz.ide.model.segment.ImageSegmentData",
                        "src": "sorting3x.png"
                    },
                    "imgSortGroupStatus": {
                        "@class": "com.viz.ide.model.segment.ImageSegmentData",
                        "src": "u195.png"
                    },
                    "imgSortName": {
                        "@class": "com.viz.ide.model.segment.ImageSegmentData",
                        "src": "sorting3x.png"
                    },
                    "lblGroupCustomerss": {
                        "@class": "com.viz.ide.model.segment.SimpleTextSegmentData",
                        "i18nkey": "i18n.Group.Customers",
                        "text": "USERS"
                    },
                    "lblGroupEntitlements": {
                        "@class": "com.viz.ide.model.segment.SimpleTextSegmentData",
                        "i18nkey": "i18n.Group.Entitlements",
                        "text": "USERS"
                    },
                    "lblGroupName": {
                        "@class": "com.viz.ide.model.segment.SimpleTextSegmentData",
                        "i18nkey": "i18n.permission.NAME",
                        "text": "NAME"
                    },
                    "lblGroupStatus": {
                        "@class": "com.viz.ide.model.segment.SimpleTextSegmentData",
                        "i18nkey": "i18n.permission.STATUS",
                        "text": "STATUS"
                    },
                    "lblGroupValidTill": {
                        "@class": "com.viz.ide.model.segment.SimpleTextSegmentData",
                        "i18nkey": "i18n.Group.ValidTill",
                        "text": "VALID TILL"
                    },
                    "lblHeaderGroupDescription": {
                        "@class": "com.viz.ide.model.segment.SimpleTextSegmentData",
                        "i18nkey": "i18n.permission.DESCRIPTION",
                        "text": "DESCRIPTION"
                    }
                },
                [
                    {},
                    {},
                    {},
                    {},
                    {},
                    {}
                ]
            ],
            [
                {
                    "imgSortCstomers": {
                        "@class": "com.viz.ide.model.segment.ImageSegmentData",
                        "src": "sorting3x.png"
                    },
                    "imgSortEntitlements": {
                        "@class": "com.viz.ide.model.segment.ImageSegmentData",
                        "src": "sorting3x.png"
                    },
                    "imgSortGroupRoles": {
                        "@class": "com.viz.ide.model.segment.ImageSegmentData",
                        "src": "sorting3x.png"
                    },
                    "imgSortGroupStatus": {
                        "@class": "com.viz.ide.model.segment.ImageSegmentData",
                        "src": "u195.png"
                    },
                    "imgSortName": {
                        "@class": "com.viz.ide.model.segment.ImageSegmentData",
                        "src": "sorting3x.png"
                    },
                    "lblGroupCustomerss": {
                        "@class": "com.viz.ide.model.segment.SimpleTextSegmentData",
                        "i18nkey": "i18n.Group.Customers",
                        "text": "USERS"
                    },
                    "lblGroupEntitlements": {
                        "@class": "com.viz.ide.model.segment.SimpleTextSegmentData",
                        "i18nkey": "i18n.Group.Entitlements",
                        "text": "USERS"
                    },
                    "lblGroupName": {
                        "@class": "com.viz.ide.model.segment.SimpleTextSegmentData",
                        "i18nkey": "i18n.permission.NAME",
                        "text": "NAME"
                    },
                    "lblGroupStatus": {
                        "@class": "com.viz.ide.model.segment.SimpleTextSegmentData",
                        "i18nkey": "i18n.permission.STATUS",
                        "text": "STATUS"
                    },
                    "lblGroupValidTill": {
                        "@class": "com.viz.ide.model.segment.SimpleTextSegmentData",
                        "i18nkey": "i18n.Group.ValidTill",
                        "text": "VALID TILL"
                    },
                    "lblHeaderGroupDescription": {
                        "@class": "com.viz.ide.model.segment.SimpleTextSegmentData",
                        "i18nkey": "i18n.permission.DESCRIPTION",
                        "text": "DESCRIPTION"
                    }
                },
                [
                    {},
                    {},
                    {},
                    {},
                    {},
                    {}
                ]
            ]
        ],
        "rowTemplateId": null,
        "rowtemplate": null,
        "sectionHeaderTemplateId": "i79f41a807e246ddb82f336222dde834",
        "sectionheadertemplate": "FlexContainer0gb4de70723724a",
        "widgetdatamap": {}
    },
    "focusedindex": null,
    "focuseditem": null,
    "groupcells": false,
    "hasSections": false,
    "id": "segListing",
    "info": null,
    "ipad": {
        "psp": {
            "indicator": "rowselect"
        }
    },
    "iphone": {
        "psp": {
            "indicator": "rowselect"
        }
    },
    "isvisible": true,
    "kuid": "c2d0d8b5a23049c6a7f3503905a7d566",
    "masterdata": {},
    "maxheight": {
        "type": "string",
        "value": "500px"
    },
    "name": "kony.ui.SegmentedUI2",
    "needpageindicator": true,
    "pageoffdotimage": "pageoffdot.png",
    "pageondotimage": "pageondot.png",
    "paginationconfig": {
        "position": "bottom"
    },
    "parent": "flxUserReport",
    "pf": "frmReportsManagement",
    "retainselection": false,
    "rowTemplateId": "c5d19d7c7e8e482f837f20ea4384ad3e",
    "rowcounter": 4,
    "rowfocusskin": "se901dcdd2ae4a58a81f21c009edf99e",
    "rowskin": "s54014e0d4204ce9acd27107655ded87",
    "rowtemplate": "flxUsersReport",
    "screenlevelwidget": false,
    "seccounter": 0,
    "sectionheaderskin": "sffa0c1a0560403189088e98f7b4f498",
    "selectedRows": null,
    "selectedState": false,
    "selectedindex": null,
    "selectedindices": null,
    "selecteditems": null,
    "selectedsectionindex": 0,
    "selectionbehavior": "default",
    "separatorrequired": false,
    "showscrollbars": false,
    "viewtype": "tableview",
    "vizProps": {},
    "wType": "Segment",
    "widgetalignment": 5,
    "widgetdatamap": {
        "flxFirstColumn": "flxFirstColumn",
        "flxOptions": "flxOptions",
        "flxUsersReport": "flxUsersReport",
        "flxUsersReportWrapper": "flxUsersReportWrapper",
        "flxlastColoumn": "flxlastColoumn",
        "imgOptions": "imgOptions",
        "lblDescription": "lblDescription",
        "lblMobile": "lblMobile",
        "lblOnline": "lblOnline",
        "lblSeperator": "lblSeperator",
        "lblTotal": "lblTotal"
    },
    "zindex": 1
}