{
    "@class": "com.kony.gen.viz.model.component.KVizButton",
    "DNDConfig": null,
    "__parentReadjusting__": false,
    "_height_": {
        "type": "string",
        "value": "40px"
    },
    "_margin_": [
        6,
        6,
        6,
        6
    ],
    "_padding_": [
        0,
        0,
        0,
        0
    ],
    "_skin_": "s3fead79081947b1b06e45ac20ca46d4",
    "_text_": "CANCEL",
    "_top_": {
        "type": "string",
        "value": "205px"
    },
    "_width_": {
        "type": "string",
        "value": "110px"
    },
    "canUpdateUI": true,
    "centerx": {
        "type": "string",
        "value": "50%"
    },
    "containerweight": 100,
    "contentalignment": 5,
    "desktopweb": {
        "psp": {
            "hoverSkin": "sf0607ed109940678312f918794b5975"
        }
    },
    "displaytext": true,
    "focusskin": "s3fead79081947b1b06e45ac20ca46d4",
    "id": "btnCancel",
    "info": null,
    "isvisible": false,
    "kuid": "e0686f61741a44968c1efeefcaf0043e",
    "name": "kony.ui.Button",
    "parent": "flxUploadingIndiacator",
    "pf": "frmLocations",
    "texti18n": "i18n.secureimage.CANCEL",
    "wType": "Button",
    "zindex": 1
}