{
    "@class": "com.kony.gen.viz.model.component.KVizButton",
    "DNDConfig": null,
    "__parentReadjusting__": false,
    "_height_": {
        "type": "string",
        "value": "40dp"
    },
    "_left_": {
        "type": "string",
        "value": "20px"
    },
    "_margin_": [
        6,
        6,
        6,
        6
    ],
    "_padding_": [
        0,
        0,
        0,
        0
    ],
    "_skin_": "s68f239b5bef4ddda93b35d84ab737ae",
    "_text_": "IMPORT",
    "_top_": {
        "type": "string",
        "value": "0dp"
    },
    "_width_": {
        "type": "string",
        "value": "110dp"
    },
    "canUpdateUI": true,
    "containerweight": 100,
    "contentalignment": 5,
    "desktopweb": {
        "psp": {
            "hoverSkin": "sa0a214e6979469ebf190bb69eae8def"
        }
    },
    "displaytext": true,
    "focusskin": "s68f239b5bef4ddda93b35d84ab737ae",
    "id": "btnImport",
    "info": null,
    "isvisible": true,
    "kuid": "f75b5d12ae5348aca0c9c1f0170c68e4",
    "name": "kony.ui.Button",
    "parent": "flxButtons",
    "pf": "frmLocations",
    "texti18n": "i18n.frmLocations.btnImport",
    "wType": "Button",
    "zindex": 1
}