{
    "@class": "com.kony.gen.viz.model.component.KVizUserWidget",
    "DNDConfig": null,
    "__parentReadjusting__": false,
    "_bottom_": {
        "type": "string",
        "value": ""
    },
    "_children_": [],
    "_desktopweb_": {},
    "_height_": {
        "type": "string",
        "value": "40px"
    },
    "_left_": {
        "type": "string",
        "value": "0dp"
    },
    "_margin_": [
        0,
        0,
        0,
        0
    ],
    "_orientation_": 1,
    "_padding_": [
        0,
        0,
        0,
        0
    ],
    "_percent_": true,
    "_render_": true,
    "_responsiveData_": {},
    "_right_": {
        "type": "string",
        "value": ""
    },
    "_skin_": "s8ff24328417401b877c3ceb2a5fa27c",
    "_top_": {
        "type": "string",
        "value": "20px"
    },
    "_vizProps_": {
        "hidewidgethierarchy": false
    },
    "_width_": {
        "type": "string",
        "value": "100%"
    },
    "areflexpropsreferenced": false,
    "autogrowmode": 0,
    "canUpdateUI": true,
    "centerx": {
        "type": "string",
        "value": ""
    },
    "centery": {
        "type": "string",
        "value": ""
    },
    "clipbounds": true,
    "containerweight": 0,
    "dataDiffs": {
        "btnLink3": {
            "__events__": {},
            "__info__": {
                "kuid": "e6a8ed2663f341a19efe9703d47bef47",
                "srcKUID": "j91288f8e39045aeb5f3470c522ffdf3",
                "wType": "Button"
            }
        },
        "details1": {
            "__events__": {},
            "__info__": {
                "isRoot": true,
                "kuid": "c2f9d4332a0e4f8aa2440417d671e37a",
                "srcKUID": "a5687942358045b5bdbbcaa029b3b303",
                "wType": "FlexContainer"
            },
            "autogrowMode": {
                "Default": 0
            },
            "bottom": {
                "Default": {
                    "type": "string",
                    "value": ""
                }
            },
            "centerX": {
                "Default": {
                    "type": "string",
                    "value": ""
                }
            },
            "centerY": {
                "Default": {
                    "type": "string",
                    "value": ""
                }
            },
            "height": {
                "Default": {
                    "type": "string",
                    "value": "40px"
                }
            },
            "left": {
                "Default": {
                    "type": "string",
                    "value": "0dp"
                }
            },
            "maxHeight": {
                "Default": {
                    "type": "string",
                    "value": ""
                }
            },
            "maxWidth": {
                "Default": {
                    "type": "string",
                    "value": ""
                }
            },
            "minHeight": {
                "Default": {
                    "type": "string",
                    "value": ""
                }
            },
            "minWidth": {
                "Default": {
                    "type": "string",
                    "value": ""
                }
            },
            "right": {
                "Default": {
                    "type": "string",
                    "value": ""
                }
            },
            "top": {
                "Default": {
                    "type": "string",
                    "value": "20px"
                }
            },
            "width": {
                "Default": {
                    "type": "string",
                    "value": "100%"
                }
            }
        },
        "flxColumn1": {
            "__events__": {},
            "__info__": {
                "kuid": "b22bce60be9448b7be8f2656a434b3bb",
                "srcKUID": "f9266735f9804d02b7bb2ba75b082a17",
                "wType": "FlexContainer"
            }
        },
        "flxColumn2": {
            "__events__": {},
            "__info__": {
                "kuid": "habba00b22ca4b3a8806c0520b8ceae4",
                "srcKUID": "jdabcb30578a454cacf78bef5a56bca9",
                "wType": "FlexContainer"
            }
        },
        "flxColumn3": {
            "__events__": {},
            "__info__": {
                "kuid": "b803cc303c4e44c982ab9f5ab60e2b15",
                "srcKUID": "a037402acefd4a5cbe1c15de26d4076c",
                "wType": "FlexContainer"
            }
        },
        "flxDataAndImage1": {
            "__events__": {},
            "__info__": {
                "kuid": "fd0c7706a91644929b657d36d6e89a4d",
                "srcKUID": "hf22388c7a8f45248bc8aabf21dc521d",
                "wType": "FlexContainer"
            }
        },
        "flxDataAndImage2": {
            "__events__": {},
            "__info__": {
                "kuid": "fc21adda5da244b6894d751757aa2fda",
                "srcKUID": "a21b6fdbf96049b6975ce0ce7b1238d4",
                "wType": "FlexContainer"
            }
        },
        "flxDataAndImage3": {
            "__events__": {},
            "__info__": {
                "kuid": "h0e23d1a5ef64c139c823093a465aade",
                "srcKUID": "a9033ad066744e46a003919cfa9d5fff",
                "wType": "FlexContainer"
            }
        },
        "lblData1": {
            "__events__": {},
            "__info__": {
                "kuid": "ifa3d36706104107bc265f02af74858c",
                "srcKUID": "ef0d960be1be466eb2b892680aa746bc",
                "wType": "Label"
            }
        },
        "lblData2": {
            "__events__": {},
            "__info__": {
                "kuid": "e24d0396f026490b8ab16c6d3343d8f9",
                "srcKUID": "i0e8c739ee9242988ae2b5fd2d638655",
                "wType": "Label"
            }
        },
        "lblData3": {
            "__events__": {},
            "__info__": {
                "kuid": "c00e289af9d246b1b57f8576dba7d50b",
                "srcKUID": "ha87a76ec50f4aff909594a579e16024",
                "wType": "Label"
            }
        },
        "lblHeading1": {
            "__events__": {},
            "__info__": {
                "kuid": "d6e5de003b334037a675054a6d3f989e",
                "srcKUID": "b2bb6d40ddca49feaee75332ecc6f75c",
                "wType": "Label"
            }
        },
        "lblHeading2": {
            "__events__": {},
            "__info__": {
                "kuid": "e33ef9172f9741f4ab681e0951bd6938",
                "srcKUID": "c83f2d58279842ce9056ff80ce128c1d",
                "wType": "Label"
            }
        },
        "lblHeading3": {
            "__events__": {},
            "__info__": {
                "kuid": "acbac435b1cf4166b6455abc398808f8",
                "srcKUID": "ebeae01dad974b5d9af2cd3db2a86b62",
                "wType": "Label"
            }
        },
        "lblIconData1": {
            "__events__": {},
            "__info__": {
                "kuid": "bb781851f00f4e9cbe1bb2bcfcaaa524",
                "srcKUID": "f358f82e8eb54ba2b9c9cdd65d793fda",
                "wType": "Label"
            }
        },
        "lblIconData2": {
            "__events__": {},
            "__info__": {
                "kuid": "c386a2fc5dd84de681bc7dac05ff71a8",
                "srcKUID": "cacee834b2db4a96b41a5a4666ddd19a",
                "wType": "Label"
            }
        },
        "lblIconData3": {
            "__events__": {},
            "__info__": {
                "kuid": "de7a30ba51454710ab70969d92e34df2",
                "srcKUID": "e2546bcd1c4c4033b9eb0f995c437257",
                "wType": "Label"
            }
        }
    },
    "id": "detailsRow2",
    "info": null,
    "iscustomlayout": false,
    "isdatareferenced": false,
    "isvisible": true,
    "kuid": "c2f9d4332a0e4f8aa2440417d671e37a",
    "layouttype": 2,
    "masterType": 0,
    "maxheight": {
        "type": "string",
        "value": ""
    },
    "maxwidth": {
        "type": "string",
        "value": ""
    },
    "minheight": {
        "type": "string",
        "value": ""
    },
    "minwidth": {
        "type": "string",
        "value": ""
    },
    "name": "kony.ui.UserWidgetInstance",
    "parent": "flxDetailsData1",
    "pf": "frmLocations",
    "retaincontentalignment": false,
    "retainflexpositionproperties": false,
    "snaptogrid": true,
    "sourceUserWidget": "a5687942358045b5bdbbcaa029b3b303",
    "wType": "UserWidgetInstance"
}