{
    "@class": "com.kony.gen.viz.model.component.KVizUserWidget",
    "DNDConfig": null,
    "__parentReadjusting__": false,
    "_children_": [],
    "_desktopweb_": {},
    "_height_": {
        "type": "ref",
        "value": "preferred"
    },
    "_left_": {
        "type": "string",
        "value": "0dp"
    },
    "_margin_": [
        0,
        0,
        0,
        0
    ],
    "_orientation_": 1,
    "_padding_": [
        0,
        0,
        0,
        0
    ],
    "_percent_": true,
    "_render_": true,
    "_responsiveData_": {},
    "_skin_": "s8ff24328417401b877c3ceb2a5fa27c",
    "_top_": {
        "type": "string",
        "value": "0dp"
    },
    "_vizProps_": {
        "hidewidgethierarchy": false
    },
    "_width_": {
        "type": "string",
        "value": "100%"
    },
    "areflexpropsreferenced": false,
    "autogrowmode": 1,
    "canUpdateUI": true,
    "clipbounds": true,
    "containerweight": 0,
    "dataDiffs": {
        "detailsMultiLine": {
            "__events__": {},
            "__info__": {
                "isRoot": true,
                "kuid": "c030c5405e5b45a2b3c1af89d3b413e9",
                "srcKUID": "5443dbd819cf4ebc8f70810917151198",
                "wType": "FlexContainer"
            }
        },
        "flxColumn1": {
            "__events__": {},
            "__info__": {
                "kuid": "b8912bc943fe43b3ad87ad62bbc6fcb1",
                "srcKUID": "d1e87a6572484992971271b1c34b8c6f",
                "wType": "FlexContainer"
            }
        },
        "flxColumn2": {
            "__events__": {},
            "__info__": {
                "kuid": "db8d5253af6f45a0a808e9b1befc7190",
                "srcKUID": "6e219ae09b944f498abca821a7d33577",
                "wType": "FlexContainer"
            }
        },
        "flxColumn3": {
            "__events__": {},
            "__info__": {
                "kuid": "d570ba39d6974ca6b8569ff69c882a14",
                "srcKUID": "e60d4320859d4328b9db6c7eb41251db",
                "wType": "FlexContainer"
            }
        },
        "lblHeading1": {
            "__events__": {},
            "__info__": {
                "kuid": "f776201af4e441fa841eb5eefb746517",
                "srcKUID": "fb0b2a8a85be42a9a0604674f88d5a2b",
                "wType": "Label"
            },
            "i18n_text": "i18n.View.ADDRESS"
        },
        "lblHeading2": {
            "__events__": {},
            "__info__": {
                "kuid": "e20e2213b2f643c6a556aa8a9e93db28",
                "srcKUID": "05e345f419ae49c89501dc14061415f4",
                "wType": "Label"
            },
            "i18n_text": "i18n.View.EMAILID"
        },
        "lblHeading3": {
            "__events__": {},
            "__info__": {
                "kuid": "j0410f9d79ab4b3b952523f5002e05e5",
                "srcKUID": "2f9e3eff7c4c49ae88db32dcdc408996",
                "wType": "Label"
            },
            "i18n_text": "i18n.View.GEOLOCATION"
        },
        "rtxData1": {
            "__events__": {},
            "__info__": {
                "kuid": "c4e67abf42534a9995d912a09f297fb5",
                "srcKUID": "f257b588448748cd8d5ea63ddd434301",
                "wType": "RichText"
            },
            "text": "The Business Centre<br>\n61 Wellfield Road<br>\nRoath Cardiff CF24 3DG"
        },
        "rtxData2": {
            "__events__": {},
            "__info__": {
                "kuid": "hca33eda0a9b467eae83b5c4b534f752",
                "srcKUID": "i9fe8668c867478985c7fab369ba5efd",
                "wType": "RichText"
            },
            "text": "Loremipsum@konybank.com"
        },
        "rtxData3": {
            "__events__": {},
            "__info__": {
                "kuid": "he660a8ccb7545ffa465b5776aa6eaf1",
                "srcKUID": "h3b1f84476694da985b11853a1b13254",
                "wType": "RichText"
            },
            "text": "Longitude: 12.12<br>\nLatitude : 61.34"
        }
    },
    "id": "detailsMultiLine",
    "info": null,
    "isdatareferenced": false,
    "isvisible": true,
    "kuid": "c030c5405e5b45a2b3c1af89d3b413e9",
    "layouttype": 2,
    "masterType": 0,
    "name": "kony.ui.UserWidgetInstance",
    "parent": "flxContactDetailsData",
    "pf": "frmLocations",
    "sourceUserWidget": "5443dbd819cf4ebc8f70810917151198",
    "wType": "UserWidgetInstance"
}