{
    "DNDConfig": null,
    "__parentReadjusting__": false,
    "_bottom_": {
        "type": "string",
        "value": "0px"
    },
    "_left_": {
        "type": "string",
        "value": "215dp"
    },
    "_margin_": [
        0,
        0,
        0,
        0
    ],
    "_orientation_": 6,
    "_padding_": [
        0,
        0,
        0,
        0
    ],
    "_percent_": true,
    "_right_": {
        "type": "string",
        "value": "0px"
    },
    "_skin_": "sa783444a562469892ee4cde19b9d664",
    "_top_": {
        "type": "string",
        "value": "0dp"
    },
    "allboxes": [],
    "autogrowmode": 0,
    "canUpdateUI": true,
    "children": [
        "flxLocationDetailsData",
        "flxLocationDetailsSeperator",
        "flxLocationDetailsButtons"
    ],
    "clipbounds": true,
    "containerweight": 100,
    "enablescrolling": true,
    "id": "flxLocationDetailsWrapper",
    "info": null,
    "isvisible": true,
    "kuid": "g238a22f85514067bf50936f207c9270",
    "layouttype": 2,
    "name": "kony.ui.FlexContainer",
    "parent": "flxLocationDetailsAndServices",
    "pf": "frmLocations",
    "snapgridsize": 10,
    "snaptogrid": true,
    "vizProps": {},
    "wType": "FlexContainer",
    "widgetalignment": 1,
    "zindex": 1
}