{
    "DNDConfig": null,
    "__parentReadjusting__": false,
    "_height_": {
        "type": "string",
        "value": "60px"
    },
    "_left_": {
        "type": "string",
        "value": "0px"
    },
    "_margin_": [
        0,
        0,
        0,
        0
    ],
    "_orientation_": 6,
    "_padding_": [
        0,
        0,
        0,
        0
    ],
    "_percent_": true,
    "_right_": {
        "type": "string",
        "value": "0px"
    },
    "_skin_": "s8ff24328417401b877c3ceb2a5fa27c",
    "_top_": {
        "type": "string",
        "value": "0"
    },
    "allboxes": [],
    "autogrowmode": 0,
    "canUpdateUI": true,
    "children": [
        "flxLocationsHeaderName",
        "flxLocationsHeaderCode",
        "flxLocationsHeaderDescription",
        "flxLocationsHeaderPhone",
        "flxLocationsHeaderType",
        "flxStatus",
        "lblUsersHeaderSeperator"
    ],
    "clipbounds": true,
    "containerweight": 100,
    "enablescrolling": true,
    "id": "flxLocationsHeader",
    "info": null,
    "isTemplate": true,
    "isvisible": true,
    "kuid": "i4974734fe4949249e37c4914c7857af",
    "layouttype": 2,
    "name": "kony.ui.FlexContainer",
    "parent": "flxHeaderAndSegmentWrapper",
    "pf": "frmLocations",
    "snapgridsize": 10,
    "snaptogrid": true,
    "wType": "FlexContainer",
    "widgetalignment": 1
}