{
    "DNDConfig": null,
    "__parentReadjusting__": false,
    "_height_": {
        "type": "string",
        "value": "100%"
    },
    "_left_": {
        "type": "string",
        "value": "33.42%"
    },
    "_margin_": [
        0,
        0,
        0,
        0
    ],
    "_orientation_": 6,
    "_padding_": [
        0,
        0,
        0,
        0
    ],
    "_percent_": true,
    "_skin_": "s254a5b616ad4a03b0fda81132ac3e80",
    "_top_": {
        "type": "string",
        "value": "0dp"
    },
    "_width_": {
        "type": "string",
        "value": "350px"
    },
    "allboxes": [],
    "autogrowmode": 0,
    "canUpdateUI": true,
    "children": [
        "lblPhoneNumber",
        "txtbxPhoneNumber",
        "flxNoPhnNumberError",
        "contactNumber"
    ],
    "clipbounds": true,
    "containerweight": 100,
    "enablescrolling": true,
    "id": "flxPhoneNumber",
    "info": null,
    "isvisible": true,
    "kuid": "a277fc55510a492e82921c810415f16a",
    "layouttype": 2,
    "name": "kony.ui.FlexContainer",
    "parent": "flxCountryDetailsUser",
    "pf": "frmLocations",
    "snapgridsize": 10,
    "snaptogrid": true,
    "wType": "FlexContainer",
    "widgetalignment": 1,
    "zindex": 1
}