{
    "DNDConfig": null,
    "__parentReadjusting__": false,
    "_height_": {
        "type": "string",
        "value": "10px"
    },
    "_margin_": [
        0,
        0,
        0,
        0
    ],
    "_orientation_": 6,
    "_padding_": [
        0,
        0,
        0,
        0
    ],
    "_percent_": true,
    "_skin_": "s197f6d2c921466494307f70d3ef77de",
    "_top_": {
        "type": "string",
        "value": "145px"
    },
    "_width_": {
        "type": "string",
        "value": "302px"
    },
    "allboxes": [],
    "autogrowmode": 0,
    "canUpdateUI": true,
    "centerx": {
        "type": "string",
        "value": "50%"
    },
    "children": [],
    "clipbounds": true,
    "containerweight": 100,
    "enablescrolling": true,
    "id": "flxUploadingStatusBar",
    "info": null,
    "isvisible": true,
    "kuid": "c5865a5ad0354957a9cb81584a477b52",
    "layouttype": 2,
    "name": "kony.ui.FlexContainer",
    "parent": "flxUploadingIndiacator",
    "pf": "frmLocations",
    "snapgridsize": 10,
    "snaptogrid": true,
    "wType": "FlexContainer",
    "widgetalignment": 1,
    "zindex": 1
}