{
    "DNDConfig": null,
    "__parentReadjusting__": false,
    "_height_": {
        "type": "string",
        "value": "25dp"
    },
    "_margin_": [
        0,
        0,
        0,
        0
    ],
    "_orientation_": 6,
    "_padding_": [
        0,
        0,
        0,
        0
    ],
    "_percent_": true,
    "_right_": {
        "type": "string",
        "value": "35px"
    },
    "_skin_": "scd6759b91984d0791be140ca44627a3",
    "_top_": {
        "type": "string",
        "value": "-30px"
    },
    "_width_": {
        "type": "string",
        "value": "60px"
    },
    "allboxes": [],
    "autogrowmode": 0,
    "canUpdateUI": true,
    "children": [
        "lblViewEditButton"
    ],
    "clipbounds": true,
    "containerweight": 100,
    "enablescrolling": true,
    "id": "flxViewEditButton",
    "info": null,
    "isvisible": true,
    "kuid": "bf83b134ebd44e1faecb4bd71c31902f",
    "layouttype": 2,
    "name": "kony.ui.FlexContainer",
    "parent": "flxViewDetails",
    "pf": "frmLocations",
    "snapgridsize": 10,
    "snaptogrid": true,
    "wType": "FlexContainer",
    "widgetalignment": 1,
    "zindex": 1
}