{
    "@class": "com.kony.gen.viz.model.component.KVizImage2",
    "DNDConfig": null,
    "__parentReadjusting__": false,
    "_base64_": null,
    "_height_": {
        "type": "string",
        "value": "12px"
    },
    "_left_": {
        "type": "string",
        "value": "8px"
    },
    "_margin_": [
        0,
        0,
        0,
        0
    ],
    "_padding_": [
        0,
        0,
        0,
        0
    ],
    "_skin_": "s553d03f29cb43c9a26989454eea9499",
    "_src_": "mandatory_2x.png",
    "_top_": {
        "type": "string",
        "value": "3px"
    },
    "_width_": {
        "type": "string",
        "value": "6px"
    },
    "canUpdateUI": true,
    "containerweight": 100,
    "context": {
        "channel": "desktop",
        "formID": "frmLocations",
        "platform": "desktopweb",
        "templateType": "forms",
        "topLevelBox": null
    },
    "id": "imgMandatoryType",
    "imagescalemode": 1,
    "info": null,
    "invokedProperty": "src",
    "isvisible": false,
    "kuid": "dee6e3d0a47e444693dceed0a5fbae2d",
    "name": "kony.ui.Image2",
    "parent": "flxTypeIndicator",
    "pf": "frmLocations",
    "srcType": 1,
    "wType": "Image",
    "widgetalignment": 5,
    "zindex": 1
}