{
    "@class": "com.kony.gen.viz.model.component.KVizLabel",
    "DNDConfig": null,
    "__parentReadjusting__": false,
    "_height_": {
        "type": "string",
        "value": "1dp"
    },
    "_left_": {
        "type": "string",
        "value": "0dp"
    },
    "_margin_": [
        1,
        1,
        1,
        1
    ],
    "_padding_": [
        0,
        0,
        0,
        0
    ],
    "_right_": {
        "type": "string",
        "value": "25px"
    },
    "_skin_": "s5ec52bade704dc3925cf7fcd301874f",
    "_text_": "",
    "_top_": {
        "type": "string",
        "value": "0px"
    },
    "_wrapping_": 2,
    "android": {
        "textStyle": {
            "letterSpacing": 0,
            "strikeThrough": false
        }
    },
    "canUpdateUI": true,
    "containerweight": 100,
    "contentalignment": 4,
    "id": "lblLine3",
    "info": null,
    "ipad": {
        "psp": {
            "wrapping": 2
        }
    },
    "iphone": {
        "psp": {
            "wrapping": 2
        }
    },
    "isvisible": true,
    "kuid": "c6b8aacc23794225b832a4a3511be1b0",
    "name": "kony.ui.Label",
    "parent": "flxSeperatorOperationDetails",
    "pf": "frmLocations",
    "texti18n": "i18n.frmAlertsManagement.lblAlertTypeDescriptionCount",
    "tooltip": "",
    "wType": "Label",
    "zindex": 1
}