{
    "@class": "com.kony.gen.viz.model.component.KVizLabel",
    "DNDConfig": null,
    "__parentReadjusting__": false,
    "_height_": {
        "type": "ref",
        "value": "preferred"
    },
    "_left_": {
        "type": "string",
        "value": "10dp"
    },
    "_margin_": [
        1,
        1,
        1,
        1
    ],
    "_padding_": [
        0,
        0,
        0,
        0
    ],
    "_skin_": "s9e2f9fc97f14d9dacc4358489b3a7ac",
    "_text_": "",
    "_width_": {
        "type": "ref",
        "value": "preferred"
    },
    "_wrapping_": 2,
    "android": {
        "textStyle": {
            "letterSpacing": 0,
            "strikeThrough": false
        }
    },
    "canUpdateUI": true,
    "centery": {
        "type": "string",
        "value": "51%"
    },
    "containerweight": 100,
    "contentalignment": 4,
    "id": "lblViewKey",
    "info": null,
    "ipad": {
        "psp": {
            "wrapping": 2
        }
    },
    "iphone": {
        "psp": {
            "wrapping": 2
        }
    },
    "iscustomlayout": false,
    "isvisible": true,
    "kuid": "a6b80a61dea74f038d3b8a4260acace4",
    "name": "kony.ui.Label",
    "parent": "flxHeading",
    "pf": "frmLocations",
    "retaincontentalignment": false,
    "retainflexpositionproperties": false,
    "texti18n": "i18n.frmAlertsManagement.lblViewAlertStatusKey",
    "tooltip": "",
    "wType": "Label",
    "zindex": 1
}