{
    "@class": "com.kony.gen.viz.model.component.KVizUserWidget",
    "DNDConfig": null,
    "__parentReadjusting__": false,
    "_children_": [],
    "_desktopweb_": {},
    "_height_": {
        "type": "string",
        "value": "80px"
    },
    "_left_": {
        "type": "string",
        "value": "0dp"
    },
    "_margin_": [
        0,
        0,
        0,
        0
    ],
    "_orientation_": 1,
    "_padding_": [
        0,
        0,
        0,
        0
    ],
    "_percent_": true,
    "_render_": true,
    "_responsiveData_": {},
    "_skin_": "s8ff24328417401b877c3ceb2a5fa27c",
    "_top_": {
        "type": "string",
        "value": "0dp"
    },
    "_vizProps_": {
        "hidewidgethierarchy": false
    },
    "_width_": {
        "type": "string",
        "value": "100%"
    },
    "areflexpropsreferenced": false,
    "canUpdateUI": true,
    "clipbounds": true,
    "containerweight": 0,
    "dataDiffs": {
        "btnCancel": {
            "__events__": {},
            "__info__": {
                "kuid": "f8e31c7e63d64442b9f6f9e70685fbb0",
                "srcKUID": "hb7e8e6dc73a4044aaa1636cb1f70704",
                "wType": "Button"
            },
            "left": {
                "Default": {
                    "type": "string",
                    "value": "10px"
                }
            }
        },
        "btnNext": {
            "__events__": {},
            "__info__": {
                "kuid": "da23a6b934584298bfbd15a00fdccdc8",
                "srcKUID": "if89a3cc957141078b03996441e09d8c",
                "wType": "Button"
            }
        },
        "btnSave": {
            "__events__": {},
            "__info__": {
                "kuid": "b1d74dfc95db4f8c9e178224d2840e8a",
                "srcKUID": "af70c434338f4068a24a87b45c58f9ee",
                "wType": "Button"
            }
        },
        "commonButtons": {
            "__events__": {},
            "__info__": {
                "isRoot": true,
                "kuid": "jfc5c0cd4d87422991a35625f2a0f178",
                "srcKUID": "cc441f293bdb4489aebfc9b06fe5513e",
                "wType": "FlexContainer"
            }
        },
        "flxRightButtons": {
            "__events__": {},
            "__info__": {
                "kuid": "b07fe64aeca243ca8b2d0ea9bca61917",
                "srcKUID": "beae25c502d54e038c70de835ec18eca",
                "wType": "FlexContainer"
            },
            "right": {
                "Default": {
                    "type": "string",
                    "value": "10px"
                }
            }
        }
    },
    "id": "locationDetailsButtons",
    "info": null,
    "isdatareferenced": false,
    "isvisible": true,
    "kuid": "ffa8cffc09e74ac89ced1aedbf3d3538",
    "layouttype": 2,
    "masterType": 0,
    "name": "kony.ui.UserWidgetInstance",
    "parent": "flxLocationDetailsButtons",
    "pf": "frmLocations",
    "snaptogrid": true,
    "sourceUserWidget": "cc441f293bdb4489aebfc9b06fe5513e",
    "wType": "UserWidgetInstance"
}