{
    "@class": "com.kony.gen.viz.model.component.KVizListBox",
    "DNDConfig": null,
    "__parentReadjusting__": false,
    "_height_": {
        "type": "string",
        "value": "40px"
    },
    "_left_": {
        "type": "string",
        "value": "0dp"
    },
    "_margin_": [
        0,
        0,
        0,
        0
    ],
    "_padding_": [
        2,
        0,
        0,
        0
    ],
    "_skin_": "sce51b380ef94ee9bcfbab6230c0d90e",
    "_top_": {
        "type": "string",
        "value": "25dp"
    },
    "_width_": {
        "type": "string",
        "value": "100%"
    },
    "canUpdateUI": true,
    "containerweight": 100,
    "contentalignment": 4,
    "context": {
        "channel": "desktop",
        "formID": "frmLocations",
        "platform": "desktopweb",
        "templateType": "forms",
        "topLevelBox": null
    },
    "desktopweb": {
        "psp": {
            "hoverSkin": "s44124b03793406484d400c989c8ec4f"
        }
    },
    "focusskin": "sc4a2c26f1694f9cb34846ddf7be7730",
    "groupcells": false,
    "id": "lstbxCountryUser",
    "info": null,
    "isvisible": true,
    "kiosk": {
        "psp": {
            "placeholder": "Select Country"
        }
    },
    "kuid": "b34a2ed8cef74a66af7e2c749416d3fd",
    "masterdata": [
        [
            "lb1",
            "Select"
        ],
        [
            "lb2",
            "India"
        ],
        [
            "lb3",
            "USA"
        ]
    ],
    "name": "kony.ui.ListBox",
    "paddinginpixel": false,
    "parent": "flxCountryUser",
    "pf": "frmLocations",
    "selectedkey": "lb1",
    "selectedkeys": null,
    "selectedkeyvalue": [
        "lb1",
        "Select"
    ],
    "selectedkeyvalues": null,
    "size": 18,
    "viewconfig": {
        "toggleViewConfig": {
            "viewStyle": 0
        }
    },
    "viewtype": 0,
    "wType": "ListBox",
    "zindex": 1
}