{
    "@class": "com.kony.gen.viz.model.component.KVizUserWidget",
    "DNDConfig": null,
    "__parentReadjusting__": false,
    "_bottom_": {
        "type": "string",
        "value": ""
    },
    "_children_": [],
    "_desktopweb_": {},
    "_height_": {
        "type": "string",
        "value": "100%"
    },
    "_left_": {
        "type": "string",
        "value": "0dp"
    },
    "_margin_": [
        0,
        0,
        0,
        0
    ],
    "_orientation_": 1,
    "_padding_": [
        0,
        0,
        0,
        0
    ],
    "_percent_": true,
    "_render_": true,
    "_responsiveData_": {},
    "_right_": {
        "type": "string",
        "value": ""
    },
    "_skin_": "s39233a8d65f40d5b9120e116f6d9ef6",
    "_top_": {
        "type": "string",
        "value": "0dp"
    },
    "_vizProps_": {
        "hidewidgethierarchy": false
    },
    "_width_": {
        "type": "string",
        "value": "100%"
    },
    "areflexpropsreferenced": false,
    "autogrowmode": 0,
    "canUpdateUI": true,
    "centery": {
        "type": "string",
        "value": ""
    },
    "clipbounds": true,
    "containerweight": 0,
    "dataDiffs": {
        "btnPopUpCancel": {
            "__events__": {},
            "__info__": {
                "kuid": "df9ee869634a4da9b9100515952fc4ab",
                "srcKUID": "jb66c253ecf241d5a38a7c9cbab2f267",
                "wType": "Button"
            },
            "right": {
                "Default": {
                    "type": "string",
                    "value": "180px"
                }
            }
        },
        "btnPopUpDelete": {
            "__events__": {},
            "__info__": {
                "kuid": "b53b312b246e4ceb98e4a1005229e7a8",
                "srcKUID": "cb58b22a7667452eb318a31dde73b8f5",
                "wType": "Button"
            }
        },
        "flxPopUp": {
            "__events__": {},
            "__info__": {
                "kuid": "ccc35a81c50242e99fa61034beb22519",
                "srcKUID": "e6216270f96c4f7d8ac20033cd80f4e2",
                "wType": "FlexContainer"
            }
        },
        "flxPopUpButtons": {
            "__events__": {},
            "__info__": {
                "kuid": "c178c63e1847406b920a52d10ccd5820",
                "srcKUID": "ad4aa75a27a6433d996568e82aec576c",
                "wType": "FlexContainer"
            }
        },
        "flxPopUpClose": {
            "__events__": {},
            "__info__": {
                "kuid": "a1d3fdd7747848ef90b910dd2872975d",
                "srcKUID": "d3432e3e00244cff9b6bfd392f838dad",
                "wType": "FlexContainer"
            }
        },
        "flxPopUpTopColor": {
            "__events__": {},
            "__info__": {
                "kuid": "d9ec4621665941c8a19775ecc3d22726",
                "srcKUID": "a4757555cb1e44429898c9d6fd01fed9",
                "wType": "FlexContainer"
            }
        },
        "flxPopupHeader": {
            "__events__": {},
            "__info__": {
                "kuid": "eb686a4676c24db59200c38ee85caa61",
                "srcKUID": "j5cbe68e2b14479ab3f7e81c520c959f",
                "wType": "FlexContainer"
            }
        },
        "lblPopUpMainMessage": {
            "__events__": {},
            "__info__": {
                "kuid": "d9ae14a725a3400297830d77c77fcebd",
                "srcKUID": "bd2429502d234d2aa474223ffc9db0ca",
                "wType": "Label"
            }
        },
        "lblPopupClose": {
            "__events__": {},
            "__info__": {
                "kuid": "d0b0b494528848909e25d10d75bbebda",
                "srcKUID": "c8198072e0974262936aba7e2ee6505b",
                "wType": "Label"
            }
        },
        "popUp1": {
            "__events__": {},
            "__info__": {
                "isRoot": true,
                "kuid": "f3f70aea1d4a42539b6d11424e555024",
                "srcKUID": "ibfff9ef405b470eac1a81d74649265c",
                "wType": "FlexContainer"
            },
            "autogrowMode": {
                "Default": 0
            },
            "bottom": {
                "Default": {
                    "type": "string",
                    "value": ""
                }
            },
            "centerX": {
                "Default": {
                    "type": "string",
                    "value": ""
                }
            },
            "centerY": {
                "Default": {
                    "type": "string",
                    "value": ""
                }
            },
            "height": {
                "Default": {
                    "type": "string",
                    "value": "100%"
                }
            },
            "left": {
                "Default": {
                    "type": "string",
                    "value": "0dp"
                }
            },
            "maxHeight": {
                "Default": {
                    "type": "string",
                    "value": ""
                }
            },
            "maxWidth": {
                "Default": {
                    "type": "string",
                    "value": ""
                }
            },
            "minHeight": {
                "Default": {
                    "type": "string",
                    "value": ""
                }
            },
            "minWidth": {
                "Default": {
                    "type": "string",
                    "value": ""
                }
            },
            "right": {
                "Default": {
                    "type": "string",
                    "value": ""
                }
            },
            "top": {
                "Default": {
                    "type": "string",
                    "value": "0dp"
                }
            },
            "width": {
                "Default": {
                    "type": "string",
                    "value": "100%"
                }
            }
        },
        "rtxPopUpDisclaimer": {
            "__events__": {},
            "__info__": {
                "kuid": "a9e9695d4c5449798cf1da436779a67c",
                "srcKUID": "d2f8d6f352f44ec8929e278450906b94",
                "wType": "RichText"
            },
            "text": "Are you sure to deactivate the Branch?<br><br>If you deactivate it, the Branch does not appear for the customer.\n"
        }
    },
    "id": "popUpStatusChange",
    "info": null,
    "iscustomlayout": false,
    "isdatareferenced": false,
    "isvisible": true,
    "kuid": "f3f70aea1d4a42539b6d11424e555024",
    "layouttype": 2,
    "masterType": 0,
    "maxheight": {
        "type": "string",
        "value": ""
    },
    "maxwidth": {
        "type": "string",
        "value": ""
    },
    "minheight": {
        "type": "string",
        "value": ""
    },
    "minwidth": {
        "type": "string",
        "value": ""
    },
    "name": "kony.ui.UserWidgetInstance",
    "parent": "flxStatusChangePopUp",
    "pf": "frmLocations",
    "retaincontentalignment": false,
    "retainflexpositionproperties": false,
    "snaptogrid": true,
    "sourceUserWidget": "ibfff9ef405b470eac1a81d74649265c",
    "wType": "UserWidgetInstance",
    "zindex": 1
}