{
    "@class": "com.kony.gen.viz.model.container.KVizSegment2",
    "DNDConfig": null,
    "__parentReadjusting__": false,
    "_data_": [
        [
            {
                "imgSortEmail": {
                    "@class": "com.viz.ide.model.segment.ImageSegmentData",
                    "src": "sorting3x.png"
                },
                "imgSortName": {
                    "@class": "com.viz.ide.model.segment.ImageSegmentData",
                    "src": "sorting3x.png"
                },
                "imgSortPermissions": {
                    "@class": "com.viz.ide.model.segment.ImageSegmentData",
                    "src": "sorting3x.png"
                },
                "imgSortRole": {
                    "@class": "com.viz.ide.model.segment.ImageSegmentData",
                    "src": "sorting3x.png"
                },
                "imgSortStatus": {
                    "@class": "com.viz.ide.model.segment.ImageSegmentData",
                    "src": "sorting3x.png"
                },
                "imgSortUsername": {
                    "@class": "com.viz.ide.model.segment.ImageSegmentData",
                    "src": "sorting3x.png"
                },
                "lblUsersHeaderEmail": {
                    "@class": "com.viz.ide.model.segment.SimpleTextSegmentData",
                    "text": "EMAIL"
                },
                "lblUsersHeaderName": {
                    "@class": "com.viz.ide.model.segment.SimpleTextSegmentData",
                    "text": "FULL NAME"
                },
                "lblUsersHeaderPermissions": {
                    "@class": "com.viz.ide.model.segment.SimpleTextSegmentData",
                    "text": "PERMISSIONS"
                },
                "lblUsersHeaderRole": {
                    "@class": "com.viz.ide.model.segment.SimpleTextSegmentData",
                    "text": "ROLE"
                },
                "lblUsersHeaderSeperator": {
                    "@class": "com.viz.ide.model.segment.SimpleTextSegmentData",
                    "text": "."
                },
                "lblUsersHeaderStatus": {
                    "@class": "com.viz.ide.model.segment.SimpleTextSegmentData",
                    "text": "STATUS"
                },
                "lblUsersHeaderUsername": {
                    "@class": "com.viz.ide.model.segment.SimpleTextSegmentData",
                    "text": "USERNAME"
                }
            },
            [
                {
                    "imgOptions": {
                        "@class": "com.viz.ide.model.segment.ImageSegmentData",
                        "src": "dots3x.png"
                    },
                    "imgUsersStatus": {
                        "@class": "com.viz.ide.model.segment.ImageSegmentData",
                        "src": "active_circle2x.png"
                    },
                    "lblEmailId": {
                        "@class": "com.viz.ide.model.segment.SimpleTextSegmentData",
                        "text": "john.doe@kony.com"
                    },
                    "lblFullName": {
                        "@class": "com.viz.ide.model.segment.SimpleTextSegmentData",
                        "text": "John Doe"
                    },
                    "lblPermissions": {
                        "@class": "com.viz.ide.model.segment.SimpleTextSegmentData",
                        "text": "25"
                    },
                    "lblRole": {
                        "@class": "com.viz.ide.model.segment.SimpleTextSegmentData",
                        "text": "20"
                    },
                    "lblSeperator": {
                        "@class": "com.viz.ide.model.segment.SimpleTextSegmentData",
                        "text": "."
                    },
                    "lblUsername": {
                        "@class": "com.viz.ide.model.segment.SimpleTextSegmentData",
                        "text": "john.doe"
                    },
                    "lblUsersStatus": {
                        "@class": "com.viz.ide.model.segment.SimpleTextSegmentData",
                        "text": "Active"
                    }
                },
                {
                    "imgOptions": {
                        "@class": "com.viz.ide.model.segment.ImageSegmentData",
                        "src": "dots3x.png"
                    },
                    "imgUsersStatus": {
                        "@class": "com.viz.ide.model.segment.ImageSegmentData",
                        "src": "active_circle2x.png"
                    },
                    "lblEmailId": {
                        "@class": "com.viz.ide.model.segment.SimpleTextSegmentData",
                        "text": "john.doe@kony.com"
                    },
                    "lblFullName": {
                        "@class": "com.viz.ide.model.segment.SimpleTextSegmentData",
                        "text": "John Doe"
                    },
                    "lblPermissions": {
                        "@class": "com.viz.ide.model.segment.SimpleTextSegmentData",
                        "text": "25"
                    },
                    "lblRole": {
                        "@class": "com.viz.ide.model.segment.SimpleTextSegmentData",
                        "text": "20"
                    },
                    "lblSeperator": {
                        "@class": "com.viz.ide.model.segment.SimpleTextSegmentData",
                        "text": "."
                    },
                    "lblUsername": {
                        "@class": "com.viz.ide.model.segment.SimpleTextSegmentData",
                        "text": "john.doe"
                    },
                    "lblUsersStatus": {
                        "@class": "com.viz.ide.model.segment.SimpleTextSegmentData",
                        "text": "Active"
                    }
                },
                {
                    "imgOptions": {
                        "@class": "com.viz.ide.model.segment.ImageSegmentData",
                        "src": "dots3x.png"
                    },
                    "imgUsersStatus": {
                        "@class": "com.viz.ide.model.segment.ImageSegmentData",
                        "src": "active_circle2x.png"
                    },
                    "lblEmailId": {
                        "@class": "com.viz.ide.model.segment.SimpleTextSegmentData",
                        "text": "john.doe@kony.com"
                    },
                    "lblFullName": {
                        "@class": "com.viz.ide.model.segment.SimpleTextSegmentData",
                        "text": "John Doe"
                    },
                    "lblPermissions": {
                        "@class": "com.viz.ide.model.segment.SimpleTextSegmentData",
                        "text": "25"
                    },
                    "lblRole": {
                        "@class": "com.viz.ide.model.segment.SimpleTextSegmentData",
                        "text": "20"
                    },
                    "lblSeperator": {
                        "@class": "com.viz.ide.model.segment.SimpleTextSegmentData",
                        "text": "."
                    },
                    "lblUsername": {
                        "@class": "com.viz.ide.model.segment.SimpleTextSegmentData",
                        "text": "john.doe"
                    },
                    "lblUsersStatus": {
                        "@class": "com.viz.ide.model.segment.SimpleTextSegmentData",
                        "text": "Active"
                    }
                },
                {
                    "imgOptions": {
                        "@class": "com.viz.ide.model.segment.ImageSegmentData",
                        "src": "dots3x.png"
                    },
                    "imgUsersStatus": {
                        "@class": "com.viz.ide.model.segment.ImageSegmentData",
                        "src": "active_circle2x.png"
                    },
                    "lblEmailId": {
                        "@class": "com.viz.ide.model.segment.SimpleTextSegmentData",
                        "text": "john.doe@kony.com"
                    },
                    "lblFullName": {
                        "@class": "com.viz.ide.model.segment.SimpleTextSegmentData",
                        "text": "John Doe"
                    },
                    "lblPermissions": {
                        "@class": "com.viz.ide.model.segment.SimpleTextSegmentData",
                        "text": "25"
                    },
                    "lblRole": {
                        "@class": "com.viz.ide.model.segment.SimpleTextSegmentData",
                        "text": "20"
                    },
                    "lblSeperator": {
                        "@class": "com.viz.ide.model.segment.SimpleTextSegmentData",
                        "text": "."
                    },
                    "lblUsername": {
                        "@class": "com.viz.ide.model.segment.SimpleTextSegmentData",
                        "text": "john.doe"
                    },
                    "lblUsersStatus": {
                        "@class": "com.viz.ide.model.segment.SimpleTextSegmentData",
                        "text": "Active"
                    }
                },
                {
                    "imgOptions": {
                        "@class": "com.viz.ide.model.segment.ImageSegmentData",
                        "src": "dots3x.png"
                    },
                    "imgUsersStatus": {
                        "@class": "com.viz.ide.model.segment.ImageSegmentData",
                        "src": "active_circle2x.png"
                    },
                    "lblEmailId": {
                        "@class": "com.viz.ide.model.segment.SimpleTextSegmentData",
                        "text": "john.doe@kony.com"
                    },
                    "lblFullName": {
                        "@class": "com.viz.ide.model.segment.SimpleTextSegmentData",
                        "text": "John Doe"
                    },
                    "lblPermissions": {
                        "@class": "com.viz.ide.model.segment.SimpleTextSegmentData",
                        "text": "25"
                    },
                    "lblRole": {
                        "@class": "com.viz.ide.model.segment.SimpleTextSegmentData",
                        "text": "20"
                    },
                    "lblSeperator": {
                        "@class": "com.viz.ide.model.segment.SimpleTextSegmentData",
                        "text": "."
                    },
                    "lblUsername": {
                        "@class": "com.viz.ide.model.segment.SimpleTextSegmentData",
                        "text": "john.doe"
                    },
                    "lblUsersStatus": {
                        "@class": "com.viz.ide.model.segment.SimpleTextSegmentData",
                        "text": "Active"
                    }
                }
            ]
        ]
    ],
    "_height_": {
        "type": "ref",
        "value": "preferred"
    },
    "_indicator_": "none",
    "_left_": {
        "type": "string",
        "value": "35dp"
    },
    "_margin_": [
        0,
        0,
        0,
        0
    ],
    "_orientation_": 2,
    "_padding_": [
        0,
        0,
        0,
        0
    ],
    "_right_": {
        "type": "number",
        "value": "35"
    },
    "_top_": {
        "type": "string",
        "value": "0dp"
    },
    "autogrowmode": 1,
    "canUpdateUI": true,
    "containerweight": 100,
    "counter": "04",
    "focusedindex": null,
    "focuseditem": null,
    "groupcells": false,
    "hasSections": true,
    "id": "segusers1",
    "info": null,
    "ipad": {
        "psp": {
            "indicator": "rowselect"
        }
    },
    "iphone": {
        "psp": {
            "indicator": "rowselect"
        }
    },
    "isvisible": true,
    "kuid": "a1b14167e26b4666bd3a0d535f774f88",
    "masterdata": {},
    "name": "kony.ui.SegmentedUI2",
    "needpageindicator": true,
    "pageoffdotimage": "pageoffdot.png",
    "pageondotimage": "pageondot.png",
    "paginationconfig": {
        "position": "bottom"
    },
    "parent": "flxSegmentUsers1",
    "pf": "frmLocations",
    "retainselection": false,
    "rowTemplateId": "d24c84732c1f4195b63f0e6bb4f3991b",
    "rowcounter": 4,
    "rowfocusskin": "se901dcdd2ae4a58a81f21c009edf99e",
    "rowskin": "s587c8a9e5804ec88f65e379570597f6",
    "rowtemplate": "flxUsers",
    "screenlevelwidget": false,
    "seccounter": 0,
    "sectionHeaderTemplateId": "cfe4d05fe1ed47da93a119645a10c194",
    "sectionheaderskin": "sffa0c1a0560403189088e98f7b4f498",
    "sectionheadertemplate": "flxUsersHeader",
    "selectedRows": null,
    "selectedState": false,
    "selectedindex": null,
    "selectedindices": null,
    "selecteditems": null,
    "selectedsectionindex": 0,
    "selectionbehavior": "default",
    "separatorrequired": false,
    "showscrollbars": false,
    "viewtype": "tableview",
    "vizProps": {},
    "wType": "Segment",
    "widgetalignment": 5,
    "widgetdatamap": {
        "flxOptions": "flxOptions",
        "flxStatus": "flxStatus",
        "flxUsers": "flxUsers",
        "flxUsersHeader": "flxUsersHeader",
        "flxUsersHeaderEmailId": "flxUsersHeaderEmailId",
        "flxUsersHeaderFullName": "flxUsersHeaderFullName",
        "flxUsersHeaderPermissions": "flxUsersHeaderPermissions",
        "flxUsersHeaderRole": "flxUsersHeaderRole",
        "flxUsersHeaderStatus": "flxUsersHeaderStatus",
        "flxUsersHeaderUsername": "flxUsersHeaderUsername",
        "imgOptions": "imgOptions",
        "imgSortEmail": "imgSortEmail",
        "imgSortName": "imgSortName",
        "imgSortPermissions": "imgSortPermissions",
        "imgSortRole": "imgSortRole",
        "imgSortStatus": "imgSortStatus",
        "imgSortUsername": "imgSortUsername",
        "imgUsersStatus": "imgUsersStatus",
        "lblEmailId": "lblEmailId",
        "lblFullName": "lblFullName",
        "lblPermissions": "lblPermissions",
        "lblRole": "lblRole",
        "lblSeperator": "lblSeperator",
        "lblUsername": "lblUsername",
        "lblUsersHeaderEmail": "lblUsersHeaderEmail",
        "lblUsersHeaderName": "lblUsersHeaderName",
        "lblUsersHeaderPermissions": "lblUsersHeaderPermissions",
        "lblUsersHeaderRole": "lblUsersHeaderRole",
        "lblUsersHeaderSeperator": "lblUsersHeaderSeperator",
        "lblUsersHeaderStatus": "lblUsersHeaderStatus",
        "lblUsersHeaderUsername": "lblUsersHeaderUsername",
        "lblUsersStatus": "lblUsersStatus"
    },
    "zindex": 10
}