{
    "@class": "com.kony.gen.viz.model.component.KVizUserWidget",
    "DNDConfig": null,
    "__parentReadjusting__": false,
    "_children_": [],
    "_desktopweb_": {},
    "_height_": {
        "type": "string",
        "value": "70px"
    },
    "_left_": {
        "type": "string",
        "value": "0dp"
    },
    "_margin_": [
        0,
        0,
        0,
        0
    ],
    "_orientation_": 1,
    "_padding_": [
        0,
        0,
        0,
        0
    ],
    "_percent_": true,
    "_render_": true,
    "_responsiveData_": {},
    "_skin_": "s8ff24328417401b877c3ceb2a5fa27c",
    "_top_": {
        "type": "string",
        "value": "0dp"
    },
    "_vizProps_": {
        "hidewidgethierarchy": false
    },
    "_width_": {
        "type": "string",
        "value": "100%"
    },
    "areflexpropsreferenced": false,
    "autogrowmode": 0,
    "canUpdateUI": true,
    "clipbounds": true,
    "containerweight": 0,
    "dataDiffs": {
        "btnToastLink": {
            "__events__": {},
            "__info__": {
                "kuid": "j1041b7009b1453bbd3eb98ef057b175",
                "srcKUID": "b0f4c8aae3964c50a9c769e072b30ffa",
                "wType": "Button"
            }
        },
        "flxMessageWrapper": {
            "__events__": {},
            "__info__": {
                "kuid": "a2d4aebb664b420a866f9a55f15c3b7c",
                "srcKUID": "b004de974e29403fa278dd13da698edc",
                "wType": "FlexContainer"
            }
        },
        "flxRightImage": {
            "__events__": {},
            "__info__": {
                "kuid": "b73a12a90ab7463ca248e47185c92dc0",
                "srcKUID": "4b7b86cf11ee4bceaae5e4a39a88743a",
                "wType": "FlexContainer"
            }
        },
        "flxToastContainer": {
            "__events__": {},
            "__info__": {
                "kuid": "df5422cfa6b74f3ea7ec218c2ede7241",
                "srcKUID": "b2eb88c356f54d96ba4971958d164aff",
                "wType": "FlexContainer"
            }
        },
        "fontIconImgLeft": {
            "__events__": {},
            "__info__": {
                "kuid": "b355c48f72b14d8ab5b8551a3933340a",
                "srcKUID": "ddb7552721dc4245a84b7af09e9e993e",
                "wType": "Label"
            }
        },
        "lblIconRight": {
            "__events__": {},
            "__info__": {
                "kuid": "f9bc5edbcb274fb5b9af51ba2f97ab3f",
                "srcKUID": "b9bad8b246d14540a55f63e29328051c",
                "wType": "Label"
            }
        },
        "lblToastMessageLeft": {
            "__events__": {},
            "__info__": {
                "kuid": "h51975877df14b1aae4ac40cce4636bc",
                "srcKUID": "07a38ceeea614ee789a427da776e729c",
                "wType": "Label"
            },
            "text": "20/100 branches uploaded to the system."
        },
        "lblToastMessageRight": {
            "__events__": {},
            "__info__": {
                "kuid": "f81b66bb96d8405d96c745aa81f1de69",
                "srcKUID": "je7e19cfdac74d99a9f0f12411edce09",
                "wType": "Label"
            },
            "text": "to download the details."
        },
        "toastMessageWithLink": {
            "__events__": {},
            "__info__": {
                "isRoot": true,
                "kuid": "b69c5dddaadd4cbdba3220245581e496",
                "srcKUID": "5226ccac85d04c66b650801f02b3e033",
                "wType": "FlexContainer"
            }
        }
    },
    "id": "toastMessageWithLink",
    "info": null,
    "isdatareferenced": false,
    "isvisible": true,
    "kuid": "b69c5dddaadd4cbdba3220245581e496",
    "layouttype": 2,
    "masterType": 0,
    "name": "kony.ui.UserWidgetInstance",
    "parent": "flxToastMessageWithLink",
    "pf": "frmLocations",
    "snaptogrid": true,
    "sourceUserWidget": "5226ccac85d04c66b650801f02b3e033",
    "wType": "UserWidgetInstance"
}