{
    "@class": "com.kony.gen.viz.model.component.KVizUserWidget",
    "DNDConfig": null,
    "__parentReadjusting__": false,
    "_bottom_": {
        "type": "string",
        "value": "0px"
    },
    "_children_": [],
    "_desktopweb_": {},
    "_height_": {
        "type": "string",
        "value": "20px"
    },
    "_left_": {
        "type": "string",
        "value": "0px"
    },
    "_margin_": [
        0,
        0,
        0,
        0
    ],
    "_orientation_": 1,
    "_padding_": [
        0,
        0,
        0,
        0
    ],
    "_percent_": true,
    "_render_": true,
    "_responsiveData_": {},
    "_right_": {
        "type": "string",
        "value": "0px"
    },
    "_skin_": "s18e2ced6ee54b75a5ba66f8d41070d5",
    "_top_": {
        "type": "string",
        "value": "0px"
    },
    "_vizProps_": {
        "hidewidgethierarchy": false
    },
    "_width_": {
        "type": "string",
        "value": ""
    },
    "areflexpropsreferenced": false,
    "canUpdateUI": true,
    "clipbounds": true,
    "containerweight": 0,
    "dataDiffs": {
        "breadcrumbs": {
            "__events__": {},
            "__info__": {
                "isRoot": true,
                "kuid": "c833a3834ce3428b87c61e5c8d8f3620",
                "srcKUID": "e57b9ec944d34c8b834fa7fb78b60de9",
                "wType": "FlexContainer"
            },
            "bottom": {
                "Default": {
                    "type": "string",
                    "value": "0px"
                }
            },
            "left": {
                "Default": {
                    "type": "string",
                    "value": "0px"
                }
            },
            "right": {
                "Default": {
                    "type": "string",
                    "value": "0px"
                }
            },
            "top": {
                "Default": {
                    "type": "string",
                    "value": "0px"
                }
            },
            "width": {
                "Default": {
                    "type": "string",
                    "value": ""
                }
            },
            "zIndex": {
                "Default": 100
            }
        },
        "btnBackToMain": {
            "__events__": {},
            "__info__": {
                "kuid": "a8f3b1668d5d4b658ac95e1f71b6d67a",
                "srcKUID": "ea97f85c5977457f93b8d984e28d4872",
                "wType": "Button"
            },
            "i18n_text": null,
            "left": {
                "Default": {
                    "type": "string",
                    "value": "35px"
                }
            },
            "text": "SEARCH"
        },
        "btnPreviousPage": {
            "__events__": {},
            "__info__": {
                "kuid": "a01dfb79c0eb48d4b0720a4d3a4e101c",
                "srcKUID": "d0676390dcb747fa9849bbc49f0a18d9",
                "wType": "Button"
            }
        },
        "btnPreviousPage1": {
            "__events__": {},
            "__info__": {
                "kuid": "b6a082708cb54418b184d8ad2135a349",
                "srcKUID": "e7552a460536429580737450bf7c813b",
                "wType": "Button"
            }
        },
        "fontIconBreadcrumbsDown": {
            "__events__": {},
            "__info__": {
                "kuid": "gf3a619a599d4c8fba9abedae121bcf3",
                "srcKUID": "c2a443f3c4ba44668b78d4abbd727ece",
                "wType": "Label"
            }
        },
        "fontIconBreadcrumbsRight": {
            "__events__": {},
            "__info__": {
                "kuid": "h0a8c1ad31504d1a8f5c4ad5a238b455",
                "srcKUID": "ida459e61e8d4663bacfa34ff30f7ad6",
                "wType": "Label"
            }
        },
        "fontIconBreadcrumbsRight2": {
            "__events__": {},
            "__info__": {
                "kuid": "iab989fc8de54fde83f968af04053bb5",
                "srcKUID": "g785f1639b154e7aa5df9fac346a200a",
                "wType": "Label"
            }
        },
        "fontIconBreadcrumbsRight3": {
            "__events__": {},
            "__info__": {
                "kuid": "e63485826865414ea62ef34a6100952a",
                "srcKUID": "ce04b87b0fe04c46acac3385cd5c792b",
                "wType": "Label"
            }
        },
        "imgBreadcrumbsDown": {
            "__events__": {},
            "__info__": {
                "kuid": "c848c38b27624685b076573c2ab4fa06",
                "srcKUID": "efceab0102014e18b0fcbd4ee7f2f412",
                "wType": "Image"
            }
        },
        "imgBreadcrumbsRight": {
            "__events__": {},
            "__info__": {
                "kuid": "a87e1b92d15644cea7c6758724166e09",
                "srcKUID": "b1756ce4f6d744438bad7c9f5f4fd700",
                "wType": "Image"
            }
        },
        "imgBreadcrumbsRight2": {
            "__events__": {},
            "__info__": {
                "kuid": "db3a6b52ae4d4a04ad3e66d8045b30f6",
                "srcKUID": "d720d60d37e04d74a8e019d046a402bd",
                "wType": "Image"
            }
        },
        "imgBreadcrumbsRight3": {
            "__events__": {},
            "__info__": {
                "kuid": "a266167636e74b5aa7d1d1f01e3529d9",
                "srcKUID": "dd44e3ff9a4b45fea146e20150e225d2",
                "wType": "Image"
            }
        },
        "lblCurrentScreen": {
            "__events__": {},
            "__info__": {
                "kuid": "h5bf58ab64264c8e8dcf75b3e5dceba4",
                "srcKUID": "d57a137ddf1a4ab19dd36fbb4e55c040",
                "wType": "Label"
            },
            "width": {
                "Default": {
                    "type": "ref",
                    "value": "preferred"
                }
            }
        }
    },
    "id": "breadcrumbs",
    "info": null,
    "isdatareferenced": false,
    "isvisible": true,
    "kuid": "c833a3834ce3428b87c61e5c8d8f3620",
    "layouttype": 3,
    "masterType": 0,
    "name": "kony.ui.UserWidgetInstance",
    "parent": "flxBreadCrumbs",
    "pf": "frmCustomerProfileAlerts",
    "snaptogrid": true,
    "sourceUserWidget": "e57b9ec944d34c8b834fa7fb78b60de9",
    "vizprops": {
        "hidewidgethierarchy": false
    },
    "wType": "UserWidgetInstance",
    "zindex": 100
}