{
    "@class": "com.kony.gen.viz.model.component.KVizButton",
    "DNDConfig": null,
    "__parentReadjusting__": false,
    "_bottom_": {
        "type": "string",
        "value": "0px"
    },
    "_height_": {
        "type": "string",
        "value": "40px"
    },
    "_left_": {
        "type": "string",
        "value": "30px"
    },
    "_margin_": [
        6,
        6,
        6,
        6
    ],
    "_padding_": [
        1,
        0,
        1,
        0
    ],
    "_skin_": "sf805aaf8b94461f9e37d3533ce5675a",
    "_text_": "",
    "_width_": {
        "type": "ref",
        "value": "preferred"
    },
    "canUpdateUI": true,
    "containerweight": 100,
    "contentalignment": 5,
    "disabledSkins": {
        "focusSkin": "s4ffbbf352704e28a9b9db7a654d6bdb"
    },
    "displaytext": true,
    "id": "btnNotifications",
    "info": null,
    "iscustomlayout": false,
    "isvisible": true,
    "kuid": "cba86d91d28e4027974831eeaee4b4a0",
    "name": "kony.ui.Button",
    "paddinginpixel": false,
    "parent": "flxTabs",
    "pf": "frmCustomerProfileAlerts",
    "retaincontentalignment": false,
    "retainflexpositionproperties": false,
    "texti18n": "i18n.frmCustomerManagementController.NOTIFICATIONS",
    "wType": "Button",
    "zindex": 2
}