{
    "@class": "com.kony.gen.viz.model.component.KVizButton",
    "DNDConfig": null,
    "__parentReadjusting__": false,
    "_bottom_": {
        "type": "string",
        "value": "0px"
    },
    "_height_": {
        "type": "string",
        "value": "40px"
    },
    "_left_": {
        "type": "string",
        "value": "10px"
    },
    "_margin_": [
        6,
        6,
        6,
        6
    ],
    "_padding_": [
        1,
        0,
        1,
        0
    ],
    "_skin_": "s2c26b44e560427d834495a365bc2df5",
    "_text_": "",
    "_width_": {
        "type": "ref",
        "value": "preferred"
    },
    "canUpdateUI": true,
    "containerweight": 100,
    "contentalignment": 5,
    "disabledSkins": {
        "focusSkin": "s5331f0a3382452f826cb9bd003afbac"
    },
    "displaytext": true,
    "id": "btnPrefrences",
    "info": null,
    "iscustomlayout": false,
    "isvisible": true,
    "kuid": "f00a7213245a4a4fa983ca53027dde9f",
    "name": "kony.ui.Button",
    "paddinginpixel": false,
    "parent": "flxTabs",
    "pf": "frmCustomerProfileAlerts",
    "retaincontentalignment": false,
    "retainflexpositionproperties": false,
    "texti18n": "i18n.frmCustomerManagementController.PREFERENCES",
    "wType": "Button",
    "zindex": 1
}