{
    "@class": "com.kony.gen.viz.model.component.KVizUserWidget",
    "DNDConfig": null,
    "__parentReadjusting__": false,
    "_android_": {},
    "_androidwearos_": {},
    "_children_": [],
    "_desktopweb_": {},
    "_height_": {
        "type": "ref",
        "value": "preferred"
    },
    "_ipad_": {},
    "_iphone_": {},
    "_kiosk_": {},
    "_left_": {
        "type": "string",
        "value": ""
    },
    "_margin_": [
        0,
        0,
        0,
        0
    ],
    "_orientation_": 1,
    "_padding_": [
        0,
        0,
        0,
        0
    ],
    "_percent_": true,
    "_responsiveData_": {},
    "_right_": {
        "type": "string",
        "value": "130px"
    },
    "_skin_": "s8ff24328417401b877c3ceb2a5fa27c",
    "_spa_": {},
    "_spaan_": {},
    "_spaandroidtablet_": {},
    "_spabb_": {},
    "_spaip_": {},
    "_spaipad_": {},
    "_spamobile_": {},
    "_spatablet_": {},
    "_spawindowstablet_": {},
    "_spawinphone8_": {},
    "_tabrcandroid_": {},
    "_top_": {
        "type": "string",
        "value": "242dp"
    },
    "_vizProps_": {
        "hidewidgethierarchy": false
    },
    "_width_": {
        "type": "string",
        "value": "230px"
    },
    "_windows10_": {},
    "_windows8_": {},
    "_winphone10_": {},
    "_winphone8_": {},
    "areflexpropsreferenced": false,
    "autogrowmode": 1,
    "canUpdateUI": true,
    "clipbounds": true,
    "containerweight": 0,
    "dataDiffs": {
        "ToolTip": {
            "__events__": {},
            "__info__": {
                "isRoot": true,
                "kuid": "ca856c8c2a4a49f0868f2ceb0be42da3",
                "srcKUID": "d2e8e05418294939bb169899d92582ca",
                "wType": "FlexContainer"
            },
            "isVisible": false,
            "left": {
                "Default": {
                    "type": "string",
                    "value": ""
                }
            },
            "right": {
                "Default": {
                    "type": "string",
                    "value": "130px"
                }
            },
            "top": {
                "Default": {
                    "type": "string",
                    "value": "242dp"
                }
            },
            "width": {
                "Default": {
                    "type": "string",
                    "value": "230px"
                }
            }
        },
        "flxToolTipMessage": {
            "__events__": {},
            "__info__": {
                "kuid": "de08d5c1817c49f9a3841b207ad5a08e",
                "srcKUID": "cd78a1e8c5f4485887810951944b2775",
                "wType": "FlexContainer"
            },
            "autogrowMode": {
                "Default": 0
            },
            "height": {
                "Default": {
                    "type": "string",
                    "value": "50px"
                }
            }
        },
        "lblNoConcentToolTip": {
            "__events__": {},
            "__info__": {
                "kuid": "c2f7885565274eefad9dbc5f14c57218",
                "srcKUID": "c2397e5b3585463faa9fed82f0f10286",
                "wType": "Label"
            },
            "i18n_text": "i18n.frmCustomerManagementController.DisabledEnrollLink"
        },
        "lblarrow": {
            "__events__": {},
            "__info__": {
                "kuid": "adfc8653d96e44e39e735a4417c9c1c5",
                "srcKUID": "db1c452d6a2b41ba8fffadcdfc88f362",
                "wType": "Label"
            },
            "centerX": {
                "Default": {
                    "type": "string",
                    "value": "50%"
                }
            }
        }
    },
    "enablescrolling": true,
    "id": "EnrolToolTip",
    "info": null,
    "iscustomlayout": false,
    "isdatareferenced": false,
    "isvisible": false,
    "kuid": "ca856c8c2a4a49f0868f2ceb0be42da3",
    "layouttype": 2,
    "masterType": 0,
    "name": "kony.ui.UserWidgetInstance",
    "parent": "flxMainContent",
    "pf": "frmCustomerProfileAlerts",
    "retaincontentalignment": false,
    "retainflexpositionproperties": false,
    "snapgridsize": 10,
    "snaptogrid": true,
    "sourceUserWidget": "d2e8e05418294939bb169899d92582ca",
    "wType": "UserWidgetInstance"
}