{
    "@class": "com.kony.gen.viz.model.component.KVizUserWidget",
    "DNDConfig": null,
    "__parentReadjusting__": false,
    "_android_": {},
    "_androidwearos_": {},
    "_children_": [],
    "_desktopweb_": {},
    "_height_": {
        "type": "ref",
        "value": "preferred"
    },
    "_ipad_": {},
    "_iphone_": {},
    "_kiosk_": {},
    "_left_": {
        "type": "string",
        "value": "0px"
    },
    "_margin_": [
        0,
        0,
        0,
        0
    ],
    "_orientation_": 1,
    "_padding_": [
        0,
        0,
        0,
        0
    ],
    "_percent_": true,
    "_responsiveData_": {},
    "_right_": {
        "type": "string",
        "value": "0px"
    },
    "_skin_": "s8ff24328417401b877c3ceb2a5fa27c",
    "_spa_": {},
    "_spaan_": {},
    "_spaandroidtablet_": {},
    "_spabb_": {},
    "_spaip_": {},
    "_spaipad_": {},
    "_spamobile_": {},
    "_spatablet_": {},
    "_spawindowstablet_": {},
    "_spawinphone8_": {},
    "_tabrcandroid_": {},
    "_top_": {
        "type": "string",
        "value": "0px"
    },
    "_vizProps_": {
        "hidewidgethierarchy": false
    },
    "_windows10_": {},
    "_windows8_": {},
    "_winphone10_": {},
    "_winphone8_": {},
    "areflexpropsreferenced": false,
    "autogrowmode": 1,
    "canUpdateUI": true,
    "clipbounds": true,
    "containerweight": 0,
    "dataDiffs": {
        "EditGeneralInfo": {
            "__events__": {},
            "__info__": {
                "kuid": "f62a09b80f5f4950a24decc322b53d1c",
                "srcKUID": "e055c9670a5e4c00bc03049adf79dc27",
                "wType": "UserWidgetInstance"
            }
        },
        "EditGeneralInfo.flxDetails1": {
            "__events__": {},
            "__info__": {
                "kuid": "eb6ffeae4867459faaa4eeae31cf5b3c",
                "srcKUID": "g30caf7f484442678dd8535808be4880",
                "wType": "FlexContainer"
            }
        },
        "EditGeneralInfo.flxDetails2": {
            "__events__": {},
            "__info__": {
                "kuid": "a51c0d1124134c72bdbe4f8b112705b2",
                "srcKUID": "a7ea3d37b29b46029086ccca7f326398",
                "wType": "FlexContainer"
            }
        },
        "EditGeneralInfo.flxDetails3": {
            "__events__": {},
            "__info__": {
                "kuid": "hf1602227dd5424babd626b938b6b1cf",
                "srcKUID": "c8316a4a30b344b9a3c8bb0ecf8bcd48",
                "wType": "FlexContainer"
            }
        },
        "EditGeneralInfo.flxDetails4": {
            "__events__": {},
            "__info__": {
                "kuid": "c760c8effbb248239c606ca3f486440a",
                "srcKUID": "b04c549e87ea4ce68fd63eb39492b3c1",
                "wType": "FlexContainer"
            }
        },
        "EditGeneralInfo.flxDetails5": {
            "__events__": {},
            "__info__": {
                "kuid": "d1e7cfe9954a46699df275007508fe04",
                "srcKUID": "b016d902124841139a20440a289001cf",
                "wType": "FlexContainer"
            }
        },
        "EditGeneralInfo.flxDetails7": {
            "__events__": {},
            "__info__": {
                "kuid": "a500203cd56849208ef61efff648bb75",
                "srcKUID": "d34a03f98493405f8d1bb9640f5efae0",
                "wType": "FlexContainer"
            }
        },
        "EditGeneralInfo.flxDetails8": {
            "__events__": {},
            "__info__": {
                "kuid": "c9d7b2825e14409bb6f41eaa54be8c7b",
                "srcKUID": "d463346aafeb4f79ab743bc656956009",
                "wType": "FlexContainer"
            }
        },
        "EditGeneralInfo.flxFlag1": {
            "__events__": {},
            "__info__": {
                "kuid": "fc94935d13d342bcb282c873f80b0356",
                "srcKUID": "aac6d2a1a8bc41d3b0500043c33876d6",
                "wType": "FlexContainer"
            }
        },
        "EditGeneralInfo.flxFlag2": {
            "__events__": {},
            "__info__": {
                "kuid": "j12ed0868f25458bac646da143890406",
                "srcKUID": "b179170e699141a78a772f8019950539",
                "wType": "FlexContainer"
            }
        },
        "EditGeneralInfo.flxFlag3": {
            "__events__": {},
            "__info__": {
                "kuid": "f027452d88fb4531966e1add2c8d2c6c",
                "srcKUID": "ed8dd206757142f0b37034b79c08422a",
                "wType": "FlexContainer"
            }
        },
        "EditGeneralInfo.flxFlagSeperator": {
            "__events__": {},
            "__info__": {
                "kuid": "edeb2749abc44ba3b8a2f9c30f5e3714",
                "srcKUID": "bedaa6bd33fc444faee17fc9aa944896",
                "wType": "FlexContainer"
            }
        },
        "EditGeneralInfo.flxGeneralDetails": {
            "__events__": {},
            "__info__": {
                "kuid": "jc1a794bb34b4bc6b31bbadbecf8aed1",
                "srcKUID": "aeeeaa01f5c5437794d341c5666edd2d",
                "wType": "FlexContainer"
            }
        },
        "EditGeneralInfo.flxRiskStatus": {
            "__events__": {},
            "__info__": {
                "kuid": "a4238480e8d44be8a8873f47e513cc88",
                "srcKUID": "ad8fa2a8cd384970a5c51839786c52ba",
                "wType": "FlexContainer"
            }
        },
        "EditGeneralInfo.flxRow1": {
            "__events__": {},
            "__info__": {
                "kuid": "dc0309d6be684c43aa00a98194f9be91",
                "srcKUID": "defee016e3dc4cd2908ecf71666a0432",
                "wType": "FlexContainer"
            }
        },
        "EditGeneralInfo.flxRow2": {
            "__events__": {},
            "__info__": {
                "kuid": "d673dda2615641f68ad576a176166665",
                "srcKUID": "fe5f0bf6789d49d08a81315850a04e9c",
                "wType": "FlexContainer"
            }
        },
        "EditGeneralInfo.flxRow3": {
            "__events__": {},
            "__info__": {
                "kuid": "db1407913dd74d96b7c609b36bfad859",
                "srcKUID": "a5b7d0760aef4c8fa67a17e567910358",
                "wType": "FlexContainer"
            }
        },
        "EditGeneralInfo.flxSelectFlags": {
            "__events__": {},
            "__info__": {
                "kuid": "hbb0fe21e4424c8bbee1d7b25b97bf3a",
                "srcKUID": "af5f05f057c6479c8d177a21f63a3f13",
                "wType": "FlexContainer"
            }
        },
        "EditGeneralInfo.flxSubDetails8": {
            "__events__": {},
            "__info__": {
                "kuid": "c71c2656afc849359f27079f3a3d9b6e",
                "srcKUID": "b71f36c5cbf64ad488c27bf88e068a16",
                "wType": "FlexContainer"
            }
        },
        "EditGeneralInfo.imgFlag1": {
            "__events__": {},
            "__info__": {
                "kuid": "da8307d87a464b39aa1c43962fbf57db",
                "srcKUID": "ffa8b626833b45bd82c3363e9db4f5f5",
                "wType": "Image"
            },
            "src": "checkbox.png"
        },
        "EditGeneralInfo.imgFlag2": {
            "__events__": {},
            "__info__": {
                "kuid": "e88ded1725924ca19f8c1f120acee073",
                "srcKUID": "dd4b7bbe9e454161ada2c13bf06216bb",
                "wType": "Image"
            },
            "src": "checkbox.png"
        },
        "EditGeneralInfo.imgFlag3": {
            "__events__": {},
            "__info__": {
                "kuid": "e83c0a6baa0148bb88695d2bc2ab745b",
                "srcKUID": "f2eed1621849451fbea2438fb102a591",
                "wType": "Image"
            },
            "src": "checkbox.png"
        },
        "EditGeneralInfo.lblContactDetails1": {
            "__events__": {},
            "__info__": {
                "kuid": "d951007e364c414d9fae222a588fca63",
                "srcKUID": "hd2d603c1de3450c841e0e3bd94a1e17",
                "wType": "Label"
            }
        },
        "EditGeneralInfo.lblContactDetails4": {
            "__events__": {},
            "__info__": {
                "kuid": "f8bbe0c20e264a8ebaf2acf93e1c58e8",
                "srcKUID": "f2abcb52654a4014a817520cce9c3d14",
                "wType": "Label"
            }
        },
        "EditGeneralInfo.lblContactDetails5": {
            "__events__": {},
            "__info__": {
                "kuid": "af72fc23ad4e41b1a6a694e8b4aa9ebc",
                "srcKUID": "fa8dad744e6e44239ea62291bfd763ab",
                "wType": "Label"
            }
        },
        "EditGeneralInfo.lblContactDetails7": {
            "__events__": {},
            "__info__": {
                "kuid": "ib1c830ac2a746d8a688e433546cfb54",
                "srcKUID": "e058bd3918ad4b9f9e8f81f07c5e2de7",
                "wType": "Label"
            }
        },
        "EditGeneralInfo.lblDetails2": {
            "__events__": {},
            "__info__": {
                "kuid": "cb18ba6f63844cd7860da3de601b0fba",
                "srcKUID": "ee559ce6b1174cb493141b25f86aab59",
                "wType": "Label"
            }
        },
        "EditGeneralInfo.lblDetails3": {
            "__events__": {},
            "__info__": {
                "kuid": "e229e51c55b146ce8ad2bbd89da790c8",
                "srcKUID": "c3c29b025b6243c9a5b3f79b205578e8",
                "wType": "Label"
            }
        },
        "EditGeneralInfo.lblDetails8": {
            "__events__": {},
            "__info__": {
                "kuid": "b7796032b7bd4d139329db4ed1613c5b",
                "srcKUID": "e5b4e86dc6744417bd16d0cc52d060d1",
                "wType": "Label"
            }
        },
        "EditGeneralInfo.lblError1": {
            "__events__": {},
            "__info__": {
                "kuid": "c2f538ee73dd4503be8aa3529eb3ab40",
                "srcKUID": "bce1937c766343d79d734c6c1d859742",
                "wType": "Label"
            }
        },
        "EditGeneralInfo.lblError2": {
            "__events__": {},
            "__info__": {
                "kuid": "i5d1a0417c7440e5b3f2908aa902df62",
                "srcKUID": "e55bda789f5b4b88a0d03ce0febeb30e",
                "wType": "Label"
            }
        },
        "EditGeneralInfo.lblError3": {
            "__events__": {},
            "__info__": {
                "kuid": "ce4387c1f0d44c2ba341b37e6ea2bd2a",
                "srcKUID": "f19185769a144c90b876ff5cbf6b1333",
                "wType": "Label"
            }
        },
        "EditGeneralInfo.lblError4": {
            "__events__": {},
            "__info__": {
                "kuid": "d9b55f0fb2ea4346968364c2728f7589",
                "srcKUID": "aa2e96f7b7954340b7eedae644961063",
                "wType": "Label"
            }
        },
        "EditGeneralInfo.lblFlag1": {
            "__events__": {},
            "__info__": {
                "kuid": "gbac442c32794e4fbee77a28563564b4",
                "srcKUID": "b16b0a8532344056ad9359edd09d38de",
                "wType": "Label"
            }
        },
        "EditGeneralInfo.lblFlag2": {
            "__events__": {},
            "__info__": {
                "kuid": "f67a6602f13647b4ab2cd71a3210e75a",
                "srcKUID": "a844bc76d4b14e3e86dac4d76f74d9f1",
                "wType": "Label"
            }
        },
        "EditGeneralInfo.lblFlag3": {
            "__events__": {},
            "__info__": {
                "kuid": "efd99fc1d3d54b85849ea01769a10cb2",
                "srcKUID": "b7403ebc78e642d59f069eb80069ce73",
                "wType": "Label"
            }
        },
        "EditGeneralInfo.lblRisksHeader": {
            "__events__": {},
            "__info__": {
                "kuid": "abf9073099794e0491528e3a12d682ef",
                "srcKUID": "dbdc89640539454b9df9cf1151926eff",
                "wType": "Label"
            }
        },
        "EditGeneralInfo.lstboxDetails1": {
            "__events__": {},
            "__info__": {
                "kuid": "b5da87ae21614b888b80606580e2d7be",
                "srcKUID": "a28401ef2cb04e1988f17f85e398a5de",
                "wType": "ListBox"
            }
        },
        "EditGeneralInfo.lstboxDetails2": {
            "__events__": {},
            "__info__": {
                "kuid": "b6560c0439024f9fb4381cd19d3c9bca",
                "srcKUID": "d5c0fc7724d44a8db612bd543af64524",
                "wType": "ListBox"
            }
        },
        "EditGeneralInfo.lstboxDetails3": {
            "__events__": {},
            "__info__": {
                "kuid": "fa6530f84cdc40f4a3e925c978af80da",
                "srcKUID": "fe6ace13d38a428fabc22c77c9dbd645",
                "wType": "ListBox"
            }
        },
        "EditGeneralInfo.lstboxDetails4": {
            "__events__": {},
            "__info__": {
                "kuid": "a60d3674401148248a69dfdf4c6ae644",
                "srcKUID": "g6f963c3f0b84019922c7a27360735ef",
                "wType": "ListBox"
            }
        },
        "EditGeneralInfo.lstboxDetails5": {
            "__events__": {},
            "__info__": {
                "kuid": "a990e143ca8947168ec007fae74942c8",
                "srcKUID": "ea453b17554a421b8909c93f1ba66fab",
                "wType": "ListBox"
            }
        },
        "EditGeneralInfo.switchToggle": {
            "__events__": {},
            "__info__": {
                "kuid": "d514f7a23dc64023ba14dba4629341e9",
                "srcKUID": "i9fef754bcc24aa7b16bf078fc6b764e",
                "wType": "Switch"
            }
        },
        "ProfileGeneralInfo": {
            "__events__": {},
            "__info__": {
                "isRoot": true,
                "kuid": "bb75a5b29ba74af5b2d9187f1d8ce801",
                "srcKUID": "b1d438f217374b70a3fac2eb0026100f",
                "wType": "FlexContainer"
            }
        },
        "alertMessage": {
            "__events__": {},
            "__info__": {
                "kuid": "j6d15c0d5eda479288886996b14833f1",
                "srcKUID": "c4d736f3cf564a1ba508f7fe9fe7fc62",
                "wType": "UserWidgetInstance"
            }
        },
        "alertMessage.btnDataLink1": {
            "__events__": {},
            "__info__": {
                "kuid": "a9968acb6a954f45bf8a4325db5ac36a",
                "srcKUID": "e1008d8a56094dddb6820262f72c2e3f",
                "wType": "Button"
            }
        },
        "alertMessage.btnDataLink2": {
            "__events__": {},
            "__info__": {
                "kuid": "aa7bbe66151a4f7da1c8df2252a38799",
                "srcKUID": "f696125d432f4250b2170635a099183a",
                "wType": "Button"
            }
        },
        "alertMessage.flxLeftImage": {
            "__events__": {},
            "__info__": {
                "kuid": "fc5a36942fb04f2c94de655647f1acdc",
                "srcKUID": "g80d8509139b4c9883ee4af13a0b03ef",
                "wType": "FlexContainer"
            }
        },
        "alertMessage.flxMessage": {
            "__events__": {},
            "__info__": {
                "kuid": "gd77c1d650cf460f9279c965f47dc1dc",
                "srcKUID": "hfb785832b694f0287df17f9d968d6ec",
                "wType": "FlexContainer"
            }
        },
        "alertMessage.flxRow1": {
            "__events__": {},
            "__info__": {
                "kuid": "adf43a749c484aabbfef63e872f0aad4",
                "srcKUID": "d9901300931a41149b0e7f169dd69654",
                "wType": "FlexContainer"
            }
        },
        "alertMessage.flxRow2": {
            "__events__": {},
            "__info__": {
                "kuid": "g9f0a5ffb91447f09c12a05b25eee58a",
                "srcKUID": "c337453825134c458506e75c5a519237",
                "wType": "FlexContainer"
            }
        },
        "alertMessage.fontIconImgLeft": {
            "__events__": {},
            "__info__": {
                "kuid": "g860d416a6b2434d8bfdfe643fa71144",
                "srcKUID": "jf3fee98038b4440b927ee8cac8fb945",
                "wType": "Label"
            }
        },
        "alertMessage.fonticonBullet1": {
            "__events__": {},
            "__info__": {
                "kuid": "g53086e4a530453da45725f0782e8567",
                "srcKUID": "g306ac3e38b24647b3af1e2d15119058",
                "wType": "Label"
            }
        },
        "alertMessage.fonticonBullet2": {
            "__events__": {},
            "__info__": {
                "kuid": "d21207b944ec475fa8d6fef3e26a12ac",
                "srcKUID": "e64b237a942f47a2be55c433d136c827",
                "wType": "Label"
            }
        },
        "alertMessage.lblData": {
            "__events__": {},
            "__info__": {
                "kuid": "f1715dd1801f4beebe674f0094fbf94e",
                "srcKUID": "f79cdd3d064746ab9e1003d939cadecf",
                "wType": "Label"
            }
        },
        "alertMessage.lblData1": {
            "__events__": {},
            "__info__": {
                "kuid": "hc413c8f7c764d449769ba733358a2a8",
                "srcKUID": "c529e28a39cf417f900e9597fe1b86a5",
                "wType": "Label"
            }
        },
        "alertMessage.lblData2": {
            "__events__": {},
            "__info__": {
                "kuid": "d8ca891ae9d04b359fc5b9e1a433efe0",
                "srcKUID": "cecbdcb6f77d449687c3838f4092ee3c",
                "wType": "Label"
            }
        },
        "alertMessage.lblData3": {
            "__events__": {},
            "__info__": {
                "kuid": "bdbc0134d7144e1b979ef331b8545ab7",
                "srcKUID": "a0e2015b7c534c0e9334f1bac8a5b2aa",
                "wType": "Label"
            }
        },
        "backToGeneralInformation": {
            "__events__": {},
            "__info__": {
                "kuid": "a9640f1e286c4a0eaf64a881306a8a15",
                "srcKUID": "d7679008f8414ce9bbcfea1749fb4fbb",
                "wType": "UserWidgetInstance"
            }
        },
        "backToGeneralInformation.btnBack": {
            "__events__": {},
            "__info__": {
                "kuid": "c65df4a4fd514846a22360eb927f3c9d",
                "srcKUID": "f40306e4ac49414580806ef94cdba165",
                "wType": "Button"
            }
        },
        "backToGeneralInformation.flxBack": {
            "__events__": {},
            "__info__": {
                "kuid": "cbb3820bc66446dc863f8af715afada7",
                "srcKUID": "dd6ece59e1a54098ba4a3712cde65c71",
                "wType": "FlexContainer"
            }
        },
        "backToGeneralInformation.fontIconBack": {
            "__events__": {},
            "__info__": {
                "kuid": "b1e252fcb2ed4c99b0d16c9f70988592",
                "srcKUID": "f3b467b5f22f405f82cf99e63b46f3dc",
                "wType": "Label"
            }
        },
        "dashboardCommonTab": {
            "__events__": {},
            "__info__": {
                "kuid": "h7a86f0ecd394236a1755fea86163497",
                "srcKUID": "c57912f8effd4469a9b426e01ce9f271",
                "wType": "UserWidgetInstance"
            }
        },
        "dashboardCommonTab.btnBanking": {
            "__events__": {},
            "__info__": {
                "kuid": "f21fd5e5d3b440b49b549d143964eb30",
                "srcKUID": "a6cac98df72442e6b8f9e70fe960b1b4",
                "wType": "Button"
            }
        },
        "dashboardCommonTab.btnDeposits": {
            "__events__": {},
            "__info__": {
                "kuid": "i9afbd702418432388428479503de29d",
                "srcKUID": "jea07e4743d147c2b1eaef082abe10f8",
                "wType": "Button"
            }
        },
        "dashboardCommonTab.btnLoans": {
            "__events__": {},
            "__info__": {
                "kuid": "j704a53e994046e38b0cc5ffa7bb2b5a",
                "srcKUID": "eace1e6959c84e4da63b68e8868c473e",
                "wType": "Button"
            }
        },
        "dashboardCommonTab.btnProfile": {
            "__events__": {},
            "__info__": {
                "kuid": "a0938552ef404449a5598d7986941f23",
                "srcKUID": "e0ab3ce0d97042c5ab97aca111d151d4",
                "wType": "Button"
            }
        },
        "dashboardCommonTab.flxProductsTabsWrapper": {
            "__events__": {},
            "__info__": {
                "kuid": "h3247d54799b4775a06b9cd2276207e8",
                "srcKUID": "f1ca5286374f4c93bbbd4dbc07d8936d",
                "wType": "FlexContainer"
            }
        },
        "dashboardCommonTab.lblBottomSeperatorCommonTabs": {
            "__events__": {},
            "__info__": {
                "kuid": "h08a4a6234cb4fa9aff9a080b4c14afb",
                "srcKUID": "c8a40cc47dd04394a49f8582d606b9d4",
                "wType": "Label"
            }
        },
        "editButtons": {
            "__events__": {},
            "__info__": {
                "kuid": "g6f89276fb8d45df84132722d4f29f07",
                "srcKUID": "b646dedca1534364b894e4cbd2abb5de",
                "wType": "UserWidgetInstance"
            }
        },
        "editButtons.btnCancel": {
            "__events__": {},
            "__info__": {
                "kuid": "ec4123691acb4b00bd2f56199a2ef154",
                "srcKUID": "ac40c517e64345e1986e9545365a2fb6",
                "wType": "Button"
            }
        },
        "editButtons.btnNext": {
            "__events__": {},
            "__info__": {
                "kuid": "a51b9fd1ab2b4f94b0397d89995d6e06",
                "srcKUID": "c6b13e43a0d44a0982f3287c708ea02b",
                "wType": "Button"
            }
        },
        "editButtons.btnSave": {
            "__events__": {},
            "__info__": {
                "kuid": "df936ffe0e9942c486def0bb3c82f99b",
                "srcKUID": "bc85a568b9f047e783a64becc0767b20",
                "wType": "Button"
            }
        },
        "editButtons.flxRightButtons": {
            "__events__": {},
            "__info__": {
                "kuid": "d61e7e5df22d4463956a321eee3b5fce",
                "srcKUID": "cce236f5111f4363810641d803655181",
                "wType": "FlexContainer"
            }
        },
        "flxArrow": {
            "__events__": {},
            "__info__": {
                "kuid": "b4962987d68c4863b4dfdfef8d113247",
                "srcKUID": "gf5b58b3c47843a394462968f22004fa",
                "wType": "FlexContainer"
            }
        },
        "flxBack": {
            "__events__": {},
            "__info__": {
                "kuid": "j55f9acd06644aa78e6be6e3de2ee063",
                "srcKUID": "b577ab69f29e4e5c801030f3dbea67dd",
                "wType": "FlexContainer"
            }
        },
        "flxEditButtons": {
            "__events__": {},
            "__info__": {
                "kuid": "ccd81d1e79274bec8d6e8742aa014938",
                "srcKUID": "g3eb218a6c91413b8f823620bd7d6625",
                "wType": "FlexContainer"
            }
        },
        "flxEditButtonsWrapper": {
            "__events__": {},
            "__info__": {
                "kuid": "ad34d62cae154516a1385a583cc27c8f",
                "srcKUID": "j537d44121fe4beda10e56d3bb4845f4",
                "wType": "FlexContainer"
            }
        },
        "flxEditGeneralInformation": {
            "__events__": {},
            "__info__": {
                "kuid": "b2f46c2a53a04526b3eeba1f10faa50c",
                "srcKUID": "b35a5aabe07e4d719369543b50a77acf",
                "wType": "FlexContainer"
            }
        },
        "flxEditGenralInfo": {
            "__events__": {},
            "__info__": {
                "kuid": "d524ece7708443758e09a4adc8b901f1",
                "srcKUID": "aa1ea047004e4662aca5685e5c4bb77f",
                "wType": "FlexContainer"
            }
        },
        "flxEditSeperator": {
            "__events__": {},
            "__info__": {
                "kuid": "b6e4f61bf3d543d6971f0ef96c269850",
                "srcKUID": "ba7e8c770fbe4ae9866f71b11c3a7540",
                "wType": "FlexContainer"
            }
        },
        "flxGMHeader": {
            "__events__": {},
            "__info__": {
                "kuid": "da027ae7a2e54055b6d39d0acf69eba4",
                "srcKUID": "a06930bc09244188a875d227588f124d",
                "wType": "FlexContainer"
            }
        },
        "flxGeneralInfo": {
            "__events__": {},
            "__info__": {
                "kuid": "fbd3953515104fa9b44619e97a98e0ab",
                "srcKUID": "b880660b487a4d33977f274d6faa3c3c",
                "wType": "FlexContainer"
            }
        },
        "flxGeneralInfoEditButton": {
            "__events__": {},
            "__info__": {
                "kuid": "ddffa8d266194388bd564f5c80a13335",
                "srcKUID": "h8bb26be0269487db6a24fb8854b3078",
                "wType": "FlexContainer"
            }
        },
        "flxGeneralInfoEditHeader": {
            "__events__": {},
            "__info__": {
                "kuid": "cfd50bddb3b74c44a24d954609dc9d63",
                "srcKUID": "jaab80c787a844c9b6749ea834592970",
                "wType": "FlexContainer"
            }
        },
        "flxGeneralInfoHeader": {
            "__events__": {},
            "__info__": {
                "kuid": "a068195798cd4620bdf8584ea4f33ca3",
                "srcKUID": "d1cdd2296300483ea60188b095a91681",
                "wType": "FlexContainer"
            }
        },
        "flxGeneralInformation": {
            "__events__": {},
            "__info__": {
                "kuid": "d2e1c24c71624618898c4691e765abf9",
                "srcKUID": "e1a132c09acd4385b316d24f7e1ffc88",
                "wType": "FlexContainer"
            }
        },
        "flxGmInfoDetailWrapper": {
            "__events__": {},
            "__info__": {
                "kuid": "d8de195903da412a9603f7f1196619d0",
                "srcKUID": "b11cd7a654bb4f538764eecce1f5c1d7",
                "wType": "FlexContainer"
            }
        },
        "flxInfoHeader": {
            "__events__": {},
            "__info__": {
                "kuid": "b9e3fbaa2b634c3c9f8185092493cd0b",
                "srcKUID": "eacecbe4efe94455969cf3d106864517",
                "wType": "FlexContainer"
            }
        },
        "flxTabWrapper": {
            "__events__": {},
            "__info__": {
                "kuid": "c2edecb228514f86a32eb456565e458f",
                "srcKUID": "e5ed29735a5e4ab6b92201b8de0a793a",
                "wType": "FlexContainer"
            }
        },
        "flxViewGeneralInformation": {
            "__events__": {},
            "__info__": {
                "kuid": "ade2ba684bd643cb94c86c95b12526ee",
                "srcKUID": "d78a696066c243c8a938b10c3870d812",
                "wType": "FlexContainer"
            }
        },
        "fonticonrightarrow": {
            "__events__": {},
            "__info__": {
                "kuid": "h3b003208c464494bef64c8ff93960d7",
                "srcKUID": "he359d8cad934b6ab0ba2a6e7e37eb39",
                "wType": "Label"
            }
        },
        "generalInfoHeader": {
            "__events__": {},
            "__info__": {
                "kuid": "jadd3a68fa12420ebaca9c742fada006",
                "srcKUID": "fe0306fee1414720ac7b3238ebb7ac87",
                "wType": "UserWidgetInstance"
            }
        },
        "generalInfoHeader.flxActionButtons": {
            "__events__": {},
            "__info__": {
                "kuid": "fbd379a977074b0ca4284e4b62f51ca8",
                "srcKUID": "e5c27540a9254a7d8b4f1c2cb5dba517",
                "wType": "FlexContainer"
            }
        },
        "generalInfoHeader.flxApplicantTag": {
            "__events__": {},
            "__info__": {
                "kuid": "if699c62458742ba9075671b70a0ca07",
                "srcKUID": "e479f4b5d7114741abfbc3e4f7001b4f",
                "wType": "FlexContainer"
            }
        },
        "generalInfoHeader.flxCSRAssist": {
            "__events__": {},
            "__info__": {
                "kuid": "gd0797a55eb04b21aeb10659969a0861",
                "srcKUID": "f8bbedff4db344f9a45c9c5fb8665986",
                "wType": "FlexContainer"
            }
        },
        "generalInfoHeader.flxCustomerTags": {
            "__events__": {},
            "__info__": {
                "kuid": "f141a57070324ca586642bfd22a7a918",
                "srcKUID": "b57e7f3b296647ed90b803b4215a5e5b",
                "wType": "FlexContainer"
            }
        },
        "generalInfoHeader.flxDefaultSearchHeader": {
            "__events__": {},
            "__info__": {
                "kuid": "gb3b90e22bfd4e3c8fefed23151685e5",
                "srcKUID": "ce9523ece3af45ee8a0d73b678019f89",
                "wType": "FlexContainer"
            }
        },
        "generalInfoHeader.flxHeader": {
            "__events__": {},
            "__info__": {
                "kuid": "i83cebcab40f4a0a884d59e80a462458",
                "srcKUID": "f8c1a718923249c9896a8c7a01bc02cc",
                "wType": "FlexContainer"
            }
        },
        "generalInfoHeader.flxMicroBusinessTag": {
            "__events__": {},
            "__info__": {
                "kuid": "f7edea3218204223adefddfaf8df0deb",
                "srcKUID": "ae90f292427e4e68b3457800a998ce8e",
                "wType": "FlexContainer"
            }
        },
        "generalInfoHeader.flxOptions": {
            "__events__": {},
            "__info__": {
                "kuid": "cde65b39ef7541f08190618feee7d648",
                "srcKUID": "ce5a7c69be1f4fda967579c6557a4ef0",
                "wType": "FlexContainer"
            }
        },
        "generalInfoHeader.flxRetailTag": {
            "__events__": {},
            "__info__": {
                "kuid": "d18cde16b96347b8998dec917f33b8c7",
                "srcKUID": "b9e30b8a023d466eb2c877c66893bad1",
                "wType": "FlexContainer"
            }
        },
        "generalInfoHeader.flxRiskStatus": {
            "__events__": {},
            "__info__": {
                "kuid": "cffedfb12b37459faafb2c15749fbfb6",
                "srcKUID": "b2754023ff184344b9808d8b9f97ced5",
                "wType": "FlexContainer"
            }
        },
        "generalInfoHeader.flxSmallBusinessTag": {
            "__events__": {},
            "__info__": {
                "kuid": "f61240f648724720abee8fc08c50a55d",
                "srcKUID": "ge248782c52f4272aae0fe130d6db7ae",
                "wType": "FlexContainer"
            }
        },
        "generalInfoHeader.flxTagsandbuttons": {
            "__events__": {},
            "__info__": {
                "kuid": "fbb9f654644d4f519b9cfbd797b6823c",
                "srcKUID": "b337fd5802dd480ea02d4adea0ed0aef",
                "wType": "FlexContainer"
            }
        },
        "generalInfoHeader.flxUnlock": {
            "__events__": {},
            "__info__": {
                "kuid": "e0abf5058c89472fbb6dd9b6bdee5a30",
                "srcKUID": "g454a5666aa844559026bf2c207fc66c",
                "wType": "FlexContainer"
            }
        },
        "generalInfoHeader.fontIconCircle1": {
            "__events__": {},
            "__info__": {
                "kuid": "b957f551ed254b2183dcb637f9e64b14",
                "srcKUID": "dd3809f655ae47e297d02ae9d2391685",
                "wType": "Label"
            }
        },
        "generalInfoHeader.fontIconCircle2": {
            "__events__": {},
            "__info__": {
                "kuid": "faa2bd8c7e4248a2974d929550922e40",
                "srcKUID": "d510b9fd4a934c40be33ed1ff27731c3",
                "wType": "Label"
            }
        },
        "generalInfoHeader.fontIconCircle3": {
            "__events__": {},
            "__info__": {
                "kuid": "bdc57b3eac3944c6a2f24d2739282475",
                "srcKUID": "f1e78f207a334fcfaa804fe0d614edcc",
                "wType": "Label"
            }
        },
        "generalInfoHeader.fontIconCircle4": {
            "__events__": {},
            "__info__": {
                "kuid": "aa6657fd7c3b4e369e13809f79f5b822",
                "srcKUID": "be2a0d43dcf646c09da6264b1af67615",
                "wType": "Label"
            }
        },
        "generalInfoHeader.fonticonActive": {
            "__events__": {},
            "__info__": {
                "kuid": "ade62ceb8bc64e7083da76281028af8b",
                "srcKUID": "d1c67eabb4ef4ced9de0c808dfb20262",
                "wType": "Label"
            }
        },
        "generalInfoHeader.fonticonCSRAssist": {
            "__events__": {},
            "__info__": {
                "kuid": "c0b091f39fae4ae7867cae6abc01b7f4",
                "srcKUID": "aae103bef08d4ab9a762aae8970f8415",
                "wType": "Label"
            }
        },
        "generalInfoHeader.fonticonDefaulter": {
            "__events__": {},
            "__info__": {
                "kuid": "bb82aa10cc12434992c6c7e31d8fd16a",
                "srcKUID": "f2721362c49141c698ee275a2ed9e87c",
                "wType": "Label"
            }
        },
        "generalInfoHeader.fonticonFraud": {
            "__events__": {},
            "__info__": {
                "kuid": "aed7d3f202184653991e7ebde9340d98",
                "srcKUID": "f7f27548fe0b4005ace6b5998fd0431d",
                "wType": "Label"
            }
        },
        "generalInfoHeader.fonticonRisk": {
            "__events__": {},
            "__info__": {
                "kuid": "e31854bd0cd841869e0ae6e9ae558b41",
                "srcKUID": "ieb7f9ce7ad14d81a4374ec6c8b46c8e",
                "wType": "Label"
            }
        },
        "generalInfoHeader.fonticonUnlock": {
            "__events__": {},
            "__info__": {
                "kuid": "a20e3c735c9a4c8f9c578f5f77d50d5a",
                "srcKUID": "eea78788ea7a442da508f482756ffaf1",
                "wType": "Label"
            }
        },
        "generalInfoHeader.lblCSRAssist": {
            "__events__": {},
            "__info__": {
                "kuid": "db5a85a373264772a806036f17f478db",
                "srcKUID": "c629ce8f627d4e43972204c99710376a",
                "wType": "Label"
            }
        },
        "generalInfoHeader.lblContent1": {
            "__events__": {},
            "__info__": {
                "kuid": "ga723ac6b75e49b0b27144662276ba1f",
                "srcKUID": "c4affbbf49f141ccb4a60d616179e9bd",
                "wType": "Label"
            }
        },
        "generalInfoHeader.lblContent2": {
            "__events__": {},
            "__info__": {
                "kuid": "a54bf587059d4cd18ef5ddc00b14d1e9",
                "srcKUID": "ab09d01733d1437ba8bd8e7eaeb4c079",
                "wType": "Label"
            }
        },
        "generalInfoHeader.lblContent3": {
            "__events__": {},
            "__info__": {
                "kuid": "cca08648e68b4ea2a21168448f6ce410",
                "srcKUID": "ae9af19646b7413a9fd21428c10f2a9e",
                "wType": "Label"
            }
        },
        "generalInfoHeader.lblContent4": {
            "__events__": {},
            "__info__": {
                "kuid": "ed757d3573284a70b1ad2c0acf5f08e7",
                "srcKUID": "b051ad17dd704b279582ff7dc9e5875e",
                "wType": "Label"
            }
        },
        "generalInfoHeader.lblCustomerName": {
            "__events__": {},
            "__info__": {
                "kuid": "d40b64a006754e3b9a95775367933e62",
                "srcKUID": "f40efb0406bc46ce81806addfcc3a353",
                "wType": "Label"
            }
        },
        "generalInfoHeader.lblDefaulter": {
            "__events__": {},
            "__info__": {
                "kuid": "ead0ce71310040029e9d60fdde537c53",
                "srcKUID": "cd8c1e7936de4d9fbbe229d43a33d7e4",
                "wType": "Label"
            }
        },
        "generalInfoHeader.lblFraud": {
            "__events__": {},
            "__info__": {
                "kuid": "b3e391e375a54a3387effb7d9ff59631",
                "srcKUID": "e3d12dab705e4514a37d01d8b968a22d",
                "wType": "Label"
            }
        },
        "generalInfoHeader.lblIconAlertTypeOptions": {
            "__events__": {},
            "__info__": {
                "kuid": "c82ad81853d5415c8b2432b7b8fa0b70",
                "srcKUID": "aacec6097255439394110473615c8021",
                "wType": "Label"
            }
        },
        "generalInfoHeader.lblRisk": {
            "__events__": {},
            "__info__": {
                "kuid": "ebc387957bd54380b23db89f7784857d",
                "srcKUID": "d4763613d56b4a6395b5c4776f6d98cb",
                "wType": "Label"
            }
        },
        "generalInfoHeader.lblSeparator": {
            "__events__": {},
            "__info__": {
                "kuid": "f3bda5cf83af41f4ae452001285b4eec",
                "srcKUID": "h80316faa093484e873a63892112df5f",
                "wType": "Label"
            }
        },
        "generalInfoHeader.lblStatus": {
            "__events__": {},
            "__info__": {
                "kuid": "jfb010476b724c62bfe68548a51361f8",
                "srcKUID": "ibe4fbb8e5a64bca8d4255150dd63496",
                "wType": "Label"
            }
        },
        "generalInfoHeader.lblUnlock": {
            "__events__": {},
            "__info__": {
                "kuid": "d95688ed4d574a8d963c34206cbe7a3d",
                "srcKUID": "e1cd486e92894e27890db754c8f62133",
                "wType": "Label"
            }
        },
        "imgArrow": {
            "__events__": {},
            "__info__": {
                "kuid": "fa82989aeea5447c91b0003c5ffce044",
                "srcKUID": "a3f8274b3f424331b8b994b30331531a",
                "wType": "Image"
            },
            "src": "img_down_arrow.png"
        },
        "imgGeneralInfoEditButton": {
            "__events__": {},
            "__info__": {
                "kuid": "f39f23d0d0894dc5bd32ea5b53ad9b2b",
                "srcKUID": "e7bedb386e294f60bad1b065a7d15da6",
                "wType": "Image"
            },
            "src": "img_edit_btn.png"
        },
        "lblGenaralInfoHeader": {
            "__events__": {},
            "__info__": {
                "kuid": "jc3a51974644440e82211c97c01ccf88",
                "srcKUID": "de2ff2f6f5b6495faaf93a0a28e7eb57",
                "wType": "Label"
            }
        },
        "lblGeneralInfo": {
            "__events__": {},
            "__info__": {
                "kuid": "ef0fd070ba7b47d5b00eae9e8a4f214b",
                "srcKUID": "adcd3cc5cd324ddfbf280b783c2122de",
                "wType": "Label"
            }
        },
        "lblGeneralInfoEditButton": {
            "__events__": {},
            "__info__": {
                "kuid": "ce0fff9cda77439388620699a1513040",
                "srcKUID": "ef89fafe078845449a7ed46bbf725365",
                "wType": "Label"
            }
        },
        "row1": {
            "__events__": {},
            "__info__": {
                "kuid": "f4f3500db4114258983fc80b6d065fa7",
                "srcKUID": "f47cc0e7b3ae4b22849500ce2d704dba",
                "wType": "UserWidgetInstance"
            }
        },
        "row1.btnLink1": {
            "__events__": {},
            "__info__": {
                "kuid": "f3912572f8d04d07870c86800659d50f",
                "srcKUID": "f62a9d2dbb21498a9e186c3626aa2a52",
                "wType": "Button"
            }
        },
        "row1.btnLink2": {
            "__events__": {},
            "__info__": {
                "kuid": "a517977a8ddc4616bd64babd7b2d29f3",
                "srcKUID": "ia13972f06584db4b43c7280898793f0",
                "wType": "Button"
            }
        },
        "row1.btnLink3": {
            "__events__": {},
            "__info__": {
                "kuid": "c2dc9a23fc874eff973851b12a5b4c61",
                "srcKUID": "e9e535e5986745ba8d562aa6070e7495",
                "wType": "Button"
            }
        },
        "row1.flxColumn1": {
            "__events__": {},
            "__info__": {
                "kuid": "j7456d93f4e34183b506bdf0176c9767",
                "srcKUID": "e9dd5a98263043b3b2e78f609b56bb9b",
                "wType": "FlexContainer"
            }
        },
        "row1.flxColumn2": {
            "__events__": {},
            "__info__": {
                "kuid": "f4f9d73a49854023acdef2a814dabd96",
                "srcKUID": "aa2cd15ae3674ac7a115ff3335e08058",
                "wType": "FlexContainer"
            }
        },
        "row1.flxColumn3": {
            "__events__": {},
            "__info__": {
                "kuid": "c3de7c0f628e487392884aad8ae363fd",
                "srcKUID": "cf6654e433cf4427a844b69341cd09ac",
                "wType": "FlexContainer"
            }
        },
        "row1.flxDataAndImage1": {
            "__events__": {},
            "__info__": {
                "kuid": "jf376b74aae748d5a2127f518da3f3f5",
                "srcKUID": "g04579f45f9e4aa6b748cf2650959528",
                "wType": "FlexContainer"
            }
        },
        "row1.flxDataAndImage2": {
            "__events__": {},
            "__info__": {
                "kuid": "d3a829b2f17a401aadbc7b27afefd39e",
                "srcKUID": "f82da1393fa3460b9d3ee45aca3f88b8",
                "wType": "FlexContainer"
            }
        },
        "row1.flxDataAndImage3": {
            "__events__": {},
            "__info__": {
                "kuid": "c1b5e92dcf024fcd9bfa5e518893cd5c",
                "srcKUID": "b00344a0ed70498bb65c8d6ed8add1fd",
                "wType": "FlexContainer"
            }
        },
        "row1.imgData1": {
            "__events__": {},
            "__info__": {
                "kuid": "h179f91a89a740af8b85a8b68d4c17e0",
                "srcKUID": "f628f2a362234bd5a9b04ad7b7fba672",
                "wType": "Image"
            },
            "src": "active_circle2x.png"
        },
        "row1.imgData2": {
            "__events__": {},
            "__info__": {
                "kuid": "g1195b53773c4bb19bbfff4cb2db8689",
                "srcKUID": "dcdd35f9d480424180dd6264d173ce16",
                "wType": "Image"
            },
            "src": "active_circle2x.png"
        },
        "row1.imgData3": {
            "__events__": {},
            "__info__": {
                "kuid": "j2cd9ef210244b92abad27e815c5eac2",
                "srcKUID": "ee9cfae9af384f9fb4c102051df591f4",
                "wType": "Image"
            },
            "src": "active_circle2x.png"
        },
        "row1.lblData1": {
            "__events__": {},
            "__info__": {
                "kuid": "aa643976e1e744d2841b484d70e054b1",
                "srcKUID": "d0402b93a8d844e19ba206ae8b20e79a",
                "wType": "Label"
            }
        },
        "row1.lblData2": {
            "__events__": {},
            "__info__": {
                "kuid": "c33c946f750148c18578be5a6423144c",
                "srcKUID": "d4626416d43e4bb09e0ab141d0ce109e",
                "wType": "Label"
            }
        },
        "row1.lblData3": {
            "__events__": {},
            "__info__": {
                "kuid": "d8c529c0e0994038808e4f66f79708fb",
                "srcKUID": "h8fc4b13ea7941a6a8823a220734d03b",
                "wType": "Label"
            }
        },
        "row1.lblHeading1": {
            "__events__": {},
            "__info__": {
                "kuid": "f23830fe89c54ac29fc6b83ef991affb",
                "srcKUID": "c77e551cd43540dea850ecc1c4e7629b",
                "wType": "Label"
            }
        },
        "row1.lblHeading2": {
            "__events__": {},
            "__info__": {
                "kuid": "h4a4cde0d9fe4e989755c752a04f8961",
                "srcKUID": "b50085f510574c1aa8b5e993e8d19150",
                "wType": "Label"
            }
        },
        "row1.lblHeading3": {
            "__events__": {},
            "__info__": {
                "kuid": "b2faf6196cb6479ba374787d8dad292b",
                "srcKUID": "b6f71c9a686542b592f8f1583e257b1b",
                "wType": "Label"
            }
        },
        "row1.lblIconData2": {
            "__events__": {},
            "__info__": {
                "kuid": "a2a03d37942746e9a3646873772f596c",
                "srcKUID": "b99b81a9fba747e6a55dc105c380a42a",
                "wType": "Label"
            }
        },
        "row1.lblSignData2": {
            "__events__": {},
            "__info__": {
                "kuid": "h2dd2776a162457997b9fc76fa690709",
                "srcKUID": "a987ead5231841228a3fa282c137e04c",
                "wType": "Label"
            }
        },
        "row2": {
            "__events__": {},
            "__info__": {
                "kuid": "fb8cbc0e68874b8ab3bf43a0e1647109",
                "srcKUID": "d77efdfd623d47adb7f8f93e14878816",
                "wType": "UserWidgetInstance"
            }
        },
        "row2.btnLink1": {
            "__events__": {},
            "__info__": {
                "kuid": "hdcf7a5e18e14d8a845d2d7048a20d40",
                "srcKUID": "f21da2e008594c19824317a483075071",
                "wType": "Button"
            }
        },
        "row2.btnLink2": {
            "__events__": {},
            "__info__": {
                "kuid": "e3fa20ba9bac4546807bf2afa381035e",
                "srcKUID": "gba40c89568a45ff8ca8fa44d6e305ed",
                "wType": "Button"
            }
        },
        "row2.btnLink3": {
            "__events__": {},
            "__info__": {
                "kuid": "a3317a7621e447f6b33d44b05c219032",
                "srcKUID": "af503eca2b6e4ab48da4c46fd86dc044",
                "wType": "Button"
            }
        },
        "row2.flxColumn1": {
            "__events__": {},
            "__info__": {
                "kuid": "ad440865865f487ab95163b0ffcc7863",
                "srcKUID": "c3d7735a6a92474d82e9650796ef833c",
                "wType": "FlexContainer"
            }
        },
        "row2.flxColumn2": {
            "__events__": {},
            "__info__": {
                "kuid": "d0ffa22fab7049b3a7a90ddfd0419073",
                "srcKUID": "j8308b97eb34441f9e7b0749472697bc",
                "wType": "FlexContainer"
            }
        },
        "row2.flxColumn3": {
            "__events__": {},
            "__info__": {
                "kuid": "cf39555bb3b1483e9a0306674c814cc4",
                "srcKUID": "c6f1c1aec6094fbdae47b31fb22ff0a4",
                "wType": "FlexContainer"
            }
        },
        "row2.flxDataAndImage1": {
            "__events__": {},
            "__info__": {
                "kuid": "ab9b80ac3caf43bc8530f93b56de257f",
                "srcKUID": "ddb1dbeccf074430b08d5a644c03213e",
                "wType": "FlexContainer"
            }
        },
        "row2.flxDataAndImage2": {
            "__events__": {},
            "__info__": {
                "kuid": "b4c76a61aa8f473ea0a29ac2d9051e6e",
                "srcKUID": "c1b4edc5a8374a10ad36349ba8791af5",
                "wType": "FlexContainer"
            }
        },
        "row2.flxDataAndImage3": {
            "__events__": {},
            "__info__": {
                "kuid": "i2023eb4494a46a69974ffec5853d64e",
                "srcKUID": "bdec6dd0fec749e3a82699e55d6dd4dd",
                "wType": "FlexContainer"
            }
        },
        "row2.imgData1": {
            "__events__": {},
            "__info__": {
                "kuid": "b2d070e4b34e42ed9f500f225a2ea01d",
                "srcKUID": "fff2e8d3c14b48899102e53fecb38b39",
                "wType": "Image"
            },
            "src": "active_circle2x.png"
        },
        "row2.imgData2": {
            "__events__": {},
            "__info__": {
                "kuid": "j4040c71a5864df4baeb84aebc75d78f",
                "srcKUID": "cd3cb034ff1040048d255966d1430abb",
                "wType": "Image"
            },
            "src": "active_circle2x.png"
        },
        "row2.imgData3": {
            "__events__": {},
            "__info__": {
                "kuid": "c48b61d6eb3d41158693a3f3ebece075",
                "srcKUID": "ff6598f3a19645f19f555eb281c460c7",
                "wType": "Image"
            },
            "src": "active_circle2x.png"
        },
        "row2.lblData1": {
            "__events__": {},
            "__info__": {
                "kuid": "b6a17087437a49afb42e2eb0c1a84157",
                "srcKUID": "e09982f19c6143ccb2e2c0b4122b1231",
                "wType": "Label"
            }
        },
        "row2.lblData2": {
            "__events__": {},
            "__info__": {
                "kuid": "i72d33da0a854dc38393ddea3ca05163",
                "srcKUID": "a00ce7ad46f747fbb7e6e6e4209761f5",
                "wType": "Label"
            }
        },
        "row2.lblData3": {
            "__events__": {},
            "__info__": {
                "kuid": "j5894fc5add94866bd2963a77f7b0d4f",
                "srcKUID": "cad3617851b14212ba7d8a1d485f52d8",
                "wType": "Label"
            }
        },
        "row2.lblHeading1": {
            "__events__": {},
            "__info__": {
                "kuid": "b3c2f979339445b7b8579b521383e308",
                "srcKUID": "ca6fca860d6d4c42a81514ba670c92d9",
                "wType": "Label"
            }
        },
        "row2.lblHeading2": {
            "__events__": {},
            "__info__": {
                "kuid": "d415e784c32c4c20849372f24ef3f72f",
                "srcKUID": "f691f0bf16cf46e48e0ec5971185102a",
                "wType": "Label"
            }
        },
        "row2.lblHeading3": {
            "__events__": {},
            "__info__": {
                "kuid": "f933bd670220467faaff4f66e69a6593",
                "srcKUID": "e2365375d13c45c9ab0de026f074ffcd",
                "wType": "Label"
            }
        },
        "row2.lblIconData2": {
            "__events__": {},
            "__info__": {
                "kuid": "f36dc2fd942145cc9a6014d51ef445c9",
                "srcKUID": "c1f8d16442594acc918d173d5d61bf56",
                "wType": "Label"
            }
        },
        "row2.lblSignData2": {
            "__events__": {},
            "__info__": {
                "kuid": "ge1aa904e6a24c45b1c274a336ab6968",
                "srcKUID": "d817fa983dd741eab70d36191fe301ed",
                "wType": "Label"
            }
        },
        "row3": {
            "__events__": {},
            "__info__": {
                "kuid": "fce85593091a4418beca2d3d81db452f",
                "srcKUID": "a569b29775ce4e13a70c5f77cb0c6819",
                "wType": "UserWidgetInstance"
            }
        },
        "row3.btnLink1": {
            "__events__": {},
            "__info__": {
                "kuid": "c1a8fe6995924ec1b9bbfd00c8cbcb8b",
                "srcKUID": "h225f68653bd420fa1203f7850177ff2",
                "wType": "Button"
            }
        },
        "row3.btnLink2": {
            "__events__": {},
            "__info__": {
                "kuid": "i13aea0d7fd648ffa2857cecc3dd8257",
                "srcKUID": "cd0f1d5f3c9340ffbaddd3cf18a3e2fd",
                "wType": "Button"
            }
        },
        "row3.btnLink3": {
            "__events__": {},
            "__info__": {
                "kuid": "i94edf3e6565499f9b393310f661380a",
                "srcKUID": "b16c224830424d7d842b018bff9abc25",
                "wType": "Button"
            }
        },
        "row3.flxColumn1": {
            "__events__": {},
            "__info__": {
                "kuid": "j324dbfcd3ab430fa3db7c71f8f845ce",
                "srcKUID": "b364315e0e664f4dab55ee78c2e2a4d0",
                "wType": "FlexContainer"
            }
        },
        "row3.flxColumn2": {
            "__events__": {},
            "__info__": {
                "kuid": "b437d9a77c4b405dbdeb2d563408b435",
                "srcKUID": "i62296a5aa3d45f7a1f97f22455eeeb6",
                "wType": "FlexContainer"
            }
        },
        "row3.flxColumn3": {
            "__events__": {},
            "__info__": {
                "kuid": "de4829368d1349cda827e0ff3687ada3",
                "srcKUID": "h58f3dfb47fc4648b39f88d660962b05",
                "wType": "FlexContainer"
            }
        },
        "row3.flxDataAndImage1": {
            "__events__": {},
            "__info__": {
                "kuid": "af2aacc68e9649aa8c7c7d6d1f0de8ce",
                "srcKUID": "j4ef038a03a74ee89b7d552a4205a350",
                "wType": "FlexContainer"
            }
        },
        "row3.flxDataAndImage2": {
            "__events__": {},
            "__info__": {
                "kuid": "je22e409c70342b3977950220756098d",
                "srcKUID": "ae9ce019a31f41d9a28367c410be824c",
                "wType": "FlexContainer"
            }
        },
        "row3.flxDataAndImage3": {
            "__events__": {},
            "__info__": {
                "kuid": "e554c71a79b74fdd81cd4cdd6157d63f",
                "srcKUID": "a09bf8bbe6dc48299cc8284825527740",
                "wType": "FlexContainer"
            }
        },
        "row3.imgData1": {
            "__events__": {},
            "__info__": {
                "kuid": "h0a7d7ecbaa847589bb41438b738cb83",
                "srcKUID": "h0c2f9d310984b06b18a9150b710343a",
                "wType": "Image"
            },
            "src": "active_circle2x.png"
        },
        "row3.imgData2": {
            "__events__": {},
            "__info__": {
                "kuid": "a3e3a5eb7eff4ee28af7880aa9f1a1fe",
                "srcKUID": "e75fdab949dd4fabb464d967139ddbf3",
                "wType": "Image"
            },
            "src": "active_circle2x.png"
        },
        "row3.imgData3": {
            "__events__": {},
            "__info__": {
                "kuid": "fa3e488c1c23467e9eda7658cdb4a6ed",
                "srcKUID": "d73603c104c6485391c6585b60991fc0",
                "wType": "Image"
            },
            "src": "active_circle2x.png"
        },
        "row3.lblData1": {
            "__events__": {},
            "__info__": {
                "kuid": "b3c3f6788df1413592daba8f90bfd879",
                "srcKUID": "ee9a83d9d1904b24a29e24bceafde365",
                "wType": "Label"
            }
        },
        "row3.lblData2": {
            "__events__": {},
            "__info__": {
                "kuid": "j7bf8ef2e1cf48459b0336fae1f21804",
                "srcKUID": "c06128d74df741ed8b89c2d6a79e642a",
                "wType": "Label"
            }
        },
        "row3.lblData3": {
            "__events__": {},
            "__info__": {
                "kuid": "h2c3a9b086e34e6db7a59ca943d6453b",
                "srcKUID": "c79ee5a0b0b8405bb674f8b660292e86",
                "wType": "Label"
            }
        },
        "row3.lblHeading1": {
            "__events__": {},
            "__info__": {
                "kuid": "bad33e340e9d495e8569efbb76f4d1ce",
                "srcKUID": "d223cbfcc02f4e068db7b22cf191dbdc",
                "wType": "Label"
            }
        },
        "row3.lblHeading2": {
            "__events__": {},
            "__info__": {
                "kuid": "f3d0dbfc5ee746c48229efd7d66446c5",
                "srcKUID": "je86947e4ff3460084b6f4ff2cc7af78",
                "wType": "Label"
            }
        },
        "row3.lblHeading3": {
            "__events__": {},
            "__info__": {
                "kuid": "d4feccd4b1c5407daa9cb49490ea77fa",
                "srcKUID": "ab025475fa3f461a90a8166a83c75b9e",
                "wType": "Label"
            }
        },
        "row3.lblIconData2": {
            "__events__": {},
            "__info__": {
                "kuid": "c376f4f81c8b47799622429f26d9de8e",
                "srcKUID": "a03698c9b5fe44eb93cca7a588a494ef",
                "wType": "Label"
            }
        },
        "row3.lblSignData2": {
            "__events__": {},
            "__info__": {
                "kuid": "d960a95d26304e0eafafd04c112d3f40",
                "srcKUID": "fc9d9db4bc914239bf050c07dcd71fef",
                "wType": "Label"
            }
        },
        "row4": {
            "__events__": {},
            "__info__": {
                "kuid": "i092e2a69d7b46b28d2bc186bc0a2eb9",
                "srcKUID": "dc0381916eaf4debb34dfc98cd28f5b5",
                "wType": "UserWidgetInstance"
            }
        },
        "row4.btnLink1": {
            "__events__": {},
            "__info__": {
                "kuid": "c84f216d81854a9ead08596f08936868",
                "srcKUID": "e697c05401d04b2781bb2375b6b5e3db",
                "wType": "Button"
            }
        },
        "row4.btnLink2": {
            "__events__": {},
            "__info__": {
                "kuid": "h6a78c61579e4b20bb515ab1b7a7ba0e",
                "srcKUID": "f7707aaba8be4358bb2fb7ae4f57501f",
                "wType": "Button"
            }
        },
        "row4.btnLink3": {
            "__events__": {},
            "__info__": {
                "kuid": "bc1ad3731b584c7db0fe4e3580173d39",
                "srcKUID": "ad220d4036cd464ea0abfa9654e54ce5",
                "wType": "Button"
            }
        },
        "row4.flxColumn1": {
            "__events__": {},
            "__info__": {
                "kuid": "f0252eebcdf6441f9c934e21fb8d5fb5",
                "srcKUID": "e70098289cf648bd8dcd25406fa9a5d6",
                "wType": "FlexContainer"
            }
        },
        "row4.flxColumn2": {
            "__events__": {},
            "__info__": {
                "kuid": "af834153d62b4aef8a087a2fea51a150",
                "srcKUID": "bece556db37c4ca68c39eaabe84dc2a3",
                "wType": "FlexContainer"
            }
        },
        "row4.flxColumn3": {
            "__events__": {},
            "__info__": {
                "kuid": "aea8d80f92d84182a11a33cc8ae5c96a",
                "srcKUID": "da08871a0ea349f682e974924cda342c",
                "wType": "FlexContainer"
            }
        },
        "row4.flxDataAndImage1": {
            "__events__": {},
            "__info__": {
                "kuid": "a9edbbf59792480a9384780fadc00a56",
                "srcKUID": "b2cefc1e9d134dc2b98347ebbd6704bd",
                "wType": "FlexContainer"
            }
        },
        "row4.flxDataAndImage2": {
            "__events__": {},
            "__info__": {
                "kuid": "j266e4b80cac4b4fb413b8755d38d58f",
                "srcKUID": "cfdbd4ddc52b4e9daa24105fa02d3c92",
                "wType": "FlexContainer"
            }
        },
        "row4.flxDataAndImage3": {
            "__events__": {},
            "__info__": {
                "kuid": "e1c7d17e02744f73b4574fa6f27a089b",
                "srcKUID": "ac5bb35067524da1ae918bc00911d03a",
                "wType": "FlexContainer"
            }
        },
        "row4.imgData1": {
            "__events__": {},
            "__info__": {
                "kuid": "f3db883d9f6d49c6b3f82f4bd85a0c14",
                "srcKUID": "iff0088bf1dc4d54ac62f4182740f47c",
                "wType": "Image"
            },
            "src": "active_circle2x.png"
        },
        "row4.imgData2": {
            "__events__": {},
            "__info__": {
                "kuid": "d52cbc2ee29c4947ab36de14f8286abd",
                "srcKUID": "d2c83e5fd3df45ce9cb23ca0a4cbe632",
                "wType": "Image"
            },
            "src": "active_circle2x.png"
        },
        "row4.imgData3": {
            "__events__": {},
            "__info__": {
                "kuid": "fd3e217365ff410e9057b1a143afba28",
                "srcKUID": "h05e4f3dab4044eb9bf4925cdcd545dc",
                "wType": "Image"
            },
            "src": "active_circle2x.png"
        },
        "row4.lblData1": {
            "__events__": {},
            "__info__": {
                "kuid": "b7fb04ed772b46598adbab404e072cf6",
                "srcKUID": "h886d46e86444287b93601e20cc7bbc9",
                "wType": "Label"
            }
        },
        "row4.lblData2": {
            "__events__": {},
            "__info__": {
                "kuid": "c5b297bd0daf4387bd693eee8ef5bf46",
                "srcKUID": "e0d92e0911a44024b070ad330f34d297",
                "wType": "Label"
            }
        },
        "row4.lblData3": {
            "__events__": {},
            "__info__": {
                "kuid": "bb763cf13ceb4ae0ab7cd75f77525bd0",
                "srcKUID": "cea9c7ff442947fe90c1f7c1a626dca3",
                "wType": "Label"
            }
        },
        "row4.lblHeading1": {
            "__events__": {},
            "__info__": {
                "kuid": "c61d8572e660437b83eb30c8554f5de9",
                "srcKUID": "fca42796db57410bbbad3585fac54c55",
                "wType": "Label"
            }
        },
        "row4.lblHeading2": {
            "__events__": {},
            "__info__": {
                "kuid": "d474bca8e65f4cd782adda2bcbf95ca4",
                "srcKUID": "c7503571c7584f32b4c30f229318dd29",
                "wType": "Label"
            }
        },
        "row4.lblHeading3": {
            "__events__": {},
            "__info__": {
                "kuid": "af192754e7b14f279617a5dfb5c4ac8d",
                "srcKUID": "cb1c6495ebed4bd59b8118415e63386b",
                "wType": "Label"
            }
        },
        "row4.lblIconData2": {
            "__events__": {},
            "__info__": {
                "kuid": "j9d9456f92e64abb83460e7065083f72",
                "srcKUID": "jfa0733e96d948b6b701148b99c5df5d",
                "wType": "Label"
            }
        },
        "row4.lblSignData2": {
            "__events__": {},
            "__info__": {
                "kuid": "de4eaa6cff71407db311fdc4d620d7b2",
                "srcKUID": "e395480933024839b30cf2bbbdc6f39c",
                "wType": "Label"
            }
        }
    },
    "enablescrolling": true,
    "id": "flxGeneralInfoWrapper",
    "info": null,
    "iscustomlayout": false,
    "isdatareferenced": false,
    "issegmentchild": false,
    "isvisible": true,
    "kuid": "bb75a5b29ba74af5b2d9187f1d8ce801",
    "layouttype": 4,
    "masterType": 0,
    "maxheight": {
        "type": "string",
        "value": "550px"
    },
    "name": "kony.ui.UserWidgetInstance",
    "parent": "flxGeneralInformationWrapper",
    "pf": "frmCustomerProfileAlerts",
    "retaincontentalignment": false,
    "retainflexpositionproperties": false,
    "snapgridsize": 10,
    "snaptogrid": true,
    "sourceUserWidget": "b1d438f217374b70a3fac2eb0026100f",
    "wType": "UserWidgetInstance",
    "zindex": 1
}