{
    "DNDConfig": null,
    "__parentReadjusting__": false,
    "_height_": {
        "type": "ref",
        "value": "preferred"
    },
    "_left_": {
        "type": "string",
        "value": "0dp"
    },
    "_margin_": [
        0,
        0,
        0,
        0
    ],
    "_orientation_": 6,
    "_padding_": [
        0,
        0,
        0,
        0
    ],
    "_percent_": true,
    "_skin_": "s8ff24328417401b877c3ceb2a5fa27c",
    "_top_": {
        "type": "string",
        "value": "50px"
    },
    "_width_": {
        "type": "string",
        "value": "100%"
    },
    "allboxes": [],
    "autogrowmode": 1,
    "canUpdateUI": true,
    "children": [
        "flxNotificationsSearch",
        "flxNotificationsSegmentHeader",
        "lblNotificationHeaderSeperator",
        "flxAlertsHistorySegmentHeader",
        "segAlertHistory",
        "segNotifications",
        "rtxMsgNotifications"
    ],
    "clipbounds": true,
    "containerweight": 100,
    "enablescrolling": true,
    "id": "flxNotificationsWrapper",
    "info": null,
    "isvisible": false,
    "kuid": "e6cf0e0c1dfb410b84c1b2b567430fe4",
    "layouttype": 2,
    "name": "kony.ui.FlexContainer",
    "parent": "flxAlertPrefrenceWrapper",
    "pf": "frmCustomerProfileAlerts",
    "snapgridsize": 10,
    "snaptogrid": true,
    "wType": "FlexContainer",
    "widgetalignment": 1,
    "zindex": 1
}