{
    "@class": "com.kony.gen.viz.model.component.KVizLabel",
    "DNDConfig": null,
    "__parentReadjusting__": false,
    "_height_": {
        "type": "ref",
        "value": "preferred"
    },
    "_margin_": [
        1,
        1,
        1,
        1
    ],
    "_padding_": [
        0,
        0,
        0,
        0
    ],
    "_skin_": "s688afba03dd4e349fa97b102154356f",
    "_text_": "",
    "_width_": {
        "type": "ref",
        "value": "preferred"
    },
    "_wrapping_": 2,
    "android": {
        "textStyle": {
            "letterSpacing": 0,
            "strikeThrough": false
        }
    },
    "canUpdateUI": true,
    "centerx": {
        "type": "string",
        "value": "50%"
    },
    "centery": {
        "type": "string",
        "value": "50%"
    },
    "containerweight": 100,
    "contentalignment": 4,
    "desktopweb": {
        "psp": {
            "hoverSkin": "s21406b976394e9a88f684dd439dec6f"
        }
    },
    "disabledSkins": {},
    "id": "fonticonSortStartDate",
    "info": null,
    "ipad": {
        "psp": {
            "wrapping": 2
        }
    },
    "iphone": {
        "psp": {
            "wrapping": 2
        }
    },
    "isvisible": true,
    "kuid": "habd9ef24d144946bd6a43c4256dd53d",
    "name": "kony.ui.Label",
    "parent": "flxSortStartDate",
    "pf": "frmCustomerProfileAlerts",
    "texti18n": "i18n.frmAlertsManagement.lblSortName",
    "tooltip": "",
    "wType": "Label",
    "zindex": 1
}