{
    "@class": "com.kony.gen.viz.model.component.KVizUserWidget",
    "DNDConfig": null,
    "__parentReadjusting__": false,
    "_children_": [],
    "_desktopweb_": {},
    "_height_": {
        "type": "string",
        "value": "106px"
    },
    "_left_": {
        "type": "string",
        "value": "0"
    },
    "_margin_": [
        0,
        0,
        0,
        0
    ],
    "_orientation_": 1,
    "_padding_": [
        0,
        0,
        0,
        0
    ],
    "_percent_": true,
    "_render_": true,
    "_responsiveData_": {},
    "_skin_": "s4886d30205846ce90dddbeb96d1d6ef",
    "_top_": {
        "type": "string",
        "value": "0"
    },
    "_vizProps_": {
        "hidewidgethierarchy": false
    },
    "_width_": {
        "type": "string",
        "value": "100%"
    },
    "areflexpropsreferenced": false,
    "canUpdateUI": true,
    "clipbounds": true,
    "containerweight": 0,
    "dataDiffs": {
        "btnAddNewOption": {
            "__events__": {},
            "__info__": {
                "kuid": "ic2531ae596747f8b0a89308cb267880",
                "srcKUID": "ada5d4a4ecde43cca0304c5882f66bb7",
                "wType": "Button"
            },
            "isVisible": false,
            "right": {
                "Default": {
                    "type": "string",
                    "value": "0dp"
                }
            },
            "text": "IMPORT CUSTOMER"
        },
        "btnDropdownList": {
            "__events__": {},
            "__info__": {
                "kuid": "j056d8d2751546dbb24dca0409650497",
                "srcKUID": "b43698c27a4f4d988b5a7d3585c0a45b",
                "wType": "Button"
            },
            "isVisible": false,
            "vizProps": {
                "hide": false
            }
        },
        "flxAddNewOption": {
            "__events__": {},
            "__info__": {
                "kuid": "g83271da978a42f9bf2b2ea60a74ea54",
                "srcKUID": "gcf4f343946b48eb8cfdddb8ea99ee15",
                "wType": "FlexContainer"
            }
        },
        "flxButtons": {
            "__events__": {},
            "__info__": {
                "kuid": "g086841b6f554da2bc8376286e62c261",
                "srcKUID": "ie1e60199eb3482b836d57a31097ad15",
                "wType": "FlexContainer"
            },
            "top": {
                "Default": {
                    "type": "string",
                    "value": "58px"
                }
            }
        },
        "flxDownloadList": {
            "__events__": {},
            "__info__": {
                "kuid": "h041816357514c7da598338ee4fe5668",
                "srcKUID": "hed9c70306a244ed9913ad2c67adf9b5",
                "wType": "FlexContainer"
            }
        },
        "flxHeaderSeperator": {
            "__events__": {},
            "__info__": {
                "kuid": "d03e226dde6742f4a211c17ecffeb29b",
                "srcKUID": "d5e902ebe40e41059acd4452ef74ee71",
                "wType": "FlexContainer"
            }
        },
        "flxHeaderUserOptions": {
            "__events__": {},
            "__info__": {
                "kuid": "fe407ca76ecc43a7b405161d189d86d8",
                "srcKUID": "e340add28ee8424ab0f160b52c1c3c49",
                "wType": "FlexContainer"
            }
        },
        "flxMainHeader": {
            "__events__": {},
            "__info__": {
                "kuid": "a8550a129e214b28af97ad254a785123",
                "srcKUID": "b5acbdce2d1f4b79be60f46a616882ae",
                "wType": "FlexContainer"
            }
        },
        "imgLogout": {
            "__events__": {},
            "__info__": {
                "kuid": "gf1b56729d514d0fb357d5b1ea06a5e2",
                "srcKUID": "ff744a337cf24ffa97ecc82ef9964a85",
                "wType": "Image"
            }
        },
        "lblAddNewOption": {
            "__events__": {},
            "__info__": {
                "kuid": "fee98a4c3c2949a78b1d7106445edb7f",
                "srcKUID": "b3a6223eaac240c2aec04f4e88d4c9a7",
                "wType": "Label"
            }
        },
        "lblDownloadList": {
            "__events__": {},
            "__info__": {
                "kuid": "ef16b3a5acbc4e1da568f96671b0864d",
                "srcKUID": "b6599b7f52704e498d2f53cc4ab1f6e7",
                "wType": "Label"
            }
        },
        "lblHeading": {
            "__events__": {},
            "__info__": {
                "kuid": "e4377d21a49247f988a8573fbed1a466",
                "srcKUID": "a773cdbb83be4b82acfb733f2e46eb06",
                "wType": "Label"
            },
            "i18n_text": "i18n.leftmenu.customer_Management",
            "text": "Customer Management  "
        },
        "lblUserName": {
            "__events__": {},
            "__info__": {
                "kuid": "c6d9b36cfd6248039b2b2ce98542e28b",
                "srcKUID": "i605a8166a1941eead62b15cbf43026c",
                "wType": "Label"
            }
        },
        "mainHeader": {
            "__events__": {},
            "__info__": {
                "isRoot": true,
                "kuid": "a298f49905c942669ba628b5cfe36160",
                "srcKUID": "a90b792b68af4d448d2757e88c7e1671",
                "wType": "FlexContainer"
            },
            "left": {
                "Default": {
                    "type": "string",
                    "value": "0"
                }
            },
            "top": {
                "Default": {
                    "type": "string",
                    "value": "0"
                }
            }
        }
    },
    "id": "mainHeader",
    "info": null,
    "isdatareferenced": false,
    "isvisible": true,
    "kuid": "a298f49905c942669ba628b5cfe36160",
    "layouttype": 2,
    "masterType": 0,
    "name": "kony.ui.UserWidgetInstance",
    "parent": "flxMainHeader",
    "pf": "frmCustomerProfileAlerts",
    "snaptogrid": true,
    "sourceUserWidget": "a90b792b68af4d448d2757e88c7e1671",
    "vizprops": {
        "hidewidgethierarchy": false
    },
    "wType": "UserWidgetInstance"
}