{
    "@class": "com.kony.gen.viz.model.component.KVizUserWidget",
    "DNDConfig": null,
    "__parentReadjusting__": false,
    "_children_": [],
    "_desktopweb_": {
        "render": true
    },
    "_height_": {
        "type": "string",
        "value": "100%"
    },
    "_kiosk_": {
        "render": true
    },
    "_left_": {
        "type": "string",
        "value": "0dp"
    },
    "_margin_": [
        0,
        0,
        0,
        0
    ],
    "_orientation_": 1,
    "_padding_": [
        0,
        0,
        0,
        0
    ],
    "_percent_": true,
    "_render_": true,
    "_responsiveData_": {},
    "_skin_": "s002eff99f314a6ca6c1e855a9339351",
    "_top_": "0dp",
    "_vizProps_": {
        "hidewidgethierarchy": false
    },
    "_width_": {
        "type": "string",
        "value": "100%"
    },
    "areflexpropsreferenced": false,
    "autogrowmode": 0,
    "canUpdateUI": true,
    "clipbounds": true,
    "containerweight": 0,
    "dataDiffs": {
        "Notes": {
            "__events__": {},
            "__info__": {
                "isRoot": true,
                "kuid": "b74152c533c04965b6f8f1ad82db36ea",
                "srcKUID": "655ab9f93d964f79a2d91e49a9b0d260",
                "wType": "FlexContainer"
            }
        },
        "addBtn": {
            "__events__": {},
            "__info__": {
                "kuid": "fd3475f1a0264234b20b168d70bee92c",
                "srcKUID": "bb297ee6d8f14666b71d4bbfff875bb7",
                "wType": "Button"
            }
        },
        "flxCloseNotes": {
            "__events__": {},
            "__info__": {
                "kuid": "f40533fe5aa84841adfcfe98e17fb3ad",
                "srcKUID": "d5241977a1f3449c8457c8be17a21996",
                "wType": "FlexContainer"
            }
        },
        "flxNotes": {
            "__events__": {},
            "__info__": {
                "kuid": "f2cb6ecbd576441ba87d593e570615d0",
                "srcKUID": "f517bd93838e41fab40b4dd0b3bd4215",
                "wType": "FlexContainer"
            },
            "top": {
                "Default": {
                    "type": "string",
                    "value": ""
                }
            }
        },
        "flxNotesHeader": {
            "__events__": {},
            "__info__": {
                "kuid": "fff1305180174f2a9a3fa93a83e1d535",
                "srcKUID": "a0710e2d63b84ad58f36fbc6cab8851b",
                "wType": "FlexContainer"
            }
        },
        "flxNotesSegment": {
            "__events__": {},
            "__info__": {
                "kuid": "ded364d79e3546f69c127efdc073d53d",
                "srcKUID": "f75b6813fb46480d98653db1764e2be1",
                "wType": "FlexScrollContainer"
            }
        },
        "imgCloseNotes": {
            "__events__": {},
            "__info__": {
                "kuid": "ffae3ca706a44cc09556796a8b75d919",
                "srcKUID": "dce71c543d524f76bd71fd06ad621298",
                "wType": "Image"
            }
        },
        "lblNotes": {
            "__events__": {},
            "__info__": {
                "kuid": "ffaa9fa712a4484f89d4a78914cdbccc",
                "srcKUID": "g6698350090a44249e44975428fe2631",
                "wType": "Label"
            }
        },
        "lblNotesSize": {
            "__events__": {},
            "__info__": {
                "kuid": "e569e5e49d654c42a62e13b9d0b4728a",
                "srcKUID": "j86e28804b0d4dfa9b3d3e982ab1f626",
                "wType": "Label"
            }
        },
        "rtxMsgNotes": {
            "__events__": {},
            "__info__": {
                "kuid": "b3f365c575a74fbd91507448eade955f",
                "srcKUID": "d0899cfa28d44e4e9a826999fbd05107",
                "wType": "RichText"
            }
        },
        "segNotes": {
            "__events__": {},
            "__info__": {
                "kuid": "e2e45c9ac0c248bda30f58c310a6ad25",
                "srcKUID": "d31089bbee204a1db1ff801c87989086",
                "wType": "Segment"
            }
        },
        "txtAreaNotes": {
            "__events__": {},
            "__info__": {
                "kuid": "a44b5fec937d47b594573ec123ae6c08",
                "srcKUID": "e94c92e3de2043f5a907e8edd7941a33",
                "wType": "TextArea"
            }
        }
    },
    "id": "Notes",
    "info": null,
    "isdatareferenced": false,
    "isvisible": true,
    "kuid": "b74152c533c04965b6f8f1ad82db36ea",
    "layouttype": 2,
    "masterType": 0,
    "name": "kony.ui.UserWidgetInstance",
    "parent": "flxNote",
    "pf": "frmCustomerProfileAlerts",
    "snaptogrid": true,
    "sourceUserWidget": "655ab9f93d964f79a2d91e49a9b0d260",
    "vizprops": {
        "hidewidgethierarchy": false
    },
    "wType": "UserWidgetInstance"
}