{
    "@class": "com.kony.gen.viz.model.component.KVizButton",
    "DNDConfig": null,
    "__parentReadjusting__": false,
    "_height_": {
        "type": "string",
        "value": "40dp"
    },
    "_margin_": [
        6,
        6,
        6,
        6
    ],
    "_padding_": [
        0,
        0,
        0,
        0
    ],
    "_right_": {
        "type": "string",
        "value": "0px"
    },
    "_skin_": "s68f239b5bef4ddda93b35d84ab737ae",
    "_text_": "SAVE",
    "_top_": {
        "type": "string",
        "value": "0%"
    },
    "_width_": {
        "type": "string",
        "value": "100px"
    },
    "canUpdateUI": true,
    "centery": {
        "type": "string",
        "value": "50%"
    },
    "containerweight": 100,
    "contentalignment": 5,
    "desktopweb": {
        "psp": {
            "hoverSkin": "sa0a214e6979469ebf190bb69eae8def"
        }
    },
    "displaytext": true,
    "focusskin": "s68f239b5bef4ddda93b35d84ab737ae",
    "id": "btnAddRoleSave",
    "info": null,
    "isvisible": true,
    "kuid": "fbc87c1869db4da3b2cfeaf2f29ee97d",
    "name": "kony.ui.Button",
    "parent": "flxAddRoleRightButtons",
    "pf": "frmPermissions",
    "texti18n": "i18n.permission.SAVE",
    "wType": "Button",
    "zindex": 1
}