{
    "@class": "com.kony.gen.viz.model.component.KVizDateField",
    "DNDConfig": null,
    "Image": "calbtn.png",
    "__parentReadjusting__": false,
    "_data_": null,
    "_date_": [
        null,
        null,
        null
    ],
    "_height_": {
        "type": "string",
        "value": "40dp"
    },
    "_margin_": [
        0,
        0,
        0,
        0
    ],
    "_padding_": [
        0,
        0,
        0,
        0
    ],
    "_right_": {
        "type": "number",
        "value": "1"
    },
    "_skin_": "s43a5635e45943b092bf47df04eb889e",
    "_top_": {
        "type": "string",
        "value": "30dp"
    },
    "_width_": {
        "type": "string",
        "value": "48%"
    },
    "advview": "default",
    "calendaricon": "calbtn.png",
    "canUpdateUI": true,
    "containerweight": 100,
    "contentalignment": 5,
    "datecomponents": null,
    "dateeditable": true,
    "dateformat": "MM/dd/yyyy",
    "day": null,
    "daytextalignmentincell": 5,
    "entereddate": null,
    "format": "MM/dd/yyyy",
    "formatteddate": null,
    "hidedaysheader": false,
    "hidemonthsheader": false,
    "hour": null,
    "id": "calValidEndDate",
    "info": null,
    "isvisible": true,
    "kuid": "e1f6897fb09840f7b1ef3fafd78d4307",
    "minutes": null,
    "month": null,
    "name": "kony.ui.Calendar",
    "noofmonths": 1,
    "pagedate": "/2017",
    "parent": "flxValidity",
    "pf": "frmPermissions",
    "seconds": null,
    "selectdate": "//2017",
    "viewtype": "default",
    "wType": "Calendar",
    "widgetalignment": 5,
    "year": null,
    "zindex": 1
}