{
    "DNDConfig": null,
    "__parentReadjusting__": false,
    "_bottom_": {
        "type": "number",
        "value": "80"
    },
    "_left_": {
        "type": "string",
        "value": "0px"
    },
    "_margin_": [
        0,
        0,
        0,
        0
    ],
    "_orientation_": 6,
    "_padding_": [
        0,
        0,
        0,
        0
    ],
    "_percent_": true,
    "_skin_": "sd2b77774cf144bbaecaca6f57ba927e",
    "_top_": {
        "type": "string",
        "value": "0px"
    },
    "_width_": {
        "type": "string",
        "value": "59.39%"
    },
    "allboxes": [],
    "autogrowmode": 0,
    "canUpdateUI": true,
    "children": [
        "lblAvailableOptionsHeading",
        "flxSearch",
        "flxAddOptionsSegment",
        "btnSelectAll"
    ],
    "clipbounds": true,
    "containerweight": 100,
    "enablescrolling": true,
    "id": "flxAvailableOptionsSection",
    "info": null,
    "isvisible": true,
    "kuid": "e22f8f3f7b4d4c018f4dcc72a1cd8a9a",
    "layouttype": 2,
    "name": "kony.ui.FlexContainer",
    "parent": "flxAddOptionsContainer",
    "pf": "frmPermissions",
    "snapgridsize": 10,
    "snaptogrid": true,
    "wType": "FlexContainer",
    "widgetalignment": 1,
    "zindex": 1
}