{
    "DNDConfig": null,
    "__parentReadjusting__": false,
    "_height_": {
        "type": "string",
        "value": "35dp"
    },
    "_left_": {
        "type": "string",
        "value": "15dp"
    },
    "_margin_": [
        0,
        0,
        0,
        0
    ],
    "_orientation_": 6,
    "_padding_": [
        0,
        0,
        0,
        0
    ],
    "_percent_": true,
    "_skin_": "s288bf3afe1c4d20847f51e0e5344c3b",
    "_width_": {
        "type": "string",
        "value": "35px"
    },
    "allboxes": [],
    "autogrowmode": 0,
    "canUpdateUI": true,
    "centery": {
        "type": "string",
        "value": "50%"
    },
    "children": [
        "fontIconPrevious"
    ],
    "clipbounds": true,
    "containerweight": 100,
    "desktopweb": {
        "psp": {}
    },
    "disabledSkins": {
        "hoverSkin": "s54b03ed0af548f4b10ba6e76cf19723"
    },
    "enablescrolling": true,
    "id": "flxPrevious",
    "ide_onClick": "AS_FlexContainer_f0a418b4f60c4b3aa94ca15c2d5cbcb7",
    "info": null,
    "isvisible": true,
    "kuid": "c9861ca9701a4399820f8a1ab882f982",
    "layouttype": 2,
    "name": "kony.ui.FlexContainer",
    "parent": "flxPagination",
    "pf": "frmPermissions",
    "snapgridsize": 10,
    "snaptogrid": true,
    "wType": "FlexContainer",
    "widgetalignment": 1,
    "zindex": 1
}