{
    "DNDConfig": null,
    "__parentReadjusting__": false,
    "_height_": {
        "type": "ref",
        "value": "preferred"
    },
    "_left_": {
        "type": "string",
        "value": "30dp"
    },
    "_margin_": [
        0,
        0,
        0,
        0
    ],
    "_orientation_": 6,
    "_padding_": [
        0,
        0,
        0,
        0
    ],
    "_percent_": true,
    "_right_": {
        "type": "string",
        "value": "30dp"
    },
    "_skin_": "s8ff24328417401b877c3ceb2a5fa27c",
    "_top_": {
        "type": "string",
        "value": "100dp"
    },
    "allboxes": [],
    "autogrowmode": 1,
    "canUpdateUI": true,
    "children": [
        "lblPermissiondescription",
        "lblPermissiondescriptionSize",
        "txtPermissionDescription",
        "lblOptional",
        "flxNoPermissionDescriptionError"
    ],
    "clipbounds": true,
    "containerweight": 100,
    "enablescrolling": true,
    "id": "flxPermissionDescription",
    "info": null,
    "isvisible": true,
    "kuid": "ib4cd8cb98664d38ae6fdf3e7bad910e",
    "layouttype": 2,
    "name": "kony.ui.FlexContainer",
    "parent": "flxScrollAddPermissionDetails",
    "pf": "frmPermissions",
    "snapgridsize": 10,
    "snaptogrid": true,
    "wType": "FlexContainer",
    "widgetalignment": 1,
    "zindex": 1
}