{
    "DNDConfig": null,
    "__parentReadjusting__": false,
    "_height_": {
        "type": "string",
        "value": "60px"
    },
    "_left_": {
        "type": "string",
        "value": "0"
    },
    "_margin_": [
        0,
        0,
        0,
        0
    ],
    "_orientation_": 6,
    "_padding_": [
        0,
        0,
        0,
        0
    ],
    "_percent_": true,
    "_skin_": "s094cf034ba74d778fe9c91095115ace",
    "_top_": {
        "type": "string",
        "value": "0"
    },
    "_width_": {
        "type": "string",
        "value": "100%"
    },
    "allboxes": [],
    "autogrowmode": 0,
    "canUpdateUI": true,
    "children": [
        "flxViewUsersFullName",
        "flxViewUsersUsername",
        "flxViewUsersEmailId",
        "flxViewUsersUpdatedBy",
        "flxViewUsersUpdatedOn",
        "flxViewUsersSeperator"
    ],
    "clipbounds": true,
    "containerweight": 100,
    "enablescrolling": true,
    "id": "flxUsersHeader",
    "info": null,
    "isTemplate": true,
    "isvisible": false,
    "kuid": "ebb619a3d2de4661b5a7828a0f14332e",
    "layouttype": 2,
    "name": "kony.ui.FlexContainer",
    "parent": "flxViewSegmentAndHeaders",
    "pf": "frmPermissions",
    "snapgridsize": 10,
    "snaptogrid": true,
    "wType": "FlexContainer",
    "widgetalignment": 1
}