{
    "@class": "com.kony.gen.viz.model.component.KVizLabel",
    "DNDConfig": null,
    "__parentReadjusting__": false,
    "_height_": {
        "type": "ref",
        "value": "preferred"
    },
    "_left_": {
        "type": "string",
        "value": "30px"
    },
    "_margin_": [
        1,
        1,
        1,
        1
    ],
    "_padding_": [
        0,
        0,
        0,
        0
    ],
    "_skin_": "saa6f90a75dd422dba65018787af52ec",
    "_text_": "Optional",
    "_top_": {
        "type": "string",
        "value": "50px"
    },
    "_width_": {
        "type": "string",
        "value": "93px"
    },
    "_wrapping_": 2,
    "android": {
        "textStyle": {
            "letterSpacing": 0,
            "strikeThrough": false
        }
    },
    "canUpdateUI": true,
    "containerweight": 100,
    "contentalignment": 4,
    "id": "lblAddOptional2",
    "info": null,
    "ipad": {
        "psp": {
            "wrapping": 2
        }
    },
    "iphone": {
        "psp": {
            "wrapping": 2
        }
    },
    "isvisible": true,
    "kuid": "gd8774f10487447eb74630837962c29f",
    "name": "kony.ui.Label",
    "parent": "flxAddUsers",
    "pf": "frmPermissions",
    "texti18n": "i18n.permission.Optional",
    "tooltip": "",
    "wType": "Label",
    "zindex": 1
}