{
    "@class": "com.kony.gen.viz.model.component.KVizLabel",
    "DNDConfig": null,
    "__parentReadjusting__": false,
    "_height_": {
        "type": "ref",
        "value": "preferred"
    },
    "_left_": {
        "type": "string",
        "value": "0dp"
    },
    "_margin_": [
        1,
        1,
        1,
        1
    ],
    "_padding_": [
        0,
        0,
        0,
        0
    ],
    "_skin_": "sca778fe748b45b4a8d11d2456fbd5fa",
    "_text_": "DESCRIPTION",
    "_width_": {
        "type": "string",
        "value": "90px"
    },
    "_wrapping_": 2,
    "android": {
        "textStyle": {
            "letterSpacing": 0,
            "strikeThrough": false
        }
    },
    "canUpdateUI": true,
    "centery": {
        "type": "string",
        "value": "50%"
    },
    "containerweight": 100,
    "contentalignment": 4,
    "id": "lblHeaderDesc",
    "info": null,
    "ipad": {
        "psp": {
            "wrapping": 2
        }
    },
    "iphone": {
        "psp": {
            "wrapping": 2
        }
    },
    "iscustomlayout": false,
    "isvisible": true,
    "kuid": "h945a74d253f4ffba529d02d20cbfcf3",
    "name": "kony.ui.Label",
    "parent": "flxPermDesc",
    "pf": "frmPermissions",
    "retaincontentalignment": false,
    "retainflexpositionproperties": false,
    "texti18n": "i18n.permission.DESCRIPTION",
    "tooltip": "",
    "wType": "Label",
    "zindex": 1
}