{
    "@class": "com.kony.gen.viz.model.component.KVizUserWidget",
    "DNDConfig": null,
    "__parentReadjusting__": false,
    "_android_": {},
    "_androidwearos_": {},
    "_children_": [],
    "_desktopweb_": {},
    "_height_": {
        "type": "ref",
        "value": "preferred"
    },
    "_ipad_": {},
    "_iphone_": {},
    "_kiosk_": {},
    "_left_": {
        "type": "string",
        "value": "0dp"
    },
    "_margin_": [
        0,
        0,
        0,
        0
    ],
    "_orientation_": 1,
    "_padding_": [
        0,
        0,
        0,
        0
    ],
    "_percent_": true,
    "_responsiveData_": {},
    "_skin_": "s8ff24328417401b877c3ceb2a5fa27c",
    "_spa_": {},
    "_spaan_": {},
    "_spaandroidtablet_": {},
    "_spabb_": {},
    "_spaip_": {},
    "_spaipad_": {},
    "_spamobile_": {},
    "_spatablet_": {},
    "_spawindowstablet_": {},
    "_spawinphone8_": {},
    "_tabrcandroid_": {},
    "_top_": {
        "type": "string",
        "value": "10dp"
    },
    "_vizProps_": {
        "hidewidgethierarchy": false
    },
    "_width_": {
        "type": "string",
        "value": "100%"
    },
    "_windows10_": {},
    "_windows8_": {},
    "_winphone10_": {},
    "_winphone8_": {},
    "areflexpropsreferenced": false,
    "autogrowmode": 1,
    "canUpdateUI": true,
    "clipbounds": true,
    "containerweight": 0,
    "dataDiffs": {
        "creditLimitErrorMsg": {
            "__events__": {},
            "__info__": {
                "kuid": "d32114710bf349d7af49503ae5fe9b41",
                "srcKUID": "d2095be6f41e473787be33130a6d9686",
                "wType": "UserWidgetInstance"
            }
        },
        "creditLimitErrorMsg.lblErrorIcon": {
            "__events__": {},
            "__info__": {
                "kuid": "bca657ff414348ef886a1bdda5361376",
                "srcKUID": "cb5fc8b5d4b3413484a26a8de828e396",
                "wType": "Label"
            }
        },
        "creditLimitErrorMsg.lblErrorText": {
            "__events__": {},
            "__info__": {
                "kuid": "b03424917337408dacef16761c0d37e6",
                "srcKUID": "f1e492db02b940e9a61d9f2326908938",
                "wType": "Label"
            }
        },
        "editLoaninformation": {
            "__events__": {},
            "__info__": {
                "isRoot": true,
                "kuid": "d437159df1464f5da5455b0f3438cf10",
                "srcKUID": "fd53c74c3cdb4370b786dc42a07ba1a4",
                "wType": "FlexContainer"
            }
        },
        "flxAmount": {
            "__events__": {},
            "__info__": {
                "kuid": "h3ad294312394a1dbf34e21b2248e1bc",
                "srcKUID": "jb61fea7fbdc42e384176fc921de25b3",
                "wType": "FlexContainer"
            }
        },
        "flxAmountRight": {
            "__events__": {},
            "__info__": {
                "kuid": "d79fe663fc6540d9be27d1d7d70eeb15",
                "srcKUID": "b57da0aee7b740f18797305675afb27d",
                "wType": "FlexContainer"
            }
        },
        "flxAmountRightVL": {
            "__events__": {},
            "__info__": {
                "kuid": "e1b6f0f8ff7b46b48405f574053933ca",
                "srcKUID": "fd38717e3a6f41f9afbf3f437c08c68d",
                "wType": "FlexContainer"
            }
        },
        "flxAmountVL": {
            "__events__": {},
            "__info__": {
                "kuid": "jf57a935e70a41e289391a074c078418",
                "srcKUID": "eee8b7e15e07485caf368980233c1a6c",
                "wType": "FlexContainer"
            }
        },
        "flxApplicationType": {
            "__events__": {},
            "__info__": {
                "kuid": "f7564201d2694f03863538a12011e95f",
                "srcKUID": "a82e749c78a049659852db197e289a82",
                "wType": "FlexContainer"
            }
        },
        "flxApplicationTypeSelection": {
            "__events__": {},
            "__info__": {
                "kuid": "f5394ccdb99f455d9040d561a42d5df1",
                "srcKUID": "d4229b29632348339c647e50e8c4fa15",
                "wType": "FlexContainer"
            }
        },
        "flxApplicationTypeSelectionVL": {
            "__events__": {},
            "__info__": {
                "kuid": "ce1b16969aef48bd9b5f1b03c1f63261",
                "srcKUID": "g5439b0c3963464099826c88d33c0c4c",
                "wType": "FlexContainer"
            }
        },
        "flxApplicationTypeVL": {
            "__events__": {},
            "__info__": {
                "kuid": "be1274a5961d43c98718bb812606ba2a",
                "srcKUID": "a42a1b40cac948028d69508590323d17",
                "wType": "FlexContainer"
            }
        },
        "flxCardType": {
            "__events__": {},
            "__info__": {
                "kuid": "b83111c816564009ad3c0ba7d5fe38e4",
                "srcKUID": "c7ccd6cd7b50416a9f26605a40f93dff",
                "wType": "FlexContainer"
            }
        },
        "flxCreditCardInfo": {
            "__events__": {},
            "__info__": {
                "kuid": "f6bb8b1614144678b953414ad207a42d",
                "srcKUID": "c85cd2478845402a9b5d28207f53f3e5",
                "wType": "FlexContainer"
            }
        },
        "flxCreditLimit": {
            "__events__": {},
            "__info__": {
                "kuid": "fe10ff9e9e684eab87f9dd72a87072fc",
                "srcKUID": "d479a3a5407d41efbf0046983f8ec48c",
                "wType": "FlexContainer"
            }
        },
        "flxCreditLimitRight": {
            "__events__": {},
            "__info__": {
                "kuid": "d73983d58ebb4a748a484e68e0b25d18",
                "srcKUID": "d6d9935bffe14f3f9f91eb92df1997ec",
                "wType": "FlexContainer"
            }
        },
        "flxCreditLimitValue": {
            "__events__": {},
            "__info__": {
                "kuid": "b085cc569d8c4ab98c592f683896d6c2",
                "srcKUID": "i3a4e6b6788249b282c1e67db42c91e9",
                "wType": "FlexContainer"
            }
        },
        "flxIndividual": {
            "__events__": {},
            "__info__": {
                "kuid": "d46b66d9f7ef4ac1a23bd9e6f740f6a5",
                "srcKUID": "a7ea5c26ea2443ac8acb3c6eafbfd4b9",
                "wType": "FlexContainer"
            }
        },
        "flxIndividualVL": {
            "__events__": {},
            "__info__": {
                "kuid": "ce597ef54122469493ed341b19abbf5a",
                "srcKUID": "a4207bfd9a174450973f6b806e8dbb6d",
                "wType": "FlexContainer"
            }
        },
        "flxIndividualWithCoApplicant": {
            "__events__": {},
            "__info__": {
                "kuid": "h9c77bd5c94d4c7691591fd76b6d1a58",
                "srcKUID": "de43f0323fe44fd68016700f403bb1b0",
                "wType": "FlexContainer"
            }
        },
        "flxIndividualWithCoApplicantVL": {
            "__events__": {},
            "__info__": {
                "kuid": "j657fb0a005b4b0f9d3408fa2e218298",
                "srcKUID": "ha231882c0dc4cb4b95b1effd010344a",
                "wType": "FlexContainer"
            }
        },
        "flxJointWithCoApplicant": {
            "__events__": {},
            "__info__": {
                "kuid": "f481a5c949f04c2fb729191cfc20d14a",
                "srcKUID": "c40cd1f1cdf545b586b8799b6482331d",
                "wType": "FlexContainer"
            }
        },
        "flxJointWithCoApplicantVL": {
            "__events__": {},
            "__info__": {
                "kuid": "jf764eaa1aab42ba82f7551491c70392",
                "srcKUID": "j5304c99df9a4115b388bfe5888344b5",
                "wType": "FlexContainer"
            }
        },
        "flxLoanAmount": {
            "__events__": {},
            "__info__": {
                "kuid": "d43a79e764244988b5e6efbbcf8007b8",
                "srcKUID": "bead3ea98feb45089d2c2ec2de83d214",
                "wType": "FlexContainer"
            }
        },
        "flxLoanAmountVL": {
            "__events__": {},
            "__info__": {
                "kuid": "j51e21a824ae4b608b0ec58ff223ee84",
                "srcKUID": "ef7625148d93495b9c738ec73f33f7a8",
                "wType": "FlexContainer"
            }
        },
        "flxLoanTerm": {
            "__events__": {},
            "__info__": {
                "kuid": "g83c19a645e84db49088545abf282a4e",
                "srcKUID": "b731f79136894f80948d20922c5ffa25",
                "wType": "FlexContainer"
            }
        },
        "flxLoanTermRight": {
            "__events__": {},
            "__info__": {
                "kuid": "db25718ce487421c82e0bb5cf8db2dbd",
                "srcKUID": "a9c7be4390a343be82b54c8dcea0004d",
                "wType": "FlexContainer"
            }
        },
        "flxLoanTermRightVL": {
            "__events__": {},
            "__info__": {
                "kuid": "e5f1b1095ee645e788a87b0686b9d2e3",
                "srcKUID": "d43b22ba07a64849aa3956bb94477f66",
                "wType": "FlexContainer"
            }
        },
        "flxLoanTermVL": {
            "__events__": {},
            "__info__": {
                "kuid": "f1e65dd22115405baaf9f269f8ff78c1",
                "srcKUID": "h86dfb587eaa4d6cbc4806eb44069d0f",
                "wType": "FlexContainer"
            }
        },
        "flxLoanTermValue": {
            "__events__": {},
            "__info__": {
                "kuid": "j371a69b9a53473eb1e9d065a3e989ce",
                "srcKUID": "d4ba26bd2c3848a9be2cdc852868bdf5",
                "wType": "FlexContainer"
            }
        },
        "flxLoanTermValueVL": {
            "__events__": {},
            "__info__": {
                "kuid": "h46bb07ba04e46ff83dc9549b491c704",
                "srcKUID": "cfa06d4a0e4442ee9b112f514e322465",
                "wType": "FlexContainer"
            }
        },
        "flxMainDetails": {
            "__events__": {},
            "__info__": {
                "kuid": "da19426cf5a34101a79d70e6cb521af2",
                "srcKUID": "gade28796ca14cdeb5fe5c8c83132dfb",
                "wType": "FlexContainer"
            }
        },
        "flxMake": {
            "__events__": {},
            "__info__": {
                "kuid": "dd6ba0286b9b4bffbedd613985dcb71b",
                "srcKUID": "h938ba7ca9b545e49e6b415a18bc2f0f",
                "wType": "FlexContainer"
            }
        },
        "flxModel": {
            "__events__": {},
            "__info__": {
                "kuid": "ed686f58764e429c8e2f3bf9020bdb0c",
                "srcKUID": "af30a04267a04882aec19cda5bc9df71",
                "wType": "FlexContainer"
            }
        },
        "flxNoVehicle": {
            "__events__": {},
            "__info__": {
                "kuid": "f9ea6a4070c1487cb012974e223fa623",
                "srcKUID": "d8b70b2493ae470a8f6e68a6424bf43d",
                "wType": "FlexContainer"
            }
        },
        "flxOptions": {
            "__events__": {},
            "__info__": {
                "kuid": "f4377da08c0e4152b4d4226ae3cde7c5",
                "srcKUID": "g5633fa19e2f402a96e5377c3bf91101",
                "wType": "FlexContainer"
            }
        },
        "flxPersonalLoanInfo": {
            "__events__": {},
            "__info__": {
                "kuid": "e2ac9058f76d4e41ab525fbea714b3f2",
                "srcKUID": "g7dce7784f7d4e559a06dd50726378b7",
                "wType": "FlexContainer"
            }
        },
        "flxPurchaseValue": {
            "__events__": {},
            "__info__": {
                "kuid": "b3ecfaa938b64d55ab43219abfcefdbd",
                "srcKUID": "c2453dfa7f6f4a21921e08f3115b2a11",
                "wType": "FlexContainer"
            }
        },
        "flxPurchaseValueText": {
            "__events__": {},
            "__info__": {
                "kuid": "e2235dcdde794b76b3cd121b291be123",
                "srcKUID": "c3842d85df794d87accf7c06a442c610",
                "wType": "FlexContainer"
            }
        },
        "flxPurposeCollateral": {
            "__events__": {},
            "__info__": {
                "kuid": "e31f1b1a294545bc983bb8297c4aea6f",
                "srcKUID": "bfa4b205726b4994aa71409639ffe208",
                "wType": "FlexContainer"
            }
        },
        "flxPurposeCollateralVL": {
            "__events__": {},
            "__info__": {
                "kuid": "b9e13e21813a40b89704652f91cd5513",
                "srcKUID": "ib20b1a628154b06a8bd7f4c8b4435f0",
                "wType": "FlexContainer"
            }
        },
        "flxRadioButton1": {
            "__events__": {},
            "__info__": {
                "kuid": "c32b481d23f846f483e7d90015120a07",
                "srcKUID": "bcd1b6a3f6ac4c08b15d01ff65c8a8e8",
                "wType": "FlexContainer"
            }
        },
        "flxRadioButton2": {
            "__events__": {},
            "__info__": {
                "kuid": "g5b383a5c7f84b53b0aeb4c3883ffa37",
                "srcKUID": "c0fb9d0538da41189b75b53aebbfbe1c",
                "wType": "FlexContainer"
            }
        },
        "flxRow1": {
            "__events__": {},
            "__info__": {
                "kuid": "feba544610df4624850d9d65f89a9ee0",
                "srcKUID": "a2227c98973a425ca77720fb4c7b7409",
                "wType": "FlexContainer"
            }
        },
        "flxRow2": {
            "__events__": {},
            "__info__": {
                "kuid": "i496db0866dd45e185169b1e913b349b",
                "srcKUID": "bf443796a24940c09dcf7f4b7db727c3",
                "wType": "FlexContainer"
            }
        },
        "flxTrim": {
            "__events__": {},
            "__info__": {
                "kuid": "b48924a139b44b719f0f56977b180bd1",
                "srcKUID": "g4458ba1c84c4a21826eb25f423def05",
                "wType": "FlexContainer"
            }
        },
        "flxVehicleIdentificationNumber": {
            "__events__": {},
            "__info__": {
                "kuid": "j72a261721c242d39e74106ebf6610c2",
                "srcKUID": "jc97d06e76934357b580abee502d57ed",
                "wType": "FlexContainer"
            }
        },
        "flxVehicleLoanInfo": {
            "__events__": {},
            "__info__": {
                "kuid": "be75ef083ee24a6388447cd25e073fab",
                "srcKUID": "j887b18e583048d08bdd63b4e25609ec",
                "wType": "FlexContainer"
            }
        },
        "flxVehicleType": {
            "__events__": {},
            "__info__": {
                "kuid": "j1b06b80a0d54b9bb941269f001448f6",
                "srcKUID": "a2847de4277f4ac9a823c6a63c675d9b",
                "wType": "FlexContainer"
            }
        },
        "flxYear": {
            "__events__": {},
            "__info__": {
                "kuid": "f4267adc080b4818a67973938d7d4001",
                "srcKUID": "ec618e0fae0647cebc12fd195687f1e9",
                "wType": "FlexContainer"
            }
        },
        "imgNoVehicle": {
            "__events__": {},
            "__info__": {
                "kuid": "bf6984190c334482b5b2fe50d1f49c19",
                "srcKUID": "a04da6a1a9374da690c99af7e8a736ed",
                "wType": "Image"
            }
        },
        "imgRadioButton1": {
            "__events__": {},
            "__info__": {
                "kuid": "jde2657f7daa409aa379754665480316",
                "srcKUID": "d1afce4152314806958abdf6302ce0fa",
                "wType": "Image"
            }
        },
        "imgRadioButton2": {
            "__events__": {},
            "__info__": {
                "kuid": "bb1d0d02bb964e3d85ea1eb340fb2573",
                "srcKUID": "e825260ffcd84c3c8701c66f30ece771",
                "wType": "Image"
            }
        },
        "lblAmountRequested": {
            "__events__": {},
            "__info__": {
                "kuid": "f9d37f261a5d403d86c3cf7662afed55",
                "srcKUID": "gde2cb1d5b894b51bab5ea5b5ab137bb",
                "wType": "Label"
            }
        },
        "lblAmountRequestedVL": {
            "__events__": {},
            "__info__": {
                "kuid": "dd98fae84fb04caf85929ac8f0ef35de",
                "srcKUID": "e41308ecd33c4556bcc060fe6bc4e9af",
                "wType": "Label"
            }
        },
        "lblApplicationType": {
            "__events__": {},
            "__info__": {
                "kuid": "e268bfe54803453fa2f85dc6a18681f4",
                "srcKUID": "d0fcadca661044959f1825b1e7b32ac2",
                "wType": "Label"
            }
        },
        "lblApplicationTypeVL": {
            "__events__": {},
            "__info__": {
                "kuid": "c4c8b808593e453b837134fde41af21a",
                "srcKUID": "g9b8b23549bb44658d06b275b5b2733f",
                "wType": "Label"
            }
        },
        "lblApplicationTypeValue": {
            "__events__": {},
            "__info__": {
                "kuid": "a5d30870b6c54722b5e6cdac31919e6d",
                "srcKUID": "c0455058ba744ec1b05a197d1ad1d080",
                "wType": "Label"
            }
        },
        "lblApplicationTypeValueVL": {
            "__events__": {},
            "__info__": {
                "kuid": "e1e59288348c40b7ad65280999d1ff1c",
                "srcKUID": "e3161d540e374d0ea9b3ca3fef38b4e8",
                "wType": "Label"
            }
        },
        "lblCardType": {
            "__events__": {},
            "__info__": {
                "kuid": "c464183615fe4fe7879ef524dc32c004",
                "srcKUID": "i9d0b3e022ac4e3883d22e633a76737d",
                "wType": "Label"
            }
        },
        "lblCardTypeValue": {
            "__events__": {},
            "__info__": {
                "kuid": "dd03dcf2bbe448468974b70ff65c70ac",
                "srcKUID": "d593347fba2a4103bf80269e3936f9a6",
                "wType": "Label"
            }
        },
        "lblCreditLimit": {
            "__events__": {},
            "__info__": {
                "kuid": "cec02eefdadd42848107eed4ac27ce5b",
                "srcKUID": "g9a34daf9d904fe49709db2150b7fd66",
                "wType": "Label"
            }
        },
        "lblCreditLimitCurrency": {
            "__events__": {},
            "__info__": {
                "kuid": "e28c6ce32df844158cb7e6dac9635688",
                "srcKUID": "j3a64b827bc14e6dacfece807db24249",
                "wType": "Label"
            }
        },
        "lblCreditLimitRange": {
            "__events__": {},
            "__info__": {
                "kuid": "c60ba5fe2fc8411db8384d05267bc3e0",
                "srcKUID": "cdacc454364d43ca94de85f631748340",
                "wType": "Label"
            }
        },
        "lblCurrency": {
            "__events__": {},
            "__info__": {
                "kuid": "f21a50abf041478b8eb0e7ef4b65b8ee",
                "srcKUID": "eaa4595005b64aca89085d832367c771",
                "wType": "Label"
            }
        },
        "lblCurrencyVL": {
            "__events__": {},
            "__info__": {
                "kuid": "f44fefb44f5843039a001b7ec7a1960a",
                "srcKUID": "fd2cd90f4acb44a59e7f07c9e843b06f",
                "wType": "Label"
            }
        },
        "lblIndividual": {
            "__events__": {},
            "__info__": {
                "kuid": "ee0e854d707b4775af543402660e9e89",
                "srcKUID": "d581237157dd457da0fe30c57eab6de3",
                "wType": "Label"
            }
        },
        "lblIndividualText": {
            "__events__": {},
            "__info__": {
                "kuid": "i61dd6155270481f950da28019c6619a",
                "srcKUID": "a57ed4b599c34bf3af61c4af6d90c1f1",
                "wType": "Label"
            }
        },
        "lblIndividualTextVL": {
            "__events__": {},
            "__info__": {
                "kuid": "cc0137394b2840028bad240d6160beba",
                "srcKUID": "j877b5c928fc41cdaf9125a89a9e006a",
                "wType": "Label"
            }
        },
        "lblIndividualVL": {
            "__events__": {},
            "__info__": {
                "kuid": "f8cb167a163f4a7fad55c2a8b7f215e1",
                "srcKUID": "e0356629d0a54bda84cc99137826178d",
                "wType": "Label"
            }
        },
        "lblIndividualWithCoApplicant": {
            "__events__": {},
            "__info__": {
                "kuid": "dd7355d515914233a67252c8e1795be6",
                "srcKUID": "gce7edf40b04422ea9ebf0f72697805b",
                "wType": "Label"
            }
        },
        "lblIndividualWithCoApplicantText": {
            "__events__": {},
            "__info__": {
                "kuid": "ff9e93ca7629421ba1bcf33f44fd9778",
                "srcKUID": "i34883eb74dd440989bc080c29e29eb4",
                "wType": "Label"
            }
        },
        "lblIndividualWithCoApplicantTextVL": {
            "__events__": {},
            "__info__": {
                "kuid": "dd9c70f1e6f4445b9ca8d540f520a5cf",
                "srcKUID": "dcb9c652ba89424191eb91188bd68d3b",
                "wType": "Label"
            }
        },
        "lblIndividualWithCoApplicantVL": {
            "__events__": {},
            "__info__": {
                "kuid": "ae723170379f478ab568c6a132935589",
                "srcKUID": "ef247fe14aac448da1187fe4a9c557ff",
                "wType": "Label"
            }
        },
        "lblJointWithCoApplicant": {
            "__events__": {},
            "__info__": {
                "kuid": "a56e107bab2146ab8f7600dc7387071b",
                "srcKUID": "i027450038154b2586b14b6656fa71ae",
                "wType": "Label"
            }
        },
        "lblJointWithCoApplicantText": {
            "__events__": {},
            "__info__": {
                "kuid": "fbc60ca54a4a495aba4056ff92bf4998",
                "srcKUID": "i8a47afb1a5840cbadd45194590de814",
                "wType": "Label"
            }
        },
        "lblJointWithCoApplicantTextVL": {
            "__events__": {},
            "__info__": {
                "kuid": "d0d6095b4a7a474eba3ded3d0d1ef105",
                "srcKUID": "a397e6ff26a74252aaded40f30aa0c02",
                "wType": "Label"
            }
        },
        "lblJointWithCoApplicantVL": {
            "__events__": {},
            "__info__": {
                "kuid": "e0af5a87ea324cf9bbf0993a04239f6e",
                "srcKUID": "ife467a4557f46098d07a3a1922700f6",
                "wType": "Label"
            }
        },
        "lblLoanAmountRange": {
            "__events__": {},
            "__info__": {
                "kuid": "g8d72b34e79744b4b1e19ddc72ac3526",
                "srcKUID": "e92c9bda165f43c1aa9ecc6c517189db",
                "wType": "Label"
            }
        },
        "lblLoanAmountRangeVL": {
            "__events__": {},
            "__info__": {
                "kuid": "decda8a2cba9469bad1784d6ec7815fb",
                "srcKUID": "c864802d31544ea6b15fa57b287e8b6f",
                "wType": "Label"
            }
        },
        "lblLoanTerm": {
            "__events__": {},
            "__info__": {
                "kuid": "a1e957cd49ee48dab61b16d7bc2f8e05",
                "srcKUID": "f312710ed3b54e7eb850a853ef31e819",
                "wType": "Label"
            }
        },
        "lblLoanTermAmountText": {
            "__events__": {},
            "__info__": {
                "kuid": "dd121031d6754d76a310e3375a1ce580",
                "srcKUID": "i1fc25ba68db4c1ebd98b5b1a63a1385",
                "wType": "Label"
            }
        },
        "lblLoanTermAmountTextVL": {
            "__events__": {},
            "__info__": {
                "kuid": "f594ddbb604f430ca69561ffe92112f1",
                "srcKUID": "dc1369e199e143aab425f24c0b9fad44",
                "wType": "Label"
            }
        },
        "lblLoanTermRange": {
            "__events__": {},
            "__info__": {
                "kuid": "f3c491ae849f4a7384c97e9edb1515ce",
                "srcKUID": "b41f4e63089a4a93a3ef011aec68fcc4",
                "wType": "Label"
            }
        },
        "lblLoanTermRangeVL": {
            "__events__": {},
            "__info__": {
                "kuid": "f386effb955f46fd8f57dc5ee0d8dd8b",
                "srcKUID": "fac3379e639045e4a1880b58eea90077",
                "wType": "Label"
            }
        },
        "lblLoanTermVL": {
            "__events__": {},
            "__info__": {
                "kuid": "fc1b60526b454e838c6f68778d6e1b01",
                "srcKUID": "c1bbdc9351fc4d17b30a97ec56800605",
                "wType": "Label"
            }
        },
        "lblMake": {
            "__events__": {},
            "__info__": {
                "kuid": "f25d49040eec4a3896d002d42d8193a0",
                "srcKUID": "f379a4c6ff6447d2b87365ff268a2a35",
                "wType": "Label"
            }
        },
        "lblModel": {
            "__events__": {},
            "__info__": {
                "kuid": "h486b37124cf41f8b5f6ada4d06d758a",
                "srcKUID": "fa17eee1548547f5b4d97c8cf8f84cf7",
                "wType": "Label"
            }
        },
        "lblNoVehicle": {
            "__events__": {},
            "__info__": {
                "kuid": "aa3675ea5fee46e789abd5e1b8be476a",
                "srcKUID": "e6eadc5f57704fa698ddedff99c12a62",
                "wType": "Label"
            }
        },
        "lblPurchaseValue": {
            "__events__": {},
            "__info__": {
                "kuid": "hd558b90fe844b7eb5075a6126866f15",
                "srcKUID": "a43c1ef4ab1543de980d35936ad1d518",
                "wType": "Label"
            }
        },
        "lblPurchaseValueCurrency": {
            "__events__": {},
            "__info__": {
                "kuid": "f8bbcdfd34e842ddbb43518b618f1623",
                "srcKUID": "a274df187d31468d88e9fed0761f9b9a",
                "wType": "Label"
            }
        },
        "lblPurposeCollateral": {
            "__events__": {},
            "__info__": {
                "kuid": "j6f8c2edb2e54e6190945a92c701baf0",
                "srcKUID": "cca962204e9c4ea99599fe48b14e2c4a",
                "wType": "Label"
            }
        },
        "lblPurposeCollateralVL": {
            "__events__": {},
            "__info__": {
                "kuid": "b425bc80bff74400bf269bda2b4d2d91",
                "srcKUID": "j8106de9f9dd4b268d385e685271a130",
                "wType": "Label"
            }
        },
        "lblRadioButtonValue1": {
            "__events__": {},
            "__info__": {
                "kuid": "g531048fd74e408eadba7d6e727d3411",
                "srcKUID": "hd58532633ba440ca329d3f6dd37bb0b",
                "wType": "Label"
            }
        },
        "lblRadioButtonValue2": {
            "__events__": {},
            "__info__": {
                "kuid": "i2c819d9a80f4fd78a23f767f94846e3",
                "srcKUID": "b84f84410f9745728e9cd79581394fbd",
                "wType": "Label"
            }
        },
        "lblTrim": {
            "__events__": {},
            "__info__": {
                "kuid": "a8a105f72a3849e4b03e81ab36c09d61",
                "srcKUID": "df70280f86764d9ea95f9739d8ceb2b4",
                "wType": "Label"
            }
        },
        "lblVehicleIdentificationNumber": {
            "__events__": {},
            "__info__": {
                "kuid": "f4a208acb9ae4e16b926139e1e4e236b",
                "srcKUID": "f5088fdcd96b4de19175ac6daf17d279",
                "wType": "Label"
            }
        },
        "lblVehicleType": {
            "__events__": {},
            "__info__": {
                "kuid": "ff358c4e5e9a4395afa0998625811223",
                "srcKUID": "a936e18641df4f8aa13cde5165f7305b",
                "wType": "Label"
            }
        },
        "lblYear": {
            "__events__": {},
            "__info__": {
                "kuid": "j029177019144ee5ad09905dc6cffa92",
                "srcKUID": "cd4314025cc94e01abc6dff71f1a8732",
                "wType": "Label"
            }
        },
        "loanAmountErrorMsg": {
            "__events__": {},
            "__info__": {
                "kuid": "ddb9663c22cb41b883ec206a2f1acd01",
                "srcKUID": "b60488a66aa14fe0949e5ab988822a60",
                "wType": "UserWidgetInstance"
            }
        },
        "loanAmountErrorMsg.lblErrorIcon": {
            "__events__": {},
            "__info__": {
                "kuid": "i45d6dd68ac54a7594a34961337302d5",
                "srcKUID": "i2a1fdb8101d483db596152e4f305c7e",
                "wType": "Label"
            }
        },
        "loanAmountErrorMsg.lblErrorText": {
            "__events__": {},
            "__info__": {
                "kuid": "bc1d731efa044407945d7c8006b00e6b",
                "srcKUID": "c23b3c32d1cc4829b15af362efe15f3a",
                "wType": "Label"
            }
        },
        "loanAmountErrorMsgVL": {
            "__events__": {},
            "__info__": {
                "kuid": "b268c86242ba40aab09289a3e9b7c074",
                "srcKUID": "c5c821f5e9e34556930296a4542e2684",
                "wType": "UserWidgetInstance"
            }
        },
        "loanAmountErrorMsgVL.lblErrorIcon": {
            "__events__": {},
            "__info__": {
                "kuid": "h2811fe4776f48018c7d921d72c75ec6",
                "srcKUID": "bd7eb5afa35e49d896400d4ff89889dc",
                "wType": "Label"
            }
        },
        "loanAmountErrorMsgVL.lblErrorText": {
            "__events__": {},
            "__info__": {
                "kuid": "bdf80fa2fe204c8085f002d26b44a81f",
                "srcKUID": "d9a2e5dd3f424a13a0cfd50b0fc8f38d",
                "wType": "Label"
            }
        },
        "loanTermErrorMsg": {
            "__events__": {},
            "__info__": {
                "kuid": "ha99c78d45d34521b762d6a590e8e586",
                "srcKUID": "d8bbd0ec20f242a4a3cfc926f3dd8939",
                "wType": "UserWidgetInstance"
            }
        },
        "loanTermErrorMsg.lblErrorIcon": {
            "__events__": {},
            "__info__": {
                "kuid": "b28ceabc394e430c8e2d7eecc68fb88a",
                "srcKUID": "h9c4f8c0ef554a398620adb853f3a6ed",
                "wType": "Label"
            }
        },
        "loanTermErrorMsg.lblErrorText": {
            "__events__": {},
            "__info__": {
                "kuid": "i8a001755f064b3b97d79aa49cc0e143",
                "srcKUID": "d8ab8a6d912542559a6ce2c2b9b656c2",
                "wType": "Label"
            }
        },
        "loanTermErrorMsgVL": {
            "__events__": {},
            "__info__": {
                "kuid": "bcf3e9b440b84e878a6f18c8166c60f8",
                "srcKUID": "e58011a22ab345a38d179bf6c9ec49f5",
                "wType": "UserWidgetInstance"
            }
        },
        "loanTermErrorMsgVL.lblErrorIcon": {
            "__events__": {},
            "__info__": {
                "kuid": "ce2ebd47cb1f4a5f88648c9907fd2bef",
                "srcKUID": "cb6922023c4a4ea08b9637cc39cc90ff",
                "wType": "Label"
            }
        },
        "loanTermErrorMsgVL.lblErrorText": {
            "__events__": {},
            "__info__": {
                "kuid": "d901367e7d514de2b862f0065e01421d",
                "srcKUID": "gccb3011b4754cc39d8f1f4a18c0d434",
                "wType": "Label"
            }
        },
        "loansSectionHeader": {
            "__events__": {},
            "__info__": {
                "kuid": "j4b2ebae6a834f20923cd05ef5075211",
                "srcKUID": "b499b42d041645fdb8305d7966d3a639",
                "wType": "UserWidgetInstance"
            }
        },
        "loansSectionHeader.btnEdit": {
            "__events__": {},
            "__info__": {
                "kuid": "h284bfa41c0f410eb9db40ef5cba0f3a",
                "srcKUID": "if73470504a74804a4396368292bac69",
                "wType": "Button"
            }
        },
        "loansSectionHeader.flxSectionHeader": {
            "__events__": {},
            "__info__": {
                "kuid": "j9a0b84ae6da4318902f4cb53035f4d1",
                "srcKUID": "ac99868d9bd542589d2b9de78d5dd0ee",
                "wType": "FlexContainer"
            }
        },
        "loansSectionHeader.lblSectionHeader": {
            "__events__": {},
            "__info__": {
                "kuid": "e719831cabc64656a90a31e316550528",
                "srcKUID": "bd1c4883fd084841a3624e8bcb020b60",
                "wType": "Label"
            }
        },
        "loansSectionHeader.lblSeparator": {
            "__events__": {},
            "__info__": {
                "kuid": "b0556001473b46afa88a7c037509bc9e",
                "srcKUID": "e224559df1b646319317132e1814f446",
                "wType": "Label"
            }
        },
        "lstLoanPurposeValue": {
            "__events__": {},
            "__info__": {
                "kuid": "dbaad884b34c4cc3a101d49f89002c06",
                "srcKUID": "ebd0b5576b2a410c8373ff5604f4d2cf",
                "wType": "ListBox"
            }
        },
        "lstLoanPurposeValueVL": {
            "__events__": {},
            "__info__": {
                "kuid": "h5f4cc2ad9fe4dcf8de1a51feaeac438",
                "srcKUID": "g3de968bc10c491092aa768a7d618e46",
                "wType": "ListBox"
            }
        },
        "lstMake": {
            "__events__": {},
            "__info__": {
                "kuid": "i16a0fb7623642af8b8508444e7e27d9",
                "srcKUID": "b49800ae790843c0ba642c7358df24de",
                "wType": "ListBox"
            }
        },
        "lstModel": {
            "__events__": {},
            "__info__": {
                "kuid": "ge1fe7316e2f40469fa0d4981b30b6fb",
                "srcKUID": "e851662e6cac4ebda914fd22f442f914",
                "wType": "ListBox"
            }
        },
        "lstVehicleType": {
            "__events__": {},
            "__info__": {
                "kuid": "df453bc3c64949808b9a387551e9e2c7",
                "srcKUID": "f86f6eadc00f4c0cb47a28b9c268b9a1",
                "wType": "ListBox"
            }
        },
        "lstYear": {
            "__events__": {},
            "__info__": {
                "kuid": "c7f6216ca76749c0a3966b43326b8238",
                "srcKUID": "c53471120c924c438138cd10e73d4ae9",
                "wType": "ListBox"
            }
        },
        "purchaseValueErrorMsg": {
            "__events__": {},
            "__info__": {
                "kuid": "d43804ae72554aecbf4efcd30f05659c",
                "srcKUID": "d11e1ecbd27e4830a5958b5945963a2f",
                "wType": "UserWidgetInstance"
            }
        },
        "purchaseValueErrorMsg.lblErrorIcon": {
            "__events__": {},
            "__info__": {
                "kuid": "hbca5aaf5e3d4902a52d08164b6b6414",
                "srcKUID": "af8953cfe58d4f1b942fa36336f193fc",
                "wType": "Label"
            }
        },
        "purchaseValueErrorMsg.lblErrorText": {
            "__events__": {},
            "__info__": {
                "kuid": "fd7e385949d44729b005650696ad7a71",
                "srcKUID": "ffb842a08a374d44a68e3deec42226af",
                "wType": "Label"
            }
        },
        "purposeErrorMsg": {
            "__events__": {},
            "__info__": {
                "kuid": "b1927ad73bb14561ae3eea42272450be",
                "srcKUID": "g56dfa1ccabd4f84b1f0a0d5883c1fc9",
                "wType": "UserWidgetInstance"
            }
        },
        "purposeErrorMsg.lblErrorIcon": {
            "__events__": {},
            "__info__": {
                "kuid": "b4f7c9cbd93d4a238f24e71e2314e9cd",
                "srcKUID": "dbf201d6b2e8478a945e93554edaab16",
                "wType": "Label"
            }
        },
        "purposeErrorMsg.lblErrorText": {
            "__events__": {},
            "__info__": {
                "kuid": "a00253a6163e4a1da8e870a5d055f7ca",
                "srcKUID": "a97e1f1ae0fa4cb984e095abac78304a",
                "wType": "Label"
            }
        },
        "purposeErrorMsgVL": {
            "__events__": {},
            "__info__": {
                "kuid": "i0a653af5ddd40fc8514808dbb56efa1",
                "srcKUID": "a57315a3a86246e9962abea4704bf848",
                "wType": "UserWidgetInstance"
            }
        },
        "purposeErrorMsgVL.lblErrorIcon": {
            "__events__": {},
            "__info__": {
                "kuid": "f912844a405d4f5bb926afd8c9f1d7ca",
                "srcKUID": "e532046615d44376a06a14c050d0378d",
                "wType": "Label"
            }
        },
        "purposeErrorMsgVL.lblErrorText": {
            "__events__": {},
            "__info__": {
                "kuid": "e65f35e8adfc4c0d9d84c0d36202a865",
                "srcKUID": "dbde1e12e279445f8886f6c26ef3eb4e",
                "wType": "Label"
            }
        },
        "txtCreditLimitAmount": {
            "__events__": {},
            "__info__": {
                "kuid": "ee4c50c8b77c4e0e89aad6fd88ca4d3c",
                "srcKUID": "fa0e9b3726c74493bf2f0ec26980c4fb",
                "wType": "TextField"
            }
        },
        "txtLoanAmountValue": {
            "__events__": {},
            "__info__": {
                "kuid": "f9e93498a1604238866515b9b776b739",
                "srcKUID": "ad4540f79f1748bbac8389964b29113c",
                "wType": "TextField"
            }
        },
        "txtLoanAmountValueVL": {
            "__events__": {},
            "__info__": {
                "kuid": "hc1f5c369eda4e6e944927a11b8ece35",
                "srcKUID": "c09da1d6089a449182cf46585a31f453",
                "wType": "TextField"
            }
        },
        "txtLoanTermAmount": {
            "__events__": {},
            "__info__": {
                "kuid": "h7a31c0b2b9644c7a585de7694310798",
                "srcKUID": "d3c8d4ab4c7849529bd64a8655d67e23",
                "wType": "TextField"
            }
        },
        "txtLoanTermAmountVL": {
            "__events__": {},
            "__info__": {
                "kuid": "f320f60c954640d1879f788d238a1668",
                "srcKUID": "d777e0951071433998ec61cce7c98b0c",
                "wType": "TextField"
            }
        },
        "txtPurchaseValueAmount": {
            "__events__": {},
            "__info__": {
                "kuid": "hc3dcb7c714f40baa983eabe1bb1b6c1",
                "srcKUID": "hf6b227dd70842af91ac045033706092",
                "wType": "TextField"
            }
        },
        "txtTrim": {
            "__events__": {},
            "__info__": {
                "kuid": "b1ad266a1bf944ab9a7fc439d2a64057",
                "srcKUID": "jc4f6d1e6c274dffb8f1ca5c20335aa7",
                "wType": "TextField"
            }
        }
    },
    "enablescrolling": true,
    "id": "editLoaninformation",
    "info": null,
    "iscustomlayout": false,
    "isdatareferenced": false,
    "isvisible": true,
    "kuid": "d437159df1464f5da5455b0f3438cf10",
    "layouttype": 2,
    "masterType": 0,
    "name": "kony.ui.UserWidgetInstance",
    "parent": "flxEditLoanInformation1",
    "pf": "frmTrackApplication",
    "retaincontentalignment": false,
    "retainflexpositionproperties": false,
    "snapgridsize": 10,
    "snaptogrid": true,
    "sourceUserWidget": "fd53c74c3cdb4370b786dc42a07ba1a4",
    "wType": "UserWidgetInstance"
}