{
    "DNDConfig": null,
    "__parentReadjusting__": false,
    "_height_": {
        "type": "string",
        "value": "100%"
    },
    "_margin_": [
        0,
        0,
        0,
        0
    ],
    "_orientation_": 6,
    "_padding_": [
        0,
        0,
        0,
        0
    ],
    "_percent_": true,
    "_skin_": "s89d9f5cebff45219abf70b3ec055a0c",
    "_width_": {
        "type": "string",
        "value": "100%"
    },
    "allboxes": [],
    "autogrowmode": 0,
    "canUpdateUI": true,
    "children": [
        "customCalOwnerDOB",
        "flxDOBDisabled"
    ],
    "clipbounds": true,
    "containerweight": 100,
    "desktopweb": {
        "psp": {
            "hoverSkin": "s2d4514994fa46a68074b0fd2f5685bc"
        }
    },
    "enablescrolling": true,
    "id": "flxCalendarDOB",
    "info": null,
    "iscustomlayout": false,
    "isvisible": true,
    "kuid": "c4df627e7f844e8d9936ff74c74de250",
    "layouttype": 2,
    "name": "kony.ui.FlexContainer",
    "parent": "flxLoanContainer",
    "pf": "frmTrackApplication",
    "retaincontentalignment": false,
    "retainflexpositionproperties": false,
    "snapgridsize": 10,
    "snaptogrid": true,
    "wType": "FlexContainer",
    "widgetalignment": 1,
    "zindex": 1
}