{
    "@class": "com.kony.gen.viz.model.component.KVizUserWidget",
    "DNDConfig": null,
    "__parentReadjusting__": false,
    "_android_": {},
    "_androidwearos_": {},
    "_children_": [],
    "_desktopweb_": {},
    "_height_": {
        "type": "ref",
        "value": "preferred"
    },
    "_ipad_": {},
    "_iphone_": {},
    "_kiosk_": {},
    "_left_": {
        "type": "string",
        "value": ""
    },
    "_margin_": [
        0,
        0,
        0,
        0
    ],
    "_orientation_": 1,
    "_padding_": [
        0,
        0,
        0,
        0
    ],
    "_percent_": true,
    "_responsiveData_": {},
    "_right_": {
        "type": "string",
        "value": "55px"
    },
    "_skin_": "s88cc708170d4e3e8fed2490fd5e632e",
    "_spa_": {},
    "_spaan_": {},
    "_spaandroidtablet_": {},
    "_spabb_": {},
    "_spaip_": {},
    "_spaipad_": {},
    "_spamobile_": {},
    "_spatablet_": {},
    "_spawindowstablet_": {},
    "_spawinphone8_": {},
    "_tabrcandroid_": {},
    "_top_": {
        "type": "string",
        "value": "190dp"
    },
    "_vizProps_": {
        "hidewidgethierarchy": false
    },
    "_width_": {
        "type": "string",
        "value": "200px"
    },
    "_windows10_": {},
    "_windows8_": {},
    "_winphone10_": {},
    "_winphone8_": {},
    "areflexpropsreferenced": false,
    "autogrowmode": 1,
    "canUpdateUI": true,
    "clipbounds": true,
    "containerweight": 0,
    "dataDiffs": {
        "flxSuspend": {
            "__events__": {},
            "__info__": {
                "kuid": "g97c3d34ad7142088043660f7338362b",
                "srcKUID": "fda63a183e544919a7d7f0c7d5711c1b",
                "wType": "FlexContainer"
            }
        },
        "flxUpgrade": {
            "__events__": {},
            "__info__": {
                "kuid": "f73343c04a894567a735410de1f32ce8",
                "srcKUID": "g063a58da74e4d98a0cdd7517e69d824",
                "wType": "FlexContainer"
            }
        },
        "fonticonDeactive": {
            "__events__": {},
            "__info__": {
                "kuid": "jebe6348daad41d398f3e715820db85f",
                "srcKUID": "fc697c448ca04a13b9e14b2c4de92917",
                "wType": "Label"
            }
        },
        "fonticonEdit": {
            "__events__": {},
            "__info__": {
                "kuid": "a93d614739884b63ab3d6394e9c1c2d1",
                "srcKUID": "ee52a2219b8d41cd8210f66a9e7fcb13",
                "wType": "Label"
            }
        },
        "lblOption1": {
            "__events__": {},
            "__info__": {
                "kuid": "bcf5aab7669a4bcb9604aff2ee64c9c8",
                "srcKUID": "c33a76927e06494890d184e41cf17a2f",
                "wType": "Label"
            }
        },
        "lblOption2": {
            "__events__": {},
            "__info__": {
                "kuid": "gf08cd1e8e614937a3e42aa06ee7670d",
                "srcKUID": "ica7b2cfb53c4d8d9badf0644ca44f75",
                "wType": "Label"
            },
            "i18n_text": "i18n.frmCustomerManagementPersonal.upgradeToMicroBusiness",
            "text": "Upgrade to Micro Business",
            "width": {
                "Default": {
                    "type": "string",
                    "value": "85%"
                }
            }
        },
        "selectOptions": {
            "__events__": {},
            "__info__": {
                "isRoot": true,
                "kuid": "a13071f6dcd546d995ea8ab0a88326ef",
                "srcKUID": "f6f14409f2d14d7aa162adc5f496666e",
                "wType": "FlexContainer"
            },
            "isVisible": false,
            "left": {
                "Default": {
                    "type": "string",
                    "value": ""
                }
            },
            "right": {
                "Default": {
                    "type": "string",
                    "value": "55px"
                }
            },
            "top": {
                "Default": {
                    "type": "string",
                    "value": "190dp"
                }
            }
        }
    },
    "enablescrolling": true,
    "id": "flxSelectOptions",
    "info": null,
    "iscustomlayout": false,
    "isdatareferenced": false,
    "isvisible": false,
    "kuid": "a13071f6dcd546d995ea8ab0a88326ef",
    "layouttype": 4,
    "masterType": 0,
    "name": "kony.ui.UserWidgetInstance",
    "parent": "flxMainLoansDashboard",
    "pf": "frmTrackApplication",
    "retaincontentalignment": false,
    "retainflexpositionproperties": false,
    "snapgridsize": 10,
    "snaptogrid": true,
    "sourceUserWidget": "f6f14409f2d14d7aa162adc5f496666e",
    "wType": "UserWidgetInstance"
}