{
    "@class": "com.kony.gen.viz.model.component.KVizUserWidget",
    "DNDConfig": null,
    "__parentReadjusting__": false,
    "_android_": {},
    "_androidwearos_": {},
    "_bottom_": {
        "type": "string",
        "value": ""
    },
    "_children_": [],
    "_desktopweb_": {},
    "_height_": {
        "type": "string",
        "value": "100%"
    },
    "_ipad_": {},
    "_iphone_": {},
    "_kiosk_": {},
    "_left_": {
        "type": "string",
        "value": "0dp"
    },
    "_margin_": [
        0,
        0,
        0,
        0
    ],
    "_orientation_": 1,
    "_padding_": [
        0,
        0,
        0,
        0
    ],
    "_percent_": true,
    "_render_": true,
    "_responsiveData_": {},
    "_right_": {
        "type": "string",
        "value": ""
    },
    "_skin_": "sbb664738a5e43538434561ad8e0941e",
    "_spa_": {},
    "_spaan_": {},
    "_spaandroidtablet_": {},
    "_spabb_": {},
    "_spaip_": {},
    "_spaipad_": {},
    "_spamobile_": {},
    "_spatablet_": {},
    "_spawindowstablet_": {},
    "_spawinphone8_": {},
    "_tabrcandroid_": {},
    "_top_": {
        "type": "string",
        "value": "0dp"
    },
    "_vizProps_": {
        "hidewidgethierarchy": false
    },
    "_width_": {
        "type": "string",
        "value": "100%"
    },
    "_windows10_": {},
    "_windows8_": {},
    "_winphone10_": {},
    "_winphone8_": {},
    "areflexpropsreferenced": false,
    "autogrowmode": 0,
    "canUpdateUI": true,
    "centerx": {
        "type": "string",
        "value": ""
    },
    "centery": {
        "type": "string",
        "value": ""
    },
    "clipbounds": true,
    "containerweight": 0,
    "dataDiffs": {
        "brandLogo": {
            "__events__": {},
            "__info__": {
                "kuid": "fb1e1b906abe498c8cd2862d888ca986",
                "srcKUID": "c6191f3300704dffab544f92ee10fa69",
                "wType": "Image"
            },
            "src": "konydbxlogobignverted.png"
        },
        "flxBottomLogo": {
            "__events__": {},
            "__info__": {
                "kuid": "bee63a5e78b44d8889af46d57ef17e76",
                "srcKUID": "g5d6356e86ea4ba4bcffaa05885ec752",
                "wType": "FlexContainer"
            }
        },
        "flxBottomTitle": {
            "__events__": {},
            "__info__": {
                "kuid": "h9f34baf897c46b4895d9ced92ea9336",
                "srcKUID": "e497473dc83b4af0833bdb410bf330b9",
                "wType": "FlexContainer"
            }
        },
        "flxBrandLogo": {
            "__events__": {},
            "__info__": {
                "kuid": "j23430b13a304ad1ab36a2515379538a",
                "srcKUID": "c8d5429e9e6544e2aa7ed5a03faa883d",
                "wType": "FlexContainer"
            }
        },
        "flxScrollMenu": {
            "__events__": {},
            "__info__": {
                "kuid": "ba06286aa31f4642aba4e41cb4b7af64",
                "srcKUID": "b3afa892d340444daf2bb640fd50164a",
                "wType": "FlexScrollContainer"
            },
            "bottom": {
                "Default": {
                    "type": "string",
                    "value": "40dp"
                }
            },
            "left": {
                "Default": {
                    "type": "string",
                    "value": "0dp"
                }
            },
            "top": {
                "Default": {
                    "type": "string",
                    "value": "80dp"
                }
            }
        },
        "imgBottomLogo": {
            "__events__": {},
            "__info__": {
                "kuid": "c6e28ec717ed446e84ffa51038fd3116",
                "srcKUID": "ecc4ab3ba715461b8e130f71b31ed055",
                "wType": "Image"
            },
            "src": "konydbxinverted.png"
        },
        "lblBottomTitle": {
            "__events__": {},
            "__info__": {
                "kuid": "ae101962d38e4067885d890fa633d329",
                "srcKUID": "e685023961af47458ec81490ecb06a0c",
                "wType": "Label"
            }
        },
        "leftMenuNew": {
            "__events__": {},
            "__info__": {
                "isRoot": true,
                "kuid": "ec73b682a927453194372ea766efd7b2",
                "srcKUID": "ia23071299ea471785b0967b2bc5a3b2",
                "wType": "FlexContainer"
            },
            "autogrowMode": {
                "Default": 0
            },
            "bottom": {
                "Default": {
                    "type": "string",
                    "value": ""
                }
            },
            "centerX": {
                "Default": {
                    "type": "string",
                    "value": ""
                }
            },
            "centerY": {
                "Default": {
                    "type": "string",
                    "value": ""
                }
            },
            "height": {
                "Default": {
                    "type": "string",
                    "value": "100%"
                }
            },
            "left": {
                "Default": {
                    "type": "string",
                    "value": "0dp"
                }
            },
            "maxHeight": {
                "Default": {
                    "type": "string",
                    "value": ""
                }
            },
            "maxWidth": {
                "Default": {
                    "type": "string",
                    "value": ""
                }
            },
            "minHeight": {
                "Default": {
                    "type": "string",
                    "value": ""
                }
            },
            "minWidth": {
                "Default": {
                    "type": "string",
                    "value": ""
                }
            },
            "right": {
                "Default": {
                    "type": "string",
                    "value": ""
                }
            },
            "top": {
                "Default": {
                    "type": "string",
                    "value": "0dp"
                }
            },
            "width": {
                "Default": {
                    "type": "string",
                    "value": "100%"
                }
            }
        },
        "segMenu": {
            "__events__": {},
            "__info__": {
                "kuid": "f4d63d415f9f4cf0be051ce7aa99e1cd",
                "srcKUID": "deb5cfd7d7f343bf84579d6abf668d63",
                "wType": "Segment"
            }
        }
    },
    "id": "leftMenuNew",
    "info": null,
    "iscustomlayout": false,
    "isdatareferenced": false,
    "isvisible": true,
    "kuid": "ec73b682a927453194372ea766efd7b2",
    "layouttype": 2,
    "masterType": 0,
    "maxheight": {
        "type": "string",
        "value": ""
    },
    "maxwidth": {
        "type": "string",
        "value": ""
    },
    "minheight": {
        "type": "string",
        "value": ""
    },
    "minwidth": {
        "type": "string",
        "value": ""
    },
    "name": "kony.ui.UserWidgetInstance",
    "parent": "flxLeftPannel",
    "pf": "frmTrackApplication",
    "retaincontentalignment": false,
    "retainflexpositionproperties": false,
    "snaptogrid": true,
    "sourceUserWidget": "ia23071299ea471785b0967b2bc5a3b2",
    "wType": "UserWidgetInstance"
}