{
    "@class": "com.kony.gen.viz.model.component.KVizUserWidget",
    "DNDConfig": null,
    "__parentReadjusting__": false,
    "_android_": {},
    "_androidwearos_": {},
    "_children_": [],
    "_desktopweb_": {},
    "_height_": {
        "type": "ref",
        "value": "preferred"
    },
    "_ipad_": {},
    "_iphone_": {},
    "_kiosk_": {},
    "_left_": {
        "type": "string",
        "value": "0dp"
    },
    "_margin_": [
        0,
        0,
        0,
        0
    ],
    "_orientation_": 1,
    "_padding_": [
        0,
        0,
        0,
        0
    ],
    "_percent_": true,
    "_responsiveData_": {},
    "_right_": {
        "type": "number",
        "value": "0"
    },
    "_skin_": "s8ff24328417401b877c3ceb2a5fa27c",
    "_spa_": {},
    "_spaan_": {},
    "_spaandroidtablet_": {},
    "_spabb_": {},
    "_spaip_": {},
    "_spaipad_": {},
    "_spamobile_": {},
    "_spatablet_": {},
    "_spawindowstablet_": {},
    "_spawinphone8_": {},
    "_tabrcandroid_": {},
    "_top_": {
        "type": "string",
        "value": "0dp"
    },
    "_vizProps_": {
        "hidewidgethierarchy": false
    },
    "_width_": {
        "type": "ref",
        "value": "preferred"
    },
    "_windows10_": {},
    "_windows8_": {},
    "_winphone10_": {},
    "_winphone8_": {},
    "areflexpropsreferenced": false,
    "autogrowmode": 1,
    "canUpdateUI": true,
    "clipbounds": true,
    "containerweight": 0,
    "dataDiffs": {
        "lblApplicantHeader": {
            "__events__": {},
            "__info__": {
                "kuid": "e717086027f04fcab6f2dcf805fc0574",
                "srcKUID": "bc82e2f6942f4b018776ec0c80f1e3b6",
                "wType": "Label"
            }
        },
        "viewAdditionalIncome": {
            "__events__": {},
            "__info__": {
                "kuid": "fc18de2b85b949e29c139af2c53f6790",
                "srcKUID": "h1cf3d3ac10742b9af7aed0d743c531b",
                "wType": "UserWidgetInstance"
            }
        },
        "viewAdditionalIncome.flxIncome": {
            "__events__": {},
            "__info__": {
                "kuid": "f5bf52281faf4abdaed6aac9b9fbda15",
                "srcKUID": "f07670bf41c14d59b01185ff4ed96a83",
                "wType": "FlexContainer"
            }
        },
        "viewAdditionalIncome.flxIncomeInfoSource": {
            "__events__": {},
            "__info__": {
                "kuid": "a601a76adb14486a9de9f5bb76d15284",
                "srcKUID": "ba3cb3552a4e47bc87c2d301b057bed9",
                "wType": "FlexContainer"
            }
        },
        "viewAdditionalIncome.flxIncomeSource": {
            "__events__": {},
            "__info__": {
                "kuid": "c13e22773695449d9172001d00339dcb",
                "srcKUID": "a14b55c7388447b995ccd9c80453139c",
                "wType": "FlexContainer"
            }
        },
        "viewAdditionalIncome.lblAdditionalIncome": {
            "__events__": {},
            "__info__": {
                "kuid": "jdadd640774e45e0a55cc4938459a8d5",
                "srcKUID": "f95b0d0bd0fe4cb18e2a139000416694",
                "wType": "Label"
            }
        },
        "viewAdditionalIncome.lblAdditionalIncomeValue": {
            "__events__": {},
            "__info__": {
                "kuid": "e3c8f0b61ad447569bc876791ac8222f",
                "srcKUID": "f8c985c2e0fa4fd29725d87e9bf2a373",
                "wType": "Label"
            }
        },
        "viewAdditionalIncome.loansSectionHeader": {
            "__events__": {},
            "__info__": {
                "kuid": "he9845e12e824acca2daecda56b3a5fe",
                "srcKUID": "b26e24e8ddb04188a3efa131e356b200",
                "wType": "UserWidgetInstance"
            }
        },
        "viewAdditionalIncome.loansSectionHeader.btnEdit": {
            "__events__": {},
            "__info__": {
                "kuid": "f4d7f208ca864ee98b375f5bfabf5af3",
                "srcKUID": "ef7993eb1e404e719c29e80b4eb055c9",
                "wType": "Button"
            }
        },
        "viewAdditionalIncome.loansSectionHeader.flxSectionHeader": {
            "__events__": {},
            "__info__": {
                "kuid": "dd79df95813f4a8e81ff8ad098c0d9e7",
                "srcKUID": "h2c4aabda32441d3b6165283b67214ea",
                "wType": "FlexContainer"
            }
        },
        "viewAdditionalIncome.loansSectionHeader.lblSectionHeader": {
            "__events__": {},
            "__info__": {
                "kuid": "b355c956235e46288af732afe5852918",
                "srcKUID": "ec474a44b6384ac68a7e16cdc604d211",
                "wType": "Label"
            }
        },
        "viewAdditionalIncome.loansSectionHeader.lblSeparator": {
            "__events__": {},
            "__info__": {
                "kuid": "eec161848d3043d4829b732da60ae537",
                "srcKUID": "h5ef50cc804349138d66400e4bc14fbe",
                "wType": "Label"
            }
        },
        "viewAddressInfo": {
            "__events__": {},
            "__info__": {
                "kuid": "fe4d2263c0c442ba9046879b3c0e6580",
                "srcKUID": "c8c3d2bff51e4f398d39d77361092ba8",
                "wType": "UserWidgetInstance"
            }
        },
        "viewAddressInfo.flxAddressCity": {
            "__events__": {},
            "__info__": {
                "kuid": "baec67d61d5a46e58e9968c86906880f",
                "srcKUID": "d06cc091c35343a389d9ff97c6f25e8e",
                "wType": "FlexContainer"
            }
        },
        "viewAddressInfo.flxAddressCountry": {
            "__events__": {},
            "__info__": {
                "kuid": "abdd7e0fff0b4ced8a9da60e72b64a1f",
                "srcKUID": "fb9615c7cfc7498086095697783f0cb0",
                "wType": "FlexContainer"
            }
        },
        "viewAddressInfo.flxAddressCountryDtls": {
            "__events__": {},
            "__info__": {
                "kuid": "gd54f2928a3543a3804fc3ae03d46b49",
                "srcKUID": "ed5205ef2ea1411dab5df790bb6f25ee",
                "wType": "FlexContainer"
            }
        },
        "viewAddressInfo.flxAddressInfo": {
            "__events__": {},
            "__info__": {
                "kuid": "ff737f52da3a47d5912844613f29fa59",
                "srcKUID": "a039f711b410440ab633a2ab693d4958",
                "wType": "FlexContainer"
            }
        },
        "viewAddressInfo.flxAddressLine1": {
            "__events__": {},
            "__info__": {
                "kuid": "j89efb26168e4cf480dc6030f860cb3c",
                "srcKUID": "efe0d2eaa71049da82fb922d576ca1d2",
                "wType": "FlexContainer"
            }
        },
        "viewAddressInfo.flxAddressLine2": {
            "__events__": {},
            "__info__": {
                "kuid": "d6e8065f6072409c95a68fccac2cc5af",
                "srcKUID": "b2e5d54bd3fb4d31aa0c80a3f736f643",
                "wType": "FlexContainer"
            }
        },
        "viewAddressInfo.flxAddressSection": {
            "__events__": {},
            "__info__": {
                "kuid": "ca8698ce7db54ac6a03ecee7b0ebc094",
                "srcKUID": "gd6dc2c49d0441c2bd3062a03b8157f6",
                "wType": "FlexContainer"
            }
        },
        "viewAddressInfo.flxAddressState": {
            "__events__": {},
            "__info__": {
                "kuid": "ae4ad5cf0ab74ffeae56b196af432c60",
                "srcKUID": "i105458b7aa2480b811836282bf42fd0",
                "wType": "FlexContainer"
            }
        },
        "viewAddressInfo.flxAddressZipCode": {
            "__events__": {},
            "__info__": {
                "kuid": "a60ab417e856470aaf99fe6d9835f217",
                "srcKUID": "ba78b0c50a6047d6aec360971bd6147d",
                "wType": "FlexContainer"
            }
        },
        "viewAddressInfo.flxAddressZipOwnership": {
            "__events__": {},
            "__info__": {
                "kuid": "cf1008dfb8a54f40901f3d63ad4f36f6",
                "srcKUID": "b05c25a5e1cb40ba87339bd93555a9cd",
                "wType": "FlexContainer"
            }
        },
        "viewAddressInfo.flxDuration": {
            "__events__": {},
            "__info__": {
                "kuid": "b73fb80f9fcf4bc89f777ba8a895804b",
                "srcKUID": "j117fa92c617439cb8400dd150cb68a2",
                "wType": "FlexContainer"
            }
        },
        "viewAddressInfo.flxDurationStay": {
            "__events__": {},
            "__info__": {
                "kuid": "f35b2528c083465ab09470a882d08ac0",
                "srcKUID": "fb6058bff76b447db2b6424781c8fa9d",
                "wType": "FlexContainer"
            }
        },
        "viewAddressInfo.flxOwnerShip": {
            "__events__": {},
            "__info__": {
                "kuid": "d091cecd74ef4cee95cf0d8e62ea44db",
                "srcKUID": "db47a3aa2fc34ce7b4272ba817ce0562",
                "wType": "FlexContainer"
            }
        },
        "viewAddressInfo.flxPrevAddressCity": {
            "__events__": {},
            "__info__": {
                "kuid": "e720ff838951475b84c8d59425c26778",
                "srcKUID": "id9bb6fa013140eda42f02c29fa10369",
                "wType": "FlexContainer"
            }
        },
        "viewAddressInfo.flxPrevAddressCountry": {
            "__events__": {},
            "__info__": {
                "kuid": "dd9a6f77682e40458cae77dc0afec0b1",
                "srcKUID": "c0e532f237b34009bb813a5f92d83d44",
                "wType": "FlexContainer"
            }
        },
        "viewAddressInfo.flxPrevAddressCountryDtls": {
            "__events__": {},
            "__info__": {
                "kuid": "d8c091b4ae9b4bc5a5415609a42d6121",
                "srcKUID": "c2404a383167447cabb9183aa9588b6f",
                "wType": "FlexContainer"
            }
        },
        "viewAddressInfo.flxPrevAddressInfo": {
            "__events__": {},
            "__info__": {
                "kuid": "ccaca366672347a6ac8a8995ebfbe6ad",
                "srcKUID": "ce10ae4e66a54bc1a8a790804e2fa621",
                "wType": "FlexContainer"
            }
        },
        "viewAddressInfo.flxPrevAddressLine": {
            "__events__": {},
            "__info__": {
                "kuid": "f5ce5d5e8cbc41a88d4775d22c8227af",
                "srcKUID": "a4f483051ce84ec78d24bdd70c996924",
                "wType": "FlexContainer"
            }
        },
        "viewAddressInfo.flxPrevAddressLine2": {
            "__events__": {},
            "__info__": {
                "kuid": "j73485962a2a42b3848e37bb81ad1220",
                "srcKUID": "b7f3e667ada945d893e392522955cafc",
                "wType": "FlexContainer"
            }
        },
        "viewAddressInfo.flxPrevAddressState": {
            "__events__": {},
            "__info__": {
                "kuid": "e690acc250944a47ade77277ec2babc7",
                "srcKUID": "bf985e53b8514ee99884d9d3a778274c",
                "wType": "FlexContainer"
            }
        },
        "viewAddressInfo.flxPrevAddressZipCode": {
            "__events__": {},
            "__info__": {
                "kuid": "df1aea98d9464441a63c1dfe62a4bc61",
                "srcKUID": "d959d2bb32d1400abb1e3d49d9977d54",
                "wType": "FlexContainer"
            }
        },
        "viewAddressInfo.flxPrevAddressZipOwnership": {
            "__events__": {},
            "__info__": {
                "kuid": "f5b2e00e1e7e4170a071c996c9a92923",
                "srcKUID": "e65accf6388847188833e472928a601e",
                "wType": "FlexContainer"
            }
        },
        "viewAddressInfo.flxPreviousAddress": {
            "__events__": {},
            "__info__": {
                "kuid": "h5660d5071054900b0e53f48f182a295",
                "srcKUID": "e6d620a1be964fe0be0dd4f9d2ad2459",
                "wType": "FlexContainer"
            }
        },
        "viewAddressInfo.lblAddress1Country": {
            "__events__": {},
            "__info__": {
                "kuid": "g47effd9b76a4e7abd6bcc5f87c80995",
                "srcKUID": "g62d49eea8d745dd8a459a186b7a9240",
                "wType": "Label"
            }
        },
        "viewAddressInfo.lblAddressCity": {
            "__events__": {},
            "__info__": {
                "kuid": "e9c68f4d94884429a1b5b38577eb6657",
                "srcKUID": "e8369fc867ac42ba9d6f3bb2b3166028",
                "wType": "Label"
            }
        },
        "viewAddressInfo.lblAddressLine1": {
            "__events__": {},
            "__info__": {
                "kuid": "ba49e7b8a6264508a08070fb5f8ef038",
                "srcKUID": "b14ea2001e8443148ccd296787ebf84b",
                "wType": "Label"
            }
        },
        "viewAddressInfo.lblAddressLine1Value": {
            "__events__": {},
            "__info__": {
                "kuid": "dcc17cc16bc34ebfa6ecb555ad1c8d90",
                "srcKUID": "dff8b66de0504252bf1052234c19cf4f",
                "wType": "Label"
            }
        },
        "viewAddressInfo.lblAddressLine2": {
            "__events__": {},
            "__info__": {
                "kuid": "a4fd24af78d641af9cf2a7e2278e1b91",
                "srcKUID": "g03cca8924ed4e8e8d84f62a090c6d11",
                "wType": "Label"
            }
        },
        "viewAddressInfo.lblAddressLine2Value": {
            "__events__": {},
            "__info__": {
                "kuid": "i510ded57f31482aa2ed0c05ce349878",
                "srcKUID": "icd6e2f2a26b42f68ab618d841cd4054",
                "wType": "Label"
            }
        },
        "viewAddressInfo.lblAddressState": {
            "__events__": {},
            "__info__": {
                "kuid": "icdcf94298db4b13b2da19c80151ccc7",
                "srcKUID": "g9d20718160847be823196ef5ceb077f",
                "wType": "Label"
            }
        },
        "viewAddressInfo.lblAddressZipCode": {
            "__events__": {},
            "__info__": {
                "kuid": "beb501be48c14960847708c7a1796c43",
                "srcKUID": "f2a9634739694cbaae79796051a744cc",
                "wType": "Label"
            }
        },
        "viewAddressInfo.lblCityValue": {
            "__events__": {},
            "__info__": {
                "kuid": "bdfe5694740f4d4d855f576108224c2e",
                "srcKUID": "j43fb685a605401c83f43c104e499591",
                "wType": "Label"
            }
        },
        "viewAddressInfo.lblCountryValue": {
            "__events__": {},
            "__info__": {
                "kuid": "b3675080d02841c7b1451444ccd95481",
                "srcKUID": "d3b2e73fd8254a6caa1f2cbbac7b60ae",
                "wType": "Label"
            }
        },
        "viewAddressInfo.lblDuration": {
            "__events__": {},
            "__info__": {
                "kuid": "e59481f71f5b433197e07c257502f546",
                "srcKUID": "a396ca3f4fba4140bdcebf8f449610d8",
                "wType": "Label"
            }
        },
        "viewAddressInfo.lblDurationValue": {
            "__events__": {},
            "__info__": {
                "kuid": "c6099828cae648a694a923edf19a0f56",
                "srcKUID": "jf79cef72bc14d019279e1954100a2e4",
                "wType": "Label"
            }
        },
        "viewAddressInfo.lblOwnership": {
            "__events__": {},
            "__info__": {
                "kuid": "h5815faced884bf6a1b51d6013bf7d23",
                "srcKUID": "ac757b64cd304dd49299d241fbebb361",
                "wType": "Label"
            }
        },
        "viewAddressInfo.lblOwnershipValue": {
            "__events__": {},
            "__info__": {
                "kuid": "b9c5d42e11b74ae8b98e99af5ea6c991",
                "srcKUID": "f5d41223029e44638ec1760f609af62e",
                "wType": "Label"
            }
        },
        "viewAddressInfo.lblPervAddressLine1": {
            "__events__": {},
            "__info__": {
                "kuid": "d3573a93963c4a2d9278baae085954b5",
                "srcKUID": "hdc9ba79548d4a6cb3c072ec5c155089",
                "wType": "Label"
            }
        },
        "viewAddressInfo.lblPervAddressLine1Value": {
            "__events__": {},
            "__info__": {
                "kuid": "he4c0f03a95047168e0741558c7705a6",
                "srcKUID": "b185a506e7984e219200234a405d0dce",
                "wType": "Label"
            }
        },
        "viewAddressInfo.lblPervAddressLine2": {
            "__events__": {},
            "__info__": {
                "kuid": "ec886b7336de4c9aae3ee973e95febc8",
                "srcKUID": "e7a860606aae4373b220bb78a3f7251a",
                "wType": "Label"
            }
        },
        "viewAddressInfo.lblPervAddressLine2Value": {
            "__events__": {},
            "__info__": {
                "kuid": "b8f2ad13f5cb4f3f8601488ebb9af88b",
                "srcKUID": "fbf2dbc1e95146cebc17ba28a0ed74cf",
                "wType": "Label"
            }
        },
        "viewAddressInfo.lblPrevAddress": {
            "__events__": {},
            "__info__": {
                "kuid": "i0c74a161d184298987d9b0b8eb63623",
                "srcKUID": "j435acdb785a4a7b84f752a572483e48",
                "wType": "Label"
            }
        },
        "viewAddressInfo.lblPrevAddressCity": {
            "__events__": {},
            "__info__": {
                "kuid": "cf4d7d1c0e7f4381a27146510dfe3cb6",
                "srcKUID": "d6f2aad1a653437aa0d475892c6798c6",
                "wType": "Label"
            }
        },
        "viewAddressInfo.lblPrevAddressCityValue": {
            "__events__": {},
            "__info__": {
                "kuid": "i286c26e14fa491baddbb3be309d6501",
                "srcKUID": "f15a506e55004159b1c96f7faf320b25",
                "wType": "Label"
            }
        },
        "viewAddressInfo.lblPrevAddressState": {
            "__events__": {},
            "__info__": {
                "kuid": "ae45438ead3342c59b607a4d615b0d6a",
                "srcKUID": "g7e62b8d24624be79a3ac667813be808",
                "wType": "Label"
            }
        },
        "viewAddressInfo.lblPrevAddressStateValue": {
            "__events__": {},
            "__info__": {
                "kuid": "ie4373ee8ef440508e91cc959ee1c555",
                "srcKUID": "ib10d5c99065429cab30908d39e97b74",
                "wType": "Label"
            }
        },
        "viewAddressInfo.lblPrevAddressZipCode": {
            "__events__": {},
            "__info__": {
                "kuid": "f1d8fe5acc954f689c809b258c96e08d",
                "srcKUID": "f5af9402b7ff4347ade670295e422035",
                "wType": "Label"
            }
        },
        "viewAddressInfo.lblPrevAddressZipCodeValue": {
            "__events__": {},
            "__info__": {
                "kuid": "if7dc7ef5cac4b6799fb30354f8febfc",
                "srcKUID": "baa39a7ea38b4635babc3dc961750350",
                "wType": "Label"
            }
        },
        "viewAddressInfo.lblPrevCountryValue": {
            "__events__": {},
            "__info__": {
                "kuid": "gb6c2d94fcbe471d9948d3f85ee8afdb",
                "srcKUID": "g19abe81868e4bf2a28de1d6665b7eaf",
                "wType": "Label"
            }
        },
        "viewAddressInfo.lblStateValue": {
            "__events__": {},
            "__info__": {
                "kuid": "c4aea7e41bc8494290a98ae1be00702c",
                "srcKUID": "ifa9d2c58efe4a68924be2a48756f428",
                "wType": "Label"
            }
        },
        "viewAddressInfo.lblZipCodeValue": {
            "__events__": {},
            "__info__": {
                "kuid": "ad31570d06d340ebbe1f3da66fac8c7b",
                "srcKUID": "b44875caee3f4dea9674867da8ac0ee1",
                "wType": "Label"
            }
        },
        "viewAddressInfo.loansSectionHeader": {
            "__events__": {},
            "__info__": {
                "kuid": "j33c741ef47e46e9865db1b464f6e08a",
                "srcKUID": "jcd3d1368098434a9ecf168f1ee8a2c3",
                "wType": "UserWidgetInstance"
            }
        },
        "viewAddressInfo.loansSectionHeader.btnEdit": {
            "__events__": {},
            "__info__": {
                "kuid": "b3abfc5203b14686b810f0c9b22a654b",
                "srcKUID": "i330bda2cf5849daada8fb63da84e778",
                "wType": "Button"
            }
        },
        "viewAddressInfo.loansSectionHeader.flxSectionHeader": {
            "__events__": {},
            "__info__": {
                "kuid": "f492190266384e3bbd999dfe3aa8e9f9",
                "srcKUID": "e3b7a1d9f6c94e6a9c821acd15536d2d",
                "wType": "FlexContainer"
            }
        },
        "viewAddressInfo.loansSectionHeader.lblSectionHeader": {
            "__events__": {},
            "__info__": {
                "kuid": "i937bcf0a3c84e2391a4c5e89957eee7",
                "srcKUID": "hdcddb37af8d410bafa1e45bca87e837",
                "wType": "Label"
            }
        },
        "viewAddressInfo.loansSectionHeader.lblSeparator": {
            "__events__": {},
            "__info__": {
                "kuid": "ac211da734e34f0ab460da07037c0d7f",
                "srcKUID": "g2025b655d1c44b6a5f5194b5223daf5",
                "wType": "Label"
            }
        },
        "viewAddressInfo.loansSectionHeader1": {
            "__events__": {},
            "__info__": {
                "kuid": "f8ec0b4040664a45b33461b93a415987",
                "srcKUID": "d2141025de3b41668d040d401e0c1d09",
                "wType": "UserWidgetInstance"
            }
        },
        "viewAddressInfo.loansSectionHeader1.btnEdit": {
            "__events__": {},
            "__info__": {
                "kuid": "f21b8219d5dd4befbaf6a159bd86ae86",
                "srcKUID": "da736e71d9924398b47b11256cdba4da",
                "wType": "Button"
            }
        },
        "viewAddressInfo.loansSectionHeader1.flxSectionHeader": {
            "__events__": {},
            "__info__": {
                "kuid": "a701861d71b346e1960633486aa2e1a6",
                "srcKUID": "c6500ae079284407bc9cdd16f3ffcb19",
                "wType": "FlexContainer"
            }
        },
        "viewAddressInfo.loansSectionHeader1.lblSectionHeader": {
            "__events__": {},
            "__info__": {
                "kuid": "h4372642cab44e91aa81227253a821c9",
                "srcKUID": "fb4c4c8666034ab5b3bb65505f5b752e",
                "wType": "Label"
            }
        },
        "viewAddressInfo.loansSectionHeader1.lblSeparator": {
            "__events__": {},
            "__info__": {
                "kuid": "h5f05cc9ab914f80b43f07fcd5ef0d5a",
                "srcKUID": "e33107a209e34b598272d7abf50a5099",
                "wType": "Label"
            }
        },
        "viewApplicantDetails": {
            "__events__": {},
            "__info__": {
                "isRoot": true,
                "kuid": "fc56e0b99ab34db98afc39132fbc1399",
                "srcKUID": "j0184db11f4b4f658d54e2e897011ff3",
                "wType": "FlexContainer"
            }
        },
        "viewContactInfo": {
            "__events__": {},
            "__info__": {
                "kuid": "c955efc7cba34d0295714b5e044c7073",
                "srcKUID": "a176cd80647d40bfb9d97547a1f949e4",
                "wType": "UserWidgetInstance"
            }
        },
        "viewContactInfo.flxBusinessPhone": {
            "__events__": {},
            "__info__": {
                "kuid": "b29c0f4ce4d54dd5bdd1c55e55a3e0b1",
                "srcKUID": "c1e4298fab0e4e90be380db7c6665e4c",
                "wType": "FlexContainer"
            }
        },
        "viewContactInfo.flxCellPhone": {
            "__events__": {},
            "__info__": {
                "kuid": "b5841aa69ddf4e07bdcd3836f2627aea",
                "srcKUID": "j679ae9958304464aae9f089bca87b6c",
                "wType": "FlexContainer"
            }
        },
        "viewContactInfo.flxContactInfo": {
            "__events__": {},
            "__info__": {
                "kuid": "d7740df3562e4fa6b3f391df76d94dbb",
                "srcKUID": "e0ea3182f15144af81a4b7e3990227af",
                "wType": "FlexContainer"
            }
        },
        "viewContactInfo.flxHomePhone": {
            "__events__": {},
            "__info__": {
                "kuid": "jcc98810760043cbae75f7c8ddd3d9c8",
                "srcKUID": "fcde3190a5bb482dbbcf922931765f52",
                "wType": "FlexContainer"
            }
        },
        "viewContactInfo.flxPrimaryContact": {
            "__events__": {},
            "__info__": {
                "kuid": "j0e18bfa51ef47fe9959921c6996f58a",
                "srcKUID": "a7acc21348894074a4de21ebb3f612b1",
                "wType": "FlexContainer"
            }
        },
        "viewContactInfo.flxRow1": {
            "__events__": {},
            "__info__": {
                "kuid": "e094c4b0fbf8467e8dabef35074831f0",
                "srcKUID": "j4cc52e569d1469696983c8aeb1f7ef0",
                "wType": "FlexContainer"
            }
        },
        "viewContactInfo.lblBusinessPhone": {
            "__events__": {},
            "__info__": {
                "kuid": "hd88467cca7a4bcd8a7148e1bbf512c9",
                "srcKUID": "a6bdfc66115645408405f88f918753ef",
                "wType": "Label"
            }
        },
        "viewContactInfo.lblBusinessPhoneValue": {
            "__events__": {},
            "__info__": {
                "kuid": "f305cdd853134e36a2eeb40884fb4eac",
                "srcKUID": "id108514c19547aa9fcd977979a1be02",
                "wType": "Label"
            }
        },
        "viewContactInfo.lblCellPhone": {
            "__events__": {},
            "__info__": {
                "kuid": "eaee0601f6ee457cba58c42e274bdcc3",
                "srcKUID": "hfc13968e3c44157be060722fa26725a",
                "wType": "Label"
            }
        },
        "viewContactInfo.lblCellPhoneValue": {
            "__events__": {},
            "__info__": {
                "kuid": "ae9acbc86b66407a896e249b56241a9b",
                "srcKUID": "f7a2dc7e82364f9aabdb577bdaf0d72b",
                "wType": "Label"
            }
        },
        "viewContactInfo.lblHomePhone": {
            "__events__": {},
            "__info__": {
                "kuid": "e8d950a388154ea994ab7f4d0601cf22",
                "srcKUID": "f8c8c046fae84d148989d8651b96cb5f",
                "wType": "Label"
            }
        },
        "viewContactInfo.lblHomePhoneValue": {
            "__events__": {},
            "__info__": {
                "kuid": "b0878641b42544a6a90964e9467aafd7",
                "srcKUID": "b174ea9a4192446198280216a3f0bd2f",
                "wType": "Label"
            }
        },
        "viewContactInfo.lblPrimaryContact": {
            "__events__": {},
            "__info__": {
                "kuid": "dbe68c069219437caeb79d6ce2696c03",
                "srcKUID": "iaa4f0bbd56641389dcefe0074c8e038",
                "wType": "Label"
            }
        },
        "viewContactInfo.lblPrimaryContactValue": {
            "__events__": {},
            "__info__": {
                "kuid": "d84e03898fa64c069dd68b8e9882ed32",
                "srcKUID": "df7a978eb6c34d89a8342cc1517575ef",
                "wType": "Label"
            }
        },
        "viewContactInfo.loansSectionHeader": {
            "__events__": {},
            "__info__": {
                "kuid": "feaf5068ebe84c2a8ab73ce62c738ed4",
                "srcKUID": "aaf50077241c42548423f199fbf22f07",
                "wType": "UserWidgetInstance"
            }
        },
        "viewContactInfo.loansSectionHeader.btnEdit": {
            "__events__": {},
            "__info__": {
                "kuid": "f1ba68f20cf44dd6a537cb077aa34bfb",
                "srcKUID": "fb05cfc0d6ce431da4e6fe018084b577",
                "wType": "Button"
            }
        },
        "viewContactInfo.loansSectionHeader.flxSectionHeader": {
            "__events__": {},
            "__info__": {
                "kuid": "e720367f7a9b47b3a77d88b52d77f162",
                "srcKUID": "dc91c196fe594479871bbe6a523e8f55",
                "wType": "FlexContainer"
            }
        },
        "viewContactInfo.loansSectionHeader.lblSectionHeader": {
            "__events__": {},
            "__info__": {
                "kuid": "df420247eca64be4a6632d4e35d9346d",
                "srcKUID": "b61bac9a68e54da0a8d6c66909a16fc7",
                "wType": "Label"
            }
        },
        "viewContactInfo.loansSectionHeader.lblSeparator": {
            "__events__": {},
            "__info__": {
                "kuid": "ed55c35782014edcb8271d2f942eac3c",
                "srcKUID": "e2dcc858f4314797ae3559c93784c4a2",
                "wType": "Label"
            }
        },
        "viewEmployerDetails": {
            "__events__": {},
            "__info__": {
                "kuid": "d854fa11a4d8472c9def1468315c1ece",
                "srcKUID": "gd842734399a4272af0ff910824d6164",
                "wType": "UserWidgetInstance"
            }
        },
        "viewEmployerDetails.flxAddressCity": {
            "__events__": {},
            "__info__": {
                "kuid": "hd1d8e644747454c9d94274fd4106f99",
                "srcKUID": "fbb815c0cb3b4064b7c7d280a020ca99",
                "wType": "FlexContainer"
            }
        },
        "viewEmployerDetails.flxAddressCountry": {
            "__events__": {},
            "__info__": {
                "kuid": "f8f54b25bc4248eaa3e1025f8e86ac04",
                "srcKUID": "e8fc7c27c669447a8f029edefb6a093c",
                "wType": "FlexContainer"
            }
        },
        "viewEmployerDetails.flxAddressCountryDtls": {
            "__events__": {},
            "__info__": {
                "kuid": "e870b06770d54c7395f60938e379dd11",
                "srcKUID": "j4f651eb0eb64e5db8a1946dfe6914b6",
                "wType": "FlexContainer"
            }
        },
        "viewEmployerDetails.flxAddressLine1": {
            "__events__": {},
            "__info__": {
                "kuid": "cdb3a0593ebc44cbbff6c3871898abb7",
                "srcKUID": "d59634bd64d84def877a1d38ec82c877",
                "wType": "FlexContainer"
            }
        },
        "viewEmployerDetails.flxAddressLine2": {
            "__events__": {},
            "__info__": {
                "kuid": "a91bc20e883449bba8f1e6b5c536f28e",
                "srcKUID": "b7a234002194467e912f5c2357c396c7",
                "wType": "FlexContainer"
            }
        },
        "viewEmployerDetails.flxAddressState": {
            "__events__": {},
            "__info__": {
                "kuid": "i275f3b1282243bb8664744d248471db",
                "srcKUID": "bdfc463784a34e8ea0586067f489922b",
                "wType": "FlexContainer"
            }
        },
        "viewEmployerDetails.flxAddressZip": {
            "__events__": {},
            "__info__": {
                "kuid": "b028fbb7d63b49a9b71263207ef1e8fd",
                "srcKUID": "h4f436adcf3b48b2b8fc20e06a5c7e8f",
                "wType": "FlexContainer"
            }
        },
        "viewEmployerDetails.flxAddressZipCode": {
            "__events__": {},
            "__info__": {
                "kuid": "c3399206ac6d4bb3b9c37a32a0416330",
                "srcKUID": "f4a1015609ec4e42a1a4d61f14a3385c",
                "wType": "FlexContainer"
            }
        },
        "viewEmployerDetails.flxDescription": {
            "__events__": {},
            "__info__": {
                "kuid": "abb8cadfef604d6b95c4c4ac0b03a58a",
                "srcKUID": "e359249fe34542de96c82032c073b801",
                "wType": "FlexContainer"
            }
        },
        "viewEmployerDetails.flxDesignation": {
            "__events__": {},
            "__info__": {
                "kuid": "df4d5ee74a644237b6ceeecd16f5836c",
                "srcKUID": "b20ba0e7e8bb4e10a3b6809800996b1e",
                "wType": "FlexContainer"
            }
        },
        "viewEmployerDetails.flxDesignationMilitary": {
            "__events__": {},
            "__info__": {
                "kuid": "b58485d381344e30ad42bf319a94a957",
                "srcKUID": "b8468414a4f24052b413e9c48037c011",
                "wType": "FlexContainer"
            }
        },
        "viewEmployerDetails.flxEmpStartDateMilitary": {
            "__events__": {},
            "__info__": {
                "kuid": "g5a4009ba9ee4226b94f9c26eeb7212f",
                "srcKUID": "h8f315dda7b34ca68c92372e246903af",
                "wType": "FlexContainer"
            }
        },
        "viewEmployerDetails.flxEmpType": {
            "__events__": {},
            "__info__": {
                "kuid": "ddfee06f056a4ef1adda7ffe748bd632",
                "srcKUID": "b671d71b52e44c2a9d3ea45d7f3d36d1",
                "wType": "FlexContainer"
            }
        },
        "viewEmployerDetails.flxEmployerDtls": {
            "__events__": {},
            "__info__": {
                "kuid": "e9b45c4e24ee475abe2814eb157bf0a0",
                "srcKUID": "gefceb5cc9ee4fd09be31d2afa746435",
                "wType": "FlexContainer"
            }
        },
        "viewEmployerDetails.flxEmployerInfo": {
            "__events__": {},
            "__info__": {
                "kuid": "dd57d1f054c64a7298e5743207f4e1f5",
                "srcKUID": "dedbd0ba3a044158ab4af50aa732427c",
                "wType": "FlexContainer"
            }
        },
        "viewEmployerDetails.flxEmployerName": {
            "__events__": {},
            "__info__": {
                "kuid": "d4d402dc4fd34c8ba6e92d03a8b78af6",
                "srcKUID": "a99bbd51ee184c32a027fcbff8d93031",
                "wType": "FlexContainer"
            }
        },
        "viewEmployerDetails.flxGrossIncome": {
            "__events__": {},
            "__info__": {
                "kuid": "bde36e26bf3541af80abf98e1d76946d",
                "srcKUID": "j81838a462904774a43fa9f05ce23078",
                "wType": "FlexContainer"
            }
        },
        "viewEmployerDetails.flxGrossIncomeMilitary": {
            "__events__": {},
            "__info__": {
                "kuid": "d25e283c6bfb4adfb8172685242bea71",
                "srcKUID": "e9c4d022cb314cbc9f4a9ac38ec14b63",
                "wType": "FlexContainer"
            }
        },
        "viewEmployerDetails.flxGrossIncomeOther": {
            "__events__": {},
            "__info__": {
                "kuid": "e2fdc67e4f694bcd8fcd0aaf4fc37c11",
                "srcKUID": "cc8d0af827604da18e025479102a8889",
                "wType": "FlexContainer"
            }
        },
        "viewEmployerDetails.flxOtherEmp": {
            "__events__": {},
            "__info__": {
                "kuid": "gfd75526d5e24504ad31ed4a553fc4ad",
                "srcKUID": "g77f00f3b73c4ed7aa43e852d9429628",
                "wType": "FlexContainer"
            }
        },
        "viewEmployerDetails.flxOtherRow2": {
            "__events__": {},
            "__info__": {
                "kuid": "b46f2a42bd754cb99be98e8be5a620a3",
                "srcKUID": "a93e18cd4a334786bd7861caad316f0b",
                "wType": "FlexContainer"
            }
        },
        "viewEmployerDetails.flxPayPeriod": {
            "__events__": {},
            "__info__": {
                "kuid": "cb7cca255f7e4c0488538be724dbe853",
                "srcKUID": "fff5819ae17e4482bc0bb9e043292320",
                "wType": "FlexContainer"
            }
        },
        "viewEmployerDetails.flxPayPeriodOther": {
            "__events__": {},
            "__info__": {
                "kuid": "edd992e6ce3f43dfb17ccefa6f3e0865",
                "srcKUID": "a60122e771e449aab753794e8dea3e73",
                "wType": "FlexContainer"
            }
        },
        "viewEmployerDetails.flxPresentEmployment": {
            "__events__": {},
            "__info__": {
                "kuid": "db225608c23b4297a339d7e6c8b66ee3",
                "srcKUID": "ea97e890dd8e41d593d8b4a508a12139",
                "wType": "FlexContainer"
            }
        },
        "viewEmployerDetails.flxPrevAddressCity": {
            "__events__": {},
            "__info__": {
                "kuid": "ae36ffbbf5264b86bd1b06b759642c53",
                "srcKUID": "aca56d84ab864c62811f147659f0eac7",
                "wType": "FlexContainer"
            }
        },
        "viewEmployerDetails.flxPrevAddressCountry": {
            "__events__": {},
            "__info__": {
                "kuid": "h57761dcb24b4cdb9d2d9bb538b796a7",
                "srcKUID": "daef9a7f1c0340649c35b26c10739812",
                "wType": "FlexContainer"
            }
        },
        "viewEmployerDetails.flxPrevAddressCountryDtls": {
            "__events__": {},
            "__info__": {
                "kuid": "e38e0b9549604a7881546d9ae582ed7e",
                "srcKUID": "j3bea3bf5b4c48c3acc077ac1225bb85",
                "wType": "FlexContainer"
            }
        },
        "viewEmployerDetails.flxPrevAddressLine1": {
            "__events__": {},
            "__info__": {
                "kuid": "aabfbbc3d8d04cb1acd709264fa9af70",
                "srcKUID": "c4e8b46b0e0f4533a6b0c37438b81c01",
                "wType": "FlexContainer"
            }
        },
        "viewEmployerDetails.flxPrevAddressLine2": {
            "__events__": {},
            "__info__": {
                "kuid": "gea53d62c98a4d80a406509cd697092c",
                "srcKUID": "b833cfdeca084f538eb8c8939415bbf5",
                "wType": "FlexContainer"
            }
        },
        "viewEmployerDetails.flxPrevAddressState": {
            "__events__": {},
            "__info__": {
                "kuid": "ge201236008547aa8624a8330201d963",
                "srcKUID": "i6884214d8f44fe88197be739d2f7171",
                "wType": "FlexContainer"
            }
        },
        "viewEmployerDetails.flxPrevAddressZip": {
            "__events__": {},
            "__info__": {
                "kuid": "f93d661045b74e848a52f385ee7317fe",
                "srcKUID": "df0a64d494534b39a32fa2113f93a7e3",
                "wType": "FlexContainer"
            }
        },
        "viewEmployerDetails.flxPrevAddressZipCode": {
            "__events__": {},
            "__info__": {
                "kuid": "e17b3bfa86ae438e8dcc6e53a122de45",
                "srcKUID": "b119e1901d14486d82bbbe54766d286c",
                "wType": "FlexContainer"
            }
        },
        "viewEmployerDetails.flxPrevDesignation": {
            "__events__": {},
            "__info__": {
                "kuid": "ba9dd03714574b15a49c1db62c02b53f",
                "srcKUID": "f941822e02a2471faa68193f4bfec45f",
                "wType": "FlexContainer"
            }
        },
        "viewEmployerDetails.flxPrevEmployerDtls": {
            "__events__": {},
            "__info__": {
                "kuid": "a98aa55e774a49b5b8298727ddb3c191",
                "srcKUID": "ed1337e474794fab8b5d6664129729ca",
                "wType": "FlexContainer"
            }
        },
        "viewEmployerDetails.flxPrevEmployerName": {
            "__events__": {},
            "__info__": {
                "kuid": "g81031dfb0aa4fb9872ce1603083db84",
                "srcKUID": "b2b3fb9929094b42bc7c3cc252ff6022",
                "wType": "FlexContainer"
            }
        },
        "viewEmployerDetails.flxPrevRow1": {
            "__events__": {},
            "__info__": {
                "kuid": "c0fc1afd14fd4d41852310bd07f0eed0",
                "srcKUID": "fdeb5f526e5b4f9382e01f3eb8bd8424",
                "wType": "FlexContainer"
            }
        },
        "viewEmployerDetails.flxPreviousEmpDtls": {
            "__events__": {},
            "__info__": {
                "kuid": "c04bd9a507be498bb4e1dbc941771ced",
                "srcKUID": "d917adc3733a418ca61739b0a11dd9ca",
                "wType": "FlexContainer"
            }
        },
        "viewEmployerDetails.flxPreviousEmployer": {
            "__events__": {},
            "__info__": {
                "kuid": "d8acd260e89947a687505587086d1108",
                "srcKUID": "de5fe1a695774523b25ee554ffb3fcf1",
                "wType": "FlexContainer"
            }
        },
        "viewEmployerDetails.flxRow1": {
            "__events__": {},
            "__info__": {
                "kuid": "j4e0e6f59075449a9558c78d38d10fdf",
                "srcKUID": "j2797e5e3f9343709cac832804446e73",
                "wType": "FlexContainer"
            }
        },
        "viewEmployerDetails.flxRow2": {
            "__events__": {},
            "__info__": {
                "kuid": "ca2cff2618b2493ca07b581db403ea7e",
                "srcKUID": "f0393782d6c84b779087ceec9798a931",
                "wType": "FlexContainer"
            }
        },
        "viewEmployerDetails.flxRowMilitary": {
            "__events__": {},
            "__info__": {
                "kuid": "ed619744caa24e4383255e4ca12d2410",
                "srcKUID": "b4d30e62544049ab94c1a556f64e5272",
                "wType": "FlexContainer"
            }
        },
        "viewEmployerDetails.flxStartDate": {
            "__events__": {},
            "__info__": {
                "kuid": "bb3698775bb147d797ba969aff5e59d3",
                "srcKUID": "e50c83c1e9e44ec1a6339a74d77f8b52",
                "wType": "FlexContainer"
            }
        },
        "viewEmployerDetails.flxTotalWorkingHrs": {
            "__events__": {},
            "__info__": {
                "kuid": "eb5b202b0b8b4f75ae0bd24feee75199",
                "srcKUID": "i98514328b8f46aca81cb595cb3e585d",
                "wType": "FlexContainer"
            }
        },
        "viewEmployerDetails.lblAddress1Country": {
            "__events__": {},
            "__info__": {
                "kuid": "a28d69fd918f411b8242ceb2638ec0b8",
                "srcKUID": "e51bcd94e8e84b868ad134b20f7a9687",
                "wType": "Label"
            }
        },
        "viewEmployerDetails.lblAddressCity": {
            "__events__": {},
            "__info__": {
                "kuid": "hcfba03877234879b590eef43363fa3f",
                "srcKUID": "f99d2fd5a2ad49aa98a712d0f6040cf2",
                "wType": "Label"
            }
        },
        "viewEmployerDetails.lblAddressLine1": {
            "__events__": {},
            "__info__": {
                "kuid": "h6fb7c731c774c14873b55a1dce27e47",
                "srcKUID": "deedc23c53c0428e92ba44486b93e643",
                "wType": "Label"
            }
        },
        "viewEmployerDetails.lblAddressLine1Value": {
            "__events__": {},
            "__info__": {
                "kuid": "cfe5636305244cd8a77b3d95e7c5ba99",
                "srcKUID": "c1284cec330c405c986c6ed6e0f17c56",
                "wType": "Label"
            }
        },
        "viewEmployerDetails.lblAddressLine2": {
            "__events__": {},
            "__info__": {
                "kuid": "cdc96e92dbaf47db98aca36b439de157",
                "srcKUID": "a3bdd2b38d514ffaa2b9737cf2889506",
                "wType": "Label"
            }
        },
        "viewEmployerDetails.lblAddressLine2Value": {
            "__events__": {},
            "__info__": {
                "kuid": "eb3e24255535453fb8b4b39213ed6a33",
                "srcKUID": "c2eba95eee5f4652a009cafc68ce39b8",
                "wType": "Label"
            }
        },
        "viewEmployerDetails.lblAddressState": {
            "__events__": {},
            "__info__": {
                "kuid": "cac63d2c502744e494fbeb9893f154b1",
                "srcKUID": "e70678fb2669452cbd7ed02639a8a90f",
                "wType": "Label"
            }
        },
        "viewEmployerDetails.lblAddressZipCode": {
            "__events__": {},
            "__info__": {
                "kuid": "je87182bcec5482eb9306fbeecb70c0c",
                "srcKUID": "b2e622fc2b3a414481b3e574f9e188e8",
                "wType": "Label"
            }
        },
        "viewEmployerDetails.lblCityValue": {
            "__events__": {},
            "__info__": {
                "kuid": "c109031dfe8d46a9a6741475fe997415",
                "srcKUID": "b41ebd0391e543eb818d78e998ae56af",
                "wType": "Label"
            }
        },
        "viewEmployerDetails.lblCountryValue": {
            "__events__": {},
            "__info__": {
                "kuid": "c523b3ee278e410ca39f543eb546fb4b",
                "srcKUID": "g456e7f9820b4616ba4def330764e48e",
                "wType": "Label"
            }
        },
        "viewEmployerDetails.lblDescription": {
            "__events__": {},
            "__info__": {
                "kuid": "a348a456f744430abfe911dff84a2315",
                "srcKUID": "bf6df0dfb5954bd4845e837a827f5263",
                "wType": "Label"
            }
        },
        "viewEmployerDetails.lblDescriptionValue": {
            "__events__": {},
            "__info__": {
                "kuid": "c2c4828809ca4d6492e5425996c6769a",
                "srcKUID": "ef33479c80034ace975cea94ca8600a2",
                "wType": "Label"
            }
        },
        "viewEmployerDetails.lblDesignation": {
            "__events__": {},
            "__info__": {
                "kuid": "dcd27d13306d466da9960fa58370980f",
                "srcKUID": "a37cbea6d96545be88fa102308811128",
                "wType": "Label"
            }
        },
        "viewEmployerDetails.lblDesignationMilitary": {
            "__events__": {},
            "__info__": {
                "kuid": "a6cb0a624e2f4181a00a59681eb8d6db",
                "srcKUID": "j1ec8af9732d485ea8d65e8050d21cca",
                "wType": "Label"
            }
        },
        "viewEmployerDetails.lblDesignationValue": {
            "__events__": {},
            "__info__": {
                "kuid": "h729276192be488aa52cb23e7ddb342c",
                "srcKUID": "a13629a856e643a7ba4113707cb57b34",
                "wType": "Label"
            }
        },
        "viewEmployerDetails.lblDesignationValueMilitary": {
            "__events__": {},
            "__info__": {
                "kuid": "jb1e65ad253e4801a5780b6e77394f9f",
                "srcKUID": "i0b6798cdeff4c79bd89710e7c380db7",
                "wType": "Label"
            }
        },
        "viewEmployerDetails.lblEmpType": {
            "__events__": {},
            "__info__": {
                "kuid": "dc6714823e224734ae84c57136c5731e",
                "srcKUID": "hcfe596d8c9d40d8a9f8843d6f869255",
                "wType": "Label"
            }
        },
        "viewEmployerDetails.lblEmpTypeValue": {
            "__events__": {},
            "__info__": {
                "kuid": "f2f39d2924a847f18c826450d2c0fa33",
                "srcKUID": "b892526cbc014beaa290a3a638be7b51",
                "wType": "Label"
            }
        },
        "viewEmployerDetails.lblEmployerName": {
            "__events__": {},
            "__info__": {
                "kuid": "ef93302263de48faaa21a6cab56722a5",
                "srcKUID": "hf71a6e0199d410b95046190c0dc8e8c",
                "wType": "Label"
            }
        },
        "viewEmployerDetails.lblEmployerNameValue": {
            "__events__": {},
            "__info__": {
                "kuid": "dcc68bf4844e4c34a74ae9e5913c6520",
                "srcKUID": "jc66ed12e0be43bead03cfa00c25f874",
                "wType": "Label"
            }
        },
        "viewEmployerDetails.lblGrossIncome": {
            "__events__": {},
            "__info__": {
                "kuid": "dca8f2d345754473bf12e824d83dbf3a",
                "srcKUID": "c4b83504b6824b18b7c7decef7f541a1",
                "wType": "Label"
            }
        },
        "viewEmployerDetails.lblGrossIncomeMilitary": {
            "__events__": {},
            "__info__": {
                "kuid": "a486ef43a2cb4a1e8ec801f5e5c5cfe2",
                "srcKUID": "ea492d12a13948318f3ea08ae5e2fd53",
                "wType": "Label"
            }
        },
        "viewEmployerDetails.lblGrossIncomeMilitaryValue": {
            "__events__": {},
            "__info__": {
                "kuid": "a07d3788f65347b2a625d3b4c0faa4a3",
                "srcKUID": "a67ec56930f64d73b56d594a7e4c0f5a",
                "wType": "Label"
            }
        },
        "viewEmployerDetails.lblGrossIncomeOther": {
            "__events__": {},
            "__info__": {
                "kuid": "h4918868bd3640b1b2a1734df1ea20db",
                "srcKUID": "e7f685621e2e4174a2fd6ad8d9cadde9",
                "wType": "Label"
            }
        },
        "viewEmployerDetails.lblGrossIncomeOtherValue": {
            "__events__": {},
            "__info__": {
                "kuid": "a06d7be4ef584d3ba3229ad0d1744f5c",
                "srcKUID": "g0a758251b49462ea7c51fc2b1ccf866",
                "wType": "Label"
            }
        },
        "viewEmployerDetails.lblGrossIncomeValue": {
            "__events__": {},
            "__info__": {
                "kuid": "ec144ef7670b4b8a92ba7e7eceb51c65",
                "srcKUID": "a263d6aef7ae4f54b6283588efb66341",
                "wType": "Label"
            }
        },
        "viewEmployerDetails.lblPayPeriod": {
            "__events__": {},
            "__info__": {
                "kuid": "ce398a5a137d44f0a0a2d0848983780c",
                "srcKUID": "aecfd29f68f44ac09e76378bb12c1d68",
                "wType": "Label"
            }
        },
        "viewEmployerDetails.lblPayPeriodOther": {
            "__events__": {},
            "__info__": {
                "kuid": "i9e77bce8f0241df925d0c297c2b90e7",
                "srcKUID": "ecd181287ba3468c9fd00a867536cf9d",
                "wType": "Label"
            }
        },
        "viewEmployerDetails.lblPayPeriodOtherValue": {
            "__events__": {},
            "__info__": {
                "kuid": "c16b911ac8594e0dba3eab319e711a83",
                "srcKUID": "d8fc1add4f074e8ca96b61cc526fa17f",
                "wType": "Label"
            }
        },
        "viewEmployerDetails.lblPayPeriodValue": {
            "__events__": {},
            "__info__": {
                "kuid": "e1a260ef73334e32a86df3c7cc2d5d9b",
                "srcKUID": "g5c81dddb76a4ab095926f2b762bc1bb",
                "wType": "Label"
            }
        },
        "viewEmployerDetails.lblPrevAddress1": {
            "__events__": {},
            "__info__": {
                "kuid": "efed3884b9de411e8440ca3511e57a1f",
                "srcKUID": "h277ab1d7cb249f9aa44c42c1b39b0ef",
                "wType": "Label"
            }
        },
        "viewEmployerDetails.lblPrevAddressCity": {
            "__events__": {},
            "__info__": {
                "kuid": "c39f400d253a4fcfba8c22b3dfb842fd",
                "srcKUID": "da70a95a464646e894268a3be360dc1b",
                "wType": "Label"
            }
        },
        "viewEmployerDetails.lblPrevAddressLine1": {
            "__events__": {},
            "__info__": {
                "kuid": "h4b5d33ef17244df8ab5d5a74ce3a623",
                "srcKUID": "ee020c8772954aecba8ab39a58678ff3",
                "wType": "Label"
            }
        },
        "viewEmployerDetails.lblPrevAddressLine1Value": {
            "__events__": {},
            "__info__": {
                "kuid": "cdcd7f08b56140069ecf4dbeea226193",
                "srcKUID": "d73fad44dca842b6ba8ef87ee66d61f0",
                "wType": "Label"
            }
        },
        "viewEmployerDetails.lblPrevAddressLine2": {
            "__events__": {},
            "__info__": {
                "kuid": "c536ee64c3b84719bd7fab869a89e77a",
                "srcKUID": "gf9cae2c776c437aad8f6257c75e63b1",
                "wType": "Label"
            }
        },
        "viewEmployerDetails.lblPrevAddressLine2Value": {
            "__events__": {},
            "__info__": {
                "kuid": "d398279237864d50b2a4d771dcf9607a",
                "srcKUID": "d58bc3e344924dc2895e4ff05a829ed5",
                "wType": "Label"
            }
        },
        "viewEmployerDetails.lblPrevAddressState": {
            "__events__": {},
            "__info__": {
                "kuid": "d1df90e624424a70a517a91bb9fdcb5c",
                "srcKUID": "a2f6e914a6634b83ab9c367074b04c64",
                "wType": "Label"
            }
        },
        "viewEmployerDetails.lblPrevAddressZipCode": {
            "__events__": {},
            "__info__": {
                "kuid": "b6f46a6297e74150b5bee03da5f7cd59",
                "srcKUID": "eab3e9e4082646e6b8e2ac4249ec9a97",
                "wType": "Label"
            }
        },
        "viewEmployerDetails.lblPrevCityValue": {
            "__events__": {},
            "__info__": {
                "kuid": "ef592361e9e3416bbb5eec15c7729801",
                "srcKUID": "h68ba832c13341dcb355aa3def0f56a1",
                "wType": "Label"
            }
        },
        "viewEmployerDetails.lblPrevCountryValue": {
            "__events__": {},
            "__info__": {
                "kuid": "d585bb9b3e6243f989ba4827dae624ff",
                "srcKUID": "gecfdce4d64f4d2c8ed7d3e47048eb4b",
                "wType": "Label"
            }
        },
        "viewEmployerDetails.lblPrevDesignation": {
            "__events__": {},
            "__info__": {
                "kuid": "b15808b081e34d23b47244e8125606d3",
                "srcKUID": "bfb29c1831ec4ea8b9a82f72f9f2d566",
                "wType": "Label"
            }
        },
        "viewEmployerDetails.lblPrevDesignationValue": {
            "__events__": {},
            "__info__": {
                "kuid": "j7e4f04c9ebb41469fd87befddcc46b3",
                "srcKUID": "i0105eef2a4343e4ade05b30c43b92f6",
                "wType": "Label"
            }
        },
        "viewEmployerDetails.lblPrevEmployerName": {
            "__events__": {},
            "__info__": {
                "kuid": "ea73a0d020a2438495b017eb09003453",
                "srcKUID": "e07540bc18a04c8bbb939914583c678c",
                "wType": "Label"
            }
        },
        "viewEmployerDetails.lblPrevEmployerNameValue": {
            "__events__": {},
            "__info__": {
                "kuid": "f025a6ab940d4f35aa643fdbfd678a26",
                "srcKUID": "ib1711753e784bba951c760e6961cd85",
                "wType": "Label"
            }
        },
        "viewEmployerDetails.lblPrevStateValue": {
            "__events__": {},
            "__info__": {
                "kuid": "a6f6407fd32e48d7a1231928f1b996c8",
                "srcKUID": "jeaf8a8fff4b4de69a90430a83dab1f1",
                "wType": "Label"
            }
        },
        "viewEmployerDetails.lblPrevZipCodeValue": {
            "__events__": {},
            "__info__": {
                "kuid": "adfb220b02fd4e25a6040e4af4b45043",
                "srcKUID": "ad558254fb774dc9ba25af1a83a56b93",
                "wType": "Label"
            }
        },
        "viewEmployerDetails.lblPreviousEmp": {
            "__events__": {},
            "__info__": {
                "kuid": "j889d07297884e04aac5f222f36f47ec",
                "srcKUID": "dacd37715a1b47cd99a317488fbe63e9",
                "wType": "Label"
            }
        },
        "viewEmployerDetails.lblPreviousEmpValue": {
            "__events__": {},
            "__info__": {
                "kuid": "a2fb175a1a5443379afd3bd9451370ad",
                "srcKUID": "abfe6bc45638451c94c2133763a050ef",
                "wType": "Label"
            }
        },
        "viewEmployerDetails.lblStartDate": {
            "__events__": {},
            "__info__": {
                "kuid": "gac48ce901484ff6ad363c346d1277cf",
                "srcKUID": "aeab8a550c4c4dd488ba231f6b03c1af",
                "wType": "Label"
            }
        },
        "viewEmployerDetails.lblStartDateMilitary": {
            "__events__": {},
            "__info__": {
                "kuid": "d2303a0244cf48419ffa875681861203",
                "srcKUID": "ife7b7e332ef464ab03951eeb6252f3e",
                "wType": "Label"
            }
        },
        "viewEmployerDetails.lblStartDateMilitaryValue": {
            "__events__": {},
            "__info__": {
                "kuid": "h587c0c24a7143b2946e6ed2aa3463f7",
                "srcKUID": "hc479ba191b9471bb170074f490d3e70",
                "wType": "Label"
            }
        },
        "viewEmployerDetails.lblStartDateValue": {
            "__events__": {},
            "__info__": {
                "kuid": "f98b8782e1b34e0ba7b9f5f19f8c9771",
                "srcKUID": "bda0d1ba897f48d5a8f521395517db75",
                "wType": "Label"
            }
        },
        "viewEmployerDetails.lblStateValue": {
            "__events__": {},
            "__info__": {
                "kuid": "f88daad7af7b4a24a2f443a3d272af87",
                "srcKUID": "e17ee0fa2c6c4c8e9e637152e606264b",
                "wType": "Label"
            }
        },
        "viewEmployerDetails.lblTotalWorkingHrs": {
            "__events__": {},
            "__info__": {
                "kuid": "h04123dbbbf34141995616a6b3823fa6",
                "srcKUID": "d75dd30ca72740b29869330748c2f7a0",
                "wType": "Label"
            }
        },
        "viewEmployerDetails.lblTotalWorkingHrsValue": {
            "__events__": {},
            "__info__": {
                "kuid": "ac1f007a362b448ba9e9f554c89b462b",
                "srcKUID": "b19d67d68ad349069754632f3b1c04e2",
                "wType": "Label"
            }
        },
        "viewEmployerDetails.lblZipCodeValue": {
            "__events__": {},
            "__info__": {
                "kuid": "d65d410a41e04bdb9a4271bde06d737b",
                "srcKUID": "ae13465ed9ed4a0eb6778491370ea23c",
                "wType": "Label"
            }
        },
        "viewEmployerDetails.loansSectionHeader": {
            "__events__": {},
            "__info__": {
                "kuid": "c76b0b4c6c85490dbe0265346636a805",
                "srcKUID": "b1fbda28912e448aa75aca6d605bb854",
                "wType": "UserWidgetInstance"
            }
        },
        "viewEmployerDetails.loansSectionHeader.btnEdit": {
            "__events__": {},
            "__info__": {
                "kuid": "fc1e2d94259244f0bbb12c4627c6b5d4",
                "srcKUID": "c27739dd039c452cacde1639bdc20e70",
                "wType": "Button"
            }
        },
        "viewEmployerDetails.loansSectionHeader.flxSectionHeader": {
            "__events__": {},
            "__info__": {
                "kuid": "h6c26a3e05bf44c9930ee957d40a9f91",
                "srcKUID": "ja6ac5f84b5845008e849a596e9da285",
                "wType": "FlexContainer"
            }
        },
        "viewEmployerDetails.loansSectionHeader.lblSectionHeader": {
            "__events__": {},
            "__info__": {
                "kuid": "j6a9f169f04b48058641b3c5ece8f635",
                "srcKUID": "i5a3d710d2414717a368a0d47ff98d72",
                "wType": "Label"
            }
        },
        "viewEmployerDetails.loansSectionHeader.lblSeparator": {
            "__events__": {},
            "__info__": {
                "kuid": "d5443b4d222a40c2b1f185855823d4f1",
                "srcKUID": "ecfa727668964528b29e21fa05167fe3",
                "wType": "Label"
            }
        },
        "viewEmployerDetails.loansSectionHeader1": {
            "__events__": {},
            "__info__": {
                "kuid": "e83d9e2063984237adfb54334c37392d",
                "srcKUID": "f05b4bd1a23f42d6928f443898e01497",
                "wType": "UserWidgetInstance"
            }
        },
        "viewEmployerDetails.loansSectionHeader1.btnEdit": {
            "__events__": {},
            "__info__": {
                "kuid": "ce67b891145a4ff1a749108625efb52a",
                "srcKUID": "i408f942769e4c6a849ae44e2cf6e6c1",
                "wType": "Button"
            }
        },
        "viewEmployerDetails.loansSectionHeader1.flxSectionHeader": {
            "__events__": {},
            "__info__": {
                "kuid": "c2f5e7c5b4cc4bdfb83be7cfccaf1226",
                "srcKUID": "f7fa892bc5644f6aab7d8da4015b2b98",
                "wType": "FlexContainer"
            }
        },
        "viewEmployerDetails.loansSectionHeader1.lblSectionHeader": {
            "__events__": {},
            "__info__": {
                "kuid": "f63093b88a684eb48ff9f1ae34db4980",
                "srcKUID": "ef085f59fb8d42fb8436fb9d275d927f",
                "wType": "Label"
            }
        },
        "viewEmployerDetails.loansSectionHeader1.lblSeparator": {
            "__events__": {},
            "__info__": {
                "kuid": "jfe7ac30942e4bf9a26ebac70ccdfa55",
                "srcKUID": "a763b93ed9b947daa7d33ada5f3fade5",
                "wType": "Label"
            }
        },
        "viewExpenditureInfo": {
            "__events__": {},
            "__info__": {
                "kuid": "g234c04b58524182b1670dce2c7e93d1",
                "srcKUID": "e3e210ab8b7f4e548b2c0bb0c5177b80",
                "wType": "UserWidgetInstance"
            }
        },
        "viewExpenditureInfo.flxExpenditureInfo": {
            "__events__": {},
            "__info__": {
                "kuid": "g8f86d9098634cebb81184818c386cc5",
                "srcKUID": "j59bebce92ad4ef2ab9e37befbd60879",
                "wType": "FlexContainer"
            }
        },
        "viewExpenditureInfo.flxMortgage": {
            "__events__": {},
            "__info__": {
                "kuid": "h901a1cf5c3441ff84063cfaa3b397f2",
                "srcKUID": "ced605a3204c43a0a88326c5f0ab5144",
                "wType": "FlexContainer"
            }
        },
        "viewExpenditureInfo.flxRent": {
            "__events__": {},
            "__info__": {
                "kuid": "g6f9698c69834d4cba61c2824110dfc2",
                "srcKUID": "b644d04e92a9453eabfe7f0f3f7a7257",
                "wType": "FlexContainer"
            }
        },
        "viewExpenditureInfo.flxSection": {
            "__events__": {},
            "__info__": {
                "kuid": "j47f39ce8a9e4762adcb3408a6b1f70e",
                "srcKUID": "d090131120064b328829e456fe7db87e",
                "wType": "FlexContainer"
            }
        },
        "viewExpenditureInfo.lblMortgage": {
            "__events__": {},
            "__info__": {
                "kuid": "b305ab236abf4970a4480a30b1af3fa0",
                "srcKUID": "ec7841be61594bc68a8b373238e86928",
                "wType": "Label"
            }
        },
        "viewExpenditureInfo.lblMortgageValue": {
            "__events__": {},
            "__info__": {
                "kuid": "eb5e6c64161944bf803acbce46d83e8f",
                "srcKUID": "fb458a673a0c4e6b9b3e5ebca1d089ee",
                "wType": "Label"
            }
        },
        "viewExpenditureInfo.lblRent": {
            "__events__": {},
            "__info__": {
                "kuid": "e645728e78e74376afcd8375cb0f9e4e",
                "srcKUID": "i520f7613f594044b005072dde0a0d12",
                "wType": "Label"
            }
        },
        "viewExpenditureInfo.lblRentValue": {
            "__events__": {},
            "__info__": {
                "kuid": "f20fec5da7fc43789fb70a0730bee2ae",
                "srcKUID": "e2bbd154566b49528dc8f86b0cd10526",
                "wType": "Label"
            }
        },
        "viewExpenditureInfo.loansSectionHeader": {
            "__events__": {},
            "__info__": {
                "kuid": "dd7f779694f643089ada683fb9e82d99",
                "srcKUID": "fb3808c5b10f448d904052d1e5d55ee1",
                "wType": "UserWidgetInstance"
            }
        },
        "viewExpenditureInfo.loansSectionHeader.btnEdit": {
            "__events__": {},
            "__info__": {
                "kuid": "h5b0af6e89034a4e9fc35b33c02a7f9e",
                "srcKUID": "b5d19449fae94d248dee0c66fc6b5d63",
                "wType": "Button"
            }
        },
        "viewExpenditureInfo.loansSectionHeader.flxSectionHeader": {
            "__events__": {},
            "__info__": {
                "kuid": "g8ae520ee97b4e3aab47fec0e0d25bce",
                "srcKUID": "e59e187d2dd646df8dfddb85ce24c7fa",
                "wType": "FlexContainer"
            }
        },
        "viewExpenditureInfo.loansSectionHeader.lblSectionHeader": {
            "__events__": {},
            "__info__": {
                "kuid": "hb283f37475d452ab66dd975ef6abc29",
                "srcKUID": "hfa49c031bf64ef48e608d41e2a98da8",
                "wType": "Label"
            }
        },
        "viewExpenditureInfo.loansSectionHeader.lblSeparator": {
            "__events__": {},
            "__info__": {
                "kuid": "g5de515db7f1408a9a8343fafd8f2c5c",
                "srcKUID": "ff97058796be44109140d58525a4a394",
                "wType": "Label"
            }
        },
        "viewIncomeSource": {
            "__events__": {},
            "__info__": {
                "kuid": "e17467eba6a44d80a99b11bc07129e71",
                "srcKUID": "c29e725d294142f0a07427e517e43ad4",
                "wType": "UserWidgetInstance"
            }
        },
        "viewIncomeSource.flxEmpStatus": {
            "__events__": {},
            "__info__": {
                "kuid": "bbe4090a5a894373ac22997b0fd2a6d0",
                "srcKUID": "ae5f27bccb4941f1a4fefa6778b473b1",
                "wType": "FlexContainer"
            }
        },
        "viewIncomeSource.flxIncomeSource": {
            "__events__": {},
            "__info__": {
                "kuid": "afeb057906234b5aae57cb0eea3e9d34",
                "srcKUID": "g33ce20f55a74ee5b507ca5904439f6d",
                "wType": "FlexContainer"
            }
        },
        "viewIncomeSource.lblEmpStatus": {
            "__events__": {},
            "__info__": {
                "kuid": "a62b377bf8eb4c3fa0356e78fa5c2870",
                "srcKUID": "hc334c37a34d4c2f8a13648b21a98e1e",
                "wType": "Label"
            }
        },
        "viewIncomeSource.lblEmpStatusValue": {
            "__events__": {},
            "__info__": {
                "kuid": "aa918233ea3f476e975a287671c4d81a",
                "srcKUID": "hb683ce011f74990a1f6795cdb4b83f5",
                "wType": "Label"
            }
        },
        "viewIncomeSource.loansSectionHeader": {
            "__events__": {},
            "__info__": {
                "kuid": "i404e5c6e88a4e789e9e28f7905ca501",
                "srcKUID": "c4840f862ea0485eaa024ca54db5cdc2",
                "wType": "UserWidgetInstance"
            }
        },
        "viewIncomeSource.loansSectionHeader.btnEdit": {
            "__events__": {},
            "__info__": {
                "kuid": "e51263fb58a74e8b8c16314ccca8a49a",
                "srcKUID": "eb267eb51c124f568c011055f2530e8f",
                "wType": "Button"
            }
        },
        "viewIncomeSource.loansSectionHeader.flxSectionHeader": {
            "__events__": {},
            "__info__": {
                "kuid": "d959e8df578e48c486a3a414a3f072be",
                "srcKUID": "f489672960474000915ae5e465f59b3a",
                "wType": "FlexContainer"
            }
        },
        "viewIncomeSource.loansSectionHeader.lblSectionHeader": {
            "__events__": {},
            "__info__": {
                "kuid": "aa7ef4657b2a41adaa6bea027cbaa419",
                "srcKUID": "ha1c3ac8c00d4dc78e7af12aad762c37",
                "wType": "Label"
            }
        },
        "viewIncomeSource.loansSectionHeader.lblSeparator": {
            "__events__": {},
            "__info__": {
                "kuid": "a1f14b25afe443b0943304ee36e6a4cf",
                "srcKUID": "d94305ae5ade46b2a7cc6afb90e42088",
                "wType": "Label"
            }
        },
        "viewPersonalInfo": {
            "__events__": {},
            "__info__": {
                "kuid": "ic30fcc1d6aa4ef084b2d2a8d43ac3e2",
                "srcKUID": "eea88955a2db46a18bccbe2bb180166d",
                "wType": "UserWidgetInstance"
            }
        },
        "viewPersonalInfo.flxCloseCalPersonalInfo": {
            "__events__": {},
            "__info__": {
                "kuid": "e5bbcc0b59124c4589ffa776cd330a4c",
                "srcKUID": "b9c90aaed8514c11abe7ecaa6c783520",
                "wType": "FlexContainer"
            }
        },
        "viewPersonalInfo.flxDLNumber": {
            "__events__": {},
            "__info__": {
                "kuid": "h6cd22801bf34712b278fbe396d1db2e",
                "srcKUID": "c79ee6e70bd1487abea388f08ac9d693",
                "wType": "FlexContainer"
            }
        },
        "viewPersonalInfo.flxDateOfBirthPersonalInfo": {
            "__events__": {},
            "__info__": {
                "kuid": "id9b424b84324bad92b39a5dd60b1703",
                "srcKUID": "i37737fb32064906ae3edce5e4db0a5a",
                "wType": "FlexContainer"
            }
        },
        "viewPersonalInfo.flxDropDownAdmin2": {
            "__events__": {},
            "__info__": {
                "kuid": "if224390b1de4d3d8b4b722dae67083c",
                "srcKUID": "db5d979325e3421cb8ef0419a59416aa",
                "wType": "FlexContainer"
            }
        },
        "viewPersonalInfo.flxEmailAddress": {
            "__events__": {},
            "__info__": {
                "kuid": "f64823bad4774c4da299496750428bcb",
                "srcKUID": "a1fc9c21199c454e882788b22e74fd15",
                "wType": "FlexContainer"
            }
        },
        "viewPersonalInfo.flxFirstName": {
            "__events__": {},
            "__info__": {
                "kuid": "cef11943ca204c04b554ed0cf445e4f8",
                "srcKUID": "cd866505d3f9420abd1d587141e47776",
                "wType": "FlexContainer"
            }
        },
        "viewPersonalInfo.flxLastName": {
            "__events__": {},
            "__info__": {
                "kuid": "ca5a6e53b7ad4684b1610d8d4035341c",
                "srcKUID": "cb8cabf89ac24ffd9ffea42ddd125f2f",
                "wType": "FlexContainer"
            }
        },
        "viewPersonalInfo.flxMiddleName": {
            "__events__": {},
            "__info__": {
                "kuid": "c14cab95001c4253a07386d9740005b7",
                "srcKUID": "bea9142158444093b18fa8d28c22cb99",
                "wType": "FlexContainer"
            }
        },
        "viewPersonalInfo.flxPersonalInfo": {
            "__events__": {},
            "__info__": {
                "kuid": "i5530f91547f495790a5d5a1281c35a9",
                "srcKUID": "h001d6223db74eb69ce0051220b98b65",
                "wType": "FlexContainer"
            }
        },
        "viewPersonalInfo.flxRow1": {
            "__events__": {},
            "__info__": {
                "kuid": "ff68b420f0b7482c9f2bab3e12497c77",
                "srcKUID": "c362cb83f8614bb19a62ce09909b5859",
                "wType": "FlexContainer"
            }
        },
        "viewPersonalInfo.flxRow2": {
            "__events__": {},
            "__info__": {
                "kuid": "fa62a94f2f3f4a8a9d9cfb22b6f58232",
                "srcKUID": "c349dcc92235481e826a39b849f28623",
                "wType": "FlexContainer"
            }
        },
        "viewPersonalInfo.flxRow3": {
            "__events__": {},
            "__info__": {
                "kuid": "dcd2662e1af24c24b887e695d8d63533",
                "srcKUID": "cbe7f04411ac4dca8475fa1ff3337c1a",
                "wType": "FlexContainer"
            }
        },
        "viewPersonalInfo.flxSSN": {
            "__events__": {},
            "__info__": {
                "kuid": "cb0f30e1165e4e108f9d1e5fb9506a69",
                "srcKUID": "i46b72cb3f63409b9c66426f0b1346af",
                "wType": "FlexContainer"
            }
        },
        "viewPersonalInfo.flxState": {
            "__events__": {},
            "__info__": {
                "kuid": "cb09d4d1f2954974b7e76df2549ac4fd",
                "srcKUID": "b76284dfd4ec410d8c5878986f6c69bb",
                "wType": "FlexContainer"
            }
        },
        "viewPersonalInfo.flxSuffix": {
            "__events__": {},
            "__info__": {
                "kuid": "d1ea8080bf43453287089c7b643d5381",
                "srcKUID": "b65e638dccfa4d4c88a30cd66923794f",
                "wType": "FlexContainer"
            }
        },
        "viewPersonalInfo.lblCloseCalPersonalInfo": {
            "__events__": {},
            "__info__": {
                "kuid": "acd332610fc44570b5478eb9819f4c1a",
                "srcKUID": "baeead6cbc4b40e18f7d12ca2a477114",
                "wType": "Label"
            }
        },
        "viewPersonalInfo.lblDLNumber": {
            "__events__": {},
            "__info__": {
                "kuid": "de53ee6a35d14f03aa0d96d83c0e48ec",
                "srcKUID": "i9a339abb52943adb4eefe10811a4009",
                "wType": "Label"
            }
        },
        "viewPersonalInfo.lblDLNumberValue": {
            "__events__": {},
            "__info__": {
                "kuid": "bc594c0383d14755b01e811c7b2a86a4",
                "srcKUID": "eb62443998224c6ba57439d3d4f9f9b4",
                "wType": "Label"
            }
        },
        "viewPersonalInfo.lblDobValue": {
            "__events__": {},
            "__info__": {
                "kuid": "fa755d24a89745b9925198a7ee70dba3",
                "srcKUID": "h35fefcea6c241ca820cc513ab7f4841",
                "wType": "Label"
            }
        },
        "viewPersonalInfo.lblEmailAddress": {
            "__events__": {},
            "__info__": {
                "kuid": "e3e34a35fb7141a48e68485322910222",
                "srcKUID": "f3e08f6898064df584e385718a43787d",
                "wType": "Label"
            }
        },
        "viewPersonalInfo.lblEmailAddressValue": {
            "__events__": {},
            "__info__": {
                "kuid": "d307072a9c714d2fa18b196fc71eecdd",
                "srcKUID": "c7804d9770ba4b639b42c6642d20eed8",
                "wType": "Label"
            }
        },
        "viewPersonalInfo.lblLastNameValue": {
            "__events__": {},
            "__info__": {
                "kuid": "b8bb01e7baf241c99323e6e5cab80a99",
                "srcKUID": "e3b7be2057ce4a9a9efb291a3a15928e",
                "wType": "Label"
            }
        },
        "viewPersonalInfo.lblMiddleNameStatic": {
            "__events__": {},
            "__info__": {
                "kuid": "c929ac64c6d84d45afe7073db1c6f820",
                "srcKUID": "eef6a0470a1f4c15a44d43579a497c87",
                "wType": "Label"
            }
        },
        "viewPersonalInfo.lblMiddleNameValue": {
            "__events__": {},
            "__info__": {
                "kuid": "ed3bebaebfbe4cbd8831c159474e9f75",
                "srcKUID": "f1230553705d43ca82ef4633cbde70aa",
                "wType": "Label"
            }
        },
        "viewPersonalInfo.lblName": {
            "__events__": {},
            "__info__": {
                "kuid": "i3d0f32fd5754f92b17e45ccc6741a36",
                "srcKUID": "je5f7f26a9c84bf3ae89d586e68c8604",
                "wType": "Label"
            }
        },
        "viewPersonalInfo.lblNameValue": {
            "__events__": {},
            "__info__": {
                "kuid": "g42479aa282d4ac78bbb69590537b4a8",
                "srcKUID": "da0ef49fab214a1ea85e1949e0d7dde1",
                "wType": "Label"
            }
        },
        "viewPersonalInfo.lblSSN": {
            "__events__": {},
            "__info__": {
                "kuid": "ge063e26b0974c319fd4e64d2abce691",
                "srcKUID": "f7d53819b5bf401c9f45aad7bde939b2",
                "wType": "Label"
            }
        },
        "viewPersonalInfo.lblSSNValue": {
            "__events__": {},
            "__info__": {
                "kuid": "h19e2755221d4bb69ebb77046f2eb027",
                "srcKUID": "gf6ba9be84c34301b476485fd64c0fb5",
                "wType": "Label"
            }
        },
        "viewPersonalInfo.lblSateOfBirth": {
            "__events__": {},
            "__info__": {
                "kuid": "cb96ab890953421192ce9a966b49b1e3",
                "srcKUID": "ca7b8f2754474132a6cc6ce738e38604",
                "wType": "Label"
            }
        },
        "viewPersonalInfo.lblState": {
            "__events__": {},
            "__info__": {
                "kuid": "f42dcaa14b624877bea91b7beef60b5a",
                "srcKUID": "b1c36e6ae049439093c35c73ed46b807",
                "wType": "Label"
            }
        },
        "viewPersonalInfo.lblStateValue": {
            "__events__": {},
            "__info__": {
                "kuid": "i9735e235df34323ad9435da96b013fc",
                "srcKUID": "a31e32b358434019a77abacd96e949e4",
                "wType": "Label"
            }
        },
        "viewPersonalInfo.lblSuffix": {
            "__events__": {},
            "__info__": {
                "kuid": "e1e8a94faebe492eb8fa5f172cb223e8",
                "srcKUID": "dab5ace879b44e7ba5c33466ec9d7819",
                "wType": "Label"
            }
        },
        "viewPersonalInfo.lblSuffixValue": {
            "__events__": {},
            "__info__": {
                "kuid": "fa869c4c974941689e3adc665728189e",
                "srcKUID": "d85dcfd4e0de4c7596577e1f928e71a2",
                "wType": "Label"
            }
        },
        "viewPersonalInfo.lbllastName": {
            "__events__": {},
            "__info__": {
                "kuid": "h3e60a35996748928323347da99999c4",
                "srcKUID": "f8c695e0483e41038ccf867c878e01a0",
                "wType": "Label"
            }
        },
        "viewPersonalInfo.loansSectionHeader": {
            "__events__": {},
            "__info__": {
                "kuid": "c1f18974773f47258b75aaf0915abca3",
                "srcKUID": "f67abfbe1d6f4f1aaddf173203617e11",
                "wType": "UserWidgetInstance"
            }
        },
        "viewPersonalInfo.loansSectionHeader.btnEdit": {
            "__events__": {},
            "__info__": {
                "kuid": "ed32df97564d46228481b6e907c52207",
                "srcKUID": "i102a1c40ae24ce0b4a1726d5d241a83",
                "wType": "Button"
            }
        },
        "viewPersonalInfo.loansSectionHeader.flxSectionHeader": {
            "__events__": {},
            "__info__": {
                "kuid": "dc03408d37544cf493cf9b9ec28f7a3b",
                "srcKUID": "g4c152d6438c487fa017fcab82e6b1f3",
                "wType": "FlexContainer"
            }
        },
        "viewPersonalInfo.loansSectionHeader.lblSectionHeader": {
            "__events__": {},
            "__info__": {
                "kuid": "f853184d62d646b6b735558c698582fd",
                "srcKUID": "eec9016b9ece4178bc8bea1b28b82033",
                "wType": "Label"
            }
        },
        "viewPersonalInfo.loansSectionHeader.lblSeparator": {
            "__events__": {},
            "__info__": {
                "kuid": "b57e8908b33a42e79b7563b2a214e261",
                "srcKUID": "d6422c42327245e3a98dbf5a35af4427",
                "wType": "Label"
            }
        }
    },
    "enablescrolling": true,
    "id": "viewApplicantDetails",
    "info": null,
    "iscustomlayout": false,
    "isdatareferenced": false,
    "isvisible": true,
    "kuid": "fc56e0b99ab34db98afc39132fbc1399",
    "layouttype": 4,
    "masterType": 0,
    "name": "kony.ui.UserWidgetInstance",
    "parent": "flxViewLoanDetails",
    "pf": "frmTrackApplication",
    "retaincontentalignment": false,
    "retainflexpositionproperties": false,
    "snapgridsize": 10,
    "snaptogrid": true,
    "sourceUserWidget": "j0184db11f4b4f658d54e2e897011ff3",
    "wType": "UserWidgetInstance"
}