{
    "@class": "com.kony.gen.viz.model.component.KVizListBox",
    "DNDConfig": null,
    "__parentReadjusting__": false,
    "_height_": {
        "type": "string",
        "value": "40dp"
    },
    "_left_": "0px",
    "_margin_": [
        0,
        0,
        0,
        0
    ],
    "_padding_": [
        3,
        0,
        0,
        0
    ],
    "_skin_": "sce51b380ef94ee9bcfbab6230c0d90e",
    "_top_": {
        "type": "string",
        "value": "30dp"
    },
    "_width_": {
        "type": "string",
        "value": "100%"
    },
    "canUpdateUI": true,
    "containerweight": 100,
    "contentalignment": 4,
    "context": {
        "channel": "desktop",
        "formID": "uwc998f41174d74b99ab40397b94bc1196",
        "platform": "desktopweb",
        "templateType": "userwidgets",
        "topLevelBox": null
    },
    "disabledSkins": {},
    "focusskin": "sc4a2c26f1694f9cb34846ddf7be7730",
    "groupcells": false,
    "id": "lstboxDetails4",
    "info": null,
    "isvisible": true,
    "kiosk": {
        "psp": {
            "placeholder": "Select"
        }
    },
    "kuid": "fc7ad3a32b334b239e06207d4f078c76",
    "masterdata": [
        [
            "k1",
            "Employed"
        ],
        [
            "k2",
            "Unemployed"
        ],
        [
            "k3",
            "Retired"
        ],
        [
            "k4",
            "Student"
        ]
    ],
    "name": "kony.ui.ListBox",
    "parent": "flxDetails4",
    "pf": "userwidgetmodel",
    "selectedkey": "k1",
    "selectedkeys": null,
    "selectedkeyvalue": [
        "k1",
        "Employed"
    ],
    "selectedkeyvalues": null,
    "size": 18,
    "viewconfig": {
        "toggleViewConfig": {
            "viewStyle": 0
        }
    },
    "viewtype": 0,
    "wType": "ListBox",
    "zindex": 2
}