{
    "@class": "com.kony.gen.viz.model.container.KVizSegment2",
    "DNDConfig": null,
    "__parentReadjusting__": false,
    "_data_": [
        {},
        {},
        {}
    ],
    "_height_": {
        "type": "string",
        "value": "200dp"
    },
    "_indicator_": "none",
    "_left_": {
        "type": "string",
        "value": "0dp"
    },
    "_margin_": [
        0,
        0,
        0,
        0
    ],
    "_orientation_": 2,
    "_padding_": [
        0,
        0,
        0,
        0
    ],
    "_top_": {
        "type": "string",
        "value": "0px"
    },
    "_width_": {
        "type": "string",
        "value": "100%"
    },
    "autogrowmode": 0,
    "canUpdateUI": true,
    "containerweight": 100,
    "counter": "02",
    "desktop": {
        "_data_": [
            {
                "fonticonArrow": {
                    "@class": "com.viz.ide.model.segment.SimpleTextSegmentData",
                    "text": ""
                },
                "lblConfigSeparator": {
                    "@class": "com.viz.ide.model.segment.SimpleTextSegmentData",
                    "i18nkey": "i18n.userwidgetmodel.lblHeaderSeparator",
                    "text": "Label"
                },
                "lblConfigurationKey": {
                    "@class": "com.viz.ide.model.segment.SimpleTextSegmentData",
                    "text": "Configuration Key"
                },
                "lblConfigurationTarget": {
                    "@class": "com.viz.ide.model.segment.SimpleTextSegmentData",
                    "text": "CLIENT"
                },
                "lblConfigurationType": {
                    "@class": "com.viz.ide.model.segment.SimpleTextSegmentData",
                    "text": "PREFERENCE"
                },
                "lblConfigurationValue": {
                    "@class": "com.viz.ide.model.segment.SimpleTextSegmentData",
                    "text": "Configuration Value"
                },
                "lblIconOptions": {
                    "@class": "com.viz.ide.model.segment.SimpleTextSegmentData",
                    "text": ""
                }
            },
            {
                "fonticonArrow": {
                    "@class": "com.viz.ide.model.segment.SimpleTextSegmentData",
                    "text": ""
                },
                "lblConfigSeparator": {
                    "@class": "com.viz.ide.model.segment.SimpleTextSegmentData",
                    "i18nkey": "i18n.userwidgetmodel.lblHeaderSeparator",
                    "text": "Label"
                },
                "lblConfigurationKey": {
                    "@class": "com.viz.ide.model.segment.SimpleTextSegmentData",
                    "text": "Configuration Key"
                },
                "lblConfigurationTarget": {
                    "@class": "com.viz.ide.model.segment.SimpleTextSegmentData",
                    "text": "CLIENT"
                },
                "lblConfigurationType": {
                    "@class": "com.viz.ide.model.segment.SimpleTextSegmentData",
                    "text": "PREFERENCE"
                },
                "lblConfigurationValue": {
                    "@class": "com.viz.ide.model.segment.SimpleTextSegmentData",
                    "text": "Configuration Value"
                },
                "lblIconOptions": {
                    "@class": "com.viz.ide.model.segment.SimpleTextSegmentData",
                    "text": ""
                }
            },
            {
                "fonticonArrow": {
                    "@class": "com.viz.ide.model.segment.SimpleTextSegmentData",
                    "text": ""
                },
                "lblConfigSeparator": {
                    "@class": "com.viz.ide.model.segment.SimpleTextSegmentData",
                    "i18nkey": "i18n.userwidgetmodel.lblHeaderSeparator",
                    "text": "Label"
                },
                "lblConfigurationKey": {
                    "@class": "com.viz.ide.model.segment.SimpleTextSegmentData",
                    "text": "Configuration Key"
                },
                "lblConfigurationTarget": {
                    "@class": "com.viz.ide.model.segment.SimpleTextSegmentData",
                    "text": "CLIENT"
                },
                "lblConfigurationType": {
                    "@class": "com.viz.ide.model.segment.SimpleTextSegmentData",
                    "text": "PREFERENCE"
                },
                "lblConfigurationValue": {
                    "@class": "com.viz.ide.model.segment.SimpleTextSegmentData",
                    "text": "Configuration Value"
                },
                "lblIconOptions": {
                    "@class": "com.viz.ide.model.segment.SimpleTextSegmentData",
                    "text": ""
                }
            }
        ],
        "rowTemplateId": "f1043d523cb342dc8249864a96e96ee9",
        "rowtemplate": "flxConfiguration",
        "sectionHeaderTemplateId": null,
        "selectionBehaviorConfig": {
            "imageIdentifier": "imgCheckBox",
            "selectedStateImage": "checkboxselected.png",
            "unselectedStateImage": "checkbox.png"
        },
        "widgetdatamap": {
            "flxArrow": "flxArrow",
            "flxConfiguration": "flxConfiguration",
            "flxConfigurationArrow": "flxConfigurationArrow",
            "flxConfigurationContextualMenu": "flxConfigurationContextualMenu",
            "flxConfigurationKey": "flxConfigurationKey",
            "flxConfigurationTarget": "flxConfigurationTarget",
            "flxConfigurationType": "flxConfigurationType",
            "flxConfigurationValue": "flxConfigurationValue",
            "flxOptions": "flxOptions",
            "fonticonArrow": "fonticonArrow",
            "lblConfigSeparator": "lblConfigSeparator",
            "lblConfigurationKey": "lblConfigurationKey",
            "lblConfigurationTarget": "lblConfigurationTarget",
            "lblConfigurationType": "lblConfigurationType",
            "lblConfigurationValue": "lblConfigurationValue",
            "lblIconOptions": "lblIconOptions"
        }
    },
    "focusedindex": null,
    "focuseditem": null,
    "groupcells": false,
    "hasSections": false,
    "id": "segConfiguration",
    "info": null,
    "invokedProperty": "unselectedStateImage",
    "ipad": {
        "psp": {
            "indicator": "rowselect"
        }
    },
    "iphone": {
        "psp": {
            "indicator": "rowselect"
        }
    },
    "isvisible": true,
    "kuid": "b5a0626136ae4e01a260de186a171998",
    "masterdata": {},
    "name": "kony.ui.SegmentedUI2",
    "needpageindicator": true,
    "pageoffdotimage": "pageoffdot.png",
    "pageondotimage": "pageondot.png",
    "paginationconfig": {
        "position": "bottom"
    },
    "parent": "flxTableView",
    "pf": "userwidgetmodel",
    "retainselection": false,
    "rowcounter": 2,
    "rowfocusskin": "se901dcdd2ae4a58a81f21c009edf99e",
    "rowskin": "s54014e0d4204ce9acd27107655ded87",
    "rowtemplate": "flxOutage",
    "screenlevelwidget": false,
    "seccounter": 0,
    "sectionheaderskin": "sffa0c1a0560403189088e98f7b4f498",
    "selectedRows": null,
    "selectedState": false,
    "selectedindex": null,
    "selectedindices": null,
    "selecteditems": null,
    "selectedsectionindex": null,
    "selectimage": "checkboxselected.png",
    "selectionbehavior": "multiselect",
    "selectionbehaviorconfig": {
        "imageIdentifier": "imgCheckBox",
        "selectedStateImage": "checkboxselected.png",
        "unselectedStateImage": "checkbox.png"
    },
    "selectionindicator": "imgCheckBox",
    "separatorrequired": false,
    "showscrollbars": true,
    "unselectimage": "checkbox.png",
    "viewtype": "tableview",
    "vizProps": {},
    "wType": "Segment",
    "widgetalignment": 5,
    "widgetdatamap": {
        "flxArrow": "flxArrow",
        "flxConfiguration": "flxConfiguration",
        "flxConfigurationArrow": "flxConfigurationArrow",
        "flxConfigurationContextualMenu": "flxConfigurationContextualMenu",
        "flxConfigurationKey": "flxConfigurationKey",
        "flxConfigurationTarget": "flxConfigurationTarget",
        "flxConfigurationType": "flxConfigurationType",
        "flxConfigurationValue": "flxConfigurationValue",
        "flxOptions": "flxOptions",
        "fonticonArrow": "fonticonArrow",
        "lblConfigSeparator": "lblConfigSeparator",
        "lblConfigurationKey": "lblConfigurationKey",
        "lblConfigurationTarget": "lblConfigurationTarget",
        "lblConfigurationType": "lblConfigurationType",
        "lblConfigurationValue": "lblConfigurationValue",
        "lblIconOptions": "lblIconOptions"
    },
    "zindex": 1
}