{
    "DNDConfig": null,
    "__markedForDelete__": true,
    "__parentReadjusting__": false,
    "_height_": {
        "type": "string",
        "value": "25px"
    },
    "_margin_": [
        0,
        0,
        0,
        0
    ],
    "_orientation_": 6,
    "_padding_": [
        0,
        0,
        0,
        0
    ],
    "_percent_": true,
    "_right_": {
        "type": "string",
        "value": "50px"
    },
    "_skin_": "s8ff24328417401b877c3ceb2a5fa27c",
    "_top_": {
        "type": "string",
        "value": "15px"
    },
    "_width_": {
        "type": "string",
        "value": "25px"
    },
    "allboxes": [],
    "autogrowmode": 0,
    "canUpdateUI": true,
    "children": [
        "imgOptions"
    ],
    "clipbounds": true,
    "containerId": true,
    "containerweight": 100,
    "desktopweb": {
        "psp": {
            "hoverSkin": "scd6759b91984d0791be140ca44627a3"
        }
    },
    "enablescrolling": true,
    "id": "flxOptions",
    "ide_onClick": "AS_FlexContainer_bce8e7270bbf47bf9d456e8b5edbc76d",
    "info": null,
    "isvisible": true,
    "kuid": "d5731413f01848c7bdf388059c3a11ce",
    "layouttype": 2,
    "name": "kony.ui.FlexContainer",
    "parent": "flxRowWrapper",
    "pf": "segCustomerMangEntitlements",
    "snapgridsize": 10,
    "snaptogrid": true,
    "wType": "FlexContainer",
    "widgetalignment": 1,
    "zindex": 1
}