{
    "@class": "com.kony.gen.viz.model.component.KVizButton",
    "DNDConfig": null,
    "__parentReadjusting__": false,
    "_height_": {
        "type": "ref",
        "value": "preferred"
    },
    "_margin_": [
        6,
        6,
        6,
        6
    ],
    "_padding_": [
        0,
        0,
        0,
        0
    ],
    "_right_": {
        "type": "string",
        "value": "0px"
    },
    "_skin_": "seeb490046284502acebc5abf0188cb3",
    "_text_": "Remove All",
    "_top_": {
        "type": "string",
        "value": "0px"
    },
    "_width_": {
        "type": "ref",
        "value": "preferred"
    },
    "canUpdateUI": true,
    "containerweight": 100,
    "contentalignment": 4,
    "disabledSkins": {
        "focusSkin": "s7f2f74a970f479292ca6f87d281f8c3"
    },
    "displaytext": true,
    "id": "btnRemoveAll",
    "info": null,
    "isvisible": true,
    "kuid": "ea7563e2203a447bb3300d7feff92b51",
    "name": "kony.ui.Button",
    "parent": "flxSelectedOptions",
    "pf": "userwidgetmodel",
    "texti18n": "i18n.SelectedOptions.RemoveAll",
    "wType": "Button",
    "zindex": 1
}