{
    "@class": "com.kony.gen.viz.model.component.KVizRichText",
    "DNDConfig": null,
    "__parentReadjusting__": false,
    "_height_": {
        "type": "ref",
        "value": "preferred"
    },
    "_margin_": [
        0,
        0,
        0,
        0
    ],
    "_padding_": [
        0,
        0,
        0,
        0
    ],
    "_skin_": "s53dc044bbca444d9db68eee3dc9c9eb",
    "_text_": "No result found with the keyword \"Key Word\". <br>Try with another keyword",
    "_width_": {
        "type": "string",
        "value": "80%"
    },
    "_wrapping_": 2,
    "canUpdateUI": true,
    "centerx": {
        "type": "string",
        "value": "50%"
    },
    "centery": {
        "type": "string",
        "value": "50%"
    },
    "containerweight": 100,
    "contentalignment": 5,
    "id": "rtxAvailableOptionsMessage",
    "info": null,
    "isvisible": true,
    "kuid": "j8a13d797a62444bb8d412ba2b36b9f9",
    "name": "kony.ui.RichText",
    "parent": "flxAddOptionsSegment",
    "pf": "userwidgetmodel",
    "texti18n": "i18n.frmCSR.richtextNoResult",
    "wType": "RichText",
    "widgetalignment": 5,
    "zindex": 1
}