{
    "@class": "com.kony.gen.viz.model.component.KVizButton",
    "DNDConfig": null,
    "__parentReadjusting__": false,
    "_height_": {
        "type": "string",
        "value": "40px"
    },
    "_margin_": [
        6,
        6,
        6,
        6
    ],
    "_padding_": [
        3,
        0,
        3,
        0
    ],
    "_right_": {
        "type": "string",
        "value": "170px"
    },
    "_skin_": "s3fead79081947b1b06e45ac20ca46d4",
    "_text_": "BACK TO SEARCH",
    "_top_": {
        "type": "string",
        "value": "0%"
    },
    "_width_": {
        "type": "ref",
        "value": "preferred"
    },
    "canUpdateUI": true,
    "centery": {
        "type": "string",
        "value": "50%"
    },
    "containerweight": 100,
    "contentalignment": 5,
    "desktopweb": {
        "psp": {
            "hoverSkin": "sf0607ed109940678312f918794b5975"
        }
    },
    "displaytext": true,
    "focusskin": "s3fead79081947b1b06e45ac20ca46d4",
    "id": "btnPopUpCancel",
    "info": null,
    "isvisible": true,
    "kuid": "bb160dfffdad4aa1917bf4e1fc9e9454",
    "name": "kony.ui.Button",
    "paddinginpixel": false,
    "parent": "flxPopUpButtons",
    "pf": "userwidgetmodel",
    "wType": "Button",
    "zindex": 20
}