{
    "DNDConfig": null,
    "__parentReadjusting__": false,
    "_bottom_": {
        "type": "string",
        "value": "30px"
    },
    "_height_": {
        "type": "string",
        "value": "40px"
    },
    "_left_": {
        "type": "string",
        "value": "10px"
    },
    "_margin_": [
        0,
        0,
        0,
        0
    ],
    "_orientation_": 6,
    "_padding_": [
        0,
        0,
        0,
        0
    ],
    "_percent_": true,
    "_skin_": "s4bc8b5c4c2047ddaef077335b408893",
    "_top_": {
        "type": "string",
        "value": "5px"
    },
    "_width_": {
        "type": "string",
        "value": "180px"
    },
    "allboxes": [],
    "autogrowmode": 0,
    "canUpdateUI": true,
    "children": [
        "flxAttatcmentImage3",
        "flxFlagSeperator3",
        "flxAttachments3"
    ],
    "clipbounds": true,
    "containerId": true,
    "containerweight": 100,
    "enablescrolling": true,
    "id": "flxAttachment3",
    "info": null,
    "iscustomlayout": false,
    "isvisible": true,
    "kuid": "a4297ee523cf435e851ccfca071bf0cf",
    "layouttype": 3,
    "name": "kony.ui.FlexContainer",
    "parent": "flxAttachmnetWrapper",
    "pf": "segEmailDetails",
    "retaincontentalignment": false,
    "retainflexpositionproperties": false,
    "snapgridsize": 10,
    "snaptogrid": true,
    "wType": "FlexContainer",
    "widgetalignment": 1,
    "zindex": 1
}