{
    "@class": "com.kony.gen.viz.model.component.KVizRichText",
    "DNDConfig": null,
    "__parentReadjusting__": false,
    "_bottom_": {
        "type": "string",
        "value": "30px"
    },
    "_height_": {
        "type": "ref",
        "value": "preferred"
    },
    "_left_": {
        "type": "string",
        "value": "25dp"
    },
    "_margin_": [
        0,
        0,
        0,
        0
    ],
    "_padding_": [
        0,
        0,
        0,
        0
    ],
    "_right_": {
        "type": "string",
        "value": "35dp"
    },
    "_skin_": "s3ffd2c66e5248c1aeb5430fa3380ad3",
    "_text_": "Hi Team,<br>\n\n<br>\n\nLorem ipsum dolor sit amet, consectetur adipiscing elit. Maecenas sit amet turpis purus. Sed consectetur quam non est lacinia blandit. Nullam condimentum turpis metus, sed egestas ante sagittis ut. Nam bibendum lorem turpis, non venenatis dui imperdiet at. Donec quis dictum arcu. Nam varius est nec mattis sodales. Suspendisse ac leo sed dui interdum volutpat. Aliquam mollis ipsum ac purus vestibulum, vel viverra metus finibus. Lorem ipsum dolor sit amet, consectetur adipiscing elit. Phasellus vel lacus et quam consectetur accumsan.\n\n<br>\n<br>\nJohnathan Doe",
    "_top_": {
        "type": "string",
        "value": "50dp"
    },
    "_wrapping_": 2,
    "canUpdateUI": true,
    "containerId": true,
    "containerweight": 100,
    "contentalignment": 4,
    "id": "rtxMail",
    "info": null,
    "isvisible": true,
    "kuid": "g0a67b5c8a6f440ba3e23818313e6ae3",
    "name": "kony.ui.RichText",
    "parent": "flxMessage",
    "pf": "segEmailDetails",
    "wType": "RichText",
    "watchos": {
        "render": false
    },
    "widgetalignment": 5,
    "windows10": {
        "render": false
    },
    "winphone10": {
        "render": false
    },
    "zindex": 1
}