{
    "@class": "com.kony.gen.viz.model.component.KVizListBox",
    "DNDConfig": null,
    "__parentReadjusting__": false,
    "_height_": {
        "type": "string",
        "value": "30dp"
    },
    "_left_": {
        "type": "string",
        "value": "20dp"
    },
    "_margin_": [
        0,
        0,
        0,
        0
    ],
    "_padding_": [
        3,
        0,
        0,
        0
    ],
    "_placeholder_": "Please Select",
    "_skin_": "sf172fb41e5e4367a8dd3a164a2a68b1",
    "_top_": {
        "type": "string",
        "value": "15dp"
    },
    "_width_": {
        "type": "string",
        "value": "150dp"
    },
    "canUpdateUI": true,
    "containerId": true,
    "containerweight": 100,
    "contentalignment": 4,
    "focusskin": "s8e2b9bc59214798999099f19e4148ae",
    "groupcells": false,
    "id": "lstBoxSelectLanguage",
    "info": null,
    "iscustomlayout": false,
    "isvisible": false,
    "kiosk": {
        "psp": {
            "placeholder": "Select"
        }
    },
    "kuid": "ge64bdb3e16543bbb71413c5e431add8",
    "masterdata": [
        [
            "lb1",
            "English(US)"
        ],
        [
            "lb2",
            "English(UK)"
        ],
        [
            "lb3",
            "Spanish"
        ],
        [
            "lb4",
            "French"
        ],
        [
            "lb0",
            "Select"
        ]
    ],
    "name": "kony.ui.ListBox",
    "parent": "flxCategoryLanguage",
    "pf": "segAlertsCategoryLangData",
    "retaincontentalignment": false,
    "retainflexpositionproperties": false,
    "selectedkey": "lb0",
    "selectedkeys": null,
    "selectedkeyvalue": [
        "lb0",
        "Select"
    ],
    "selectedkeyvalues": null,
    "size": 18,
    "viewconfig": {
        "toggleViewConfig": {
            "viewStyle": 0
        }
    },
    "viewtype": 0,
    "wType": "ListBox",
    "zindex": 1
}