{
    "DNDConfig": null,
    "_height_": {
        "type": "ref",
        "value": "preferred"
    },
    "_margin_": [
        0,
        0,
        0,
        0
    ],
    "_orientation_": 6,
    "_padding_": [
        0,
        0,
        0,
        0
    ],
    "_percent_": true,
    "_skin_": "s094cf034ba74d778fe9c91095115ace",
    "allboxes": [],
    "autogrowmode": 1,
    "canUpdateUI": true,
    "children": [
        "flxCampaignCollapse",
        "flxCampaignExpand",
        "lblSeparator"
    ],
    "clipbounds": true,
    "containerId": true,
    "containerweight": 100,
    "controllerInfo": {
        "default": {
            "channel": "desktop",
            "name": "flxCampaignsController"
        }
    },
    "desktopweb": {
        "psp": {
            "hoverSkin": "s512ca636f844ef4aa81b2647c08ce24"
        }
    },
    "enablescrolling": true,
    "id": "flxCampaigns",
    "info": null,
    "isTemplate": true,
    "isvisible": true,
    "kuid": "e053bb7fc2d146aab13f0c29722fe4bf",
    "layouttype": 4,
    "name": "kony.ui.FlexContainer",
    "parent": "segCampaigns",
    "pf": "segCampaigns",
    "snapgridsize": 10,
    "snaptogrid": true,
    "wType": "FlexContainer",
    "widgetalignment": 1
}