{
    "DNDConfig": null,
    "__parentReadjusting__": false,
    "_height_": {
        "type": "ref",
        "value": "preferred"
    },
    "_left_": {
        "type": "string",
        "value": "1%"
    },
    "_margin_": [
        0,
        0,
        0,
        0
    ],
    "_orientation_": 6,
    "_padding_": [
        0,
        0,
        0,
        0
    ],
    "_percent_": true,
    "_skin_": "s8ff24328417401b877c3ceb2a5fa27c",
    "_top_": {
        "type": "string",
        "value": "18px"
    },
    "_width_": {
        "type": "string",
        "value": "16%"
    },
    "allboxes": [],
    "autogrowmode": 1,
    "canUpdateUI": true,
    "children": [
        "lblCustomerName",
        "lblDraft"
    ],
    "clipbounds": true,
    "containerId": true,
    "containerweight": 100,
    "desktopweb": {
        "psp": {}
    },
    "disabledSkins": {
        "hoverSkin": "scd6759b91984d0791be140ca44627a3"
    },
    "enablescrolling": true,
    "id": "flxUserName",
    "ide_onClick": "AS_FlexContainer_a3ab7b9f4fbb49bfb050ba644d5f88b4",
    "info": null,
    "isvisible": true,
    "kuid": "ebd42be6d59a4da788ad9e5fc1c82c97",
    "layouttype": 3,
    "name": "kony.ui.FlexContainer",
    "parent": "flxMsgSegMain",
    "pf": "segCSRMsgList",
    "snapgridsize": 10,
    "snaptogrid": true,
    "wType": "FlexContainer",
    "widgetalignment": 1,
    "zindex": 2
}